<?xml version="1.0" encoding="UTF-8" standalone="no"?>
<svg
   xmlns:dc="http://purl.org/dc/elements/1.1/"
   xmlns:cc="http://creativecommons.org/ns#"
   xmlns:rdf="http://www.w3.org/1999/02/22-rdf-syntax-ns#"
   xmlns:svg="http://www.w3.org/2000/svg"
   xmlns="http://www.w3.org/2000/svg"
   xmlns:xlink="http://www.w3.org/1999/xlink"
   xmlns:sodipodi="http://sodipodi.sourceforge.net/DTD/sodipodi-0.dtd"
   xmlns:inkscape="http://www.inkscape.org/namespaces/inkscape"
   sodipodi:docname="E24P05.svg"
   height="3503"
   width="2481"
   inkscape:version="1.0 (4035a4fb49, 2020-05-01)"
   version="1.1"
   id="svg2">
  <metadata
     id="metadata8">
    <rdf:RDF>
      <cc:Work
         rdf:about="">
        <dc:format>image/svg+xml</dc:format>
        <dc:type
           rdf:resource="http://purl.org/dc/dcmitype/StillImage" />
        <dc:title />
      </cc:Work>
    </rdf:RDF>
  </metadata>
  <defs
     id="defs6">
    <filter
       inkscape:label="Drop Shadow"
       id="filter4375-4-1-1-1-9-5-8-0-9"
       style="color-interpolation-filters:sRGB">
      <feFlood
         result="flood"
         flood-color="rgb(200,55,55)"
         flood-opacity="1"
         id="feFlood4377-7-9-0-8-1-7-3-9-2" />
      <feComposite
         result="composite1"
         operator="in"
         in="flood"
         in2="SourceGraphic"
         id="feComposite4379-3-8-8-2-77-4-1-3-2" />
      <feMorphology
         result="result3"
         radius="6.2000000000000002"
         operator="dilate"
         id="feMorphology4393-1-0-49-8-9-3-0-6-8" />
      <feComposite
         result="fbSourceGraphic"
         operator="over"
         in="SourceGraphic"
         in2="result3"
         id="feComposite4385-9-5-7-0-8-8-7-0-9" />
      <feColorMatrix
         id="feColorMatrix4544-6-7"
         values="0 0 0 -1 0 0 0 0 -1 0 0 0 0 -1 0 0 0 0 1 0"
         in="fbSourceGraphic"
         result="fbSourceGraphicAlpha" />
      <feTurbulence
         result="turbulence"
         baseFrequency="0.129 0.0050000000000000001"
         seed="37"
         numOctaves="3"
         type="fractalNoise"
         id="feTurbulence4546-2-3" />
      <feDisplacementMap
         result="fbSourceGraphic"
         xChannelSelector="R"
         yChannelSelector="G"
         scale="6.6"
         in="fbSourceGraphic"
         in2="turbulence"
         id="feDisplacementMap4548-6-6" />
      <feColorMatrix
         id="feColorMatrix4670-1-1"
         values="0 0 0 -1 0 0 0 0 -1 0 0 0 0 -1 0 0 0 0 1 0"
         in="fbSourceGraphic"
         result="fbSourceGraphicAlpha" />
      <feFlood
         in="fbSourceGraphic"
         result="flood"
         flood-color="rgb(80,22,22)"
         flood-opacity="1"
         id="feFlood4672-8-2" />
      <feComposite
         result="composite1"
         operator="in"
         in="flood"
         in2="fbSourceGraphic"
         id="feComposite4674-7-9" />
      <feGaussianBlur
         result="blur"
         stdDeviation="0"
         in="composite1"
         id="feGaussianBlur4676-9-3" />
      <feOffset
         result="offset"
         dy="6"
         dx="6"
         id="feOffset4678-2-1" />
      <feComposite
         result="composite2"
         operator="over"
         in="fbSourceGraphic"
         in2="offset"
         id="feComposite4680-0-9" />
    </filter>
    <filter
       inkscape:label="Drop Shadow"
       id="filter4375-4-1-1-1-9-5-8"
       style="color-interpolation-filters:sRGB">
      <feFlood
         result="flood"
         flood-color="rgb(200,55,55)"
         flood-opacity="1"
         id="feFlood4377-7-9-0-8-1-7-3" />
      <feComposite
         result="composite1"
         operator="in"
         in="flood"
         in2="SourceGraphic"
         id="feComposite4379-3-8-8-2-77-4-1" />
      <feMorphology
         result="result3"
         radius="6.2000000000000002"
         operator="dilate"
         id="feMorphology4393-1-0-49-8-9-3-0" />
      <feComposite
         result="fbSourceGraphic"
         operator="over"
         in="SourceGraphic"
         in2="result3"
         id="feComposite4385-9-5-7-0-8-8-7" />
      <feColorMatrix
         id="feColorMatrix4544"
         values="0 0 0 -1 0 0 0 0 -1 0 0 0 0 -1 0 0 0 0 1 0"
         in="fbSourceGraphic"
         result="fbSourceGraphicAlpha" />
      <feTurbulence
         result="turbulence"
         baseFrequency="0.129 0.0050000000000000001"
         seed="37"
         numOctaves="3"
         type="fractalNoise"
         id="feTurbulence4546" />
      <feDisplacementMap
         result="fbSourceGraphic"
         xChannelSelector="R"
         yChannelSelector="G"
         scale="6.6"
         in="fbSourceGraphic"
         in2="turbulence"
         id="feDisplacementMap4548" />
      <feColorMatrix
         id="feColorMatrix4670"
         values="0 0 0 -1 0 0 0 0 -1 0 0 0 0 -1 0 0 0 0 1 0"
         in="fbSourceGraphic"
         result="fbSourceGraphicAlpha" />
      <feFlood
         in="fbSourceGraphic"
         result="flood"
         flood-color="rgb(80,22,22)"
         flood-opacity="1"
         id="feFlood4672" />
      <feComposite
         result="composite1"
         operator="in"
         in="flood"
         in2="fbSourceGraphic"
         id="feComposite4674" />
      <feGaussianBlur
         result="blur"
         stdDeviation="0"
         in="composite1"
         id="feGaussianBlur4676" />
      <feOffset
         result="offset"
         dy="6"
         dx="6"
         id="feOffset4678" />
      <feComposite
         result="composite2"
         operator="over"
         in="fbSourceGraphic"
         in2="offset"
         id="feComposite4680" />
    </filter>
    <filter
       height="1.0091056"
       y="-0.0045528179"
       width="1.0031157"
       x="-0.0015578248"
       id="filter4210"
       style="color-interpolation-filters:sRGB"
       inkscape:collect="always">
      <feGaussianBlur
         id="feGaussianBlur4212"
         stdDeviation="0.2079876"
         inkscape:collect="always" />
    </filter>
  </defs>
  <sodipodi:namedview
     inkscape:document-rotation="0"
     inkscape:snap-global="false"
     inkscape:current-layer="layer3"
     inkscape:window-maximized="1"
     inkscape:window-y="27"
     inkscape:window-x="0"
     inkscape:cy="2523.2738"
     inkscape:cx="1113.4787"
     inkscape:zoom="0.38663296"
     showgrid="false"
     id="namedview4"
     inkscape:window-height="1029"
     inkscape:window-width="1920"
     inkscape:pageshadow="2"
     inkscape:pageopacity="0"
     guidetolerance="10"
     gridtolerance="10"
     objecttolerance="10"
     borderopacity="1"
     bordercolor="#666666"
     pagecolor="#ffffff" />
  <g
     sodipodi:insensitive="true"
     inkscape:label="artwork"
     id="layer2"
     inkscape:groupmode="layer">
    <image
       sodipodi:absref="C:\Users\stero\Documents\Kernewek\Pepper and Carrot\webcomics\ep24_The-Unity-Tree\lang\gfx_Pepper-and-Carrot_by-David-Revoy_E24P05.png"
       xlink:href="../gfx_Pepper-and-Carrot_by-David-Revoy_E24P05.png"
       y="0"
       x="0"
       id="image10"
       height="3503"
       width="2481" />
  </g>
  <g
     style="display:inline"
     inkscape:label="speechbubbles"
     id="layer3"
     inkscape:groupmode="layer">
    <path
       sodipodi:nodetypes="cssssc"
       inkscape:connector-curvature="0"
       id="path4546-6"
       d="m 978.20827,203.32288 c 9.6337,-59.75433 90.43723,-101.42305 293.83003,-84.4803 108.9481,9.07539 232.816,16.48394 219.9711,104.05507 -12.8451,87.57103 -191.0698,80.35935 -227.9992,81.38959 -36.9295,1.03035 -228.1926,-13.50397 -260.1118,-44.30074 -19.98065,-19.27795 -27.29574,-38.11909 -25.69013,-56.66362 z"
       style="color:#000000;display:inline;overflow:visible;visibility:visible;fill:#ffffff;fill-opacity:1;fill-rule:nonzero;stroke:none;stroke-width:0.99999994px;marker:none;enable-background:accumulate" />
    <path
       sodipodi:nodetypes="cssssc"
       inkscape:connector-curvature="0"
       id="path4546-6-5"
       d="m 976.97199,401.08605 c 9.65084,-97.44102 90.59921,-165.38997 294.35671,-137.76154 109.1435,14.79919 233.2334,26.88028 220.3655,169.68202 -12.8681,142.80158 -191.4122,131.04154 -228.4078,132.72155 -36.996,1.6802 -228.6019,-22.02083 -260.5783,-72.24095 -20.01643,-31.43647 -27.3446,-62.1606 -25.73611,-92.40108 z"
       style="color:#000000;display:inline;overflow:visible;visibility:visible;fill:#ffffff;fill-opacity:1;fill-rule:nonzero;stroke:none;stroke-width:1.37816px;marker:none;enable-background:accumulate" />
    <path
       sodipodi:nodetypes="csssc"
       inkscape:connector-curvature="0"
       id="path3280"
       d="m 116.68871,2316.7158 c -0.80271,-18.6867 25.10278,-70.3849 136.13432,-64.4369 111.03155,5.948 145.29554,27.2341 147.72023,60.4716 3.83579,52.5808 -54.97587,65.3212 -139.01641,67.3683 -86.6367,2.1104 -140.10007,-16.1383 -144.83814,-63.403 z"
       style="fill:#ffffff;stroke:none;stroke-width:1" />
    <path
       sodipodi:nodetypes="csssc"
       inkscape:connector-curvature="0"
       id="path3280-5"
       d="m 84.088588,2571.7171 c -1.187425,-67.0641 37.133852,-252.6023 201.379742,-231.2557 164.24589,21.3466 216.26253,97.7063 218.51844,217.0248 3.52669,186.5318 4.57589,267.038 -261.47824,259.1674 -128.3227,-3.7961 -151.411046,-75.3096 -158.419942,-244.9365 z"
       style="fill:#ffffff;stroke:none;stroke-width:0.993908" />
    <path
       sodipodi:nodetypes="csssc"
       inkscape:connector-curvature="0"
       id="path3280-5-9"
       d="m 100.15694,2938.8351 c -1.060487,-46.4421 33.16389,-174.9274 179.85034,-160.1449 146.68646,14.7825 193.14204,67.6618 195.15676,150.2899 3.14964,129.1736 4.08669,184.9242 -233.52374,179.4737 -114.60379,-2.6288 -135.22378,-52.1519 -141.48336,-169.6187 z"
       style="fill:#ffffff;stroke:none;stroke-width:1.13509" />
    <path
       inkscape:connector-curvature="0"
       id="path4456"
       d="m 565.25207,2833.9184 c -14.75738,52.3452 -33.97784,59.8163 -47.29721,66.911 -2.99609,-4.2927 -9.494,-10.7643 -9.494,-10.7643 0,0 -25.03044,16.8093 -36.39159,19.4555 -11.36113,2.6461 -15.10988,-13.4489 -15.10988,-13.4489 0,0 47.94685,-34.1242 56.37661,-45.0707 7.82099,12.1521 12.93111,16.9506 14.25419,22.6311 8.74137,-1.0378 31.94301,-21.4136 37.66188,-39.7137 z"
       style="color:#000000;display:inline;overflow:visible;visibility:visible;fill:#ffffff;fill-opacity:1;fill-rule:nonzero;stroke:none;stroke-width:1px;marker:none;enable-background:accumulate" />
    <path
       sodipodi:nodetypes="csssc"
       inkscape:connector-curvature="0"
       id="path3280-8"
       d="m 1383.0681,2410.8677 c -2.2695,-28.1089 38.4236,-98.4765 236.9227,-93.1836 198.4993,5.2928 260.6264,36.2115 266.4434,86.175 9.2018,79.0407 -95.2283,100.1631 -245.1807,106.0176 -154.5846,6.0354 -260.5844,-48.2208 -258.1854,-99.009 z"
       style="fill:#ffffff;stroke:none;stroke-width:1.13276" />
    <path
       sodipodi:nodetypes="csssc"
       inkscape:connector-curvature="0"
       id="path3280-8-2"
       d="m 1438.3588,2595.7438 c -2.9748,-39.3366 50.3622,-137.8113 310.5384,-130.4042 260.1761,7.4069 350.9265,22.6971 361.6017,120.596 14.0326,128.6899 -137.1874,128.073 -333.7325,136.266 -242.8754,10.1243 -341.9086,-47.3295 -338.4076,-126.4578 z"
       style="fill:#ffffff;stroke:none;stroke-width:1.07251" />
    <path
       sodipodi:nodetypes="csccscccccccc"
       inkscape:connector-curvature="0"
       id="path5050"
       d="m 1737.0918,2693.1341 c 14.3116,13.119 20.5898,27.3224 21.7824,31.4966 1.1926,4.1742 -2.1039,30.5204 2.0703,35.291 4.1742,4.7705 19.6785,5.3668 21.4675,8.9448 1.7889,3.5779 -3.5779,22.0637 0,25.6416 3.5779,3.5779 28.6232,13.119 29.8159,16.1006 1.1926,2.9816 7.7521,19.0822 19.6784,31.6048 -11.33,-31.6048 -7.7521,-38.1643 -11.9263,-42.9348 -4.1742,-4.7706 -15.9274,-10.1807 -18.3127,-15.5476 -2.3853,-5.3668 6.711,-25.7283 0.086,-28.0269 -4.7705,-4.7705 -19.8083,-10.2673 -19.8083,-10.2673 4.1743,-4.7706 18.356,-27.8538 -1.3225,-55.8807 -19.6785,-28.027 -43.5312,3.5779 -43.5312,3.5779 z"
       style="color:#000000;display:inline;overflow:visible;visibility:visible;fill:#ffffff;fill-opacity:1;fill-rule:nonzero;stroke:none;stroke-width:1px;marker:none;enable-background:accumulate" />
    <path
       inkscape:connector-curvature="0"
       id="path3525"
       d="m 1389.7306,3196.4767 c -8.9008,-36.2367 14.835,-132.49 197.3068,-124.5631 182.4715,7.9266 212.1419,53.2224 216.5921,66.811 4.4507,13.5887 43.022,90.5914 -99.3949,110.9743 -142.417,20.3831 -269.9986,-1.1323 -314.504,-53.2222 z"
       style="color:#000000;display:inline;overflow:visible;visibility:visible;fill:#ffffff;fill-opacity:1;fill-rule:nonzero;stroke:none;stroke-width:1.16112px;marker:none;enable-background:accumulate" />
    <path
       inkscape:connector-curvature="0"
       id="path3072"
       d="m 1521.1262,2992.5987 c 33.2903,23.3636 43.828,33.546 35.1984,80.134 -8.6298,46.5881 8.6927,49.3554 8.6927,49.3554 l 21.9577,-23.5027 c 0,0 11.5093,-100.6144 -65.8488,-105.9867 z"
       style="color:#000000;display:inline;overflow:visible;visibility:visible;fill:#ffffff;fill-opacity:1;fill-rule:nonzero;stroke:none;stroke-width:1px;marker:none;enable-background:accumulate" />
    <path
       sodipodi:nodetypes="cssssc"
       inkscape:connector-curvature="0"
       id="path4546-6-5-3"
       d="m 1753.7339,373.49021 c 11.7053,-82.11681 107.9872,-154.17374 355.1215,-130.89035 132.3786,12.47177 294.2793,32.51564 278.672,152.85942 -15.6075,120.34364 -241.6559,102.2141 -286.5273,103.62989 -44.8719,1.41597 -277.2676,-5.40735 -316.0513,-47.72952 -24.2775,-26.49255 -33.1658,-52.38479 -31.2149,-77.86944 z"
       style="color:#000000;display:inline;overflow:visible;visibility:visible;fill:#ffffff;fill-opacity:1;fill-rule:nonzero;stroke:none;stroke-width:1.44357px;marker:none;enable-background:accumulate" />
    <path
       sodipodi:nodetypes="cscccc"
       inkscape:connector-curvature="0"
       id="path3063-1-6"
       d="m 1964.7967,668.73184 c 51.4934,-25.05742 101.3335,-84.50569 87.939,-140.05224 -8.1157,-33.6558 -17.2505,-51.47851 -17.2505,-51.47851 l 37.7708,-2.39424 11.5884,36.59761 c 0,0 3.2849,108.24957 -120.0477,157.32738 z"
       style="display:inline;fill:#ffffff;stroke:none;stroke-width:1" />
    <path
       sodipodi:nodetypes="csccc"
       inkscape:connector-curvature="0"
       id="path3063-1"
       d="m 1251.2541,685.09232 c -48.6175,-23.27518 -83.2149,-109.49172 -49.7683,-157.70546 19.7334,-28.44595 29.6777,-45.4626 29.6777,-45.4626 l -35.9455,-11.84422 c -83.024,107.75331 -0.6527,193.21215 56.0361,215.01228 z"
       style="display:inline;fill:#ffffff;stroke:none;stroke-width:0.99999994" />
  </g>
  <g
     style="display:inline"
     inkscape:label="txt"
     id="layer1"
     inkscape:groupmode="layer">
    <text
       transform="matrix(0.83434398,-0.14790328,-0.40858731,0.88612324,531.23181,-1091.7696)"
       id="text4580-6-0-2-4"
       y="1584.5073"
       x="787.65729"
       style="font-style:normal;font-variant:normal;font-weight:normal;font-stretch:normal;line-height:0%;font-family:Lavi;-inkscape-font-specification:Lavi;letter-spacing:0px;word-spacing:0px;fill:#ffffff;fill-opacity:1;stroke:#c83737;stroke-width:0.992362;stroke-miterlimit:4;stroke-dasharray:none;stroke-opacity:1;filter:url(#filter4375-4-1-1-1-9-5-8-0-9)"
       xml:space="preserve"><tspan
         style="font-size:70px;line-height:1.25;fill:#ffffff;fill-opacity:1;stroke:#c83737;stroke-opacity:1"
         y="1584.5073"
         x="787.65729"
         id="tspan4582-1-1-3-7"
         sodipodi:role="line"><tspan
           id="tspan4315-8-7-8"
           style="font-size:93.1495px;fill:#ffffff;fill-opacity:1;stroke:#c83737;stroke-opacity:1">Plouum!</tspan><tspan
           id="tspan4313-2-5-4"
           style="font-size:114.732px;fill:#ffffff;fill-opacity:1;stroke:#c83737;stroke-opacity:1">!</tspan></tspan></text>
    <text
       id="text4246"
       y="341.46378"
       x="1239.6572"
       style="font-style:normal;font-variant:normal;font-weight:normal;font-stretch:normal;line-height:0%;font-family:Lavi;-inkscape-font-specification:Lavi;text-align:center;letter-spacing:0px;word-spacing:0px;text-anchor:middle;fill:#000000;fill-opacity:1;stroke:none"
       xml:space="preserve"><tspan
         id="tspan91"
         y="341.46378"
         x="1239.6572"
         style="font-size:45px;line-height:1.25"
         sodipodi:role="line">Ny welav kaletter</tspan><tspan
         id="tspan117"
         y="397.71378"
         x="1239.6572"
         style="font-size:45px;line-height:1.25"
         sodipodi:role="line">vyth dhe dhri an</tspan><tspan
         id="tspan119"
         y="453.96378"
         x="1239.6572"
         style="font-size:45px;line-height:1.25"
         sodipodi:role="line">wedhen ma mes a'n </tspan><tspan
         id="tspan125"
         y="510.21378"
         x="1239.6572"
         style="font-size:45px;line-height:1.25"
         sodipodi:role="line">korrvyns ma.</tspan></text>
    <text
       id="text4246-7"
       y="188.79892"
       x="1232.4897"
       style="font-style:normal;font-variant:normal;font-weight:normal;font-stretch:normal;line-height:0%;font-family:Lavi;-inkscape-font-specification:Lavi;text-align:center;letter-spacing:0px;word-spacing:0px;text-anchor:middle;fill:#000000;fill-opacity:1;stroke:none"
       xml:space="preserve"><tspan
         id="tspan906"
         y="188.79892"
         x="1232.4897"
         style="font-size:45px;line-height:1.25"
         sodipodi:role="line">Ytho! Brashes yw! </tspan><tspan
         id="tspan106"
         y="245.04892"
         x="1232.4897"
         style="font-size:45px;line-height:1.25"
         sodipodi:role="line">Perfydh yw lemmyn.</tspan></text>
    <text
       id="text4246-7-6"
       y="2326.1411"
       x="263.42697"
       style="font-style:normal;font-variant:normal;font-weight:normal;font-stretch:normal;line-height:0%;font-family:Lavi;-inkscape-font-specification:Lavi;text-align:center;letter-spacing:0px;word-spacing:0px;text-anchor:middle;fill:#000000;fill-opacity:1;stroke:none"
       xml:space="preserve"><tspan
         id="tspan906-9"
         y="2326.1411"
         x="263.42697"
         style="font-size:45px;line-height:1.25"
         sodipodi:role="line">Ytho,</tspan></text>
    <text
       id="text4246-7-6-1"
       y="2424.4778"
       x="292.66428"
       style="font-style:normal;font-variant:normal;font-weight:normal;font-stretch:normal;line-height:0%;font-family:Lavi;-inkscape-font-specification:Lavi;text-align:center;letter-spacing:0px;word-spacing:0px;text-anchor:middle;fill:#000000;fill-opacity:1;stroke:none"
       xml:space="preserve"><tspan
         id="tspan1198"
         y="2424.4778"
         x="292.66428"
         style="font-size:45px;line-height:1.25"
         sodipodi:role="line">prys yw dhe</tspan><tspan
         id="tspan181"
         y="2480.7278"
         x="292.66428"
         style="font-size:45px;line-height:1.25"
         sodipodi:role="line">dhispletya an</tspan><tspan
         id="tspan183"
         y="2536.9778"
         x="292.66428"
         style="font-size:45px;line-height:1.25"
         sodipodi:role="line">korrvyns ma yn </tspan><tspan
         id="tspan177"
         y="2593.2278"
         x="292.66428"
         style="font-size:45px;line-height:1.25"
         sodipodi:role="line">gwirvos ha </tspan><tspan
         id="tspan191"
         y="2649.4778"
         x="292.66428"
         style="font-size:45px;line-height:1.25"
         sodipodi:role="line">diskwedhes dhedha</tspan><tspan
         id="tspan179"
         y="2705.7278"
         x="292.66428"
         style="font-size:45px;line-height:1.25"
         sodipodi:role="line">fatel yll Chaosah</tspan><tspan
         id="tspan193"
         y="2761.9778"
         x="292.66428"
         style="font-size:45px;line-height:1.25"
         sodipodi:role="line">bos awenek!</tspan></text>
    <text
       transform="matrix(0.84200562,-0.09503576,-0.46361166,0.85861645,1426.8384,990.64508)"
       id="text4580-6-0"
       y="1584.5073"
       x="787.65729"
       style="font-style:normal;font-variant:normal;font-weight:normal;font-stretch:normal;line-height:0%;font-family:Lavi;-inkscape-font-specification:Lavi;letter-spacing:0px;word-spacing:0px;fill:#ffffff;fill-opacity:1;stroke:#c83737;stroke-width:0.992362;stroke-miterlimit:4;stroke-dasharray:none;stroke-opacity:1;filter:url(#filter4375-4-1-1-1-9-5-8)"
       xml:space="preserve"><tspan
         style="font-size:70px;line-height:1.25;fill:#ffffff;fill-opacity:1;stroke:#c83737;stroke-opacity:1"
         y="1584.5073"
         x="787.65729"
         id="tspan4582-1-1"
         sodipodi:role="line"><tspan
           id="tspan4315-8"
           style="font-size:93.1495px;fill:#ffffff;fill-opacity:1;stroke:#c83737;stroke-opacity:1">DOuuung!</tspan><tspan
           id="tspan4313-2"
           style="font-size:114.732px;fill:#ffffff;fill-opacity:1;stroke:#c83737;stroke-opacity:1">!</tspan></tspan></text>
    <text
       id="text4246-7-6-1-7"
       y="2390.0623"
       x="1637.5579"
       style="font-style:normal;font-variant:normal;font-weight:normal;font-stretch:normal;line-height:0%;font-family:Lavi;-inkscape-font-specification:Lavi;text-align:center;letter-spacing:0px;word-spacing:0px;text-anchor:middle;fill:#000000;fill-opacity:1;stroke:none"
       xml:space="preserve"><tspan
         id="tspan1076"
         y="2390.0623"
         x="1637.5579"
         style="font-size:45px;line-height:1.25"
         sodipodi:role="line">Mmm...</tspan><tspan
         id="tspan1080"
         y="2446.3123"
         x="1637.5579"
         style="font-size:45px;line-height:1.25"
         sodipodi:role="line">Dehwelys yw Pepper.</tspan></text>
    <text
       id="text4246-7-6-1-7-6"
       y="2554.6619"
       x="1777.2721"
       style="font-style:normal;font-variant:normal;font-weight:normal;font-stretch:normal;line-height:0%;font-family:Lavi;-inkscape-font-specification:Lavi;text-align:center;letter-spacing:0px;word-spacing:0px;text-anchor:middle;fill:#000000;fill-opacity:1;stroke:none"
       xml:space="preserve"><tspan
         id="tspan1111"
         y="2554.6619"
         x="1777.2721"
         style="font-size:45px;line-height:1.25"
         sodipodi:role="line">Gwrys yn ta, Cayenne.</tspan><tspan
         id="tspan223"
         y="2610.9119"
         x="1777.2721"
         style="font-size:45px;line-height:1.25"
         sodipodi:role="line">Yma dha vethodys adhyskansel</tspan><tspan
         id="tspan225"
         y="2667.1619"
         x="1777.2721"
         style="font-size:45px;line-height:1.25"
         sodipodi:role="line">ow seweni wortiwedh.</tspan></text>
    <text
       id="text4246-7-6-1-7-1"
       y="3140.4451"
       x="1606.0908"
       style="font-style:normal;font-variant:normal;font-weight:normal;font-stretch:normal;line-height:0%;font-family:Lavi;-inkscape-font-specification:Lavi;text-align:center;letter-spacing:0px;word-spacing:0px;text-anchor:middle;fill:#000000;fill-opacity:1;stroke:none"
       xml:space="preserve"><tspan
         id="tspan89"
         y="3140.4451"
         x="1606.0908"
         style="font-size:45px;line-height:1.25"
         sodipodi:role="line">Meur ras,</tspan><tspan
         id="tspan234"
         y="3196.6951"
         x="1606.0908"
         style="font-size:45px;line-height:1.25"
         sodipodi:role="line">penndhyskadores.</tspan><tspan
         id="tspan1136"
         y="3215.2021"
         x="1606.0908"
         sodipodi:role="line" /></text>
    <text
       id="text4246-7-6-1-9"
       y="2902.2312"
       x="295.64502"
       style="font-style:normal;font-variant:normal;font-weight:normal;font-stretch:normal;line-height:0%;font-family:Lavi;-inkscape-font-specification:Lavi;text-align:center;letter-spacing:0px;word-spacing:0px;text-anchor:middle;fill:#000000;fill-opacity:1;stroke:none"
       xml:space="preserve"><tspan
         id="tspan1186"
         y="2902.2312"
         x="295.64502"
         style="font-size:45px;line-height:1.25"
         sodipodi:role="line">Ny allav gortos </tspan><tspan
         id="tspan212"
         y="2958.4812"
         x="295.64502"
         style="font-size:45px;line-height:1.25"
         sodipodi:role="line">ha gweles an </tspan><tspan
         id="tspan214"
         y="3014.7312"
         x="295.64502"
         style="font-size:45px;line-height:1.25"
         sodipodi:role="line">golok orth </tspan><tspan
         id="tspan216"
         y="3070.9812"
         x="295.64502"
         style="font-size:45px;line-height:1.25"
         sodipodi:role="line">aga bejeth!</tspan></text>
    <text
       transform="matrix(0.63179135,-0.09563029,0.03930404,0.666392,431.41606,2450.8071)"
       id="text4246-5"
       y="1085.962"
       x="1174.0292"
       style="font-style:normal;font-variant:normal;font-weight:normal;font-stretch:normal;line-height:0%;font-family:Lavi;-inkscape-font-specification:Lavi;text-align:center;letter-spacing:0px;word-spacing:0px;text-anchor:middle;display:inline;opacity:0.358;fill:#000000;fill-opacity:1;stroke:none;stroke-width:1.3823;filter:url(#filter4210)"
       xml:space="preserve"><tspan
         id="tspan4217"
         y="1085.962"
         x="1174.0292"
         style="font-style:normal;font-variant:normal;font-weight:normal;font-stretch:normal;font-size:45.0081px;line-height:1.25;font-family:Fondamento;-inkscape-font-specification:Fondamento;stroke:#000000;stroke-width:4.69087;stroke-miterlimit:4;stroke-dasharray:none;stroke-opacity:1"
         sodipodi:role="line">An KOMONEK</tspan><tspan
         id="tspan4207"
         y="1142.2222"
         x="1174.0292"
         style="font-style:normal;font-variant:normal;font-weight:normal;font-stretch:normal;font-size:45.0081px;line-height:1.25;font-family:Fondamento;-inkscape-font-specification:Fondamento;stroke:#000000;stroke-width:4.69087;stroke-miterlimit:4;stroke-dasharray:none;stroke-opacity:1"
         sodipodi:role="line"> </tspan><tspan
         id="tspan4209"
         y="1198.4823"
         x="1179.5233"
         style="font-style:normal;font-variant:normal;font-weight:normal;font-stretch:normal;font-size:45.0081px;line-height:1.25;font-family:Fondamento;-inkscape-font-specification:Fondamento;stroke:#000000;stroke-width:4.69087;stroke-miterlimit:4;stroke-dasharray:none;stroke-opacity:1"
         sodipodi:role="line"> </tspan></text>
    <text
       id="text4246-75"
       y="338.88214"
       x="2080.1846"
       style="font-style:normal;font-variant:normal;font-weight:normal;font-stretch:normal;line-height:0%;font-family:Lavi;-inkscape-font-specification:Lavi;text-align:center;letter-spacing:0px;word-spacing:0px;text-anchor:middle;fill:#000000;fill-opacity:1;stroke:none"
       xml:space="preserve"><tspan
         id="tspan132"
         y="338.88214"
         x="2080.1846"
         style="font-size:45px;line-height:1.25"
         sodipodi:role="line">Nyns yw marnas Gwedhen</tspan><tspan
         id="tspan134"
         y="395.13214"
         x="2080.1846"
         style="font-size:45px;line-height:1.25"
         sodipodi:role="line">Unyans; nyns yw haval</tspan><tspan
         id="tspan136"
         y="451.38214"
         x="2080.1846"
         style="font-size:45px;line-height:1.25"
         sodipodi:role="line">orth &quot;Hus a Dhiswrians&quot;.</tspan></text>
  </g>
</svg>
