<?xml version="1.0" encoding="UTF-8" standalone="no"?>
<!-- Created with Inkscape (http://www.inkscape.org/) -->

<svg
   xmlns:dc="http://purl.org/dc/elements/1.1/"
   xmlns:cc="http://creativecommons.org/ns#"
   xmlns:rdf="http://www.w3.org/1999/02/22-rdf-syntax-ns#"
   xmlns:svg="http://www.w3.org/2000/svg"
   xmlns="http://www.w3.org/2000/svg"
   xmlns:xlink="http://www.w3.org/1999/xlink"
   xmlns:sodipodi="http://sodipodi.sourceforge.net/DTD/sodipodi-0.dtd"
   xmlns:inkscape="http://www.inkscape.org/namespaces/inkscape"
   id="svg2"
   version="1.1"
   inkscape:version="0.92.2 (5c3e80d, 2017-08-06)"
   width="2481"
   height="3503"
   sodipodi:docname="Pepper-and-Carrot_by-David-Revoy_E17P02.svg"
   enable-background="new"
   inkscape:export-filename="E:\Users\jamesmichael\Downloads\Compressed\eps\peppercarrot_ep17_translation-master\peppercarrot_ep17_translation-master\ph\Pepper-and-Carrot_by-David-Revoy_E17P02.png"
   inkscape:export-xdpi="98.181801"
   inkscape:export-ydpi="98.181801">
  <metadata
     id="metadata8">
    <rdf:RDF>
      <cc:Work
         rdf:about="">
        <dc:format>image/svg+xml</dc:format>
        <dc:type
           rdf:resource="http://purl.org/dc/dcmitype/StillImage" />
        <dc:title />
      </cc:Work>
    </rdf:RDF>
  </metadata>
  <defs
     id="defs6">
    <filter
       style="color-interpolation-filters:sRGB;"
       id="filter4375-4-1-1-1-9-5"
       inkscape:label="Drop Shadow"
       x="-0.026517498"
       width="1.053035"
       y="-0.039696589"
       height="1.0793932">
      <feFlood
         id="feFlood4377-7-9-0-8-1-7"
         flood-opacity="1"
         flood-color="rgb(108,125,133)"
         result="flood" />
      <feComposite
         id="feComposite4379-3-8-8-2-77-4"
         in2="SourceGraphic"
         in="flood"
         operator="in"
         result="composite1" />
      <feMorphology
         id="feMorphology4393-1-0-49-8-9-3"
         operator="dilate"
         radius="6.2000000000000002"
         result="result3" />
      <feComposite
         id="feComposite4385-9-5-7-0-8-8"
         in2="result3"
         in="SourceGraphic"
         operator="over"
         result="fbSourceGraphic" />
      <feColorMatrix
         result="fbSourceGraphicAlpha"
         in="fbSourceGraphic"
         values="0 0 0 -1 0 0 0 0 -1 0 0 0 0 -1 0 0 0 0 1 0"
         id="feColorMatrix4544" />
      <feTurbulence
         id="feTurbulence4546"
         type="fractalNoise"
         numOctaves="3"
         seed="37"
         baseFrequency="0.129 0.0050000000000000001"
         result="turbulence"
         in="fbSourceGraphic" />
      <feDisplacementMap
         id="feDisplacementMap4548"
         in2="turbulence"
         in="fbSourceGraphic"
         scale="6.6"
         yChannelSelector="G"
         xChannelSelector="R"
         result="fbSourceGraphic" />
      <feColorMatrix
         result="fbSourceGraphicAlpha"
         in="fbSourceGraphic"
         values="0 0 0 -1 0 0 0 0 -1 0 0 0 0 -1 0 0 0 0 1 0"
         id="feColorMatrix4670" />
      <feFlood
         id="feFlood4672"
         flood-opacity="1"
         flood-color="rgb(17,52,65)"
         result="flood"
         in="fbSourceGraphic" />
      <feComposite
         id="feComposite4674"
         in2="fbSourceGraphic"
         in="flood"
         operator="in"
         result="composite1" />
      <feGaussianBlur
         id="feGaussianBlur4676"
         in="composite1"
         stdDeviation="9.5189423"
         result="blur" />
      <feOffset
         id="feOffset4678"
         dx="6"
         dy="6"
         result="offset" />
      <feComposite
         id="feComposite4680"
         in2="offset"
         in="fbSourceGraphic"
         operator="over"
         result="composite2" />
    </filter>
    <filter
       inkscape:label="Drop Shadow"
       id="filter8639"
       style="color-interpolation-filters:sRGB;"
       x="-0.63653569"
       width="2.2730714"
       y="-0.95289138"
       height="2.9057828">
      <feFlood
         result="flood"
         flood-color="rgb(108,125,133)"
         flood-opacity="1"
         id="feFlood8613" />
      <feComposite
         result="composite1"
         operator="in"
         in="flood"
         in2="SourceGraphic"
         id="feComposite8615" />
      <feMorphology
         result="result3"
         radius="6.2000000000000002"
         operator="dilate"
         id="feMorphology8617" />
      <feComposite
         result="fbSourceGraphic"
         operator="over"
         in="SourceGraphic"
         in2="result3"
         id="feComposite8619" />
      <feColorMatrix
         id="feColorMatrix8621"
         values="0 0 0 -1 0 0 0 0 -1 0 0 0 0 -1 0 0 0 0 1 0"
         in="fbSourceGraphic"
         result="fbSourceGraphicAlpha" />
      <feTurbulence
         in="fbSourceGraphic"
         result="turbulence"
         baseFrequency="0.129 0.0050000000000000001"
         seed="37"
         numOctaves="3"
         type="fractalNoise"
         id="feTurbulence8623" />
      <feDisplacementMap
         result="fbSourceGraphic"
         xChannelSelector="R"
         yChannelSelector="G"
         scale="6.6"
         in="fbSourceGraphic"
         in2="turbulence"
         id="feDisplacementMap8625" />
      <feColorMatrix
         id="feColorMatrix8627"
         values="0 0 0 -1 0 0 0 0 -1 0 0 0 0 -1 0 0 0 0 1 0"
         in="fbSourceGraphic"
         result="fbSourceGraphicAlpha" />
      <feFlood
         in="fbSourceGraphic"
         result="flood"
         flood-color="rgb(17,52,65)"
         flood-opacity="1"
         id="feFlood8629" />
      <feComposite
         result="composite1"
         operator="in"
         in="flood"
         in2="fbSourceGraphic"
         id="feComposite8631" />
      <feOffset
         result="offset"
         dy="6"
         dx="6"
         id="feOffset8635" />
      <feComposite
         result="composite2"
         operator="over"
         in="fbSourceGraphic"
         in2="offset"
         id="feComposite8637" />
    </filter>
    <filter
       inkscape:collect="always"
       style="color-interpolation-filters:sRGB"
       id="filter8641">
      <feBlend
         inkscape:collect="always"
         mode="overlay"
         in2="BackgroundImage"
         id="feBlend8643" />
    </filter>
    <filter
       inkscape:collect="always"
       style="color-interpolation-filters:sRGB"
       id="filter8659">
      <feBlend
         inkscape:collect="always"
         mode="overlay"
         in2="BackgroundImage"
         id="feBlend8661" />
    </filter>
  </defs>
  <sodipodi:namedview
     pagecolor="#ffffff"
     bordercolor="#666666"
     borderopacity="1"
     objecttolerance="10"
     gridtolerance="10"
     guidetolerance="10"
     inkscape:pageopacity="0"
     inkscape:pageshadow="2"
     inkscape:window-width="1366"
     inkscape:window-height="705"
     id="namedview4"
     showgrid="false"
     inkscape:zoom="0.3458621"
     inkscape:cx="1204.4967"
     inkscape:cy="523.69739"
     inkscape:window-x="-8"
     inkscape:window-y="-8"
     inkscape:window-maximized="1"
     inkscape:current-layer="layer1" />
  <g
     inkscape:groupmode="layer"
     id="layer2"
     inkscape:label="artwork"
     sodipodi:insensitive="true">
    <image
       sodipodi:absref="E:\Users\jamesmichael\Downloads\Compressed\eps\peppercarrot_ep17_translation-master\peppercarrot_ep17_translation-master\ph\../gfx_Pepper-and-Carrot_by-David-Revoy_E17P02.png"
       xlink:href="../gfx_Pepper-and-Carrot_by-David-Revoy_E17P02.png"
       y="0"
       x="0"
       id="image10"
       height="3503"
       width="2481" />
  </g>
  <g
     inkscape:groupmode="layer"
     id="layer3"
     inkscape:label="speechbubbles">
    <path
       style="color:#000000;display:inline;overflow:visible;visibility:visible;fill:#ffffff;fill-opacity:1;fill-rule:nonzero;stroke:none;stroke-width:1.48336387px;marker:none;enable-background:accumulate"
       d="m 240.10414,1402.6022 c 3.35125,-243.6265 54.81158,-424.92722 190.53495,-387.6001 72.70074,19.994 155.20946,30.9353 151.14253,387.7783 -4.067,356.8428 -122.6077,355.0717 -147.04195,364.9353 -24.43424,9.8636 -151.99245,-19.572 -174.72184,-139.4526 -14.22808,-75.0426 -20.03593,-150.2654 -19.91369,-225.6609 z"
       id="path4546-6"
       inkscape:connector-curvature="0"
       sodipodi:nodetypes="cssssc" />
    <path
       style="color:#000000;display:inline;overflow:visible;visibility:visible;fill:#ffffff;fill-opacity:1;fill-rule:nonzero;stroke:none;stroke-width:1.07688475px;marker:none;enable-background:accumulate"
       d="m 2327.6696,1568.4143 c 14.2994,-101.7451 41.9678,-339.1505 -123.1243,-325.6644 -165.0921,13.486 -217.2186,25.8472 -235.5322,136.4886 -6.3109,38.127 -50.4635,250.383 73.7596,314.7769 124.2231,64.3935 266.0674,14.3853 284.8969,-125.6011 z"
       id="path3525"
       inkscape:connector-curvature="0"
       sodipodi:nodetypes="csssc" />
    <path
       style="color:#000000;display:inline;overflow:visible;visibility:visible;fill:#ffffff;fill-opacity:1;fill-rule:nonzero;stroke:none;stroke-width:0.60554242px;marker:none;enable-background:accumulate"
       d="m 1919.7637,1629.2342 c 29.8388,43.7056 63.9367,70.2716 84.5818,-58.3185 22.1631,-138.0449 29.9109,-66.969 29.9109,-66.969 l -32.0156,144.7743 c -23.7815,38.2063 -39.8329,98.3947 -82.4771,-19.4868 z"
       id="path3072-1"
       inkscape:connector-curvature="0"
       sodipodi:nodetypes="csccc" />
    <path
       style="display:inline;fill:#ffffff;fill-rule:evenodd;stroke:none;stroke-width:1.0810107px;stroke-linecap:butt;stroke-linejoin:miter;stroke-opacity:1"
       d="m 1055.114,2978.5551 c 24.2162,35.6047 50.6221,21.1258 80.0134,-61.6362 -14.7329,89.4344 -9.6957,109.4366 13.5838,65.3718 9.7133,37.8756 28.2183,27.2512 49.7372,0 -8.3809,35.0469 6.0474,20.9042 14.7251,19.1634 -0.227,7.9291 -16.4764,27.6286 29.8181,1.382 -1.426,10.495 -1.4967,19.533 28.4847,-3.7356 -9.8759,42.5981 24.3398,-2.3608 60.1219,-50.4296 -32.8692,59.0965 -31.1594,67.4435 -8.3517,44.8263 -15.5058,24.3364 -26.3337,43.1756 14.0173,1.8678 -24.9817,44.92 8.9858,14.0872 69.165,-50.4296 -35.6967,47.6904 -113.6351,128.0688 -79.0916,121.4046 -9.5811,14.0592 -30.006,26.3087 9.5095,48.5619 -12.3459,9.5403 -34.4111,-4.4009 -26.4413,35.993 1.3182,4.7217 -9.8766,7.6052 4.9805,20.0398 -11.1266,-0.8459 -19.235,2.1762 -15.3674,20.5454 -20.5099,-0.9933 -19.7095,18.3223 -13.3258,42.9585 -18.7573,-31.6012 -24.5878,-20.116 -30.0707,-7.471 -22.2465,-43.0833 -29.3918,-29.5188 -37.7608,-20.5454 -18.585,0.3361 -35.0794,-5.0893 -70.9759,42.9586 6.0079,-29.8846 4.6602,-52.8878 -43.8683,-31.752 31.7348,-38.0183 -2.5763,-13.7967 -27.8069,1.8677 27.9369,-47.4943 -10.539,-16.3239 -61.7105,29.8843 38.2965,-52.447 9.5398,-33.502 -36.39732,3.7355 30.94612,-51.524 20.03398,-76.4417 -26.92619,-78.4461 29.56801,-18.5853 51.36451,-41.9744 42.93002,-84.0493 22.22219,12.3891 34.36689,0.8814 32.08979,-44.8263 15.5293,37.5164 22.0235,-16.8994 28.9181,-67.2395 z"
       id="path4508"
       inkscape:connector-curvature="0"
       sodipodi:nodetypes="cccccccccccccccccccccccccccc" />
    <path
       style="color:#000000;display:inline;overflow:visible;visibility:visible;fill:#ffffff;fill-opacity:1;fill-rule:nonzero;stroke:none;stroke-width:1px;marker:none;enable-background:accumulate"
       d="m 999.2975,3075.4535 c 17.9441,-35.7819 27.1138,-35.4753 44.8019,-3.1104 19.8434,-63.8119 64.1992,-66.829 107.1616,-73.3016 3.3531,-17.9297 -5.2665,-38.5217 28.4662,-49.6967 -10.7178,-10.6866 -4.4629,-24.9038 16.9359,-42.271 -35.6689,8.2755 -45.4457,3.1808 9.4765,-35.3242 -45.4212,21.875 -88.2641,41.3488 -49.8828,-14.8218 -16.9167,7.6453 -44.1842,52.1158 -61.0878,-29.229 -17.2102,37.456 -84.0341,68.272 -88.6976,19.9208 -4.65,40.2873 -68.47382,86.5196 -74.44342,54.1736 2.0517,22.5855 -17.71696,44.6725 -34.56448,48.3722 40.52504,5.9759 25.79254,19.666 -14.16587,42.3776 87.3553,3.5451 28.41048,26.108 22.07304,41.3815 60.36534,-14.0473 44.23037,14.4911 42.59895,35.6473 80.17208,-64.5316 59.39788,-53.0051 51.32788,5.8817 z"
       id="path3549-3"
       inkscape:connector-curvature="0"
       sodipodi:nodetypes="ccccccccccccccc" />
    <path
       style="color:#000000;display:inline;overflow:visible;visibility:visible;fill:#ffffff;fill-opacity:1;fill-rule:nonzero;stroke:none;stroke-width:1px;marker:none;enable-background:accumulate"
       d="m 1269.3957,2763.3018 c -26.1522,36.9012 -46.8971,78.302 -79.3319,109.9753 l 39.1635,-9.8688 c -5.4563,17.5055 -20.6662,29.6804 -32.5642,43.6655 l 25.2547,-1.9964 c -13.3891,41.1505 -40.934,70.0174 -61.6368,104.8213 l 43.7044,-7.0626 c 16.7451,-37.7274 27.0981,-77.8041 51.033,-112.8889 l -24.8923,-0.6188 c 6.5411,-13.3013 13.6301,-26.3553 23.1666,-38.3053 l -31.2879,2.0537 z"
       id="path4032"
       inkscape:connector-curvature="0"
       sodipodi:nodetypes="cccccccccccc" />
    <path
       sodipodi:nodetypes="csssc"
       inkscape:connector-curvature="0"
       id="path4883"
       d="m 1995.1491,1177.416 c 6.5269,84.6968 17.5097,282.0963 -105,264.3644 -122.5094,-17.7319 -160.8617,-30.0305 -170.0193,-122.2433 -3.1559,-31.7767 -27.447,-209.0385 67.762,-257.3301 95.209,-48.2913 198.9068,-1.2888 207.2573,115.209 z"
       style="color:#000000;display:inline;overflow:visible;visibility:visible;fill:#ffffff;fill-opacity:1;fill-rule:nonzero;stroke:none;stroke-width:0.84652543px;marker:none;enable-background:accumulate" />
    <path
       sodipodi:nodetypes="csccc"
       inkscape:connector-curvature="0"
       id="path4943"
       d="m 570.33732,1088.5246 c -29.8388,-43.7056 -63.9367,-70.2716 -84.5818,58.3185 -22.1631,138.0449 -29.9109,66.969 -29.9109,66.969 l 32.0156,-144.7743 c 23.7815,-38.2063 39.8329,-98.39471 82.4771,19.4868 z"
       style="color:#000000;display:inline;overflow:visible;visibility:visible;fill:#ffffff;fill-opacity:1;fill-rule:nonzero;stroke:none;stroke-width:0.60554242px;marker:none;enable-background:accumulate" />
  </g>
  <g
     inkscape:groupmode="layer"
     id="layer1"
     inkscape:label="txt">
    <text
       xml:space="preserve"
       style="font-style:normal;font-variant:normal;font-weight:normal;font-stretch:normal;line-height:0%;font-family:Lavi;-inkscape-font-specification:Lavi;text-align:center;letter-spacing:0px;word-spacing:0px;text-anchor:middle;fill:#000000;fill-opacity:1;stroke:none"
       x="513.19806"
       y="1108.2292"
       id="text4246"><tspan
         sodipodi:role="line"
         style="font-size:45px;line-height:1.25"
         x="513.19806"
         y="1111.717"
         id="tspan4820" /></text>
    <text
       xml:space="preserve"
       style="font-style:normal;font-variant:normal;font-weight:normal;font-stretch:normal;line-height:0%;font-family:Lavi;-inkscape-font-specification:Lavi;text-align:center;letter-spacing:0px;word-spacing:0px;text-anchor:middle;fill:#000000;fill-opacity:1;stroke:none"
       x="407.5946"
       y="1225.7845"
       id="text4246-6"><tspan
         sodipodi:role="line"
         style="font-size:45px;line-height:1.25"
         x="407.5946"
         y="1229.2723"
         id="tspan3368" /></text>
    <text
       xml:space="preserve"
       style="font-style:normal;font-variant:normal;font-weight:normal;font-stretch:normal;line-height:0%;font-family:Lavi;-inkscape-font-specification:Lavi;text-align:center;letter-spacing:0px;word-spacing:0px;text-anchor:middle;fill:#000000;fill-opacity:1;stroke:none"
       x="2074.5127"
       y="1539.0598"
       id="text4246-6-9"><tspan
         sodipodi:role="line"
         style="font-size:45px;line-height:1.25"
         x="2074.5127"
         y="1542.5476"
         id="tspan4895" /></text>
    <text
       xml:space="preserve"
       style="font-style:normal;font-variant:normal;font-weight:normal;font-stretch:normal;line-height:0%;font-family:Lavi;-inkscape-font-specification:Lavi;text-align:center;letter-spacing:0px;word-spacing:0px;text-anchor:middle;fill:#000000;fill-opacity:1;stroke:none"
       x="1949.7035"
       y="1557.4618"
       id="text4246-6-9-6"><tspan
         sodipodi:role="line"
         style="font-size:45px;line-height:1.25"
         x="1957.6136"
         y="1557.4618"
         id="tspan4297"> </tspan></text>
    <text
       xml:space="preserve"
       style="font-style:normal;font-variant:normal;font-weight:normal;font-stretch:normal;line-height:0%;font-family:Lavi;-inkscape-font-specification:Lavi;text-align:center;letter-spacing:0px;word-spacing:0px;text-anchor:middle;fill:#000000;fill-opacity:1;stroke:#000000;stroke-width:2.4000001;stroke-miterlimit:4;stroke-dasharray:none;stroke-opacity:1"
       x="1292.4575"
       y="2760.2744"
       id="text4246-6-9-0"
       transform="matrix(0.92763131,0,-0.05816983,1.0780145,0,0)"><tspan
         sodipodi:role="line"
         style="font-size:59.70701599px;line-height:1.25;stroke:#000000;stroke-width:2.4000001;stroke-miterlimit:4;stroke-dasharray:none;stroke-opacity:1"
         x="1292.4575"
         y="2760.2744"
         id="tspan4305-5">MALAS!</tspan></text>
    <text
       xml:space="preserve"
       style="font-style:normal;font-variant:normal;font-weight:normal;font-stretch:normal;line-height:0%;font-family:Lavi;-inkscape-font-specification:Lavi;text-align:center;letter-spacing:0px;word-spacing:0px;text-anchor:middle;fill:#000000;fill-opacity:1;stroke:none"
       x="1160.9348"
       y="3045.748"
       id="text4246-6-9-8"><tspan
         sodipodi:role="line"
         style="font-size:45px;line-height:1.25"
         x="1168.845"
         y="3045.748"
         id="tspan4395">May </tspan><tspan
         sodipodi:role="line"
         style="font-size:45px;line-height:1.25"
         x="1160.9348"
         y="3101.998"
         id="tspan8685">Turbulence!</tspan></text>
    <text
       xml:space="preserve"
       style="font-style:normal;font-variant:normal;font-weight:normal;font-stretch:normal;font-size:16.61995697px;line-height:0%;font-family:Lavi;-inkscape-font-specification:Lavi;text-align:center;letter-spacing:0px;word-spacing:0px;text-anchor:middle;fill:#000000;fill-opacity:1;stroke:#000000;stroke-width:3.32399178;stroke-miterlimit:4;stroke-dasharray:none;stroke-opacity:1"
       x="2081.405"
       y="2849.2732"
       id="text4246-6-9-8-8"
       transform="matrix(0.89833117,0,-0.2415289,1.1131752,0,0)"><tspan
         sodipodi:role="line"
         style="font-size:59.48294067px;line-height:1.25;stroke:#000000;stroke-width:3.32399178;stroke-miterlimit:4;stroke-dasharray:none;stroke-opacity:1"
         x="2081.405"
         y="2849.2732"
         id="tspan4395-0">KAPIT!!!</tspan></text>
    <text
       xml:space="preserve"
       style="font-style:normal;font-variant:normal;font-weight:normal;font-stretch:normal;font-size:14.99397659px;line-height:0%;font-family:Lavi;-inkscape-font-specification:Lavi;letter-spacing:0px;word-spacing:0px;fill:#ffffff;fill-opacity:1;stroke:#98b9ca;stroke-width:0.99236238;stroke-miterlimit:4;stroke-dasharray:none;stroke-opacity:1;filter:url(#filter8659)"
       id="text4580-6"
       transform="matrix(0.9767543,-0.21436191,-0.495177,1.1324722,1034.3967,206.69591)"><textPath
         xlink:href="#path4971"
         id="textPath4990"><tspan
   style="font-size:87.46486664px;line-height:1.25;fill:#ffffff;fill-opacity:1;stroke:#98b9ca;stroke-opacity:1"
   id="tspan4582-1"><tspan
     id="tspan4315"
     style="font-size:116.39012909px;fill:#ffffff;fill-opacity:1;stroke:#98b9ca;stroke-opacity:1">Brrsshshhshs!</tspan><tspan
     id="tspan4313"
     style="font-size:143.35769653px;fill:#ffffff;fill-opacity:1;stroke:#98b9ca;stroke-opacity:1">!</tspan></tspan></textPath></text>
    <flowRoot
       xml:space="preserve"
       id="flowRoot4802"
       style="font-style:normal;font-weight:normal;font-size:40px;line-height:1.25;font-family:sans-serif;letter-spacing:0px;word-spacing:0px;fill:#000000;fill-opacity:1;stroke:none"
       transform="translate(1422.2435,-210.76159)"><flowRegion
         id="flowRegion4804"><rect
           id="rect4806"
           width="237.15923"
           height="372.09467"
           x="312.80484"
           y="1346.0778" /></flowRegion><flowPara
         id="flowPara4808"
         style="font-style:normal;font-variant:normal;font-weight:normal;font-stretch:normal;font-family:Lavi;-inkscape-font-specification:Lavi;text-align:center;text-anchor:middle">tutulungan niya tayo </flowPara><flowPara
         style="font-style:normal;font-variant:normal;font-weight:normal;font-stretch:normal;font-family:Lavi;-inkscape-font-specification:Lavi;text-align:center;text-anchor:middle"
         id="flowPara4959"> sumali sa </flowPara><flowPara
         id="flowPara4810"
         style="font-style:normal;font-variant:normal;font-weight:normal;font-stretch:normal;font-family:Lavi;-inkscape-font-specification:Lavi;text-align:center;text-anchor:middle">mga witches ng Ah</flowPara></flowRoot>    <flowRoot
       xml:space="preserve"
       id="flowRoot4841"
       style="font-style:normal;font-weight:normal;font-size:40px;line-height:0.89999998;font-family:sans-serif;text-align:center;letter-spacing:0px;word-spacing:0px;text-anchor:middle;fill:#000000;fill-opacity:1;stroke:none"
       transform="translate(18.793618,50.598202)"><flowRegion
         id="flowRegion4843"
         style="line-height:0.89999998;text-align:center;text-anchor:middle"><rect
           id="rect4845"
           width="224.07776"
           height="636.09167"
           x="281.90427"
           y="1058.384"
           style="line-height:0.89999998;text-align:center;text-anchor:middle" /></flowRegion><flowPara
         style="font-style:normal;font-variant:normal;font-weight:normal;font-stretch:normal;line-height:0.89999998;font-family:Lavi;-inkscape-font-specification:Lavi;text-align:center;text-anchor:middle"
         id="flowPara4949">kumapit </flowPara><flowPara
         style="font-style:normal;font-variant:normal;font-weight:normal;font-stretch:normal;line-height:0.89999998;font-family:Lavi;-inkscape-font-specification:Lavi;text-align:center;text-anchor:middle"
         id="flowPara4861">ka </flowPara><flowPara
         style="font-style:normal;font-variant:normal;font-weight:normal;font-stretch:normal;line-height:0.89999998;font-family:Lavi;-inkscape-font-specification:Lavi;text-align:center;text-anchor:middle"
         id="flowPara4863">...</flowPara><flowPara
         style="font-style:normal;font-variant:normal;font-weight:normal;font-stretch:normal;line-height:0.89999998;font-family:Lavi;-inkscape-font-specification:Lavi;text-align:center;text-anchor:middle"
         id="flowPara4859" /><flowPara
         id="flowPara4849"
         style="font-style:normal;font-variant:normal;font-weight:normal;font-stretch:normal;line-height:0.89999998;font-family:Lavi;-inkscape-font-specification:Lavi;text-align:center;text-anchor:middle">Pupunta tayo </flowPara><flowPara
         id="flowPara4851"
         style="font-style:normal;font-variant:normal;font-weight:normal;font-stretch:normal;line-height:0.89999998;font-family:Lavi;-inkscape-font-specification:Lavi;text-align:center;text-anchor:middle">kung saan lumulubog </flowPara><flowPara
         id="flowPara4853"
         style="font-style:normal;font-variant:normal;font-weight:normal;font-stretch:normal;line-height:0.89999998;font-family:Lavi;-inkscape-font-specification:Lavi;text-align:center;text-anchor:middle">ang mga buwan</flowPara><flowPara
         style="font-style:normal;font-variant:normal;font-weight:normal;font-stretch:normal;line-height:0.89999998;font-family:Lavi;-inkscape-font-specification:Lavi;text-align:center;text-anchor:middle"
         id="flowPara4873">...</flowPara><flowPara
         style="font-style:normal;font-variant:normal;font-weight:normal;font-stretch:normal;line-height:0.89999998;font-family:Lavi;-inkscape-font-specification:Lavi;text-align:center;text-anchor:middle"
         id="flowPara4957" /><flowPara
         style="font-style:normal;font-variant:normal;font-weight:normal;font-stretch:normal;line-height:0.89999998;font-family:Lavi;-inkscape-font-specification:Lavi;text-align:center;text-anchor:middle"
         id="flowPara4875">sa lugar </flowPara><flowPara
         style="font-style:normal;font-variant:normal;font-weight:normal;font-stretch:normal;line-height:0.89999998;font-family:Lavi;-inkscape-font-specification:Lavi;text-align:center;text-anchor:middle"
         id="flowPara4879">nila </flowPara><flowPara
         style="font-style:normal;font-variant:normal;font-weight:normal;font-stretch:normal;line-height:0.89999998;font-family:Lavi;-inkscape-font-specification:Lavi;text-align:center;text-anchor:middle"
         id="flowPara4881">Shichimi</flowPara><flowPara
         id="flowPara4855"
         style="font-style:normal;font-variant:normal;font-weight:normal;font-stretch:normal;line-height:0.89999998;font-family:Lavi;-inkscape-font-specification:Lavi;text-align:center;text-anchor:middle" /></flowRoot>    <flowRoot
       xml:space="preserve"
       id="flowRoot4865"
       style="font-style:normal;font-weight:normal;font-size:40px;line-height:1.25;font-family:sans-serif;letter-spacing:0px;word-spacing:0px;fill:#000000;fill-opacity:1;stroke:none"><flowRegion
         id="flowRegion4867"><rect
           id="rect4869"
           width="98.305077"
           height="114.20737"
           x="351.29608"
           y="1074.2863" /></flowRegion><flowPara
         id="flowPara4871" /></flowRoot>    <flowRoot
       xml:space="preserve"
       id="flowRoot4925"
       style="font-style:normal;font-weight:normal;font-size:40px;line-height:1.25;font-family:sans-serif;letter-spacing:0px;word-spacing:0px;fill:#000000;fill-opacity:1;stroke:none"
       transform="translate(167.64704,-96.090377)"><flowRegion
         id="flowRegion4927"><rect
           id="rect4929"
           width="318.93826"
           height="513.16351"
           x="1807.3169"
           y="1411.501" /></flowRegion><flowPara
         id="flowPara4931"
         style="font-style:normal;font-variant:normal;font-weight:normal;font-stretch:normal;font-family:Lavi;-inkscape-font-specification:Lavi;text-align:center;text-anchor:middle">Carrot, </flowPara><flowPara
         id="flowPara4933"
         style="font-style:normal;font-variant:normal;font-weight:normal;font-stretch:normal;font-family:Lavi;-inkscape-font-specification:Lavi;text-align:center;text-anchor:middle">patingin ako ng</flowPara><flowPara
         id="flowPara4939"
         style="font-style:normal;font-variant:normal;font-weight:normal;font-stretch:normal;font-family:Lavi;-inkscape-font-specification:Lavi;text-align:center;text-anchor:middle">mapa at kompas  masyadong maulap sa pupuntahan</flowPara><flowPara
         id="flowPara4941"
         style="font-style:normal;font-variant:normal;font-weight:normal;font-stretch:normal;font-family:Lavi;-inkscape-font-specification:Lavi;text-align:center;text-anchor:middle">natin</flowPara></flowRoot>    <path
       style="fill:none;stroke:none;stroke-width:1.53530288px;stroke-linecap:butt;stroke-linejoin:miter;stroke-opacity:1"
       d="m 1938.2321,2323.0028 c -210.9105,-360.3961 140.4721,-313.9332 422.4854,-263.9122"
       id="path4971"
       inkscape:connector-curvature="0"
       sodipodi:nodetypes="cc" />
    <text
       transform="matrix(-0.9767543,0.21436191,0.495177,-1.1324722,3003.5392,4941.0705)"
       id="text5003"
       style="font-style:normal;font-variant:normal;font-weight:normal;font-stretch:normal;font-size:14.99397659px;line-height:0%;font-family:Lavi;-inkscape-font-specification:Lavi;letter-spacing:0px;word-spacing:0px;opacity:1;fill:#ffffff;fill-opacity:1;stroke:#98b9ca;stroke-width:0.99236238;stroke-miterlimit:4;stroke-dasharray:none;stroke-opacity:1;filter:url(#filter8641)"
       xml:space="preserve"
       x="1563.5935"
       y="1006.9786"><textPath
         id="textPath5001"
         xlink:href="#path4971"><tspan
   id="tspan4999"
   style="font-size:87.46486664px;line-height:1.25;fill:#ffffff;fill-opacity:1;stroke:#98b9ca;stroke-opacity:1"><tspan
     style="font-size:116.39012909px;fill:#ffffff;fill-opacity:1;stroke:#98b9ca;stroke-opacity:1"
     id="tspan4995">Brrsshshhshs!</tspan><tspan
     style="font-size:143.35769653px;fill:#ffffff;fill-opacity:1;stroke:#98b9ca;stroke-opacity:1"
     id="tspan4997">!</tspan></tspan></textPath></text>
  </g>
</svg>
