<?xml version="1.0" encoding="UTF-8" standalone="no"?>
<!-- Created with Inkscape (http://www.inkscape.org/) -->

<svg
   xmlns:dc="http://purl.org/dc/elements/1.1/"
   xmlns:cc="http://creativecommons.org/ns#"
   xmlns:rdf="http://www.w3.org/1999/02/22-rdf-syntax-ns#"
   xmlns:svg="http://www.w3.org/2000/svg"
   xmlns="http://www.w3.org/2000/svg"
   xmlns:xlink="http://www.w3.org/1999/xlink"
   xmlns:sodipodi="http://sodipodi.sourceforge.net/DTD/sodipodi-0.dtd"
   xmlns:inkscape="http://www.inkscape.org/namespaces/inkscape"
   id="svg2"
   version="1.1"
   inkscape:version="0.92.3 (2405546, 2018-03-11)"
   width="2481"
   height="3503"
   sodipodi:docname="E24P05.svg">
  <metadata
     id="metadata8">
    <rdf:RDF>
      <cc:Work
         rdf:about="">
        <dc:format>image/svg+xml</dc:format>
        <dc:type
           rdf:resource="http://purl.org/dc/dcmitype/StillImage" />
        <dc:title />
      </cc:Work>
    </rdf:RDF>
  </metadata>
  <defs
     id="defs6">
    <filter
       style="color-interpolation-filters:sRGB"
       id="filter4375-4-1-1-1-9-5-8-0-9"
       inkscape:label="Drop Shadow">
      <feFlood
         id="feFlood4377-7-9-0-8-1-7-3-9-2"
         flood-opacity="1"
         flood-color="rgb(200,55,55)"
         result="flood" />
      <feComposite
         id="feComposite4379-3-8-8-2-77-4-1-3-2"
         in2="SourceGraphic"
         in="flood"
         operator="in"
         result="composite1" />
      <feMorphology
         id="feMorphology4393-1-0-49-8-9-3-0-6-8"
         operator="dilate"
         radius="6.2000000000000002"
         result="result3" />
      <feComposite
         id="feComposite4385-9-5-7-0-8-8-7-0-9"
         in2="result3"
         in="SourceGraphic"
         operator="over"
         result="fbSourceGraphic" />
      <feColorMatrix
         result="fbSourceGraphicAlpha"
         in="fbSourceGraphic"
         values="0 0 0 -1 0 0 0 0 -1 0 0 0 0 -1 0 0 0 0 1 0"
         id="feColorMatrix4544-6-7" />
      <feTurbulence
         id="feTurbulence4546-2-3"
         type="fractalNoise"
         numOctaves="3"
         seed="37"
         baseFrequency="0.129 0.0050000000000000001"
         result="turbulence" />
      <feDisplacementMap
         id="feDisplacementMap4548-6-6"
         in2="turbulence"
         in="fbSourceGraphic"
         scale="6.6"
         yChannelSelector="G"
         xChannelSelector="R"
         result="fbSourceGraphic" />
      <feColorMatrix
         result="fbSourceGraphicAlpha"
         in="fbSourceGraphic"
         values="0 0 0 -1 0 0 0 0 -1 0 0 0 0 -1 0 0 0 0 1 0"
         id="feColorMatrix4670-1-1" />
      <feFlood
         id="feFlood4672-8-2"
         flood-opacity="1"
         flood-color="rgb(80,22,22)"
         result="flood"
         in="fbSourceGraphic" />
      <feComposite
         id="feComposite4674-7-9"
         in2="fbSourceGraphic"
         in="flood"
         operator="in"
         result="composite1" />
      <feGaussianBlur
         id="feGaussianBlur4676-9-3"
         in="composite1"
         stdDeviation="0"
         result="blur" />
      <feOffset
         id="feOffset4678-2-1"
         dx="6"
         dy="6"
         result="offset" />
      <feComposite
         id="feComposite4680-0-9"
         in2="offset"
         in="fbSourceGraphic"
         operator="over"
         result="composite2" />
    </filter>
    <filter
       style="color-interpolation-filters:sRGB"
       id="filter4375-4-1-1-1-9-5-8"
       inkscape:label="Drop Shadow">
      <feFlood
         id="feFlood4377-7-9-0-8-1-7-3"
         flood-opacity="1"
         flood-color="rgb(200,55,55)"
         result="flood" />
      <feComposite
         id="feComposite4379-3-8-8-2-77-4-1"
         in2="SourceGraphic"
         in="flood"
         operator="in"
         result="composite1" />
      <feMorphology
         id="feMorphology4393-1-0-49-8-9-3-0"
         operator="dilate"
         radius="6.2000000000000002"
         result="result3" />
      <feComposite
         id="feComposite4385-9-5-7-0-8-8-7"
         in2="result3"
         in="SourceGraphic"
         operator="over"
         result="fbSourceGraphic" />
      <feColorMatrix
         result="fbSourceGraphicAlpha"
         in="fbSourceGraphic"
         values="0 0 0 -1 0 0 0 0 -1 0 0 0 0 -1 0 0 0 0 1 0"
         id="feColorMatrix4544" />
      <feTurbulence
         id="feTurbulence4546"
         type="fractalNoise"
         numOctaves="3"
         seed="37"
         baseFrequency="0.129 0.0050000000000000001"
         result="turbulence" />
      <feDisplacementMap
         id="feDisplacementMap4548"
         in2="turbulence"
         in="fbSourceGraphic"
         scale="6.6"
         yChannelSelector="G"
         xChannelSelector="R"
         result="fbSourceGraphic" />
      <feColorMatrix
         result="fbSourceGraphicAlpha"
         in="fbSourceGraphic"
         values="0 0 0 -1 0 0 0 0 -1 0 0 0 0 -1 0 0 0 0 1 0"
         id="feColorMatrix4670" />
      <feFlood
         id="feFlood4672"
         flood-opacity="1"
         flood-color="rgb(80,22,22)"
         result="flood"
         in="fbSourceGraphic" />
      <feComposite
         id="feComposite4674"
         in2="fbSourceGraphic"
         in="flood"
         operator="in"
         result="composite1" />
      <feGaussianBlur
         id="feGaussianBlur4676"
         in="composite1"
         stdDeviation="0"
         result="blur" />
      <feOffset
         id="feOffset4678"
         dx="6"
         dy="6"
         result="offset" />
      <feComposite
         id="feComposite4680"
         in2="offset"
         in="fbSourceGraphic"
         operator="over"
         result="composite2" />
    </filter>
    <filter
       inkscape:collect="always"
       style="color-interpolation-filters:sRGB"
       id="filter4210"
       x="-0.0015578248"
       width="1.0031157"
       y="-0.0045528179"
       height="1.0091056">
      <feGaussianBlur
         inkscape:collect="always"
         stdDeviation="0.2079876"
         id="feGaussianBlur4212" />
    </filter>
  </defs>
  <sodipodi:namedview
     pagecolor="#ffffff"
     bordercolor="#666666"
     borderopacity="1"
     objecttolerance="10"
     gridtolerance="10"
     guidetolerance="10"
     inkscape:pageopacity="0"
     inkscape:pageshadow="2"
     inkscape:window-width="1920"
     inkscape:window-height="1022"
     id="namedview4"
     showgrid="false"
     inkscape:zoom="0.2630065"
     inkscape:cx="-409.72937"
     inkscape:cy="169.49438"
     inkscape:window-x="0"
     inkscape:window-y="0"
     inkscape:window-maximized="1"
     inkscape:current-layer="layer1"
     inkscape:snap-global="false" />
  <g
     inkscape:groupmode="layer"
     id="layer2"
     inkscape:label="artwork"
     sodipodi:insensitive="true">
    <image
       sodipodi:absref="/home/peppercarrot/webcomics/"
       xlink:href="../gfx_Pepper-and-Carrot_by-David-Revoy_E24P05.png"
       y="0"
       x="0"
       id="image10"
       height="3503"
       width="2481" />
  </g>
  <g
     inkscape:groupmode="layer"
     id="layer3"
     inkscape:label="speechbubbles"
     style="display:inline">
    <path
       style="color:#000000;display:inline;overflow:visible;visibility:visible;fill:#ffffff;fill-opacity:1;fill-rule:nonzero;stroke:none;stroke-width:1.05392456px;marker:none;enable-background:accumulate"
       d="m 947.81449,203.32288 c 10.70069,-59.75433 100.45381,-101.42305 326.37371,-84.4803 121.0149,9.07539 258.602,16.48394 244.3345,104.05507 -14.2678,87.57103 -212.2322,80.35935 -253.2517,81.38959 -41.0198,1.03035 -253.4665,-13.50397 -288.92103,-44.30074 -22.19364,-19.27795 -30.31893,-38.11909 -28.53548,-56.66362 z"
       id="path4546-6"
       inkscape:connector-curvature="0"
       sodipodi:nodetypes="cssssc" />
    <path
       style="color:#000000;display:inline;overflow:visible;visibility:visible;fill:#ffffff;fill-opacity:1;fill-rule:nonzero;stroke:none;stroke-width:1.37746561px;marker:none;enable-background:accumulate"
       d="m 959.4964,431.24717 c 9.65084,-97.34321 106.5244,-175.80471 311.8323,-164.50879 170.9802,9.40724 220.1253,53.41528 228.4312,215.21711 3.9922,77.77081 -173.9367,58.31909 -210.9323,57.30886 -37.0202,-1.01091 -233.3502,7.17474 -288.8081,-10.33174 -41.22379,-13.01319 -42.13159,-67.4753 -40.5231,-97.68544 z"
       id="path4546-6-5"
       inkscape:connector-curvature="0"
       sodipodi:nodetypes="cssssc" />
    <path
       style="fill:#ffffff;stroke:none;stroke-width:1"
       d="m 116.68871,2316.7158 c -0.80271,-18.6867 25.10278,-70.3849 136.13432,-64.4369 111.03155,5.948 145.29554,27.2341 147.72023,60.4716 3.83579,52.5808 -54.97587,65.3212 -139.01641,67.3683 -86.6367,2.1104 -140.10007,-16.1383 -144.83814,-63.403 z"
       id="path3280"
       inkscape:connector-curvature="0"
       sodipodi:nodetypes="csssc" />
    <path
       style="fill:#ffffff;stroke:none;stroke-width:1.02873945"
       d="m 84.089393,2577.172 c -1.223493,-69.7292 38.261797,-262.6401 207.496677,-240.4453 169.2349,22.1949 226.69561,101.5767 225.15599,225.6489 -3.02002,243.3724 4.71488,277.6492 -269.42069,269.4659 C 115.10084,2827.8946 77.052982,2804.8689 84.089393,2577.172 Z"
       id="path3280-5"
       inkscape:connector-curvature="0"
       sodipodi:nodetypes="csssc" />
    <path
       style="fill:#ffffff;stroke:none;stroke-width:1.15857482"
       d="m 100.15367,2966.7064 c -15.028495,-114.6388 28.57004,-211.5415 154.93756,-193.6648 126.36752,17.8766 166.38809,81.8241 168.12374,181.7471 2.71335,156.211 3.5206,223.6308 -201.17615,217.0394 -98.72893,-3.179 -116.49265,-63.0678 -121.88515,-205.1217 z"
       id="path3280-5-9"
       inkscape:connector-curvature="0"
       sodipodi:nodetypes="csssc" />
    <path
       style="color:#000000;display:inline;overflow:visible;visibility:visible;fill:#ffffff;fill-opacity:1;fill-rule:nonzero;stroke:none;stroke-width:1px;marker:none;enable-background:accumulate"
       d="m 482.48623,2854.2335 c -14.75738,52.3452 -33.97784,59.8163 -47.29721,66.911 -2.99609,-4.2927 -9.494,-10.7643 -9.494,-10.7643 0,0 -25.03044,16.8093 -36.39159,19.4555 -11.36113,2.6461 -15.10988,-13.4489 -15.10988,-13.4489 0,0 47.94685,-34.1242 56.37661,-45.0707 7.82099,12.1521 12.93111,16.9506 14.25419,22.6311 8.74137,-1.0378 31.94301,-21.4136 37.66188,-39.7137 z"
       id="path4456"
       inkscape:connector-curvature="0" />
    <path
       style="fill:#ffffff;stroke:none;stroke-width:1.03799689"
       d="m 1425.9625,2410.8677 c -1.9056,-28.1089 32.2639,-98.4765 198.9417,-93.1836 166.6778,5.2928 218.8453,36.2115 223.7297,86.175 7.7268,79.0407 -79.9622,100.1631 -205.8757,106.0176 -129.8032,6.0354 -218.8102,-48.2208 -216.7957,-99.009 z"
       id="path3280-8"
       inkscape:connector-curvature="0"
       sodipodi:nodetypes="csssc" />
    <path
       style="fill:#ffffff;stroke:none;stroke-width:1.0161128"
       d="m 1477.1435,2595.7438 c -2.6702,-39.3366 45.2054,-137.8113 278.7409,-130.4042 233.5355,7.4069 314.9936,22.6971 324.5756,120.596 12.5958,128.6899 -123.1401,128.073 -299.56,136.266 -218.0063,10.1243 -306.899,-47.3295 -303.7565,-126.4578 z"
       id="path3280-8-2"
       inkscape:connector-curvature="0"
       sodipodi:nodetypes="csssc" />
    <path
       style="color:#000000;display:inline;overflow:visible;visibility:visible;fill:#ffffff;fill-opacity:1;fill-rule:nonzero;stroke:none;stroke-width:1px;marker:none;enable-background:accumulate"
       d="m 1737.0918,2693.1341 c 14.3116,13.119 20.5898,27.3224 21.7824,31.4966 1.1926,4.1742 -2.1039,30.5204 2.0703,35.291 4.1742,4.7705 19.6785,5.3668 21.4675,8.9448 1.7889,3.5779 -3.5779,22.0637 0,25.6416 3.5779,3.5779 28.6232,13.119 29.8159,16.1006 1.1926,2.9816 7.7521,19.0822 19.6784,31.6048 -11.33,-31.6048 -7.7521,-38.1643 -11.9263,-42.9348 -4.1742,-4.7706 -15.9274,-10.1807 -18.3127,-15.5476 -2.3853,-5.3668 6.711,-25.7283 0.086,-28.0269 -4.7705,-4.7705 -19.8083,-10.2673 -19.8083,-10.2673 4.1743,-4.7706 18.356,-27.8538 -1.3225,-55.8807 -19.6785,-28.027 -43.5312,3.5779 -43.5312,3.5779 z"
       id="path5050"
       inkscape:connector-curvature="0"
       sodipodi:nodetypes="csccscccccccc" />
    <path
       style="color:#000000;display:inline;overflow:visible;visibility:visible;fill:#ffffff;fill-opacity:1;fill-rule:nonzero;stroke:none;stroke-width:1px;marker:none;enable-background:accumulate"
       d="m 1402.3046,3191.257 c -6.8898,-34.7238 11.4831,-126.9586 152.726,-119.3627 141.2428,7.5957 164.2092,51.0004 167.654,64.0217 3.445,13.0214 33.3013,86.8093 -76.9371,106.3413 -110.2383,19.5321 -208.9934,-1.0851 -243.4429,-51.0003 z"
       id="path3525"
       inkscape:connector-curvature="0" />
    <path
       style="color:#000000;display:inline;overflow:visible;visibility:visible;fill:#ffffff;fill-opacity:1;fill-rule:nonzero;stroke:none;stroke-width:1px;marker:none;enable-background:accumulate"
       d="m 1518.4603,3003.92 c 24.221,32.6718 31.0089,45.6583 8.1243,87.1458 -22.8847,41.4875 -7.3195,49.5776 -7.3195,49.5776 l 28.2503,-15.3766 c 0,0 42.659,-91.8473 -29.0551,-121.3468 z"
       id="path3072"
       inkscape:connector-curvature="0" />
    <path
       style="color:#000000;display:inline;overflow:visible;visibility:visible;fill:#ffffff;fill-opacity:1;fill-rule:nonzero;stroke:none;stroke-width:1.41294575px;marker:none;enable-background:accumulate"
       d="m 1704.3141,382.65014 c 6.9789,-43.93502 -3.9944,-83.41995 121.3865,-107.29494 58.6897,-11.17566 137.5352,-23.19833 245.5383,-14.06719 136.7784,11.56395 314.8145,30.14865 298.6884,141.73196 -16.1262,111.58317 -99.1289,86.70772 -306.8048,96.0861 -46.3347,2.09241 -305.3032,-3.66943 -345.3759,-42.91074 -25.0845,-24.56402 -15.4482,-49.9157 -13.4325,-73.54519 z"
       id="path4546-6-5-3"
       inkscape:connector-curvature="0"
       sodipodi:nodetypes="csssssc" />
    <path
       style="display:inline;fill:#ffffff;stroke:none;stroke-width:0.99999994"
       d="m 1920.8273,663.55898 c 51.4934,-25.05742 101.3335,-84.50569 87.939,-140.05224 -8.1157,-33.6558 -17.2505,-51.47851 -17.2505,-51.47851 l 37.7708,-2.39424 11.5884,36.59761 c 0,0 3.2849,108.24957 -120.0477,157.32738 z"
       id="path3063-1-6"
       inkscape:connector-curvature="0"
       sodipodi:nodetypes="cscccc" />
    <path
       style="display:inline;fill:#ffffff;stroke:none;stroke-width:0.99999994"
       d="m 1251.2541,685.09232 c -48.6175,-23.27518 -83.2149,-109.49172 -49.7683,-157.70546 19.7334,-28.44595 29.6777,-45.4626 29.6777,-45.4626 l -35.9455,-11.84422 c -83.024,107.75331 -0.6527,193.21215 56.0361,215.01228 z"
       id="path3063-1"
       inkscape:connector-curvature="0"
       sodipodi:nodetypes="csccc" />
  </g>
  <g
     inkscape:groupmode="layer"
     id="layer1"
     inkscape:label="txt"
     style="display:inline">
    <text
       xml:space="preserve"
       style="font-style:normal;font-variant:normal;font-weight:normal;font-stretch:normal;line-height:15px;font-family:Lavi;-inkscape-font-specification:Lavi;letter-spacing:0px;word-spacing:0px;fill:#ffffff;fill-opacity:1;stroke:#c83737;stroke-width:0.99236238;stroke-miterlimit:4;stroke-dasharray:none;stroke-opacity:1;filter:url(#filter4375-4-1-1-1-9-5-8-0-9);"
       x="787.65729"
       y="1584.5073"
       id="text4580-6-0-2-4"
       transform="matrix(0.83434398,-0.14790328,-0.40858731,0.88612324,531.23181,-1091.7696)"><tspan
         sodipodi:role="line"
         id="tspan4582-1-1-3-7"
         x="787.65729"
         y="1584.5073"
         style="font-size:70px;line-height:15px;fill:#ffffff;fill-opacity:1;stroke:#c83737;stroke-opacity:1;"><tspan
           style="font-size:93.14950562px;fill:#ffffff;fill-opacity:1;stroke:#c83737;stroke-opacity:1;line-height:15px;"
           id="tspan4315-8-7-8">Floooff!</tspan><tspan
           style="font-size:114.73223114px;fill:#ffffff;fill-opacity:1;stroke:#c83737;stroke-opacity:1;line-height:15px;"
           id="tspan4313-2-5-4">!</tspan></tspan></text>
    <text
       xml:space="preserve"
       style="font-style:normal;font-variant:normal;font-weight:normal;font-stretch:normal;line-height:0%;font-family:Lavi;-inkscape-font-specification:Lavi;text-align:center;letter-spacing:0px;word-spacing:0px;text-anchor:middle;fill:#000000;fill-opacity:1;stroke:none"
       x="1233.6572"
       y="331.46378"
       id="text4246"><tspan
         sodipodi:role="line"
         style="font-size:45px;line-height:1.25"
         x="1233.6572"
         y="331.46378"
         id="tspan121">Ich sehe nichts</tspan><tspan
         sodipodi:role="line"
         style="font-size:45px;line-height:1.25"
         x="1241.5674"
         y="387.71378"
         id="tspan125">Gefährliches daran, </tspan><tspan
         sodipodi:role="line"
         style="font-size:45px;line-height:1.25"
         x="1241.5674"
         y="443.96378"
         id="tspan127">diesen Baum aus der </tspan><tspan
         sodipodi:role="line"
         style="font-size:45px;line-height:1.25"
         x="1233.6572"
         y="500.21378"
         id="tspan131">Mikrodimension zu holen.</tspan></text>
    <text
       xml:space="preserve"
       style="font-style:normal;font-variant:normal;font-weight:normal;font-stretch:normal;line-height:0%;font-family:Lavi;-inkscape-font-specification:Lavi;text-align:center;letter-spacing:0px;word-spacing:0px;text-anchor:middle;fill:#000000;fill-opacity:1;stroke:none"
       x="1232.4897"
       y="188.79892"
       id="text4246-7"><tspan
         sodipodi:role="line"
         style="font-size:45px;line-height:1.25"
         x="1232.4897"
         y="188.79892"
         id="tspan881-3">So! Vergrößert.</tspan><tspan
         sodipodi:role="line"
         style="font-size:45px;line-height:1.25"
         x="1232.4897"
         y="245.04892"
         id="tspan906">Jetzt sieht es perfekt aus!</tspan></text>
    <text
       xml:space="preserve"
       style="font-style:normal;font-variant:normal;font-weight:normal;font-stretch:normal;line-height:0%;font-family:Lavi;-inkscape-font-specification:Lavi;text-align:center;letter-spacing:0px;word-spacing:0px;text-anchor:middle;fill:#000000;fill-opacity:1;stroke:none"
       x="263.42697"
       y="2326.1411"
       id="text4246-7-6"><tspan
         sodipodi:role="line"
         style="font-size:45px;line-height:1.25"
         x="263.42697"
         y="2326.1411"
         id="tspan906-9">Also gut,</tspan></text>
    <text
       xml:space="preserve"
       style="font-style:normal;font-variant:normal;font-weight:normal;font-stretch:normal;line-height:0%;font-family:Lavi;-inkscape-font-specification:Lavi;text-align:center;letter-spacing:0px;word-spacing:0px;text-anchor:middle;fill:#000000;fill-opacity:1;stroke:none"
       x="296.66428"
       y="2408.4778"
       id="text4246-7-6-1"><tspan
         sodipodi:role="line"
         style="font-size:45px;line-height:1.25"
         x="304.57443"
         y="2408.4778"
         id="tspan164">es ist an der </tspan><tspan
         sodipodi:role="line"
         style="font-size:45px;line-height:1.25"
         x="304.57443"
         y="2464.7278"
         id="tspan168">Zeit, diese </tspan><tspan
         sodipodi:role="line"
         style="font-size:45px;line-height:1.25"
         x="304.57443"
         y="2520.9778"
         id="tspan170">Mikrodimension in </tspan><tspan
         sodipodi:role="line"
         style="font-size:45px;line-height:1.25"
         x="304.57443"
         y="2577.2278"
         id="tspan172">die Realität zu </tspan><tspan
         sodipodi:role="line"
         style="font-size:45px;line-height:1.25"
         x="304.57443"
         y="2633.4778"
         id="tspan174">versetzen und ihnen </tspan><tspan
         sodipodi:role="line"
         style="font-size:45px;line-height:1.25"
         x="304.57443"
         y="2689.7278"
         id="tspan176">zu zeigen, wie </tspan><tspan
         sodipodi:role="line"
         style="font-size:45px;line-height:1.25"
         x="304.57443"
         y="2745.9778"
         id="tspan178">schöpferisch das </tspan><tspan
         sodipodi:role="line"
         style="font-size:45px;line-height:1.25"
         x="296.66428"
         y="2802.2278"
         id="tspan180">Chaos sein kann!</tspan></text>
    <text
       xml:space="preserve"
       style="font-style:normal;font-variant:normal;font-weight:normal;font-stretch:normal;line-height:0%;font-family:Lavi;-inkscape-font-specification:Lavi;letter-spacing:0px;word-spacing:0px;fill:#ffffff;fill-opacity:1;stroke:#c83737;stroke-width:0.99236238;stroke-miterlimit:4;stroke-dasharray:none;stroke-opacity:1;filter:url(#filter4375-4-1-1-1-9-5-8)"
       x="787.65729"
       y="1584.5073"
       id="text4580-6-0"
       transform="matrix(0.84200562,-0.09503576,-0.46361166,0.85861645,1426.8384,990.64508)"><tspan
         sodipodi:role="line"
         id="tspan4582-1-1"
         x="787.65729"
         y="1584.5073"
         style="font-size:70px;line-height:1.25;fill:#ffffff;fill-opacity:1;stroke:#c83737;stroke-opacity:1"><tspan
           style="font-size:93.14950562px;fill:#ffffff;fill-opacity:1;stroke:#c83737;stroke-opacity:1"
           id="tspan4315-8">DOooong!</tspan><tspan
           style="font-size:114.73223114px;fill:#ffffff;fill-opacity:1;stroke:#c83737;stroke-opacity:1"
           id="tspan4313-2">!</tspan></tspan></text>
    <text
       xml:space="preserve"
       style="font-style:normal;font-variant:normal;font-weight:normal;font-stretch:normal;line-height:0%;font-family:Lavi;-inkscape-font-specification:Lavi;text-align:center;letter-spacing:0px;word-spacing:0px;text-anchor:middle;fill:#000000;fill-opacity:1;stroke:none"
       x="1637.5579"
       y="2390.0623"
       id="text4246-7-6-1-7"><tspan
         sodipodi:role="line"
         style="font-size:45px;line-height:1.25"
         x="1637.5579"
         y="2390.0623"
         id="tspan1076">Mmm...</tspan><tspan
         sodipodi:role="line"
         style="font-size:45px;line-height:1.25"
         x="1637.5579"
         y="2446.3123"
         id="tspan1080">Pepper ist zurück.</tspan></text>
    <text
       xml:space="preserve"
       style="font-style:normal;font-variant:normal;font-weight:normal;font-stretch:normal;line-height:0%;font-family:Lavi;-inkscape-font-specification:Lavi;text-align:center;letter-spacing:0px;word-spacing:0px;text-anchor:middle;fill:#000000;fill-opacity:1;stroke:none"
       x="1777.2721"
       y="2554.6619"
       id="text4246-7-6-1-7-6"><tspan
         sodipodi:role="line"
         style="font-size:45px;line-height:1.25"
         x="1785.1823"
         y="2554.6619"
         id="tspan1111">Bravo, Cayenne. Deine </tspan><tspan
         sodipodi:role="line"
         style="font-size:45px;line-height:1.25"
         x="1785.1823"
         y="2610.9119"
         id="tspan212">Erziehungsmethoden bringen </tspan><tspan
         sodipodi:role="line"
         style="font-size:45px;line-height:1.25"
         x="1777.2721"
         y="2667.1619"
         id="tspan216">uns endlich Ergebnisse.</tspan></text>
    <text
       xml:space="preserve"
       style="font-style:normal;font-variant:normal;font-weight:normal;font-stretch:normal;line-height:0%;font-family:Lavi;-inkscape-font-specification:Lavi;text-align:center;letter-spacing:0px;word-spacing:0px;text-anchor:middle;fill:#000000;fill-opacity:1;stroke:none"
       x="1569.8807"
       y="3143.0315"
       id="text4246-7-6-1-7-1"><tspan
         sodipodi:role="line"
         style="font-size:45px;line-height:1.25"
         x="1577.7909"
         y="3143.0315"
         id="tspan1136">Danke, </tspan><tspan
         sodipodi:role="line"
         style="font-size:45px;line-height:1.25"
         x="1569.8807"
         y="3199.2815"
         id="tspan223">Schulleiterin.</tspan></text>
    <text
       xml:space="preserve"
       style="font-style:normal;font-variant:normal;font-weight:normal;font-stretch:normal;line-height:0%;font-family:Lavi;-inkscape-font-specification:Lavi;text-align:center;letter-spacing:0px;word-spacing:0px;text-anchor:middle;fill:#000000;fill-opacity:1;stroke:none"
       x="257.43497"
       y="2876.2312"
       id="text4246-7-6-1-9"><tspan
         sodipodi:role="line"
         style="font-size:45px;line-height:1.25"
         x="265.34512"
         y="2876.2312"
         id="tspan191">Ich kann es </tspan><tspan
         sodipodi:role="line"
         style="font-size:45px;line-height:1.25"
         x="265.34512"
         y="2932.4812"
         id="tspan195">kaum erwarten, </tspan><tspan
         sodipodi:role="line"
         style="font-size:45px;line-height:1.25"
         x="265.34512"
         y="2988.7312"
         id="tspan197">den Ausdruck </tspan><tspan
         sodipodi:role="line"
         style="font-size:45px;line-height:1.25"
         x="265.34512"
         y="3044.9812"
         id="tspan199">auf ihren </tspan><tspan
         sodipodi:role="line"
         style="font-size:45px;line-height:1.25"
         x="265.34512"
         y="3101.2312"
         id="tspan201">Gesichtern zu </tspan><tspan
         sodipodi:role="line"
         style="font-size:45px;line-height:1.25"
         x="257.43497"
         y="3157.4812"
         id="tspan203">sehen!</tspan></text>
    <text
       xml:space="preserve"
       style="font-style:normal;font-variant:normal;font-weight:normal;font-stretch:normal;line-height:15px;font-family:Lavi;-inkscape-font-specification:Lavi;text-align:center;letter-spacing:0px;word-spacing:0px;text-anchor:middle;display:inline;opacity:0.35800003;fill:#000000;fill-opacity:1;stroke:none;stroke-width:1.38229895;filter:url(#filter4210)"
       x="1174.0292"
       y="1085.962"
       id="text4246-5"
       transform="matrix(0.51488699,-0.08291343,0.03203136,0.57777558,577.35339,2529.9892)"><tspan
         sodipodi:role="line"
         style="font-style:normal;font-variant:normal;font-weight:normal;font-stretch:normal;font-size:45.00812149px;line-height:15px;font-family:Fondamento;-inkscape-font-specification:Fondamento;stroke:#000000;stroke-width:4.69086981;stroke-miterlimit:4;stroke-dasharray:none;stroke-opacity:1"
         x="1174.0292"
         y="1085.962"
         id="tspan4209">KOMONA-Anzeiger</tspan></text>
    <text
       xml:space="preserve"
       style="font-style:normal;font-variant:normal;font-weight:normal;font-stretch:normal;line-height:0%;font-family:Lavi;-inkscape-font-specification:Lavi;text-align:center;letter-spacing:0px;word-spacing:0px;text-anchor:middle;fill:#000000;fill-opacity:1;stroke:none"
       x="2032.1847"
       y="336.88214"
       id="text4246-75"><tspan
         sodipodi:role="line"
         style="font-size:45px;line-height:1.25"
         x="2032.1847"
         y="336.88214"
         id="tspan91-2">Es ist nur ein Einheitsbaum.</tspan><tspan
         sodipodi:role="line"
         style="font-size:45px;line-height:1.25"
         x="2040.0948"
         y="393.13214"
         id="tspan158">Es ist ja nicht so, als ob es ein </tspan><tspan
         sodipodi:role="line"
         style="font-size:45px;line-height:1.25"
         x="2032.1847"
         y="449.38214"
         id="tspan135">&quot;Zauber der Zerstörung&quot; wäre.</tspan></text>
  </g>
</svg>
