<?xml version="1.0" encoding="UTF-8" standalone="no"?>
<svg
   xmlns:dc="http://purl.org/dc/elements/1.1/"
   xmlns:cc="http://creativecommons.org/ns#"
   xmlns:rdf="http://www.w3.org/1999/02/22-rdf-syntax-ns#"
   xmlns:svg="http://www.w3.org/2000/svg"
   xmlns="http://www.w3.org/2000/svg"
   xmlns:xlink="http://www.w3.org/1999/xlink"
   xmlns:sodipodi="http://sodipodi.sourceforge.net/DTD/sodipodi-0.dtd"
   xmlns:inkscape="http://www.inkscape.org/namespaces/inkscape"
   id="svg2"
   version="1.1"
   inkscape:version="0.48.5 r10040"
   width="2481"
   height="3503"
   sodipodi:docname="E34P08.svg">
  <metadata
     id="metadata8">
    <rdf:RDF>
      <cc:Work
         rdf:about="">
        <dc:format>image/svg+xml</dc:format>
        <dc:type
           rdf:resource="http://purl.org/dc/dcmitype/StillImage" />
        <dc:title />
      </cc:Work>
    </rdf:RDF>
  </metadata>
  <defs
     id="defs6" />
  <sodipodi:namedview
     pagecolor="#ffffff"
     bordercolor="#666666"
     borderopacity="1"
     objecttolerance="10"
     gridtolerance="10"
     guidetolerance="10"
     inkscape:pageopacity="0"
     inkscape:pageshadow="2"
     inkscape:window-width="1276"
     inkscape:window-height="676"
     id="namedview4"
     showgrid="false"
     inkscape:zoom="0.34165083"
     inkscape:cx="1550.1385"
     inkscape:cy="772.78539"
     inkscape:window-x="150"
     inkscape:window-y="93"
     inkscape:window-maximized="0"
     inkscape:current-layer="layer1"
     inkscape:document-rotation="0"
     inkscape:snap-global="false"
     borderlayer="true" />
  <g
     inkscape:groupmode="layer"
     id="layer2"
     inkscape:label="artwork"
     sodipodi:insensitive="true">
    <image
       sodipodi:absref="/Users/su_huynh/Downloads/lang 6/vi/../gfx_Pepper-and-Carrot_by-David-Revoy_E34P08.png"
       xlink:href="../gfx_Pepper-and-Carrot_by-David-Revoy_E34P08.png"
       width="2481"
       height="3503"
       id="image10"
       x="0"
       y="0" />
  </g>
  <g
     inkscape:groupmode="layer"
     id="layer3"
     inkscape:label="speechbubbles"
     style="display:inline">
    <path
       style="color:#000000;fill:#ffffff;fill-opacity:1;fill-rule:nonzero;stroke:none;stroke-width:0.77022398px;marker:none;visibility:visible;display:inline;overflow:visible;enable-background:accumulate"
       d="m 1868.1163,2634.9045 c 24.645,-31.5484 88.5186,-58.8546 134.0691,-29.1667 47.5832,1.2392 31.3766,-27.3129 31.3766,-27.3129 -2.2798,-13.3723 -128.0086,-31.4485 -165.4457,56.4796 z"
       id="path3984-7"
       inkscape:connector-curvature="0"
       sodipodi:nodetypes="cccc" />
    <path
       style="fill:#ffffff;stroke:none;display:inline"
       d="m 2105.995,2638.5638 c -15.3886,0.6936 -30.6422,2.7987 -45.6756,5.5347 -15.0905,2.8241 -30.0041,6.3376 -44.564,10.6577 -8.6582,2.7009 -16.6786,6.714 -23.5956,11.7789 -18.1901,13.0024 -29.831,31.5767 -33.9258,51.0053 -4.6691,21.2817 -2.2972,43.2433 3.7421,64.1694 2.5961,8.8275 5.7332,17.5672 9.7408,26.0326 5.2212,10.2763 13.4836,19.3981 23.4922,26.8564 20.8135,16.3714 48.0625,26.6666 76.3294,30.5701 38.2907,6.1483 77.708,5.8576 116.3475,2.2514 22.9383,-1.8355 46.2505,-3.6497 67.9876,-10.3745 22.2312,-6.6556 43.315,-16.7417 59.64,-30.9799 11.3071,-10.6657 17.4663,-24.3609 20.4681,-38.1422 7.048,-27.4112 5.7885,-56.1446 -2.8279,-83.2138 -4.7152,-14.3927 -13.5994,-28.2292 -27.4855,-38.0323 -16.0027,-11.6264 -36.785,-18.6855 -58.0941,-19.7303 -18.2187,-1.4209 -36.6253,-1.3135 -54.6937,-3.9267 -28.6867,-3.2308 -57.6675,-4.7426 -86.619,-4.4652 l -0.1627,0.01 z"
       id="path3280-8-3"
       inkscape:connector-curvature="0"
       sodipodi:nodetypes="csssc" />
    <path
       style="color:#000000;fill:#ffffff;fill-opacity:1;fill-rule:nonzero;stroke:none;stroke-width:0.70338601px;marker:none;visibility:visible;display:inline;overflow:visible;enable-background:accumulate"
       d="m 2144.2451,2524.9529 c -33.1395,0.6194 -66.5277,5.2119 -97.1,16.1426 -11.4803,4.1947 -22.722,9.9227 -29.9248,18.6694 -9.0078,11.0551 -12.9988,24.5902 -12.7437,37.8462 0.5681,13.1103 7.0063,26.3677 19.115,35.0363 9.6614,6.82 21.9209,10.2256 33.8294,13.3368 21.824,5.5987 44.5455,8.3545 67.2781,9.76 15.1212,0.943 30.2825,1.4526 45.4423,1.6587 13.4082,-0.097 26.6742,-2.1948 39.55,-5.1912 18.6742,-3.9285 37.4922,-8.826 53.4931,-18.0019 11.3764,-6.6273 20.793,-16.2154 24.0785,-27.5938 4.4975,-14.6166 -0.2732,-30.8627 -12.1193,-42.2681 -9.9301,-10.5148 -21.598,-20.3619 -36.2043,-26.313 -12.3144,-4.8792 -25.8438,-6.979 -39.1395,-9.1355 -18.316,-2.7644 -36.9413,-4.055 -55.5548,-3.9465 z"
       id="path3970-3"
       inkscape:connector-curvature="0"
       sodipodi:nodetypes="cccscsc" />
    <path
       style="fill:#ffffff;fill-rule:evenodd;stroke:none;display:inline"
       d="m 149.97784,2636.2531 c 39.86193,21.4484 32.52231,30.8118 -23.67073,27.6673 89.58912,32.9352 52.60569,37.8647 -4.1167,38.4268 38.07751,12.0296 80.20982,23.8016 -7.20414,43.8066 50.65722,3.2434 94.79578,7.8231 8.23329,39.1954 44.91072,-1.2885 90.18685,-2.7393 36.02083,39.964 73.51489,-19.1804 124.50603,-24.823 86.45006,23.056 36.95129,-14.1004 97.70046,-49.8352 76.15825,-10.7594 16.9296,-12.4795 38.47559,-17.2025 77.18751,6.9168 -7.54878,-17.3947 -30.29283,-44.9628 38.07913,-11.5281 -20.6692,-26.1613 -24.7845,-40.3356 44.25423,-1.537 -10.28467,-19.7258 -54.62103,-39.4516 29.84583,-59.1775 -58.18262,-1.9673 -40.13526,-15.3197 -3.08744,-31.5099 -69.28068,-8.9478 -35.0024,-19.7818 6.17499,-30.7415 -42.91247,-4.1775 -76.01888,-11.2125 -8.2334,-47.6493 -74.61274,15.1266 -53.02033,-10.4572 -49.40008,-28.4359 -34.43236,14.2761 -73.37075,36.6839 -76.15836,-6.1483 -46.18982,53.1409 -63.67863,12.5137 -89.5375,-0.7685 -26.8957,63.2329 -87.8655,4.9558 -104.97483,0.7685 34.89138,25.8811 40.98338,37.5995 -36.02094,8.454 z"
       id="path1096"
       inkscape:connector-curvature="0"
       sodipodi:nodetypes="cccccccccccccccccccc" />
    <path
       style="fill:#ffffff;fill-rule:evenodd;stroke:none;stroke-width:1px;stroke-linecap:butt;stroke-linejoin:miter;stroke-opacity:1"
       d="m 276.69249,2637.35 c 22.24357,147.5922 76.16994,294.7462 66.72409,442.7767 39.32721,-7.5351 57.02691,-43.538 110.60404,61.3044 36.13567,-50.5432 43.46402,-9.9468 54.08883,20.3938 25.92501,-21.2619 53.62712,-17.4156 81.20022,-15.3921 -24.07084,-2.6294 -42.56765,-23.176 -74.42406,-0.7793 -0.99204,-50.5675 -24.7242,-64.2967 -53.19608,-40.6932 -22.25284,-65.4923 -46.37098,-77.5206 -92.38131,-54.9383 1.82968,-175.1557 -47.49605,-279.4592 -67.44658,-422.2765 z"
       id="path1313"
       sodipodi:nodetypes="cccccccccc" />
    <path
       style="color:#000000;fill:#ffffff;fill-opacity:1;fill-rule:nonzero;stroke:none;stroke-width:1.20506001px;marker:none;visibility:visible;display:inline;overflow:visible;enable-background:accumulate"
       d="m 170.63248,2978.4225 c 2.13733,-33.5095 6.9559,-60.0932 33.46636,-74.8341 26.51046,-14.7408 74.71261,-17.6385 135.86611,-11.8398 32.75711,3.106 79.30182,7.629 105.4066,21.6313 26.10487,14.002 31.76965,37.4831 29.01895,86.5691 -2.75068,49.0858 -12.37052,75.2338 -42.56642,87.4037 -30.1959,12.1701 -80.96797,10.3621 -92.02001,11.6004 -28.89806,-3.8988 -84.61946,1.6308 -120.04247,-8.6881 -35.4231,-10.3189 -50.54763,-36.4863 -49.12912,-111.8425 z"
       id="path4546-6-0"
       inkscape:connector-curvature="0"
       sodipodi:nodetypes="cssssscsc" />
    <path
       style="fill:#ffffff;fill-rule:evenodd;stroke:none;stroke-width:1.45706px;stroke-linecap:butt;stroke-linejoin:miter;stroke-opacity:1"
       d="m 231.42593,2646.0702 c 35.41985,-49.3906 37.70491,-5.0535 55.96871,35.6889 17.75382,-30.1012 5.15376,-36.4636 45.85073,2.2704 8.44612,-59.6073 27.5449,-42.2998 50.64725,-10.7681 -7.99879,-41.9155 -8.45703,-61.5367 27.01938,-25.4918 8.99788,-47.6182 26.95587,-12.9586 52.10882,10.1972 -6.10872,-53.7934 -9.05698,-53.6364 42.45908,-44.1851 -35.80515,-47.397 11.84804,-26.0506 48.24879,-20.3946 -54.63528,-36.7693 -34.91948,-30.2715 19.29973,-27.1912 -67.27025,-30.4367 -71.25809,-26.2233 -7.71992,-62.8801 -94.72831,10.9895 -85.79957,9.6731 -23.15949,-54.3825 -37.60205,5.4257 -135.30178,81.5639 -75.2683,13.5963 -51.32627,17.9479 -67.43453,40.5364 -40.52914,-18.6949 l -42.45895,-5.0986 c -19.55804,21.5354 -25.6106,57.6977 -28.94946,13.5962 -28.56695,32.9616 -26.94464,38.4684 -40.529,-3.399 -18.87445,56.9024 -21.79514,12.8479 -32.8095,-23.7922 -24.79343,34.1854 -25.02479,73.3034 -40.529,18.6936 -10.79384,55.5739 -32.63346,16.137 -63.68863,-10.196 9.68585,60.4856 12.44978,59.8684 -34.7393,22.0927 17.69685,55.2241 -0.12085,43.6301 -50.178725,40.7862 59.934885,48.7791 40.845595,47.3052 -19.299738,81.5751 33.602873,5.429 93.422953,-28.3143 61.758673,16.994 74.22315,-27.7166 14.47913,44.3612 -3.85989,81.5737 66.31739,-56.8062 93.81474,-102.7777 100.35788,-30.5902 z"
       id="path1309"
       inkscape:connector-curvature="0"
       sodipodi:nodetypes="ccccccccccccccccccccccccc" />
    <path
       style="fill:#ffffff;stroke:none;display:inline"
       d="m 2025.234,1809.8837 c -26.7384,0.5954 -53.4091,7.0262 -77.3459,18.9968 -16.0983,8.0864 -30.9843,18.7828 -43.0382,32.2318 -31.3676,33.9969 -48.979,79.8388 -50.0702,125.9548 -1.9509,38.2601 6.3143,77.6554 27.0001,110.2147 19.7852,31.8634 48.5826,59.0106 83.7161,72.9972 20.5383,8.3244 41.8534,14.6326 63.3607,19.8894 29.8964,5.6139 60.5707,1.5272 90.012,-4.772 26.2662,-5.5999 52.6576,-14.5876 73.5885,-31.9713 23.1337,-19.2049 38.5946,-45.8199 50.6671,-72.9607 12.2306,-27.1808 19.5368,-57.219 16.7873,-87.1452 -2.199,-30.5293 -7.9687,-61.5682 -23.01,-88.5784 -14.7106,-26.2109 -37.5598,-47.4013 -63.9449,-61.5778 -34.57,-19.1318 -73.7975,-28.2026 -112.8804,-31.8897 -11.5866,-0.9553 -23.2132,-1.5558 -34.8422,-1.3896 z"
       id="path3280-5"
       inkscape:connector-curvature="0"
       sodipodi:nodetypes="csssc" />
    <path
       style="color:#000000;display:inline;overflow:visible;visibility:visible;fill:#ffffff;fill-opacity:1;fill-rule:nonzero;stroke:none;stroke-width:0.869755px;marker:none;enable-background:accumulate"
       d="m 631.52816,1840.5303 c 47.24511,-27.3875 115.83444,-55.1086 154.24551,3.9472 23.5574,-4.8627 69.71482,-40.1263 115.42935,17.7336 -47.53609,-35.9834 -78.50267,-15.4767 -118.07887,4.9225 -18.59072,-41.5285 -83.01307,-49.4207 -140.96132,7.1368 -57.94866,56.5566 -38.62415,45.003 -38.62415,45.003 l 10.52452,-62.5977 z"
       id="path5074-8"
       inkscape:connector-curvature="0"
       sodipodi:nodetypes="ccccsccc" />
    <path
       style="display:inline;fill:#ffffff;stroke:none;stroke-width:1.1478"
       d="m 468.5293,1793.8711 c -26.90808,0.6553 -54.44816,-0.041 -80.39635,8.2308 -29.58808,9.5164 -54.07998,31.2373 -70.61699,57.1699 -13.38877,20.4206 -20.00624,44.4581 -23.40108,68.4212 -2.65921,21.0135 -2.07369,42.7733 4.25263,63.109 10.52766,31.4498 36.34359,57.1854 67.65813,67.9918 19.46537,7.0088 39.97726,10.309 60.25247,14.0323 41.29037,6.7969 83.75468,9.4056 125.21227,2.4954 31.85461,-5.577 62.96262,-16.791 90.11437,-34.5054 14.82573,-10.6133 23.79344,-27.406 29.1564,-44.4651 9.23648,-29.8506 8.15351,-62.2525 8e-5,-92.2165 -3.86181,-13.6603 -8.886,-27.1164 -16.1098,-39.3758 -16.57525,-27.6909 -44.04439,-48.7536 -75.3084,-56.9847 -19.42944,-5.4534 -39.49768,-8.053 -59.43287,-10.8873 -17.04469,-2.0448 -34.21111,-3.13 -51.38086,-3.0156 z"
       id="path3280-5-9"
       inkscape:connector-curvature="0"
       sodipodi:nodetypes="csssc" />
    <path
       style="color:#000000;fill:#ffffff;fill-opacity:1;fill-rule:nonzero;stroke:none;stroke-width:1.51656997px;marker:none;visibility:visible;display:inline;overflow:visible;enable-background:accumulate"
       d="m 1590.6406,316.22682 c 5.4385,-89.36245 63.7242,-154.17733 264.3844,-138.11394 107.4844,8.60429 229.4928,14.05646 222.7718,144.96149 -6.7208,130.90482 -182.0384,128.19134 -218.1961,131.38615 -36.1576,3.19504 -206.5748,-10.66361 -239.9541,-55.06061 -20.8949,-27.79116 -29.3359,-55.50208 -29.006,-83.17309 z"
       id="path4546-7"
       inkscape:connector-curvature="0"
       sodipodi:nodetypes="cssssc" />
    <path
       style="fill:#ffffff;fill-rule:evenodd;stroke:none"
       d="m 1613.7948,262.21935 12.0336,66.54609 C 1134.163,135.84247 917.07256,389.63681 812.05484,626.32157 829.35696,562.84872 865.97322,501.13194 885.57858,460.39088 942.46902,342.16935 1176.7685,139.98551 1613.7948,262.21935 z"
       id="path1237"
       sodipodi:nodetypes="cccsc"
       inkscape:connector-curvature="0" />
    <path
       style="fill:#ffffff;fill-rule:evenodd;stroke:none"
       d="m 821.75449,220.94696 c 28.83871,11.09914 54.90692,17.99978 46.04425,-28.03571 51.04641,62.50004 43.72384,19.69598 51.7998,4.67259 30.34894,44.1498 56.46171,37.85813 79.13858,-9.34518 12.81958,68.08855 39.64568,35.09919 63.31098,24.92062 -0.057,19.14757 -31.056,50.26172 54.7157,14.3962 -19.9662,17.29356 -52.9433,46.24647 6.8582,28.90949 -9.6912,4.58481 7.8223,8.21579 0.8476,10.91489 -31.2145,12.07947 -23.8774,49.60064 3.767,64.15274 -33.4419,10.74479 -34.5061,22.42247 4.8722,53.34469 -50.0062,-21.3371 -42.4515,6.87269 -33.1984,20.48317 -49.1051,-27.98309 -55.9755,-16.7797 -51.7997,4.67259 -22.8556,-12.30609 -27.2502,-32.67083 -68.07906,5.60688 -12.14289,-12.70377 -28.3272,-24.80603 -64.50552,12.24525 11.41664,-32.78956 -7.52037,-34.62836 -36.21631,-15.36034 -7.56874,-32.43618 -35.98948,-15.96726 -66.18863,4.67269 24.64942,-31.65842 26.43561,-58.10646 -21.58323,-73.20456 46.53428,-18.11092 38.06079,-32.7193 20.14436,-46.72626 17.70085,-13.17152 29.24203,-27.51953 -17.2666,-52.95652 27.19244,3.95453 56.14607,9.05294 27.33878,-23.36323 z"
       id="path4582"
       inkscape:connector-curvature="0"
       sodipodi:nodetypes="cccccccscccccccccccc" />
    <path
       style="fill:#ffffff;fill-rule:evenodd;stroke:none;stroke-width:1.03326px;stroke-linecap:butt;stroke-linejoin:miter;stroke-opacity:1"
       d="m 190.14365,262.62295 c 12.86771,-16.21122 19.6773,-52.03067 -24.49456,-44.96664 35.68275,-21.85709 23.63258,-41.85522 -3.55262,-54.40527 67.1844,19.70984 66.57852,-2.82049 55.99793,-31.56608 43.17855,40.81271 36.71021,-2.46718 32.55723,-18.83263 9.76842,15.10142 11.82721,38.72184 45.04887,1.90064 -0.29089,27.18411 -5.60484,59.47457 56.46579,23.26274 -20.43864,33.16486 -21.15579,57.37635 38.14995,54.33798 -25.77736,10.68164 -61.38706,21.51975 -12.68171,31.01612 -31.43973,-0.83881 -52.32823,1.40517 -38.84387,13.69197 -13.05479,-2.29462 -30.72812,-8.98401 -3.00442,27.52406 -18.89334,-13.5093 -42.25668,-34.51638 -35.52526,-5.04382 -16.56424,-13.24969 -17.62331,6.22268 -13.84175,35.91075 -11.75735,-34.47867 -24.30307,-38.37802 -37.7735,-6.4103 5.95532,-25.24331 2.97128,-57.42607 -40.31284,-22.87339 -11.72281,-2.61984 -10.02226,-2.47949 -18.18924,-3.54613 z"
       id="path1213"
       sodipodi:nodetypes="cccccccccccccccc" />
    <path
       style="fill:#ffffff;fill-rule:evenodd;stroke:none;stroke-width:1.28731px;stroke-linecap:butt;stroke-linejoin:miter;stroke-opacity:1"
       d="M 223.92681,451.40352 C 191.03014,380.78428 162.95416,309.9462 234.75229,234.57441 l -10.34265,-15.32374 c -90.31546,91.35161 -49.21656,162.34365 -0.48283,232.15285 z"
       id="path1217"
       sodipodi:nodetypes="cccc" />
    <path
       style="fill:#ffffff;fill-rule:evenodd;stroke:none;stroke-width:1.08499px;stroke-linecap:butt;stroke-linejoin:miter;stroke-opacity:1"
       d="m 1643.7985,1929.1739 c 96.8015,-46.6867 120.9988,-40.2821 80.5755,28.3512 65.4725,-1.176 123.2483,3.9962 149.8904,34.8462 l 15.5883,-26.0596 c -31.2138,-18.9598 -72.3678,-35.221 -134.1445,-30.1606 20.9177,-34.9284 13.3859,-99.1339 -111.9097,-6.9772 z"
       id="path1284"
       sodipodi:nodetypes="cccccc" />
  </g>
  <g
     inkscape:groupmode="layer"
     id="layer1"
     inkscape:label="txt">
    <text
       xml:space="preserve"
       style="font-style:normal;font-variant:normal;font-weight:normal;font-stretch:normal;font-size:61.37019999999999698px;line-height:1.25000000000000000;font-family:ComicSpice;-inkscape-font-specification:ComicSpice;text-align:center;letter-spacing:0px;word-spacing:0px;text-anchor:middle;fill:#000000;fill-opacity:1;stroke:none;stroke-width:1.36377999999999999"
       x="303.31573"
       y="220.50998"
       id="text4246-3-2-2-6-3-7-9-3-3-56-9-3-20"
       transform="matrix(0.98420935,0,-0.14417944,1.016044,0,0)"><tspan
         style="font-size:61.37019999999999698px;stroke-width:1.36377999999999999;-inkscape-font-specification:ComicSpice;font-family:ComicSpice;font-weight:normal;font-style:normal;font-stretch:normal;font-variant:normal"
         sodipodi:role="line"
         x="303.31573"
         y="220.50998"
         id="tspan334">?!!</tspan></text>
    <text
       xml:space="preserve"
       style="font-size:52.13230133px;font-style:normal;font-variant:normal;font-weight:normal;font-stretch:normal;text-align:center;line-height:1.25;letter-spacing:0px;word-spacing:0px;text-anchor:middle;fill:#000000;fill-opacity:1;stroke:none;font-family:ComicSpice;-inkscape-font-specification:ComicSpice"
       x="955.36609"
       y="297.94598"
       id="text4246-3-2-2-6-3-7-9-3-3-56-9-3-20-3"><tspan
         style="font-size:52.13230133px;font-style:normal;font-variant:normal;font-weight:normal;font-stretch:normal;font-family:ComicSpice;-inkscape-font-specification:ComicSpice"
         sodipodi:role="line"
         x="955.36609"
         y="297.94598"
         id="tspan880">Mục tiêu là</tspan><tspan
         style="font-size:52.13230133px;font-style:normal;font-variant:normal;font-weight:normal;font-stretch:normal;font-family:ComicSpice;-inkscape-font-specification:ComicSpice"
         sodipodi:role="line"
         x="955.36609"
         y="363.11136"
         id="tspan10425"><tspan
   style="font-weight:bold;-inkscape-font-specification:ComicSpice Bold"
   id="tspan5064">Sư Phụ em</tspan>!</tspan></text>
    <text
       xml:space="preserve"
       style="font-size:48.80149841px;font-style:normal;font-variant:normal;font-weight:normal;font-stretch:normal;text-align:center;line-height:1.25;letter-spacing:0px;word-spacing:0px;text-anchor:middle;fill:#000000;fill-opacity:1;stroke:none;font-family:ComicSpice;-inkscape-font-specification:ComicSpice"
       x="1844.2581"
       y="267.90503"
       id="text4246-3-2-2-6-3-7-9-3-3-56-9-3-20-3-7"><tspan
         style="font-size:48.80149841px;font-style:normal;font-variant:normal;font-weight:normal;font-stretch:normal;font-family:ComicSpice;-inkscape-font-specification:ComicSpice"
         sodipodi:role="line"
         x="1844.2581"
         y="267.90503"
         id="tspan10447">Chị chỉ hủy <tspan
   style="font-style:italic;-inkscape-font-specification:ComicSpice Italic"
   id="tspan5082">Phép Thuật</tspan></tspan><tspan
         style="font-size:48.80149841px;font-style:normal;font-variant:normal;font-weight:normal;font-stretch:normal;font-family:ComicSpice;-inkscape-font-specification:ComicSpice"
         sodipodi:role="line"
         x="1844.2581"
         y="328.90689"
         id="tspan5072"><tspan
   style="font-style:italic;-inkscape-font-specification:ComicSpice Italic"
   id="tspan5084">Mỹ Hóa</tspan> của sư phụ em</tspan><tspan
         style="font-size:48.80149841px;font-style:normal;font-variant:normal;font-weight:normal;font-stretch:normal;font-family:ComicSpice;-inkscape-font-specification:ComicSpice"
         sodipodi:role="line"
         x="1844.2581"
         y="389.90878"
         id="tspan10449">cho coi trẻ mãi mãi.</tspan></text>
    <text
       xml:space="preserve"
       style="font-size:45px;font-style:normal;font-variant:normal;font-weight:normal;font-stretch:normal;text-align:center;line-height:1.25;letter-spacing:0px;word-spacing:0px;text-anchor:middle;fill:#000000;fill-opacity:1;stroke:none;font-family:ComicSpice;-inkscape-font-specification:ComicSpice"
       x="481.96011"
       y="1891.4783"
       id="text4246-3-2-2-6-3-7-9-3-3-56-9-3-20-5"><tspan
         style="font-size:45px;font-style:normal;font-variant:normal;font-weight:normal;font-stretch:normal;font-family:ComicSpice;-inkscape-font-specification:ComicSpice"
         sodipodi:role="line"
         x="481.96011"
         y="1891.4783"
         id="tspan943">Tôi đã nhìn</tspan><tspan
         style="font-size:45px;font-style:normal;font-variant:normal;font-weight:normal;font-stretch:normal;font-family:ComicSpice;-inkscape-font-specification:ComicSpice"
         sodipodi:role="line"
         x="481.96011"
         y="1947.7283"
         id="tspan10456">thấy phép thuật này</tspan><tspan
         style="font-size:45px;font-style:normal;font-variant:normal;font-weight:normal;font-stretch:normal;font-family:ComicSpice;-inkscape-font-specification:ComicSpice"
         sodipodi:role="line"
         x="481.96011"
         y="2003.9783"
         id="tspan10462">khi tôi mới đến đây.</tspan></text>
    <text
       xml:space="preserve"
       style="font-size:45px;font-style:normal;font-variant:normal;font-weight:normal;font-stretch:normal;text-align:center;line-height:1.25;letter-spacing:0px;word-spacing:0px;text-anchor:middle;fill:#000000;fill-opacity:1;stroke:none;font-family:ComicSpice;-inkscape-font-specification:ComicSpice"
       x="2057.2542"
       y="1930.2308"
       id="text4246-3-2-2-6-3-7-9-3-3-56-9-3-20-5-9"><tspan
         style="font-size:45px;font-style:normal;font-variant:normal;font-weight:normal;font-stretch:normal;font-family:ComicSpice;-inkscape-font-specification:ComicSpice"
         sodipodi:role="line"
         x="2057.2542"
         y="1930.2308"
         id="tspan992">Có lẻ này không có gì</tspan><tspan
         style="font-size:45px;font-style:normal;font-variant:normal;font-weight:normal;font-stretch:normal;font-family:ComicSpice;-inkscape-font-specification:ComicSpice"
         sodipodi:role="line"
         x="2057.2542"
         y="1986.4808"
         id="tspan10478">lớn lao, nhưng NÀY là</tspan><tspan
         style="font-size:45px;font-style:normal;font-variant:normal;font-weight:normal;font-stretch:normal;font-family:ComicSpice;-inkscape-font-specification:ComicSpice"
         sodipodi:role="line"
         x="2057.2542"
         y="2042.7308"
         id="tspan10480">trả dũa vì bắt Thất Vị</tspan><tspan
         style="font-size:45px;font-style:normal;font-variant:normal;font-weight:normal;font-stretch:normal;font-family:ComicSpice;-inkscape-font-specification:ComicSpice"
         sodipodi:role="line"
         x="2057.2542"
         y="2098.981"
         id="tspan10482">chiến đấu với tôi !</tspan></text>
    <text
       xml:space="preserve"
       style="font-size:60px;font-style:normal;font-variant:normal;font-weight:bold;font-stretch:normal;text-align:center;line-height:1.25;letter-spacing:2px;word-spacing:0px;text-anchor:middle;fill:#000000;fill-opacity:1;stroke:none;font-family:ComicSpice;-inkscape-font-specification:ComicSpice Bold"
       x="371.23419"
       y="2215.2615"
       id="text4246-3-2-2-6-3-7-9-3-3-56-9-3-20-5-9-0"
       transform="scale(0.860916,1.1615535)"><tspan
         style="font-size:60px;font-style:normal;font-variant:normal;font-weight:bold;font-stretch:normal;font-family:ComicSpice;-inkscape-font-specification:ComicSpice Bold"
         sodipodi:role="line"
         x="372.23419"
         y="2215.2615"
         id="tspan992-6">MẤT DẠY!</tspan></text>
    <text
       xml:space="preserve"
       style="font-size:58px;font-style:normal;font-variant:normal;font-weight:normal;font-stretch:normal;text-align:center;line-height:1.25;letter-spacing:0px;word-spacing:0px;text-anchor:middle;fill:#000000;fill-opacity:1;stroke:none;font-family:ComicSpice;-inkscape-font-specification:ComicSpice"
       x="341.90012"
       y="2749.9436"
       id="text4246-3-2-2-6-3-7-9-3-3-56-9-3-20-5-2"><tspan
         style="font-size:58px;font-style:normal;font-variant:normal;font-weight:normal;font-stretch:normal;font-family:ComicSpice;-inkscape-font-specification:ComicSpice"
         sodipodi:role="line"
         x="341.90012"
         y="2749.9436"
         id="tspan1085">Mày dám ?!</tspan></text>
    <text
       xml:space="preserve"
       style="font-size:50px;font-style:normal;font-variant:normal;font-weight:normal;font-stretch:normal;text-align:center;line-height:1.25;letter-spacing:0px;word-spacing:0px;text-anchor:middle;fill:#000000;fill-opacity:1;stroke:none;font-family:ComicSpice;-inkscape-font-specification:ComicSpice"
       x="320.42993"
       y="2966.9758"
       id="text4246-3-2-2-6-3-7-9-3-3-56-9-3-20-5-2-7"><tspan
         style="font-size:50px;font-style:normal;font-variant:normal;font-weight:normal;font-stretch:normal;font-family:ComicSpice;-inkscape-font-specification:ComicSpice"
         sodipodi:role="line"
         x="320.42993"
         y="2966.9758"
         id="tspan1119">Trước cả</tspan><tspan
         style="font-size:50px;font-style:normal;font-variant:normal;font-weight:normal;font-stretch:normal;font-family:ComicSpice;-inkscape-font-specification:ComicSpice"
         sodipodi:role="line"
         x="320.42993"
         y="3029.4758"
         id="tspan10436">trường của tau!</tspan></text>
    <text
       xml:space="preserve"
       style="font-size:45px;font-style:normal;font-variant:normal;font-weight:normal;font-stretch:normal;text-align:center;line-height:1.25;letter-spacing:0px;word-spacing:0px;text-anchor:middle;fill:#000000;fill-opacity:1;stroke:none;font-family:ComicSpice;-inkscape-font-specification:ComicSpice"
       x="2149.2981"
       y="2596.0259"
       id="text4246-3-2-2-6-3-7-9-3-3-56-9-3-20-5-9-02"><tspan
         style="font-size:45px;font-style:normal;font-variant:normal;font-weight:normal;font-stretch:normal;font-family:ComicSpice;-inkscape-font-specification:ComicSpice"
         sodipodi:role="line"
         x="2149.2981"
         y="2596.0259"
         id="tspan1175">Bà rất hên!</tspan></text>
    <text
       xml:space="preserve"
       style="font-size:45px;font-style:normal;font-variant:normal;font-weight:normal;font-stretch:normal;text-align:center;line-height:1.25;letter-spacing:0px;word-spacing:0px;text-anchor:middle;fill:#000000;fill-opacity:1;stroke:none;font-family:ComicSpice;-inkscape-font-specification:ComicSpice"
       x="2151.4736"
       y="2709.0884"
       id="text4246-3-2-2-6-3-7-9-3-3-56-9-3-20-5-9-02-2"><tspan
         style="font-size:45px;font-style:normal;font-variant:normal;font-weight:normal;font-stretch:normal;font-family:ComicSpice;-inkscape-font-specification:ComicSpice"
         sodipodi:role="line"
         x="2151.4736"
         y="2709.0884"
         id="tspan1211">Nếu tôi có đầy đủ</tspan><tspan
         style="font-size:45px;font-style:normal;font-variant:normal;font-weight:normal;font-stretch:normal;font-family:ComicSpice;-inkscape-font-specification:ComicSpice"
         sodipodi:role="line"
         x="2151.4736"
         y="2765.3384"
         id="tspan5099">sức lực, tôi không</tspan><tspan
         style="font-size:45px;font-style:normal;font-variant:normal;font-weight:normal;font-stretch:normal;font-family:ComicSpice;-inkscape-font-specification:ComicSpice"
         sodipodi:role="line"
         x="2151.4736"
         y="2821.5884"
         id="tspan5101">dừng lại tại này. .</tspan></text>
  </g>
</svg>
