<?xml version="1.0" encoding="UTF-8" standalone="no"?>
<svg
   xmlns:dc="http://purl.org/dc/elements/1.1/"
   xmlns:cc="http://creativecommons.org/ns#"
   xmlns:rdf="http://www.w3.org/1999/02/22-rdf-syntax-ns#"
   xmlns:svg="http://www.w3.org/2000/svg"
   xmlns="http://www.w3.org/2000/svg"
   xmlns:xlink="http://www.w3.org/1999/xlink"
   xmlns:sodipodi="http://sodipodi.sourceforge.net/DTD/sodipodi-0.dtd"
   xmlns:inkscape="http://www.inkscape.org/namespaces/inkscape"
   id="svg2"
   version="1.1"
   inkscape:version="0.92.4 (5da689c313, 2019-01-14)"
   width="2481"
   height="3503"
   sodipodi:docname="E34P09.svg">
  <metadata
     id="metadata8">
    <rdf:RDF>
      <cc:Work
         rdf:about="">
        <dc:format>image/svg+xml</dc:format>
        <dc:type
           rdf:resource="http://purl.org/dc/dcmitype/StillImage" />
        <dc:title />
      </cc:Work>
    </rdf:RDF>
  </metadata>
  <defs
     id="defs6">
    <filter
       style="color-interpolation-filters:sRGB"
       id="filter4375-4-1-1-1-9-5-8-8-5-5-3-3-3-0"
       inkscape:label="soundFX1">
      <feFlood
         id="feFlood4377-7-9-0-8-1-7-3-1-2-7-6-6-5-96"
         flood-opacity="1"
         flood-color="rgb(52,52,52)"
         result="flood" />
      <feComposite
         id="feComposite4379-3-8-8-2-77-4-1-0-6-4-7-7-6-3"
         in2="SourceGraphic"
         in="flood"
         operator="in"
         result="composite1"
         baseFrequency="0.053999999999999999 0.053999999999999999" />
      <feMorphology
         id="feMorphology4393-1-0-49-8-9-3-0-1-9-9-5-5-2-8"
         operator="dilate"
         radius="2.5856550817276021"
         result="result3" />
      <feComposite
         id="feComposite4385-9-5-7-0-8-8-7-5-4-9-3-3-9-5"
         in2="result3"
         in="SourceGraphic"
         operator="over"
         result="fbSourceGraphic" />
      <feColorMatrix
         result="fbSourceGraphicAlpha"
         in="fbSourceGraphic"
         values="0 0 0 -1 0 0 0 0 -1 0 0 0 0 -1 0 0 0 0 1 0"
         id="feColorMatrix4544-9-4-4-5-5-1-6" />
      <feTurbulence
         id="feTurbulence4546-3-6-5-6-6-2-1"
         type="fractalNoise"
         numOctaves="4"
         seed="147"
         baseFrequency="0.046080819231719368"
         result="turbulence" />
      <feDisplacementMap
         id="feDisplacementMap4548-8-0-9-2-2-7-1"
         in2="turbulence"
         in="fbSourceGraphic"
         scale="13.20326"
         yChannelSelector="G"
         xChannelSelector="R"
         result="fbSourceGraphic" />
      <feColorMatrix
         result="fbSourceGraphicAlpha"
         in="fbSourceGraphic"
         values="0 0 0 -1 0 0 0 0 -1 0 0 0 0 -1 0 0 0 0 1 0"
         id="feColorMatrix4670-7-7-3-9-9-0-5" />
      <feFlood
         id="feFlood4672-4-4-5-1-1-9-9"
         flood-opacity="1"
         flood-color="rgb(28,28,28)"
         result="flood"
         in="fbSourceGraphic" />
      <feComposite
         id="feComposite4674-8-3-7-2-2-3-8"
         in2="fbSourceGraphic"
         in="flood"
         operator="in"
         result="composite1" />
      <feGaussianBlur
         id="feGaussianBlur4676-3-7-08-7-7-6-4"
         in="composite1"
         stdDeviation="0"
         result="blur" />
      <feOffset
         id="feOffset4678-6-9-1-0-0-0-8"
         dx="-8.3919392296330813"
         dy="1.5526614972014983"
         result="offset" />
      <feComposite
         id="feComposite4680-4-0-9-9-9-6-1"
         in2="offset"
         in="fbSourceGraphic"
         operator="over"
         result="composite2" />
    </filter>
    <filter
       style="color-interpolation-filters:sRGB"
       id="filter4375-4-1-1-1-9-5-8-8-5-5-3-3-3-0-6"
       inkscape:label="soundFX1">
      <feFlood
         id="feFlood4377-7-9-0-8-1-7-3-1-2-7-6-6-5-96-3"
         flood-opacity="1"
         flood-color="rgb(52,52,52)"
         result="flood" />
      <feComposite
         id="feComposite4379-3-8-8-2-77-4-1-0-6-4-7-7-6-3-2"
         in2="SourceGraphic"
         in="flood"
         operator="in"
         result="composite1"
         baseFrequency="0.053999999999999999 0.053999999999999999" />
      <feMorphology
         id="feMorphology4393-1-0-49-8-9-3-0-1-9-9-5-5-2-8-0"
         operator="dilate"
         radius="2.5856550817276021"
         result="result3" />
      <feComposite
         id="feComposite4385-9-5-7-0-8-8-7-5-4-9-3-3-9-5-6"
         in2="result3"
         in="SourceGraphic"
         operator="over"
         result="fbSourceGraphic" />
      <feColorMatrix
         result="fbSourceGraphicAlpha"
         in="fbSourceGraphic"
         values="0 0 0 -1 0 0 0 0 -1 0 0 0 0 -1 0 0 0 0 1 0"
         id="feColorMatrix4544-9-4-4-5-5-1-6-1" />
      <feTurbulence
         id="feTurbulence4546-3-6-5-6-6-2-1-5"
         type="fractalNoise"
         numOctaves="4"
         seed="147"
         baseFrequency="0.046080819231719368"
         result="turbulence" />
      <feDisplacementMap
         id="feDisplacementMap4548-8-0-9-2-2-7-1-5"
         in2="turbulence"
         in="fbSourceGraphic"
         scale="13.20326"
         yChannelSelector="G"
         xChannelSelector="R"
         result="fbSourceGraphic" />
      <feColorMatrix
         result="fbSourceGraphicAlpha"
         in="fbSourceGraphic"
         values="0 0 0 -1 0 0 0 0 -1 0 0 0 0 -1 0 0 0 0 1 0"
         id="feColorMatrix4670-7-7-3-9-9-0-5-4" />
      <feFlood
         id="feFlood4672-4-4-5-1-1-9-9-7"
         flood-opacity="1"
         flood-color="rgb(28,28,28)"
         result="flood"
         in="fbSourceGraphic" />
      <feComposite
         id="feComposite4674-8-3-7-2-2-3-8-6"
         in2="fbSourceGraphic"
         in="flood"
         operator="in"
         result="composite1" />
      <feGaussianBlur
         id="feGaussianBlur4676-3-7-08-7-7-6-4-5"
         in="composite1"
         stdDeviation="0"
         result="blur" />
      <feOffset
         id="feOffset4678-6-9-1-0-0-0-8-6"
         dx="-8.3919392296330813"
         dy="1.5526614972014983"
         result="offset" />
      <feComposite
         id="feComposite4680-4-0-9-9-9-6-1-9"
         in2="offset"
         in="fbSourceGraphic"
         operator="over"
         result="composite2" />
    </filter>
  </defs>
  <sodipodi:namedview
     pagecolor="#ffffff"
     bordercolor="#666666"
     borderopacity="1"
     objecttolerance="10"
     gridtolerance="10"
     guidetolerance="10"
     inkscape:pageopacity="0"
     inkscape:pageshadow="2"
     inkscape:window-width="1856"
     inkscape:window-height="1016"
     id="namedview4"
     showgrid="false"
     inkscape:zoom="0.52900002"
     inkscape:cx="1779.481"
     inkscape:cy="400.22832"
     inkscape:window-x="64"
     inkscape:window-y="27"
     inkscape:window-maximized="1"
     inkscape:current-layer="layer1"
     inkscape:document-rotation="0"
     inkscape:snap-global="false"
     borderlayer="true" />
  <g
     inkscape:groupmode="layer"
     id="layer2"
     inkscape:label="artwork"
     sodipodi:insensitive="true">
    <image
       sodipodi:absref="/home/thomas/Dropbox (Intersign)/Egne filer (udelt)/PepperGulrot/webcomics-master-ep34_The-Knighting-of-Shichimi/ep34_The-Knighting-of-Shichimi/lang/no/../gfx_Pepper-and-Carrot_by-David-Revoy_E34P09.png"
       xlink:href="../gfx_Pepper-and-Carrot_by-David-Revoy_E34P09.png"
       width="2481"
       height="3503"
       id="image10"
       x="0"
       y="0" />
  </g>
  <g
     inkscape:groupmode="layer"
     id="layer3"
     inkscape:label="speechbubbles"
     style="display:inline">
    <path
       style="color:#000000;display:inline;overflow:visible;visibility:visible;fill:#ffffff;fill-opacity:1;fill-rule:nonzero;stroke:none;stroke-width:1.06937px;marker:none;enable-background:accumulate"
       d="m 1413.9252,2288.6897 c -21.0035,-5.3737 -81.566,-47.9371 -7.2888,-45.7139 -54.6661,-17.9093 -47.3991,-53.5519 -2.4758,-74.369 -58.9238,4.2548 -100.5769,0.6207 -70.2151,-36.1664 -79.2184,3.5955 -122.8044,10.2673 -109.8003,-28.5578 -40.1503,42.6369 -78.6617,34.6793 -88.5825,-15.1981 -6.9274,35.2294 -81.7002,33.1271 -167.99998,12.6992 8.30388,14.5849 88.47908,54.7735 -30.55105,45.7152 47.04927,26.0011 49.14048,39.3386 -30.92339,50.3382 40.80347,11.6971 66.82446,27.5422 3.23088,52.7159 41.20562,7.9508 106.39464,5.6199 27.23252,53.7673 52.19075,-22.7557 139.25082,-6.3139 101.72672,30.3911 102.2721,-41.2428 121.9423,-30.2458 137.385,-0.6941 38.0267,-43.2711 92.9821,-38.37 124.9467,-13.2168 -15.5391,-38.3461 66.3526,-31.727 113.3151,-31.7108 z"
       id="path3549-3-78-5"
       inkscape:connector-curvature="0"
       sodipodi:nodetypes="ccccccccccccccc" />
    <path
       style="color:#000000;display:inline;overflow:visible;visibility:visible;fill:#ffffff;fill-opacity:1;fill-rule:nonzero;stroke:none;stroke-width:1.53798px;marker:none;enable-background:accumulate"
       d="M 1165.125 2415.5957 C 1130.4961 2415.3971 1095.0603 2423.1298 1065.7591 2442.1634 C 1034.0314 2463.018 1012.4338 2496.9293 1002.3955 2533.1554 C 992.59617 2568.5592 994.46263 2607.4336 1009.3327 2641.1701 C 1016.1701 2656.2876 1027.4362 2668.8862 1039.3142 2680.254 C 1046.8855 2687.8765 1055.8402 2694.0208 1065.5476 2698.6 C 1080.001 2705.4324 1095.4478 2709.892 1110.918 2713.7598 C 1137.2367 2719.946 1164.6219 2721.6842 1191.4772 2718.4018 C 1210.0229 2716.3248 1228.6862 2712.8862 1245.8592 2705.3477 C 1267.2776 2695.5069 1285.9394 2680.4166 1301.9961 2663.3125 C 1312.5213 2651.8799 1320.8033 2638.3469 1325.6024 2623.5344 C 1336.6453 2590.7606 1334.1192 2554.4228 1322.3121 2522.2219 C 1312.2354 2494.3965 1294.7895 2469.0929 1271.4314 2450.7849 C 1248.3998 2432.4135 1220.2152 2420.7112 1190.9864 2417.1249 C 1182.4155 2416.0108 1173.7662 2415.5389 1165.125 2415.5957 z "
       id="path3365-3"
       inkscape:connector-curvature="0"
       sodipodi:nodetypes="cssccsc" />
    <path
       style="display:inline;fill:#ffffff;fill-rule:evenodd;stroke:none;stroke-width:1.19902503px;stroke-linecap:butt;stroke-linejoin:miter;stroke-opacity:1"
       d="m 80.327924,2150.8144 c 30.697806,28.2738 34.457256,48.0781 7.857607,37.3592 25.885649,18.3529 20.530519,49.3823 1.514423,58.1238 50.951346,44.6505 38.004856,79.6697 23.555506,114.4624 52.60566,-22.7687 55.53252,5.7616 69.33886,23.0583 10.86445,-40.1063 17.25806,-16.3343 22.40437,25.2615 10.89299,-51.3518 19.13765,-56.502 24.97014,-19.5221 10.70006,-33.0408 25.18428,-47.2326 44.0175,-39.7596 34.52906,-34.3551 48.60972,3.8148 69.29949,18.5438 -2.09486,-38.2097 12.4954,-50.519 48.04027,-17.8885 -0.94305,-23.148 23.80339,-26.3836 50.4931,2.7713 -37.36186,-59.6355 18.59306,-9.4497 26.92908,-6.8831 -18.16093,-30.8533 -3.78429,-55.8076 67.10307,-21.1803 -22.55615,-4.7726 -37.97261,-41.4194 -7.49743,-59.5301 -33.92346,-9.3466 -33.56603,-36.8693 -15.19949,-57.63 -38.73286,-21.36 0.12067,-53.0572 19.61481,-82.1747 -39.36053,18.2569 -70.78082,22.5325 -77.78254,-16.1893 -59.81548,39.7577 -50.86751,21.4624 -45.0546,5.8137 -37.17021,42.7655 -43.8058,9.6512 -44.37367,-0.8674 -51.51039,48.2542 -97.91508,-2.6289 -118.75585,-24.7942 -8.64642,55.1075 -29.90605,37.5649 -51.21796,19.7228 15.88375,37.0218 -3.37691,36.9256 -24.93047,24.0365 9.06927,25.1383 -4.73041,50.2569 -41.61469,18.6313 13.28023,16.4532 -5.41492,28.3673 -48.711526,-1.3653 z"
       id="path4289-9"
       inkscape:connector-curvature="0"
       sodipodi:nodetypes="cccccccccccccccccccccccc" />
    <path
       style="fill:#ffffff;fill-rule:evenodd;stroke:none;stroke-width:1.82px;stroke-linecap:butt;stroke-linejoin:miter;stroke-opacity:1"
       d="m 862.34153,1281.9721 c 49.24921,91.7805 67.9304,84.7087 75.58641,41.9832 13.45702,15.4323 16.32168,60.6932 54.82727,5.5858 23.77569,40.023 42.94939,34.914 58.35239,-7.1739 41.3018,75.8538 66.4858,32.0394 88.6487,15.1094 55.9268,42.4272 209.7445,48.8759 277.0761,-5.8369 14.2611,19.5051 29.4575,34.8489 58.0491,-1.9364 -2.7973,44.5449 34.5117,7.5009 66.1916,-49.2058 -4.0578,33.3537 -24.8906,90.2026 18.3732,57.2753 5.0091,23.8344 1.0517,55.3699 93.5903,4.0248 -26.9151,67.9175 50.9592,-1.2141 126.4188,-67.1871 -47.5557,57.5257 -112.5282,128.2944 -31.3123,105.1684 -45.66,48.1932 -41.5696,65.8771 88.0559,63.4999 -122.6885,24.8181 -152.8019,57.3228 -79.4641,123.2148 -53.064,-31.0307 -129.261,-35.2418 -63.76,7.5461 -66.0044,-34.2663 -75.5133,-17.672 -52.0236,10.4041 -72.0633,-49.3277 -38.1748,-9.7825 -34.1787,29.1527 -51.877,-24.5276 -86.607,-52.6972 -78.9699,10.0835 -53.99,-48.1752 -63.1971,-30.9006 -69.5441,-9.4462 -95.8595,-72.8026 -83.4586,-29.2975 -101.8802,-18.9061 -27.7172,-26.9338 -27.0156,-4.8298 -21.906,24.8798 -26.5269,-31.4777 -50.5589,-43.6108 -68.1974,-6.1606 -16.6187,-17.3167 -32.9273,-41.8525 -51.8559,-5.4578 -22.8906,-19.8523 -47.0343,-27.744 -76.5949,16.0725 -12.5728,-26.4714 -31.1245,-45.5282 -93.3131,-10.4684 -11.7231,-56.7978 -64.96743,-47.6201 -131.73016,-16.9621 2.04936,-33.3735 -3.22389,-55.2983 -72.41546,22.7077 14.375,-34.0901 30.74732,-70.0258 -11.15322,-52.1235 26.29241,-65.2228 -10.51003,-47.7521 -88.44937,-34.4229 79.61884,-37.9606 120.95094,-76.2312 44.06736,-75.6147 52.83758,-37.8995 48.69361,-57.7575 24.8769,-56.1043 3.60861,-11.7108 46.63496,-32.981 -13.63884,-32.175 31.83107,-15.9508 78.78672,-11.3665 66.27322,-87.5263 z"
       id="path4656"
       inkscape:connector-curvature="0"
       sodipodi:nodetypes="ccccccccccccccccccccccccccccccccc" />
    <path
       style="fill:#ffffff;fill-rule:evenodd;stroke:none;stroke-width:0.88858px;stroke-linecap:butt;stroke-linejoin:miter;stroke-opacity:1"
       d="m 759.19541,1241.283 c 23.87574,13.5269 85.11353,21.0234 2.433,61.3674 43.76687,0.9671 67.97938,1.7537 26.76279,19.124 56.00944,0.3154 1.18805,9.9013 -26.49922,19.2955 30.48234,-0.2589 75.65043,-7.2784 6.94877,24.6341 56.826,-9.2869 41.66355,2.0347 -15.59633,24.1629 55.50022,-18.0895 78.42746,-15.5403 54.89431,-1.2529 23.281,-4.4671 26.17156,9.3935 -19.85959,23.1786 62.63973,-18.6636 61.31095,-11.588 64.67747,34.6472 14.88908,-81.4311 17.42218,-18.0057 20.98895,21.1079 23.73457,-121.4005 55.82258,-31.7441 62.8579,-18.6724 -5.90437,-94.3594 37.35097,-55.4681 48.65972,-19.5954 -2.91536,-23.0122 10.95317,-69.487 52.34632,-13.1188 -9.8695,-20.7496 -3.1526,-42.2962 34.0246,9.0732 -11.2745,-34.3451 9.6112,-44.1683 74.6823,-11.8006 -0.5021,-17.0771 -6.8483,-35.014 61.5652,-4.833 -1.2835,-15.6767 -15.2326,-37.2075 77.8554,-9.2545 0.6074,-27.3754 15.6022,-29.1099 41.7269,-16.5125 -4.463,-23.4934 24.0681,-12.9018 60.23,2.7953 -23.0317,-32.042 8.3719,-28.6243 53.7544,-18.8217 -4.4068,-15.5655 -10.707,-31.5384 15.8144,-40.4365 -51.2782,-45.8169 -5.9183,-49.5374 9.7319,-54.4273 -25.6854,-1.4095 -44.886,-17.4541 -11.8084,-30.1681 -38.5133,7.4451 -24.3709,-15.1614 -22.2534,-27.4943 l -62.0411,-18.905 -60.8247,-8.3897 -72.9896,-8.3137 -68.1237,-1.3291 -69.3402,0.4324 -60.8246,3.8873 -52.30925,-8.4427 -53.5257,9.1027 -75.42258,-1.2836 -36.49479,30.0425 c 12.28937,28.7919 -26.54669,28.5474 -62.04117,30.2008 z"
       id="path4323"
       inkscape:connector-curvature="0"
       sodipodi:nodetypes="ccccccccccccccccccccccccccccccccccc" />
    <path
       style="color:#000000;display:inline;overflow:visible;visibility:visible;fill:#ffffff;fill-opacity:1;fill-rule:nonzero;stroke:none;stroke-width:1.21446812px;marker:none;enable-background:accumulate"
       d="m 1932.1077,2196.9193 c -34.4515,1.6625 -69.013,1.7932 -103.3192,6.2878 -17.6988,2.6696 -35.4084,9.0988 -49.8128,21.9885 -19.7663,16.8362 -32.7596,43.9344 -35.7364,72.5415 -4.3422,30.1077 -7.2018,61.3223 -1.7306,91.5017 5.5062,24.0415 23.1833,42.3572 43.0713,48.7845 41.6644,15.7157 85.5761,20.5974 129.0874,21.6138 27.6503,0.6629 55.3098,0.2292 82.9612,-0.023 38.8741,-1.1053 77.6133,-5.5872 116.2483,-10.5872 16.4709,-2.5703 33.1903,-5.7442 48.4445,-13.9192 16.0779,-8.9603 29.6299,-24.6461 36.6,-44.1947 10.8025,-28.3165 10.6515,-61.2633 3.1632,-90.6872 -7.6033,-29.0892 -24.3246,-54.751 -46.4565,-70.1975 -22.683,-16.6745 -49.404,-23.9269 -75.8159,-25.4174 -47.4541,-4.6915 -95.0551,-7.6161 -142.6762,-7.8805 -1.3428,0.063 -2.6856,0.1256 -4.0283,0.1885 z"
       id="path4546-6-5-5"
       inkscape:connector-curvature="0"
       sodipodi:nodetypes="cssssc" />
    <path
       style="color:#000000;display:inline;overflow:visible;visibility:visible;fill:#ffffff;fill-opacity:1;fill-rule:nonzero;stroke:none;stroke-width:0.710908px;marker:none;enable-background:accumulate"
       d="m 427.36079,1539.322 c -18.49435,2.3317 -20.41009,4.4325 -21.96654,15.8617 -1.55611,11.4299 -0.85275,28.3587 -14.56075,40.6485 -13.70771,12.2903 -23.6764,10.0093 -30.31719,9.0645 4.26773,13.7681 1.4232,41.4005 9.47615,45.7822 8.05295,4.3816 -16.23573,2.0167 -16.23573,2.0167 0,0 -18.78665,-30.5045 -14.52874,-48.8854 4.25786,-18.3808 31.63742,-15.9961 42.0788,-22.7096 10.44133,-6.7135 10.50842,-30.2213 17.90427,-37.5835 7.39563,-7.363 19.29539,-5.4547 28.14973,-4.1951 z"
       id="path4538-7"
       inkscape:connector-curvature="0"
       sodipodi:nodetypes="ccscccsscc" />
    <path
       style="color:#000000;display:inline;overflow:visible;visibility:visible;fill:#ffffff;fill-opacity:1;fill-rule:nonzero;stroke:none;stroke-width:0.576009px;marker:none;enable-background:accumulate"
       d="m 269.38616,1653.529 c 23.98622,-18.7388 72.99975,-31.6297 113.83578,1.6461 32.33893,26.3516 21.53309,64.4595 4.25504,76.2832 -17.27802,11.8238 -72.26174,14.2552 -97.55286,8.4261 -19.52455,-4.5006 -40.92884,-15.7046 -42.10867,-45.5966 -0.48149,-12.2006 -2.41553,-22.02 21.57071,-40.7588 z"
       id="path4040-2-9"
       inkscape:connector-curvature="0"
       sodipodi:nodetypes="zssssz" />
    <path
       style="color:#000000;display:inline;overflow:visible;visibility:visible;fill:#ffffff;fill-opacity:1;fill-rule:nonzero;stroke:none;stroke-width:0.590855px;marker:none;enable-background:accumulate"
       d="m 248.38875,1580.4882 c 25.2386,-18.1575 76.81125,-29.8607 119.77943,4.4047 34.02742,27.1353 22.65738,64.9814 4.47719,76.3864 -18.18014,11.405 -76.0347,12.504 -102.64632,6.062 -20.54397,-4.9737 -43.06584,-16.6964 -44.30727,-46.617 -0.50663,-12.2123 -2.54165,-22.0785 22.69697,-40.2361 z"
       id="path4040-2"
       inkscape:connector-curvature="0"
       sodipodi:nodetypes="zssssz" />
    <path
       style="display:inline;fill:#ffffff;stroke:none;stroke-width:0.931723"
       d="m 1997.4497,1062.6294 c -1.6375,-25.9962 27.7227,-91.07497 170.9405,-86.1798 143.2177,4.89516 188.0427,33.4892 192.2396,79.6976 6.6392,73.1 -68.7075,92.6343 -176.8985,98.0493 -111.5333,5.5813 -188.0125,-44.5966 -186.2816,-91.5671 z"
       id="path3280-8-3-6"
       inkscape:connector-curvature="0"
       sodipodi:nodetypes="csssc" />
    <path
       style="display:inline;fill:#ffffff;stroke:none;stroke-width:1.57021"
       d="M 2044.627 157.73242 C 1990.6214 158.95983 1936.0871 158.38619 1882.9304 169.37513 C 1847.5257 176.64379 1812.292 187.61824 1781.5343 207.02432 C 1758.108 222.64189 1741.3799 247.39608 1734.3474 274.54826 C 1725.2272 308.73644 1730.8006 347.13362 1751.4807 376.15038 C 1764.3357 394.43424 1783.0392 408.09805 1803.6382 416.47361 C 1829.1732 427.59304 1856.3452 434.17197 1883.2626 440.96973 C 1960.8832 459.20816 2041.9601 464.52916 2120.9683 452.63025 C 2152.8138 447.9671 2184.4912 441.26853 2214.8945 430.58203 C 2243.6081 419.78358 2271.2293 404.31282 2292.3387 381.72628 C 2310.5238 360.43695 2318.503 331.88598 2318.0172 304.21292 C 2318.0106 280.16242 2312.092 255.26316 2297.0454 236.05467 C 2282.0806 217.63065 2261.1676 205.4629 2240.3749 194.71396 C 2209.0715 179.44864 2174.6447 172.57744 2140.6568 166.20814 C 2109.0299 160.27218 2076.8112 157.30232 2044.627 157.73242 z "
       id="path3280-8-3"
       inkscape:connector-curvature="0"
       sodipodi:nodetypes="csssc" />
    <path
       style="color:#000000;display:inline;overflow:visible;visibility:visible;fill:#ffffff;fill-opacity:1;fill-rule:nonzero;stroke:none;stroke-width:0.608783px;marker:none;enable-background:accumulate"
       d="m 1751.2966,118.06982 c -18.0333,0.18933 -36.0674,0.22455 -54.1008,0.0344 -11.8069,-0.14349 -23.6739,0.0747 -35.3256,1.9339 -21.7025,3.33547 -42.8876,10.36344 -60.9783,21.58126 -5.0414,3.15184 -9.8752,6.71023 -13.2123,11.37103 -12.5007,16.257 -12.9164,39.54684 0.49,55.49229 8.9508,10.35064 22.6898,16.12839 36.063,20.81189 33.1778,11.68115 69.2079,15.30029 104.6925,15.4305 30.6511,0.016 61.6457,3.38414 92.0083,-1.81956 26.5951,-4.66092 52.6534,-14.43113 72.6572,-30.91977 12.1858,-10.71873 18.2326,-27.36074 13.0367,-42.12219 -4.9328,-15.01303 -18.236,-26.96879 -33.7278,-33.98225 -24.2465,-11.69586 -52.0403,-16.28689 -79.4047,-17.27415 -14.0556,-0.58807 -28.1303,-0.61588 -42.1982,-0.53739 z"
       id="path3525-8"
       inkscape:connector-curvature="0"
       sodipodi:nodetypes="cscsc" />
    <path
       style="fill:#ffffff;fill-rule:evenodd;stroke:none;stroke-width:1.06468px;stroke-linecap:butt;stroke-linejoin:miter;stroke-opacity:1"
       d="m 786.34361,430.16165 c 0,0 22.37691,25.375 30.38987,41.353 9.55841,41.6769 -15.08254,52.26548 -11.80509,72.946 4.69971,21.617 12.77263,34.196 42.40829,52.053 -36.46109,-14.098 -60.72938,-25.376 -65.42892,-46.992 -4.6996,-21.617 12.02504,-48.872 9.37974,-58.27 -2.64548,-9.399 -11.01511,-33.835 -33.19349,-51.692 -22.17826,-17.857 28.2496,-9.398 28.2496,-9.398 z"
       id="path1303"
       inkscape:connector-curvature="0"
       sodipodi:nodetypes="cccccccc" />
    <path
       style="color:#000000;display:inline;overflow:visible;visibility:visible;fill:#ffffff;fill-opacity:1;fill-rule:nonzero;stroke:none;stroke-width:1.05060005px;marker:none;enable-background:accumulate"
       d="m 1306.1372,914.96671 c -52.2194,0.64709 -104.9875,6.63895 -153.3201,22.0719 -24.3339,7.31916 -44.3213,21.69237 -56.8039,38.94423 -17.6476,22.25927 -24.4581,48.58066 -23.9074,74.29936 -0.3404,23.364 1.9885,47.3374 13.919,69.1566 9.9877,17.5577 23.5266,34.7602 44.2372,46.2689 15.7737,8.4996 35.2701,11.6222 54.2492,12.9143 46.1856,3.4404 92.89,-3.5516 138.8408,2.6382 33.8402,3.988 67.7831,9.9513 102.2566,8.283 20.762,-1.4103 40.5951,-6.6604 61.0882,-9.2626 13.4668,-1.7583 27.6596,-2.9184 39.5377,-8.4465 3.3861,-1.2488 5.397,-3.7057 6.4839,-6.3488 2.7612,-6.7444 1.347,-13.9149 0.7773,-20.8216 -1.7334,-13.6814 -4.2109,-27.6506 -0.2252,-41.2484 4.4335,-29.0223 13.0393,-58.0965 9.2266,-87.4526 -3.2776,-20.96373 -12.1947,-42.0229 -29.9728,-58.61883 -16.0561,-13.50101 -38.627,-21.17187 -61.0372,-26.79992 -34.3483,-8.24522 -70.3296,-11.45673 -106.0392,-14.28499 -13.0714,-0.84485 -26.1889,-1.34625 -39.3107,-1.29225 z"
       id="path4040-40"
       inkscape:connector-curvature="0"
       sodipodi:nodetypes="zsssszccccccccz" />
    <path
       style="display:inline;fill:#ffffff;stroke:none;stroke-width:0.97636092"
       d="m 774.68856,81.42033 c -65.50567,2.67032 -138.4618,-2.532677 -173.66214,0.992708 -5.00813,87.829412 -23.5775,155.670332 -17.26179,197.386812 5.49594,34.54789 11.66691,69.08694 21.12973,103.16233 6.24899,19.27707 18.0528,38.21047 38.1254,51.5226 22.33813,15.28973 51.25095,23.53084 79.91453,29.58115 69.20553,14.64912 144.15343,15.8856 213.17385,-0.0462 18.66935,-4.17863 36.41155,-10.55254 52.53111,-18.76966 30.35785,-15.26348 55.93885,-35.90923 74.03045,-59.75907 17.8654,-25.11063 23.2368,-53.78722 27.0362,-81.74462 4.5435,-34.09315 2.756,-86.3956 -13.0029,-118.85727 -12.127,-24.51247 -30.6462,-47.57221 -56.0789,-65.57337 C 989.19581,98.020938 949.05609,85.768428 908.71617,77.48318 865.10772,68.569101 819.8839,81.121389 774.68856,81.42033 Z"
       id="path3280-5"
       inkscape:connector-curvature="0"
       sodipodi:nodetypes="ccsscccccccccc" />
    <path
       style="fill:#ffffff;fill-rule:evenodd;stroke:none;stroke-width:1.36568999px;stroke-linecap:butt;stroke-linejoin:miter;stroke-opacity:1"
       d="m 1303.8976,918.43957 c 8.7674,-29.78389 -2.55,-70.85724 -21.3421,-92.51878 19.294,12.00335 47.6581,40.90723 49.4868,77.53639 2.8542,57.16677 -26.6522,18.09019 -26.6522,18.09019 z"
       id="path4248"
       inkscape:connector-curvature="0"
       sodipodi:nodetypes="ccscc" />
    <path
       style="color:#000000;display:inline;overflow:visible;visibility:visible;fill:#ffffff;fill-opacity:1;fill-rule:nonzero;stroke:none;stroke-width:1.27845px;marker:none;enable-background:accumulate"
       d="m 2159.8838,536.71889 c 47.5494,-40.109 11.4958,-121.92186 -22.0631,-138.04748 -43.9644,-41.61081 21.7355,-52.5057 21.7355,-52.5057 l 27.3389,46.67174 c -4.9414,6.99806 59.5251,106.49368 -27.0113,143.88144 z"
       id="path3072-56"
       inkscape:connector-curvature="0"
       sodipodi:nodetypes="ccccc" />
    <path
       style="fill:#ffffff;fill-rule:evenodd;stroke:none;stroke-width:1px;stroke-linecap:butt;stroke-linejoin:miter;stroke-opacity:1"
       d="m 2145.9447,911.76156 c 17.8164,6.86787 32.8659,22.27667 36.9127,41.22902 2.4357,13.03639 -1.9004,26.29118 -8.401,37.50329 -6.139,11.51773 -13.902,22.87523 -15.1546,36.21623 -0.038,3.7486 4.352,7.1591 7.7995,4.9374 5.4591,-2.2621 9.1063,-7.2123 13.9986,-10.3572 13.619,-10.9723 25.9848,-24.85172 30.732,-42.05359 4.3293,-16.93725 -3.8025,-35.55082 -17.8163,-45.50969 -14.6218,-11.8782 -32.4276,-19.47815 -50.851,-23.07104 0.9267,0.36853 1.8534,0.73706 2.7801,1.10558 z"
       id="path914"
       inkscape:connector-curvature="0"
       sodipodi:nodetypes="cscc" />
    <path
       style="fill:#ffffff;fill-rule:evenodd;stroke:none;stroke-width:1px;stroke-linecap:butt;stroke-linejoin:miter;stroke-opacity:1"
       d="m 1859.1104,1611.6362 -101.7503,-92.9388 -6.0669,33.3207 -71.4256,-61.6811 -11.1854,27.4382 91.4542,66.5103 8.19,-37.7549 z"
       id="path4667"
       inkscape:connector-curvature="0" />
    <path
       style="color:#000000;display:inline;overflow:visible;visibility:visible;fill:#ffffff;fill-opacity:1;fill-rule:nonzero;stroke:none;stroke-width:1.14715px;marker:none;enable-background:accumulate"
       d="m 284.24765,2318.4867 c -40.4116,58.36 -53.3089,167.707 24.2468,263.215 -108.4132,-99.32 -82.2954,-214.062 -72.6196,-244.978 2.0322,-33.697 48.3728,-18.237 48.3728,-18.237 z"
       id="path4008-0"
       inkscape:connector-curvature="0"
       sodipodi:nodetypes="cccc" />
    <path
       style="color:#000000;display:inline;overflow:visible;visibility:visible;fill:#ffffff;fill-opacity:1;fill-rule:nonzero;stroke:none;stroke-width:1px;marker:none;enable-background:accumulate"
       d="m 2007.8186,2508.6854 c -16.2035,68.7147 -23.8042,123.8365 19.1198,161.3448 -35.9827,-18.9303 -60.1167,-37.3437 -55.228,-133.0047 3.2811,-29.3033 15.4575,-25.6682 36.1082,-28.3401 z"
       id="path4064-5"
       inkscape:connector-curvature="0"
       sodipodi:nodetypes="cccc" />
    <path
       style="fill:#ffffff;fill-rule:evenodd;stroke:none;stroke-width:1.0599px;stroke-linecap:butt;stroke-linejoin:miter;stroke-opacity:1"
       d="m 1312.6704,2517.7831 c 23.7195,-14.0861 43.1327,-10.969 67.1439,-1.3968 -21.0663,-24.318 -50.0172,-29.1023 -87.4659,-14.9118 -44.493,16.8599 17.6099,16.5876 17.6099,16.5876 z"
       id="path4248-5"
       inkscape:connector-curvature="0"
       sodipodi:nodetypes="ccscc" />
    <path
       style="fill:#ffffff;fill-opacity:1;stroke:none;stroke-width:0.656533"
       d="m 2186.6362,2529.7013 c -20.2714,-4.5023 -28.068,-8.6829 -24.4295,-11.2559 -33.9462,-21.5129 -5.0712,-41.3861 -1.0396,-43.737 -0.011,-1.592 -10.9154,0.6431 -12.4746,-0.643 -1.5593,-1.2869 10.7022,-12.0255 8.6232,-12.6686 -2.0793,-0.6437 -46.567,3.9856 -53.3241,1.0911 -6.7572,-2.8945 -3.1188,-10.2913 -5.1978,-10.6129 -2.0791,-0.3215 -21.311,1.6078 -23.9099,1.2862 -2.5987,-0.3215 -7.2767,-9.9691 -9.8756,-10.2907 -2.599,-0.3215 -14.5539,4.1808 -16.633,3.8592 -2.0791,-0.3216 -1.0395,-8.3614 -3.6384,-8.6829 -2.599,-0.3216 -14.034,6.753 -15.5934,6.4315 -1.5593,-0.3216 -7.2769,-16.4013 -9.8758,-17.3659 -2.599,-0.9647 -19.2317,17.6874 -20.7911,18.0089 -1.5593,0.3222 -11.4351,-21.8681 -13.5143,-22.1897 -2.0791,-0.3215 -12.4746,15.1152 -14.0339,14.7936 -1.5594,-0.3216 -11.4352,-9.3267 -13.5142,-9.9698 -2.0791,-0.643 -15.5934,19.9389 -17.6725,19.9389 -2.0792,0 -19.7516,-8.6829 -21.3109,-10.2907 -1.5594,-1.6083 -3.1187,8.3615 -5.1978,8.3615 -2.0791,0 -25.9889,-5.7891 -26.5088,-5.4676 -0.5197,0.3216 3.6386,6.4322 2.0792,6.4322 -1.5593,0 -25.9888,-8.0398 -27.0285,-6.4322 -1.0395,1.6084 -53.0173,-8.0398 -56.6558,-6.7536 -3.6385,1.2868 23.3901,26.371 20.7912,28.3009 -2.5989,1.9292 -11.955,-0.3215 -12.4748,0.6431 -0.5197,0.9646 5.7176,5.1453 4.1584,6.4315 -1.5595,1.2868 -19.2319,6.4321 -20.7912,8.0399 -1.5594,1.6083 7.7966,5.789 5.7176,6.7536 -2.0792,0.9653 -32.7463,7.0753 -33.2659,8.6836 -0.5198,1.6078 15.5934,9.326 13.5142,11.5768 -2.0791,2.2515 -7.7967,3.2161 -7.2769,4.8245 0.5198,1.6077 10.3957,3.5376 9.8758,5.1453 -0.5197,1.6077 -5.7175,9.6483 -7.2768,10.9344 -1.5594,1.2862 10.9153,0.6431 10.9153,1.9293 0,1.2868 -0.9181,20.6031 -19.3844,32.291 32.2989,-7.7421 45.8931,-3.9901 63.0458,-1.4178 17.1527,2.573 10.3955,18.6528 12.9944,19.6174 2.5988,0.9652 21.8307,-5.4669 24.4296,-3.2161 2.5989,2.2515 3.6384,6.4321 5.7176,6.4321 2.079,0 14.034,-9.0045 16.6328,-8.6829 2.5989,0.3215 27.0285,14.472 30.6671,14.7935 3.6384,0.3216 17.6723,-5.4675 20.7911,-5.789 3.1187,-0.3216 5.7174,7.7183 8.3164,7.0752 2.5989,-0.6431 19.2318,-6.4321 21.8305,-5.789 2.599,0.6437 4.6781,3.216 6.7573,2.573 2.079,-0.6432 11.4351,-3.2161 11.4351,-3.2161 0,0 6.7571,1.9299 9.8757,1.9299 3.1187,0 24.4295,-10.6129 27.0285,-11.256 2.5989,-0.6431 29.2801,10.9614 27.7207,12.8907 3.3116,-8.4443 19.3137,-13.7539 22.6978,-14.1768 3.6384,-0.9653 14.5538,1.9292 15.5933,0.9646 1.0396,-0.9646 4.1582,-6.1106 7.2769,-6.4322 3.1187,-0.3215 10.3956,-1.6077 10.3956,-1.6077 l -1.0395,-1.9298 c 0,0 21.8306,5.1459 24.4296,7.0751 2.5988,1.93 -1.5594,-8.3614 -3.1188,-10.9343 9.356,2.5729 36.9043,8.0398 38.9833,9.6482 2.0792,1.6077 -3.6383,-5.789 -6.757,-8.0399 4.1582,0.9646 7.7967,1.2862 7.7967,1.2862 l -11.955,-7.7183 3.6386,-0.6431 c 0,0 -7.7967,-3.5376 -7.7967,-5.1453 0,-1.6084 20.2712,-3.5376 20.2712,-3.5376 0,0 -8.3164,-2.8945 -6.2373,-4.5023 2.0792,-1.6083 7.277,-2.573 7.277,-2.573 l 1.0394,-4.1807 z"
       id="path5888-3"
       inkscape:connector-curvature="0"
       sodipodi:nodetypes="cccccsscccccccsccscscsccsccccccsccscscssccsccscscccccccsccccccsccccc" />
    <path
       sodipodi:nodetypes="ccccccccccccccccccccccccccccccccccc"
       inkscape:connector-curvature="0"
       id="path1021"
       d="m 759.19541,1241.283 c 23.87574,13.5269 85.11353,21.0234 2.433,61.3674 43.76687,0.9671 67.97938,1.7537 26.76279,19.124 56.00944,0.3154 1.18805,9.9013 -26.49922,19.2955 30.48234,-0.2589 75.65043,-7.2784 6.94877,24.6341 56.826,-9.2869 41.66355,2.0347 -15.59633,24.1629 55.50022,-18.0895 78.42746,-15.5403 54.89431,-1.2529 23.281,-4.4671 26.17156,9.3935 -19.85959,23.1786 62.63973,-18.6636 61.31095,-11.588 64.67747,34.6472 14.88908,-81.4311 17.42218,-18.0057 20.98895,21.1079 23.73457,-121.4005 55.82258,-31.7441 62.8579,-18.6724 -5.90437,-94.3594 37.35097,-55.4681 48.65972,-19.5954 -2.91536,-23.0122 10.95317,-69.487 52.34632,-13.1188 -9.8695,-20.7496 -3.1526,-42.2962 34.0246,9.0732 -11.2745,-34.3451 9.6112,-44.1683 74.6823,-11.8006 -0.5021,-17.0771 -6.8483,-35.014 61.5652,-4.833 -1.2835,-15.6767 -15.2326,-37.2075 77.8554,-9.2545 0.6074,-27.3754 15.6022,-29.1099 41.7269,-16.5125 -4.463,-23.4934 24.0681,-12.9018 60.23,2.7953 -23.0317,-32.042 8.3719,-28.6243 53.7544,-18.8217 -4.4068,-15.5655 -10.707,-31.5384 15.8144,-40.4365 -51.2782,-45.8169 -5.9183,-49.5374 9.7319,-54.4273 -25.6854,-1.4095 -44.886,-17.4541 -11.8084,-30.1681 -38.5133,7.4451 -24.3709,-15.1614 -22.2534,-27.4943 l -62.0411,-18.905 -60.8247,-8.3897 -72.9896,-8.3137 -68.1237,-1.3291 -69.3402,0.4324 -60.8246,3.8873 -52.30925,-8.4427 -53.5257,9.1027 -75.42258,-1.2836 -36.49479,30.0425 c 12.28937,28.7919 -26.54669,28.5474 -62.04117,30.2008 z"
       style="fill:#ffffff;fill-rule:evenodd;stroke:none;stroke-width:0.88858px;stroke-linecap:butt;stroke-linejoin:miter;stroke-opacity:1" />
  </g>
  <g
     inkscape:groupmode="layer"
     id="layer1"
     inkscape:label="txt">
    <text
       xml:space="preserve"
       style="font-style:normal;font-variant:normal;font-weight:normal;font-stretch:normal;font-size:80px;line-height:1.25;font-family:Lavi;-inkscape-font-specification:Lavi;letter-spacing:0px;word-spacing:0px;fill:#ffffff;fill-opacity:1;stroke:#ffffff;stroke-width:0.668774;stroke-miterlimit:4;stroke-dasharray:none;stroke-opacity:1;filter:url(#filter4375-4-1-1-1-9-5-8-8-5-5-3-3-3-0)"
       id="text4580-6-0-0-0-9-3-3-2-0"
       transform="matrix(1.1484433,-0.31259721,-0.62973044,2.2133476,1615.3614,-1809.1372)"
       x="-607.91235"
       y="1245.0809"><tspan
         id="tspan1534-6"
         style="font-size:61.3371px"><tspan
   id="tspan882"
   style="font-size:71.8115px">DR</tspan><tspan
   style="font-size:66.5743px"
   id="tspan1814">Z</tspan>OW!!</tspan></text>
    <text
       xml:space="preserve"
       style="font-style:normal;font-variant:normal;font-weight:normal;font-stretch:normal;font-size:45px;line-height:1.25;font-family:Lavi;-inkscape-font-specification:Lavi;text-align:center;letter-spacing:0px;word-spacing:0px;text-anchor:middle;fill:#000000;fill-opacity:1;stroke:none"
       x="833.04907"
       y="186.81442"
       id="text4246-3-2-2-6-3-7-9-3-3-56-9-3-20"><tspan
         style="font-size:45px"
         sodipodi:role="line"
         x="833.04907"
         y="186.81442"
         id="tspan952">Jasså. Du er allerede</tspan><tspan
         style="font-size:45px"
         sodipodi:role="line"
         x="833.04907"
         y="243.06442"
         id="tspan956">på nivå med dine</tspan><tspan
         style="font-size:45px"
         sodipodi:role="line"
         x="833.04907"
         y="299.31442"
         id="tspan958">forgjengere. Det var</tspan><tspan
         style="font-size:45px"
         sodipodi:role="line"
         x="833.04907"
         y="355.56442"
         id="tspan962">mye tidligere enn jeg</tspan><tspan
         style="font-size:45px"
         sodipodi:role="line"
         x="833.04907"
         y="411.81442"
         id="tspan966">hadde forventet...</tspan></text>
    <text
       xml:space="preserve"
       style="font-style:normal;font-variant:normal;font-weight:normal;font-stretch:normal;font-size:45px;line-height:1.25;font-family:Lavi;-inkscape-font-specification:Lavi;text-align:center;letter-spacing:0px;word-spacing:0px;text-anchor:middle;fill:#000000;fill-opacity:1;stroke:none"
       x="1306.632"
       y="983.883"
       id="text4246-3-2-2-6-3-7-9-3-3-56-9-3-20-3"><tspan
         style="font-size:45px"
         sodipodi:role="line"
         x="1306.632"
         y="983.883"
         id="tspan985">Da må jeg</tspan><tspan
         style="font-size:45px"
         sodipodi:role="line"
         x="1306.632"
         y="1040.1329"
         id="tspan973">fremskynde planene</tspan><tspan
         style="font-size:45px"
         sodipodi:role="line"
         x="1306.632"
         y="1096.3829"
         id="tspan975">mine, men det er</tspan><tspan
         style="font-size:45px"
         sodipodi:role="line"
         x="1306.632"
         y="1152.6329"
         id="tspan986">bare bra...</tspan></text>
    <text
       xml:space="preserve"
       style="font-style:normal;font-variant:normal;font-weight:normal;font-stretch:normal;font-size:45px;line-height:1.25;font-family:Lavi;-inkscape-font-specification:Lavi;text-align:center;letter-spacing:0px;word-spacing:0px;text-anchor:middle;fill:#000000;fill-opacity:1;stroke:none"
       x="1743.1007"
       y="193.33838"
       id="text4246-3-2-2-6-3-7-9-3-3-56-9-3-20-3-2"><tspan
         style="font-size:45px"
         sodipodi:role="line"
         x="1743.1007"
         y="193.33838"
         id="tspan994-7">Planene dine</tspan></text>
    <text
       xml:space="preserve"
       style="font-style:normal;font-variant:normal;font-weight:normal;font-stretch:normal;font-size:45px;line-height:1.25;font-family:Lavi;-inkscape-font-specification:Lavi;text-align:center;letter-spacing:0px;word-spacing:0px;text-anchor:middle;fill:#000000;fill-opacity:1;stroke:none"
       x="2028.2909"
       y="242.40437"
       id="text4246-3-2-2-6-3-7-9-3-3-56-9-3-20-3-2-0"><tspan
         style="font-size:45px"
         sodipodi:role="line"
         x="2028.2909"
         y="242.40437"
         id="tspan8482">Du bare testet meg</tspan><tspan
         style="font-size:45px"
         sodipodi:role="line"
         x="2028.2909"
         y="298.65436"
         id="tspan1011">altså? Forsinkelsen min</tspan><tspan
         style="font-size:45px"
         sodipodi:role="line"
         x="2028.2909"
         y="354.90436"
         id="tspan1013">hadde ingenting med</tspan><tspan
         style="font-size:45px"
         sodipodi:role="line"
         x="2028.2909"
         y="411.15436"
         id="tspan1015">saken å gjøre?</tspan></text>
    <text
       xml:space="preserve"
       style="font-style:normal;font-variant:normal;font-weight:normal;font-stretch:normal;font-size:45px;line-height:1.25;font-family:Lavi;-inkscape-font-specification:Lavi;text-align:center;letter-spacing:0px;word-spacing:0px;text-anchor:middle;fill:#000000;fill-opacity:1;stroke:none"
       x="2179.271"
       y="1053.5718"
       id="text4246-3-2-2-6-3-7-9-3-3-56-9-3-20-3-2-0-3"><tspan
         style="font-size:45px"
         sodipodi:role="line"
         x="2179.271"
         y="1053.5718"
         id="tspan1147">Du er virkelig</tspan><tspan
         style="font-size:45px"
         sodipodi:role="line"
         x="2179.271"
         y="1109.8218"
         id="tspan1019">skrullete..</tspan></text>
    <text
       xml:space="preserve"
       style="font-style:normal;font-variant:normal;font-weight:normal;font-stretch:normal;font-size:45px;line-height:1.25;font-family:Lavi;-inkscape-font-specification:Lavi;text-align:center;letter-spacing:0px;word-spacing:0px;text-anchor:middle;fill:#000000;fill-opacity:1;stroke:none"
       x="314.83337"
       y="1631.6757"
       id="text4246-3-2-2-6-3-7-9-3-3-56-9-3-20-3-2-0-3-1"><tspan
         style="font-size:45px"
         sodipodi:role="line"
         x="314.83337"
         y="1631.6757"
         id="tspan1224">ti...</tspan></text>
    <text
       xml:space="preserve"
       style="font-style:normal;font-variant:normal;font-weight:normal;font-stretch:normal;font-size:45px;line-height:1.25;font-family:Lavi;-inkscape-font-specification:Lavi;text-align:center;letter-spacing:0px;word-spacing:0px;text-anchor:middle;fill:#000000;fill-opacity:1;stroke:none"
       x="327.27063"
       y="1708.0287"
       id="text4246-3-2-2-6-3-7-9-3-3-56-9-3-20-3-2-0-3-1-2"><tspan
         style="font-size:45px"
         sodipodi:role="line"
         x="327.27063"
         y="1708.0287"
         id="tspan1224-2">hi.</tspan></text>
    <text
       xml:space="preserve"
       style="font-style:normal;font-variant:normal;font-weight:normal;font-stretch:normal;font-size:51.75510025px;line-height:1.25;font-family:Lavi;-inkscape-font-specification:Lavi;text-align:center;letter-spacing:0px;word-spacing:0px;text-anchor:middle;fill:#000000;fill-opacity:1;stroke:none;stroke-width:1.15011001"
       x="1273.3981"
       y="1290.0323"
       id="text4246-3-2-2-6-3-7-9-3-3-56-9-3-20-3-3"
       transform="skewX(-7.1285627)"><tspan
         style="font-style:normal;font-variant:normal;font-weight:bold;font-stretch:normal;font-size:51.75510025px;font-family:Lavi;-inkscape-font-specification:'Lavi Bold';stroke-width:1.15011001"
         sodipodi:role="line"
         x="1273.3981"
         y="1290.0323"
         id="tspan1341">HVA GLOR DERE</tspan><tspan
         style="font-style:normal;font-variant:normal;font-weight:bold;font-stretch:normal;font-size:51.75510025px;font-family:Lavi;-inkscape-font-specification:'Lavi Bold';stroke-width:1.15011001"
         sodipodi:role="line"
         x="1273.3981"
         y="1354.7262"
         id="tspan1044">PÅ?!</tspan></text>
    <text
       xml:space="preserve"
       style="font-style:normal;font-variant:normal;font-weight:normal;font-stretch:normal;font-size:47.46429825px;line-height:1.25;font-family:Lavi;-inkscape-font-specification:Lavi;text-align:center;letter-spacing:0px;word-spacing:0px;text-anchor:middle;fill:#000000;fill-opacity:1;stroke:none;stroke-width:1.05475998"
       x="1452.0516"
       y="1431.9385"
       id="text4246-3-2-2-6-3-7-9-3-3-56-9-3-20-3-3-2"
       transform="skewX(-7.1285625)"><tspan
         style="font-style:normal;font-variant:normal;font-weight:bold;font-stretch:normal;font-size:47.46429825px;font-family:Lavi;-inkscape-font-specification:'Lavi Bold';stroke-width:1.05475998"
         sodipodi:role="line"
         x="1452.0516"
         y="1431.9385"
         id="tspan1016">JEG BLE NETTOPP ANGREPET</tspan><tspan
         style="font-style:normal;font-variant:normal;font-weight:bold;font-stretch:normal;font-size:47.46429825px;font-family:Lavi;-inkscape-font-specification:'Lavi Bold';stroke-width:1.05475998"
         sodipodi:role="line"
         x="1452.0516"
         y="1491.2688"
         id="tspan1058">OG DERE BARE STÅR DER SOM</tspan><tspan
         style="font-style:normal;font-variant:normal;font-weight:bold;font-stretch:normal;font-size:47.46429825px;font-family:Lavi;-inkscape-font-specification:'Lavi Bold';stroke-width:1.05475998"
         sodipodi:role="line"
         x="1452.0516"
         y="1550.5992"
         id="tspan1062">STATUER! GRIP HENNE!!!</tspan></text>
    <text
       xml:space="preserve"
       style="font-style:normal;font-variant:normal;font-weight:normal;font-stretch:normal;font-size:55.07120132px;line-height:1.25;font-family:Lavi;-inkscape-font-specification:Lavi;text-align:center;letter-spacing:0px;word-spacing:0px;text-anchor:middle;fill:#000000;fill-opacity:1;stroke:none;stroke-width:1.22379005"
       x="581.41895"
       y="2223.2158"
       id="text4246-3-2-2-6-3-7-9-3-3-56-9-3-20-3-3-2-7"
       transform="matrix(0.99725425,0,-0.12471947,1.0027533,0,0)"><tspan
         style="font-style:normal;font-variant:normal;font-weight:bold;font-stretch:normal;font-size:55.07120132px;font-family:Lavi;-inkscape-font-specification:'Lavi Bold';stroke-width:1.22379005"
         sodipodi:role="line"
         x="581.41895"
         y="2223.2158"
         id="tspan1076">FANG HENNE</tspan><tspan
         style="font-style:normal;font-variant:normal;font-weight:bold;font-stretch:normal;font-size:55.07120132px;font-family:Lavi;-inkscape-font-specification:'Lavi Bold';stroke-width:1.22379005"
         sodipodi:role="line"
         x="581.41895"
         y="2292.0549"
         id="tspan1080">LEVENDE!</tspan></text>
    <text
       xml:space="preserve"
       style="font-style:normal;font-variant:normal;font-weight:normal;font-stretch:normal;font-size:70.97810364px;line-height:1.25;font-family:Lavi;-inkscape-font-specification:Lavi;text-align:center;letter-spacing:0px;word-spacing:0px;text-anchor:middle;fill:#000000;fill-opacity:1;stroke:none;stroke-width:1.57727003"
       x="1546.9048"
       y="2006.6577"
       id="text4246-3-2-2-6-3-7-9-3-3-56-9-3-20-3-3-2-7-2"
       transform="matrix(0.89307378,0,-0.11169036,1.1197283,0,0)"><tspan
         style="font-style:normal;font-variant:normal;font-weight:bold;font-stretch:normal;font-size:70.97810364px;font-family:Lavi;-inkscape-font-specification:'Lavi Bold';stroke-width:1.57727003"
         sodipodi:role="line"
         x="1546.9048"
         y="2006.6577"
         id="tspan1414-3">TA HENNE!!!</tspan></text>
    <text
       xml:space="preserve"
       style="font-style:normal;font-variant:normal;font-weight:normal;font-stretch:normal;font-size:45px;line-height:1.25;font-family:Lavi;-inkscape-font-specification:Lavi;text-align:center;letter-spacing:0px;word-spacing:0px;text-anchor:middle;fill:#000000;fill-opacity:1;stroke:none"
       x="1159.3292"
       y="2502.3032"
       id="text4246-3-2-2-6-3-7-9-3-3-56-9-3-20-3-2-0-3-19"><tspan
         style="font-size:45px"
         sodipodi:role="line"
         x="1166.3605"
         y="2502.3032"
         id="tspan1484">Shichimi, </tspan><tspan
         style="font-size:45px"
         sodipodi:role="line"
         x="1159.3292"
         y="2558.5532"
         id="tspan1031">vi to skal ha</tspan><tspan
         style="font-size:45px"
         sodipodi:role="line"
         x="1159.3292"
         y="2614.8032"
         id="tspan1097">oss en prat</tspan><tspan
         style="font-size:45px"
         sodipodi:role="line"
         x="1159.3292"
         y="2671.0532"
         id="tspan1103">senere!</tspan></text>
    <text
       xml:space="preserve"
       style="font-style:normal;font-variant:normal;font-weight:normal;font-stretch:normal;font-size:45px;line-height:1.25;font-family:Lavi;-inkscape-font-specification:Lavi;text-align:center;letter-spacing:0px;word-spacing:0px;text-anchor:middle;fill:#000000;fill-opacity:1;stroke:none"
       x="1972.1591"
       y="2268.5098"
       id="text4246-3-2-2-6-3-7-9-3-3-56-9-3-20-3-2-0-3-19-8-3"><tspan
         style="font-size:45px"
         sodipodi:role="line"
         x="1972.1591"
         y="2268.5098"
         id="tspan1124">Beklager, Gulrot,</tspan><tspan
         style="font-size:45px"
         sodipodi:role="line"
         x="1972.1591"
         y="2324.7598"
         id="tspan1128">men vi må nok reise</tspan><tspan
         style="font-size:45px"
         sodipodi:role="line"
         x="1972.1591"
         y="2381.0098"
         id="tspan1130">med hyperfart</tspan><tspan
         style="font-size:45px"
         sodipodi:role="line"
         x="1972.1591"
         y="2437.2598"
         id="tspan1132">igjen.</tspan></text>
    <text
       xml:space="preserve"
       style="font-style:normal;font-variant:normal;font-weight:normal;font-stretch:normal;font-size:45px;line-height:1.25;font-family:Lavi;-inkscape-font-specification:Lavi;text-align:center;letter-spacing:0px;word-spacing:0px;text-anchor:middle;fill:#000000;fill-opacity:1;stroke:none"
       x="1974.8418"
       y="2527.3699"
       id="text4246-3-2-2-6-3-7-9-3-3-56-9-3-20-3-2-0-3-19-8"><tspan
         style="font-size:45px"
         sodipodi:role="line"
         x="1974.8418"
         y="2527.3699"
         id="tspan1046">Hold deg fast!</tspan></text>
    <text
       xml:space="preserve"
       style="font-style:normal;font-variant:normal;font-weight:normal;font-stretch:normal;font-size:6.99764013px;line-height:0%;font-family:Lavi;-inkscape-font-specification:Lavi;letter-spacing:0px;word-spacing:0px;fill:#000000;fill-opacity:1;stroke:#000000;stroke-width:6.65340996;stroke-miterlimit:4;stroke-dasharray:none;stroke-opacity:1;paint-order:stroke fill markers"
       x="1234.3364"
       y="2988.7241"
       id="text4580-25"
       transform="matrix(0.70061135,-0.52267462,0.27429036,1.222697,0,0)"><tspan
         sodipodi:role="line"
         id="tspan4582-4"
         x="1234.3364"
         y="2988.7241"
         style="font-size:40.81949997px;line-height:100%;letter-spacing:2.84771991px;fill:#ffffff;stroke:#000000;stroke-width:6.65340996;stroke-miterlimit:4;stroke-dasharray:none;stroke-opacity:1;paint-order:stroke fill markers"><tspan
           style="font-size:46.88420105px;line-height:100%;letter-spacing:2.84771991px;stroke:#000000;stroke-width:6.65340996;stroke-miterlimit:4;stroke-dasharray:none;stroke-opacity:1;paint-order:stroke fill markers"
           id="tspan4617-9">Tapp!</tspan></tspan></text>
    <text
       xml:space="preserve"
       style="font-style:normal;font-variant:normal;font-weight:normal;font-stretch:normal;font-size:6.12727022px;line-height:0%;font-family:Lavi;-inkscape-font-specification:Lavi;letter-spacing:0px;word-spacing:0px;fill:#000000;fill-opacity:1;stroke:#000000;stroke-width:5.82585001;stroke-miterlimit:4;stroke-dasharray:none;stroke-opacity:1;paint-order:stroke fill markers"
       x="1244.6915"
       y="2939.7729"
       id="text4580-25-6"
       transform="matrix(0.70061135,-0.52267462,0.27429036,1.222697,0,0)"><tspan
         sodipodi:role="line"
         id="tspan4582-4-1"
         x="1244.6915"
         y="2939.7729"
         style="font-size:35.74229813px;line-height:100%;letter-spacing:2.49352002px;fill:#ffffff;stroke:#000000;stroke-width:5.82585001;stroke-miterlimit:4;stroke-dasharray:none;stroke-opacity:1;paint-order:stroke fill markers"><tspan
           style="font-size:41.05270004px;line-height:100%;letter-spacing:2.49352002px;stroke:#000000;stroke-width:5.82585001;stroke-miterlimit:4;stroke-dasharray:none;stroke-opacity:1;paint-order:stroke fill markers"
           id="tspan4617-9-0">Tapp!</tspan></tspan></text>
    <text
       xml:space="preserve"
       style="font-style:normal;font-variant:normal;font-weight:normal;font-stretch:normal;font-size:80px;line-height:1.25;font-family:Lavi;-inkscape-font-specification:Lavi;letter-spacing:0px;word-spacing:0px;fill:#ffffff;fill-opacity:1;stroke:#ffffff;stroke-width:0.668774;stroke-miterlimit:4;stroke-dasharray:none;stroke-opacity:1;filter:url(#filter4375-4-1-1-1-9-5-8-8-5-5-3-3-3-0-6)"
       id="text4580-6-0-0-0-9-3-3-2-0-3"
       transform="matrix(1.2199315,-0.31719701,-0.66892978,2.2459164,3443.4589,177.24169)"
       x="-607.91235"
       y="1245.0809"><tspan
         id="tspan1534-6-7"
         style="font-size:61.3371px"><tspan
   style="font-size:66.5743px"
   id="tspan1814-4">Ziioo</tspan>OO!!</tspan></text>
    <text
       xml:space="preserve"
       style="font-style:normal;font-weight:normal;font-size:40px;line-height:1.25;font-family:sans-serif;letter-spacing:0px;word-spacing:0px;fill:#000000;fill-opacity:1;stroke:none"
       x="1138.8563"
       y="1615.5997"
       id="text1056"><tspan
         sodipodi:role="line"
         id="tspan1054"
         x="1138.8563"
         y="1615.5997"> </tspan></text>
  </g>
</svg>
