<?xml version="1.0" encoding="UTF-8" standalone="no"?>
<svg
   xmlns:dc="http://purl.org/dc/elements/1.1/"
   xmlns:cc="http://creativecommons.org/ns#"
   xmlns:rdf="http://www.w3.org/1999/02/22-rdf-syntax-ns#"
   xmlns:svg="http://www.w3.org/2000/svg"
   xmlns="http://www.w3.org/2000/svg"
   xmlns:xlink="http://www.w3.org/1999/xlink"
   xmlns:sodipodi="http://sodipodi.sourceforge.net/DTD/sodipodi-0.dtd"
   xmlns:inkscape="http://www.inkscape.org/namespaces/inkscape"
   sodipodi:docname="E35P06.svg"
   height="3503"
   width="2481"
   inkscape:version="1.0.1 (3bc2e813f5, 2020-09-07)"
   version="1.1"
   id="svg2">
  <metadata
     id="metadata8">
    <rdf:RDF>
      <cc:Work
         rdf:about="">
        <dc:format>image/svg+xml</dc:format>
        <dc:type
           rdf:resource="http://purl.org/dc/dcmitype/StillImage" />
        <dc:title />
      </cc:Work>
    </rdf:RDF>
  </metadata>
  <defs
     id="defs6">
    <rect
       x="2113.1264"
       y="2806.0753"
       width="147.1071"
       height="118.16949"
       id="rect55" />
  </defs>
  <sodipodi:namedview
     inkscape:pagecheckerboard="0"
     inkscape:snap-global="false"
     inkscape:document-rotation="0"
     inkscape:current-layer="layer1"
     inkscape:window-maximized="1"
     inkscape:window-y="27"
     inkscape:window-x="72"
     inkscape:cy="3029.7189"
     inkscape:cx="1082.9523"
     inkscape:zoom="0.52601302"
     showgrid="false"
     id="namedview4"
     inkscape:window-height="1016"
     inkscape:window-width="1848"
     inkscape:pageshadow="2"
     inkscape:pageopacity="0"
     guidetolerance="10"
     gridtolerance="10"
     objecttolerance="10"
     borderopacity="1"
     bordercolor="#666666"
     pagecolor="#ffffff" />
  <g
     sodipodi:insensitive="true"
     inkscape:label="artwork"
     id="layer2"
     inkscape:groupmode="layer">
    <image
       sodipodi:absref="/home/emmiline/Documents/git/webcomics/ep35_The-Reflection/lang/gfx_Pepper-and-Carrot_by-David-Revoy_E35P06.png"
       xlink:href="../gfx_Pepper-and-Carrot_by-David-Revoy_E35P06.png"
       width="2481"
       height="3503"
       id="image10"
       x="0"
       y="0" />
  </g>
  <g
     style="display:inline"
     inkscape:label="speechbubbles"
     id="layer3"
     inkscape:groupmode="layer">
    <path
       sodipodi:nodetypes="csssssssc"
       inkscape:connector-curvature="0"
       id="path3286-6"
       d="m 599.00921,219.66057 c -16.31997,0.25153 -32.60831,1.10913 -48.8326,2.23447 -25.05411,1.87817 -50.10306,4.98606 -73.60065,11.02961 -27.89893,7.81838 -48.71638,24.81931 -55.34376,43.93463 -10.55187,22.8214 -11.41871,47.86998 0.67054,70.55537 7.94366,13.99026 25.6983,24.98243 46.16857,31.4172 33.14617,10.74346 70.19372,16.49519 107.2628,16.20796 22.5091,0.0514 45.03191,-0.49715 67.45012,-1.77792 27.47213,-1.76188 55.11566,-6.1902 78.69349,-15.74552 15.67336,-6.40153 28.37196,-16.00652 34.64698,-27.3557 5.5581,-9.57917 6.59238,-19.96137 5.95454,-30.10974 -0.42844,-17.21679 -1.45986,-34.75387 -9.87603,-51.25527 -5.6571,-10.66119 -17.90086,-19.44232 -32.19149,-25.67468 -9.82269,-4.28357 -20.79035,-7.28235 -31.63283,-10.28947 -25.82484,-6.8465 -53.18733,-11.43205 -81.01435,-12.91968 -2.78074,-0.13645 -5.56756,-0.21793 -8.35533,-0.25126 z"
       style="fill:#ffffff;stroke:none;stroke-width:0.801261" />
    <path
       sodipodi:nodetypes="cccccccccccccccccccccccc"
       id="path961"
       d="m -11.698607,1502.9614 c 47.285128,0.9709 41.020285,18.9206 23.991775,40.2832 13.099827,-1.4369 43.737529,-21.2257 25.570695,10.0555 39.667306,-11.3646 56.420658,15.5887 53.197356,27.1509 19.484341,-3.9803 39.465281,-0.6376 19.136541,40.2724 19.63803,-9.167 36.84145,-36.8642 34.60501,7.2244 15.89818,-5.4725 36.78638,-26.5581 39.43737,9.4172 21.01567,-17.7601 41.89473,-32.9121 60.6718,-7.9194 19.53008,-36.1747 39.245,-23.3546 52.60208,12.4772 6.27564,-43.4296 43.52626,-25.9104 66.90689,19.5777 -7.42371,-37.6335 -38.94668,-89.6447 54.67081,-13.5228 -39.72841,-55.9177 -44.6055,-77.4348 72.48794,-15.7856 -14.94217,-22.6503 -39.19887,-77.1061 56.32185,-18.4508 -64.83065,-67.3048 -26.58017,-74.4012 20.0383,-86.5626 -56.61095,-1.7957 -73.29896,-19.4105 -12.88074,-26.8793 -92.57779,-8.7403 -70.1637,-30.4201 -40.69585,-66.7128 -47.37424,27.6916 -40.57833,11.5769 -29.22077,-3.1512 -84.20036,29.1003 -49.08304,-16.958 -41.30815,-34.9119 -41.35702,19.0141 -54.17414,16.8415 -50.28863,-11.8494 -22.95791,24.5753 -47.24278,23.9494 -45.05674,14.2836 l -57.8602,-8.2257 -275.30273,5.4155 -12.063932,88.2476 c 72.623699,-4.1891 28.465227,14.6958 -14.960675,19.5663 z"
       style="display:inline;fill:#ffffff;fill-rule:evenodd;stroke:none;stroke-width:1.36247px;stroke-linecap:butt;stroke-linejoin:miter;stroke-opacity:1" />
    <path
       inkscape:connector-curvature="0"
       id="path3525-0"
       d="m 636.91226,2285.3556 c -6.14462,-35.9524 10.24132,-131.4529 136.2082,-123.5877 125.96687,7.8642 146.44933,52.8058 149.52165,66.2874 3.0723,13.4827 29.69948,89.8831 -68.61607,110.1061 -98.31575,20.2239 -186.39007,-1.1239 -217.11378,-52.8058 z"
       style="color:#000000;display:inline;overflow:visible;visibility:visible;fill:#ffffff;fill-opacity:1;fill-rule:nonzero;stroke:none;stroke-width:0.906224px;marker:none;enable-background:accumulate" />
    <path
       inkscape:connector-curvature="0"
       id="path3072-56"
       d="m 777.45911,2075.5812 c 24.221,32.672 31.0089,45.658 8.1243,87.146 -22.8847,41.487 -7.3195,49.577 -7.3195,49.577 l 28.2503,-15.376 c 0,0 42.659,-91.848 -29.0551,-121.347 z"
       style="color:#000000;display:inline;overflow:visible;visibility:visible;fill:#ffffff;fill-opacity:1;fill-rule:nonzero;stroke:none;stroke-width:1px;marker:none;enable-background:accumulate" />
    <path
       sodipodi:nodetypes="ccccc"
       inkscape:connector-curvature="0"
       id="path3072-5-5"
       d="m 787.3973,441.92617 c -47.0829,-20.24287 -67.22496,-54.55991 -84.15983,-115.70701 -17.59681,-45.717 -36.07245,-33.52653 -36.07245,-33.52653 l 6.37734,17.91035 c 0,0 -3.04742,117.01808 113.85494,131.32319 z"
       style="color:#000000;display:inline;overflow:visible;visibility:visible;fill:#ffffff;fill-opacity:1;fill-rule:nonzero;stroke:none;stroke-width:1px;marker:none;enable-background:accumulate" />
    <path
       sodipodi:nodetypes="csccssscc"
       inkscape:connector-curvature="0"
       id="path3282-7"
       d="m 393.56677,1606.3671 c 21.51156,33.7205 38.79051,39.1501 50.26035,53.0664 11.46981,13.9172 -2.88402,43.4737 0.19353,53.5399 3.70439,9.4958 0.69509,16.2497 29.83986,39.4536 -46.26,-20.9908 -40.86354,-33.0957 -44.26871,-41.9175 -4.68096,-12.128 3.84885,-26.4644 -8.51834,-37.4754 -11.9791,-10.667 -55.59571,-40.8524 -64.07404,-63.4543 -8.47865,-22.6019 -12.84256,-23.9886 -12.84256,-23.9886 z"
       style="display:inline;fill:#ffffff;fill-opacity:1;stroke:none;stroke-width:1.10947" />
  </g>
  <g
     inkscape:label="txt"
     id="layer1"
     inkscape:groupmode="layer">
    <text
       id="text4246-3-2-2"
       y="295.42621"
       x="581.03717"
       style="font-style:normal;font-variant:normal;font-weight:normal;font-stretch:normal;font-size:45px;line-height:1.25;font-family:Lavi;-inkscape-font-specification:Lavi;text-align:center;letter-spacing:0px;word-spacing:0px;text-anchor:middle;fill:#000000;fill-opacity:1;stroke:none"
       xml:space="preserve"><tspan
         id="tspan872"
         y="295.42621"
         x="581.03717"
         sodipodi:role="line"
         style="font-size:45px">Grotten ved</tspan><tspan
         y="351.67621"
         x="581.03717"
         sodipodi:role="line"
         style="font-size:45px"
         id="tspan46">Hornsøen!</tspan><tspan
         id="tspan905"
         y="407.92621"
         x="581.03717"
         sodipodi:role="line"
         style="font-size:45px" /></text>
    <text
       id="text4246-3-2-2-3"
       y="1511.3002"
       x="312.00537"
       style="font-style:normal;font-variant:normal;font-weight:normal;font-stretch:normal;font-size:45px;line-height:1.25;font-family:Lavi;-inkscape-font-specification:Lavi;text-align:center;letter-spacing:0px;word-spacing:0px;text-anchor:middle;fill:#000000;fill-opacity:1;stroke:none"
       xml:space="preserve"><tspan
         id="tspan880"
         y="1511.3002"
         x="312.00537"
         sodipodi:role="line"
         style="font-size:45px">Carrot, det er</tspan><tspan
         y="1567.5502"
         x="312.00537"
         sodipodi:role="line"
         style="font-size:45px"
         id="tspan50">vores chance!</tspan></text>
    <text
       id="text4246-3-2-2-3-5"
       y="2235.9109"
       x="781.18762"
       style="font-style:normal;font-variant:normal;font-weight:normal;font-stretch:normal;font-size:45px;line-height:1.25;font-family:Lavi;-inkscape-font-specification:Lavi;text-align:center;letter-spacing:0px;word-spacing:0px;text-anchor:middle;fill:#000000;fill-opacity:1;stroke:none"
       xml:space="preserve"><tspan
         id="tspan884"
         y="2235.9109"
         x="781.18762"
         sodipodi:role="line"
         style="font-size:45px">Jeg kender</tspan><tspan
         y="2292.1609"
         x="781.18762"
         sodipodi:role="line"
         style="font-size:45px"
         id="tspan54">den grotte.</tspan></text>
    <text
       id="text4246-3-2-2-3-5-9"
       y="2549.3845"
       x="201.94211"
       style="font-style:normal;font-variant:normal;font-weight:normal;font-stretch:normal;font-size:45px;line-height:1.25;font-family:Lavi;-inkscape-font-specification:Lavi;text-align:center;letter-spacing:0px;word-spacing:0px;text-anchor:middle;fill:#ffffff;fill-opacity:1;stroke:none"
       xml:space="preserve"><tspan
         id="tspan889"
         y="2549.3845"
         x="201.94211"
         sodipodi:role="line"
         style="font-size:45px;text-align:start;text-anchor:start;fill:#ffffff">Det er en lang snoet gang, der ender</tspan><tspan
         y="2605.6345"
         x="201.94211"
         sodipodi:role="line"
         style="font-size:45px;text-align:start;text-anchor:start;fill:#ffffff"
         id="tspan58">i et kollapset hulrum.</tspan></text>
    <text
       id="text4246-3-2-2-3-5-9-7"
       y="3059.7258"
       x="1335.3069"
       style="font-style:normal;font-variant:normal;font-weight:normal;font-stretch:normal;font-size:45px;line-height:1.25;font-family:Lavi;-inkscape-font-specification:Lavi;text-align:center;letter-spacing:0px;word-spacing:0px;text-anchor:middle;fill:#ffffff;fill-opacity:1;stroke:none"
       xml:space="preserve"><tspan
         y="3059.7258"
         x="1335.3069"
         sodipodi:role="line"
         style="font-size:45px;text-align:end;text-anchor:end;fill:#ffffff"
         id="tspan66"> Stalaktitterne fra sammenbruddet skaber</tspan><tspan
         y="3115.9758"
         x="1335.3069"
         sodipodi:role="line"
         style="font-size:45px;text-align:end;text-anchor:end;fill:#ffffff"
         id="tspan47">en mur af pigge. Det er en dødsfælde!</tspan></text>
    <text
       id="text4246-3-2-2-3-5-9-7-3"
       y="2753.425"
       x="1482.9749"
       style="font-style:normal;font-variant:normal;font-weight:normal;font-stretch:normal;font-size:45px;line-height:1.25;font-family:Lavi;-inkscape-font-specification:Lavi;text-align:center;letter-spacing:0px;word-spacing:0px;text-anchor:middle;fill:#000000;fill-opacity:1;stroke:none"
       xml:space="preserve"><tspan
         id="tspan888"
         y="2753.425"
         x="1482.9749"
         sodipodi:role="line"
         style="font-size:45px;text-align:start;text-anchor:start;fill:#ffffff">Der er en lille åbning, der lige </tspan><tspan
         id="tspan906"
         y="2809.675"
         x="1482.9749"
         sodipodi:role="line"
         style="font-size:45px;text-align:start;text-anchor:start;fill:#ffffff">netop er stor nok til, at man </tspan><tspan
         id="tspan908"
         y="2865.925"
         x="1482.9749"
         sodipodi:role="line"
         style="font-size:45px;text-align:start;text-anchor:start;fill:#ffffff">kan komme ud,</tspan></text>
    <text
       id="text4246-3-2-2-3-5-9-7-3-3"
       y="3223.4587"
       x="2301.0408"
       style="font-style:normal;font-variant:normal;font-weight:normal;font-stretch:normal;font-size:45px;line-height:1.25;font-family:Lavi;-inkscape-font-specification:Lavi;text-align:center;letter-spacing:0px;word-spacing:0px;text-anchor:middle;fill:#000000;fill-opacity:1;stroke:none;stroke-width:1.25015"
       xml:space="preserve"><tspan
         id="tspan895"
         y="3223.4587"
         x="2301.0408"
         sodipodi:role="line"
         style="font-size:45px;text-align:end;text-anchor:end;fill:#ffffff;stroke-width:1.25015">men dragen vil ikke kunne standse</tspan><tspan
         id="tspan898"
         y="3279.7087"
         x="2301.0408"
         sodipodi:role="line"
         style="font-size:45px;text-align:end;text-anchor:end;fill:#ffffff;stroke-width:1.25015">i tide og vil ramme væggen</tspan><tspan
         id="tspan927"
         y="3335.9587"
         x="2301.0408"
         sodipodi:role="line"
         style="font-size:45px;text-align:end;text-anchor:end;fill:#ffffff;stroke-width:1.25015">med fuld fart! Muhahaha!</tspan></text>
    <text
       xml:space="preserve"
       id="text53"
       style="fill:black;fill-opacity:1;stroke:none;font-family:sans-serif;font-style:normal;font-weight:normal;font-size:40px;line-height:1.25;letter-spacing:0px;word-spacing:0px;white-space:pre;shape-inside:url(#rect55);" />
  </g>
</svg>
