<?xml version="1.0" encoding="UTF-8" standalone="no"?>
<!-- Created with Inkscape (http://www.inkscape.org/) -->

<svg
   id="svg2"
   version="1.1"
   inkscape:version="1.1.1 (3bf5ae0d25, 2021-09-20)"
   width="2481"
   height="3503"
   sodipodi:docname="E03P05.svg"
   xmlns:inkscape="http://www.inkscape.org/namespaces/inkscape"
   xmlns:sodipodi="http://sodipodi.sourceforge.net/DTD/sodipodi-0.dtd"
   xmlns:xlink="http://www.w3.org/1999/xlink"
   xmlns="http://www.w3.org/2000/svg"
   xmlns:svg="http://www.w3.org/2000/svg"
   xmlns:rdf="http://www.w3.org/1999/02/22-rdf-syntax-ns#"
   xmlns:cc="http://creativecommons.org/ns#"
   xmlns:dc="http://purl.org/dc/elements/1.1/">
  <sodipodi:namedview
     pagecolor="#ffffff"
     bordercolor="#666666"
     inkscape:pageopacity="0"
     inkscape:pageshadow="2"
     inkscape:window-width="1336"
     inkscape:window-height="725"
     id="namedview70"
     showgrid="false"
     inkscape:zoom="0.4"
     inkscape:cx="1283.75"
     inkscape:cy="2027.5"
     inkscape:current-layer="layer1"
     borderopacity="1"
     inkscape:pagecheckerboard="0"
     inkscape:window-x="15"
     inkscape:window-y="15"
     inkscape:window-maximized="0" />
  <metadata
     id="metadata8">
    <rdf:RDF>
      <cc:Work
         rdf:about="">
        <dc:format>image/svg+xml</dc:format>
        <dc:type
           rdf:resource="http://purl.org/dc/dcmitype/StillImage" />
        <dc:title />
      </cc:Work>
    </rdf:RDF>
  </metadata>
  <defs
     id="defs6" />
  <sodipodi:namedview
     pagecolor="#ffffff"
     bordercolor="#666666"
     borderopacity="1"
     objecttolerance="10"
     gridtolerance="10"
     guidetolerance="10"
     inkscape:pageopacity="0"
     inkscape:pageshadow="2"
     inkscape:window-width="1920"
     inkscape:window-height="1025"
     id="namedview4"
     showgrid="false"
     inkscape:zoom="0.41451838"
     inkscape:cx="1214.5778"
     inkscape:cy="2085.7627"
     inkscape:window-x="0"
     inkscape:window-y="26"
     inkscape:window-maximized="1"
     inkscape:current-layer="layer1" />
  <g
     inkscape:groupmode="layer"
     id="layer2"
     inkscape:label="artwork"
     sodipodi:insensitive="true"
     style="display:inline">
    <image
       xlink:href="../gfx_Pepper-and-Carrot_by-David-Revoy_E03P05.png"
       width="2481"
       height="3503"
       id="image10"
       x="0"
       y="0" />
  </g>
  <g
     inkscape:groupmode="layer"
     id="layer3"
     inkscape:label="speechbubbles">
    <path
       style="fill:#ffffff;stroke:none;stroke-width:0.938121px;stroke-linecap:butt;stroke-linejoin:miter;stroke-opacity:1"
       d="m 1618.6238,738.90351 c 11.0201,-75.49013 105.1921,-89.82369 118.216,-96.5127 13.0237,-6.68899 91.1664,-9.5557 100.1829,-8.60014 9.0165,0.95558 109.1994,17.20029 120.2196,16.24471 11.0201,-0.95556 101.1847,-8.60014 123.2249,1.91115 22.0403,10.51128 74.1354,78.35684 74.1354,106.0684 0,27.71157 -25.0457,84.09027 -85.1555,109.8907 -60.1097,25.80042 -175.3202,47.77856 -246.4501,43.0007 -71.1298,-4.77785 -124.2268,-17.20028 -145.2652,-37.26728 -21.0384,-20.06699 -69.1262,-97.46826 -59.108,-134.73554 z"
       id="path3061"
       inkscape:connector-curvature="0" />
    <path
       style="fill:#ffffff;stroke:none;stroke-width:1px;stroke-linecap:butt;stroke-linejoin:miter;stroke-opacity:1"
       d="m 1585.3047,957.8132 c 59.4489,18.77335 150.1868,-13.55852 156.4446,-58.40596 6.2577,-44.84744 19.8163,-69.87856 19.8163,-69.87856 l 30.2459,34.4178 -14.6015,49.01929 c 0,0 -66.7497,114.72603 -191.9053,44.84743 z"
       id="path3063"
       inkscape:connector-curvature="0" />
    <path
       style="fill:#ffffff;stroke:none;stroke-width:1px;stroke-linecap:butt;stroke-linejoin:miter;stroke-opacity:1"
       d="m 1088.3832,1871.4251 c 3.1289,-75.0933 33.8457,-114.3462 254.954,-113.3032 221.1082,1.0429 246.7524,16.8158 258.225,90.8662 11.4726,74.0504 15.9076,111.8439 -35.1976,138.9609 -51.1052,27.1171 -279.4549,28.1518 -377.4935,9.3784 -98.0386,-18.7733 -106.7457,-53.9378 -100.4879,-125.9023 z"
       id="path3065"
       inkscape:connector-curvature="0"
       sodipodi:nodetypes="cssssc" />
    <path
       style="fill:#ffffff;stroke:none;stroke-width:1px;stroke-linecap:butt;stroke-linejoin:miter;stroke-opacity:1"
       d="m 1178.5489,2195.1236 c -49.0193,-99.0815 -43.8045,-127.2416 51.1052,-205.4638 94.9097,-78.2223 31.2889,-88.6519 31.2889,-88.6519 0,0 -235.7098,154.3586 -82.3941,294.1157 z"
       id="path3067"
       inkscape:connector-curvature="0" />
  </g>
  <g
     inkscape:groupmode="layer"
     id="layer1"
     inkscape:label="txt">
    <text
       xml:space="preserve"
       style="font-style:normal;font-variant:normal;font-weight:normal;font-stretch:normal;line-height:0.01%;font-family:Lavi;-inkscape-font-specification:Lavi;letter-spacing:0px;word-spacing:0px;white-space:pre;inline-size:442.633;fill:#000000;fill-opacity:1;stroke:none"
       x="1693.2087"
       y="723.00085"
       id="text237261"
       transform="translate(-28,-2)"><tspan
         x="1693.2087"
         y="723.00085"
         id="tspan36708"><tspan
           style="font-size:48px;line-height:1.25;text-align:center;text-anchor:middle"
           id="tspan36706">Nanede, them le </tspan></tspan><tspan
         x="1693.2087"
         y="783.00086"
         id="tspan36712"><tspan
           style="font-size:48px;line-height:1.25;text-align:center;text-anchor:middle"
           id="tspan36710">nem shilithuth woloyo </tspan></tspan><tspan
         x="1693.2087"
         y="843.00086"
         id="tspan36716"><tspan
           style="font-size:48px;line-height:1.25;text-align:center;text-anchor:middle"
           id="tspan36714">woboshumede...</tspan></tspan></text>
    <text
       xml:space="preserve"
       style="font-style:normal;font-variant:normal;font-weight:normal;font-stretch:normal;line-height:0.01%;font-family:Lavi;-inkscape-font-specification:Lavi;letter-spacing:0px;word-spacing:0px;white-space:pre;inline-size:489.634;fill:#000000;fill-opacity:1;stroke:none"
       x="1167.2017"
       y="1836.4534"
       id="text237283"
       transform="translate(-62,-6)"><tspan
         x="1167.2017"
         y="1836.4534"
         id="tspan36720"><tspan
           style="font-size:48px;line-height:1.25;text-align:center;text-anchor:middle"
           id="tspan36718">... i wolaya </tspan></tspan><tspan
         x="1167.2017"
         y="1896.4533"
         id="tspan36724"><tspan
           style="font-size:48px;line-height:1.25;text-align:center;text-anchor:middle"
           id="tspan36722">wodalathameth </tspan></tspan><tspan
         x="1167.2017"
         y="1956.4533"
         id="tspan36728"><tspan
           style="font-size:48px;line-height:1.25;text-align:center;text-anchor:middle"
           id="tspan36726">wodóhéeya woholinede</tspan></tspan></text>
  </g>
</svg>
