<?xml version="1.0" encoding="UTF-8" standalone="no"?>
<svg
   xmlns:dc="http://purl.org/dc/elements/1.1/"
   xmlns:cc="http://creativecommons.org/ns#"
   xmlns:rdf="http://www.w3.org/1999/02/22-rdf-syntax-ns#"
   xmlns:svg="http://www.w3.org/2000/svg"
   xmlns="http://www.w3.org/2000/svg"
   xmlns:xlink="http://www.w3.org/1999/xlink"
   xmlns:sodipodi="http://sodipodi.sourceforge.net/DTD/sodipodi-0.dtd"
   xmlns:inkscape="http://www.inkscape.org/namespaces/inkscape"
   id="svg2"
   version="1.1"
   inkscape:version="1.0.2 (e86c8708, 2021-01-15)"
   width="2481"
   height="3503"
   sodipodi:docname="E36P15.svg">
  <metadata
     id="metadata8">
    <rdf:RDF>
      <cc:Work
         rdf:about="">
        <dc:format>image/svg+xml</dc:format>
        <dc:type
           rdf:resource="http://purl.org/dc/dcmitype/StillImage" />
      </cc:Work>
    </rdf:RDF>
  </metadata>
  <defs
     id="defs6" />
  <sodipodi:namedview
     pagecolor="#1e1e1e"
     bordercolor="#111111"
     borderopacity="1"
     objecttolerance="10"
     gridtolerance="10"
     guidetolerance="10"
     inkscape:pageopacity="0"
     inkscape:pageshadow="2"
     inkscape:window-width="1429"
     inkscape:window-height="943"
     id="namedview4"
     showgrid="false"
     inkscape:zoom="0.4196403"
     inkscape:cx="1110.7151"
     inkscape:cy="2234.8798"
     inkscape:window-x="27"
     inkscape:window-y="25"
     inkscape:window-maximized="0"
     inkscape:current-layer="layer1"
     inkscape:pagecheckerboard="0"
     inkscape:snap-global="false"
     inkscape:document-rotation="0" />
  <g
     inkscape:groupmode="layer"
     id="layer2"
     inkscape:label="artwork"
     sodipodi:insensitive="true">
    <image
       sodipodi:absref="/Users/gand/Documents/Pepper&amp;Carrot/ep36_The-Surprise-Attack/gfx_Pepper-and-Carrot_by-David-Revoy_E36P15.png"
       xlink:href="../gfx_Pepper-and-Carrot_by-David-Revoy_E36P15.png"
       width="2481"
       height="3503"
       id="image10"
       x="0"
       y="0" />
  </g>
  <g
     inkscape:groupmode="layer"
     id="layer3"
     inkscape:label="speechbubbles"
     style="display:inline">
    <path
       sodipodi:nodetypes="zssssz"
       inkscape:connector-curvature="0"
       id="path4040-4-9-3"
       d="m 306.71173,1095.7409 c -34.16885,0.4967 -68.67021,7.4519 -99.08026,23.2978 -15.32754,8.7858 -28.67782,22.0107 -35.04213,38.6421 -5.88172,19.2331 -6.48015,40.4924 0.64285,59.4854 8.14164,20.1699 26.67434,35.5594 47.82733,40.759 19.45871,5.1853 39.75625,2.8076 59.59644,2.1517 16.29188,-0.7229 32.6367,-1.0122 48.90752,0.2808 33.08816,1.2074 66.22251,-0.7076 99.1269,-4.1379 14.94791,-1.9898 30.13004,-6.7775 41.51414,-16.9816 13.10065,-11.6681 19.67234,-29.1673 20.6051,-46.3471 1.12722,-15.5661 -1.3374,-31.9952 -10.19405,-45.1903 -8.06025,-11.8157 -20.44807,-19.5883 -32.23716,-27.2862 -17.35618,-11.0037 -36.98403,-18.9852 -57.59463,-20.9941 -26.51382,-3.3734 -53.29597,-3.4548 -79.98176,-3.6856 -1.36343,0 -2.72685,0 -4.09029,0.01 z"
       style="color:#000000;display:inline;overflow:visible;visibility:visible;fill:#ffffff;fill-opacity:1;fill-rule:nonzero;stroke:none;stroke-width:0.928823px;marker:none;enable-background:accumulate" />
    <path
       sodipodi:nodetypes="zssssz"
       inkscape:connector-curvature="0"
       id="path4040-4-9-3-0"
       d="m 1090.5621,1103.4746 c -51.3725,0.6452 -103.70397,5.7225 -152.05831,27.2362 -16.00821,7.1074 -31.04486,21.0634 -35.85495,40.8274 -5.85217,23.5475 3.19233,49.2855 18.69538,64.9858 13.75742,14.2208 31.82037,20.8677 49.33036,26.1281 32.03312,8.7248 65.09492,10.0899 97.84312,11.6213 70.4473,2.5795 140.8834,-2.5414 211.1034,-8.6252 29.2677,-2.8393 59.4988,-9.1366 84.4307,-28.2133 22.4664,-19.2428 30.5148,-59.0686 15.4581,-86.9357 -10.2572,-19.0725 -28.5632,-30.425 -47.2438,-34.4716 -29.8586,-7.0561 -60.4591,-7.8082 -90.806,-9.3 -36.605,-1.5299 -73.2344,-2.1286 -109.855,-2.9692 -13.6799,-0.2288 -27.3614,-0.3939 -41.043,-0.2838 z"
       style="color:#000000;display:inline;overflow:visible;visibility:visible;fill:#ffffff;fill-opacity:1;fill-rule:nonzero;stroke:none;stroke-width:1.19989px;marker:none;enable-background:accumulate" />
    <path
       sodipodi:nodetypes="zssssz"
       inkscape:connector-curvature="0"
       id="path4040-4-9-3-0-9"
       d="m 1498.5492,1146.2211 c -41.6329,0.8628 -84.0684,7.2452 -120.4418,23.8758 -21.5699,10.5509 -33.2414,30.8597 -33.1421,50.5088 -1.0722,23.8263 10.3947,48.6952 33.9824,64.1664 21.0937,13.4825 48.0835,19.2166 74.3898,22.6644 35.9365,4.4506 72.3928,5.4486 108.7139,5.7142 47.0381,-0.038 94.2618,-2.5322 140.4333,-9.8687 26.8472,-5.3445 53.0684,-16.268 69.5995,-34.2447 17.9694,-19.966 23.2779,-47.5566 10.1107,-70.1065 -11.3262,-19.9761 -35.8303,-34.5861 -62.9867,-38.584 -39.6066,-8.11 -80.7115,-8.9212 -121.3066,-11.1698 -33.062,-1.817 -66.2018,-3.1012 -99.3524,-2.9559 z"
       style="color:#000000;display:inline;overflow:visible;visibility:visible;fill:#ffffff;fill-opacity:1;fill-rule:nonzero;stroke:none;stroke-width:1.13238px;marker:none;enable-background:accumulate" />
    <path
       style="fill:#ffffff;fill-rule:evenodd;stroke:none;stroke-width:0.943598px;stroke-linecap:butt;stroke-linejoin:miter;stroke-opacity:1"
       d="m 314.56517,1240.1318 c -36.76861,0.8784 -73.74335,-0.2682 -110.27563,4.2836 -11.63493,1.6342 -22.82182,5.7546 -32.24286,12.1291 -18.39155,12.0615 -30.61435,31.2571 -33.18006,51.5708 -2.8793,17.1735 -2.59991,34.9901 2.59353,51.7912 4.89188,13.996 15.82585,26.3832 30.47834,33.0376 16.37281,7.9949 34.90842,11.1675 53.04368,14.1763 35.02519,5.3329 70.6945,5.8753 106.12795,5.1205 25.24681,-0.7154 50.36409,-3.3031 75.57982,-4.5014 23.21971,-1.3479 46.70295,-3.6042 68.6821,-10.8702 10.58128,-3.2988 21.76268,-7.1546 29.00201,-15.2347 8.17064,-9.4543 10.44543,-21.7177 11.52311,-33.3419 1.65199,-20.0022 -0.50139,-40.3548 -7.11324,-59.5404 -2.74632,-7.5667 -6.10677,-15.1191 -11.39175,-21.5589 -7.33903,-7.8136 -18.26764,-11.842 -29.00818,-14.389 -26.32192,-7.8205 -54.29082,-8.5722 -81.73283,-9.7567 -24.01753,-1.1469 -48.01141,-3.1814 -72.08599,-2.9159 z"
       id="path4430-0"
       inkscape:connector-curvature="0"
       sodipodi:nodetypes="cccc" />
    <path
       style="fill:#ffffff;fill-rule:evenodd;stroke:none;stroke-width:0.914223px;stroke-linecap:butt;stroke-linejoin:miter;stroke-opacity:1"
       d="m 486.57288,1577.4452 c 28.81918,-66.6247 20.74358,-99.1008 19.77331,-112.4088 -16.52174,10.815 -24.86604,14.1576 -24.65914,13.2895 3.00972,-12.6265 -35.44872,-115.6984 -44.45394,-112.059 l 18.96701,-39.5995 c 16.57291,47.9099 30.322,74.2909 38.66556,123.6461 0,0 15.80065,-9.8432 23.58886,-12.9706 2.56416,11.9254 27.41455,66.0411 -31.88166,140.1023 z"
       id="path891"
       inkscape:connector-curvature="0"
       sodipodi:nodetypes="ccsccccc" />
    <path
       id="path889"
       style="fill:#ffffff;fill-rule:evenodd;stroke:none;stroke-width:1.23157px;stroke-linecap:butt;stroke-linejoin:miter;stroke-opacity:1"
       d="m 2296.3652,1086.7006 c -54.9342,0.2703 -109.8719,0.3102 -164.8075,0.4832 -47.4814,0.1099 -94.9629,0.2183 -142.4444,0.3273 -8.1673,7.1943 -14.0865,17.3132 -20.1539,26.9171 -19.3139,33.1235 -29.8342,72.4522 -36.201,111.9108 -6.7034,42.9246 -8.1257,87.5602 -0.6155,130.4752 4.2281,22.5399 12.697,44.7252 27.3238,60.1255 12.9632,14.1035 29.5968,22.4814 46.6373,26.1388 23.7839,6.4302 48.066,9.5394 72.2721,12.5734 39.4868,3.7372 79.1109,4.3449 118.6758,6.0844 31.168,-0.1208 61.7861,-8.5092 91.8311,-17.7956 16.8167,-5.624 33.5734,-12.7106 48.2962,-24.2418 15.7018,-14.4643 24.8256,-37.2191 28.3635,-60.318 9.3224,-48.2394 11.5811,-98.7647 4.4067,-147.6593 -3.9654,-28.515 -10.4425,-56.8734 -21.8893,-82.3979 -7.6505,-16.2212 -18.3501,-31.546 -33.0349,-38.5811 -5.9286,-2.7821 -12.3015,-4.1659 -18.66,-4.042 z" />
    <path
       style="display:inline;fill:#ffffff;stroke:none;stroke-width:0.912419"
       d="m 2008.3294,1540.6989 c -33.153,-32.8759 -38.8858,-123.5948 0.3904,-163.0573 23.1728,-23.2827 35.5381,-37.608 35.5381,-37.608 l -25.8875,-19.1211 c -94.4367,86.4289 -50.0669,186.6132 -10.041,219.7864 z"
       id="path3063-1-0"
       inkscape:connector-curvature="0"
       sodipodi:nodetypes="csccc" />
    <path
       style="fill:#ffffff;fill-rule:evenodd;stroke:none;stroke-width:0.746377px;stroke-linecap:butt;stroke-linejoin:miter;stroke-opacity:1"
       d="m 1443.2415,2288.7534 c -27.6239,0.5904 -55.6172,4.0432 -81.7145,15.7678 -12.4148,5.7504 -24.2894,15.0231 -31.5807,28.9228 -7.0352,18.3397 -6.5106,41.1717 2.4117,58.4219 4.9142,9.5881 12.315,16.8958 20.4747,22.0252 11.1564,7.1475 23.4446,11.1678 35.7345,14.1576 20.4714,4.6203 41.3583,5.5706 62.1308,5.5357 27.2566,-0.3153 54.522,-3.0991 81.3789,-8.848 17.1166,-4.4582 34.4695,-10.4345 48.9741,-22.8823 7.2093,-8.8513 10.1658,-21.3447 11.9828,-33.3182 2.9792,-19.5175 -3.1829,-41.1956 -16.4479,-52.9941 -9.3866,-7.9889 -20.6367,-11.5754 -31.5564,-15.0402 -18.1105,-5.1488 -36.6699,-7.1979 -55.124,-9.5554 -15.5157,-1.624 -31.0937,-2.287 -46.664,-2.1928 z"
       id="path4430-0-7"
       inkscape:connector-curvature="0"
       sodipodi:nodetypes="cccc" />
    <path
       style="display:inline;fill:#ffffff;fill-rule:evenodd;stroke:none;stroke-width:0.894579px;stroke-linecap:butt;stroke-linejoin:miter;stroke-opacity:1"
       d="m 1109.604,2911.097 c -40.7216,1.3946 -82.577,8.1038 -117.11562,24.8569 -25.98152,13.6091 -38.62347,37.5782 -36.09522,59.7582 1.00422,22.2704 15.92079,44.5358 42.54348,56.3873 25.22666,11.4398 55.03826,16.6276 84.56226,19.7193 43.4327,4.2026 88.1686,5.9098 131.7284,-0.7233 26.7181,-4.2368 53.5551,-11.1201 75.1656,-23.6991 13.6418,-7.8526 24.1065,-18.5318 28.978,-30.5061 9.4658,-20.9579 9.3413,-44.391 -3.1811,-64.2618 -10.4761,-15.2862 -31.3489,-26.109 -54.5577,-29.84 -33.7911,-7.075 -69.2432,-9.2587 -104.3613,-11.3972 -15.8488,-0.6482 -31.7623,-0.7613 -47.6668,-0.2942 z"
       id="path4430-0-7-3"
       inkscape:connector-curvature="0"
       sodipodi:nodetypes="cccc" />
    <path
       style="color:#000000;display:inline;overflow:visible;visibility:visible;fill:#ffffff;fill-opacity:1;fill-rule:nonzero;stroke:none;stroke-width:0.933879px;marker:none;enable-background:accumulate"
       d="m 1510.6073,2424.7097 c 95.8683,30.7313 27.8183,159.8015 -2.9543,189.2123 50.4373,-43.5579 100.0481,-123.5802 33.0541,-217.2104 -31.2156,-43.6267 -19.8493,18.5629 -19.8493,18.5629 z"
       id="path4035-4"
       inkscape:connector-curvature="0"
       sodipodi:nodetypes="ccscc" />
    <path
       style="color:#000000;display:inline;overflow:visible;visibility:visible;fill:#ffffff;fill-opacity:1;fill-rule:nonzero;stroke:none;stroke-width:1.2864px;marker:none;enable-background:accumulate"
       d="m 1061.1341,2128.284 c -58.604,1.1522 -117.35006,1.5229 -175.49588,5.682 -34.34189,2.9059 -69.0228,8.6127 -98.43102,27.5924 -20.80093,13.916 -38.95456,35.5444 -45.76491,65.2808 -4.22781,19.071 -1.47676,41.5411 7.39961,60.7881 10.47129,23.6547 29.26286,42.5269 49.4506,48.4915 26.44238,9.8812 53.14005,12.0348 79.69511,17.8358 84.31716,13.9176 167.26739,9.9174 249.55059,5.2376 31.9858,-2.0532 64.3077,-4.555 93.9504,-16.2353 20.5262,-8.6602 39.9,-23.8341 49.2978,-48.7552 12.815,-35.521 2.2395,-86.84 -25.85,-115.5798 -21.3717,-21.7001 -47.43,-30.6961 -72.2566,-37.6358 -37.3531,-9.8339 -74.7614,-12.9693 -111.5457,-12.7021 z"
       id="path4546-6-5-5"
       inkscape:connector-curvature="0"
       sodipodi:nodetypes="cssssc" />
    <path
       style="color:#000000;display:inline;overflow:visible;visibility:visible;fill:#ffffff;fill-opacity:1;fill-rule:nonzero;stroke:none;stroke-width:0.511885px;marker:none;enable-background:accumulate"
       d="m 1198.7358,2292.3553 c -58.4517,90.8359 85.6046,288.3485 132.7428,310.3129 -51.7175,-3.6213 -215.024,-222.6528 -167.3541,-289.5926 16.3894,-23.014 93.063,-111.5562 34.6113,-20.7203 z"
       id="path4480-6"
       inkscape:connector-curvature="0"
       sodipodi:nodetypes="zcsz" />
    <path
       style="fill:#ffffff;stroke:none;stroke-width:1.22863"
       d="m 1132.3337,2836.1319 c 6.9881,13.1882 16.9513,18.3851 13.6567,35.0595 -18.6808,32.3624 -3.398,71.476 20.2436,84.4218 3.4934,10.3144 -10.2432,41.0229 -10.2432,41.0229 -31.6711,-50.3948 -47.4892,-83.1315 -25.5958,-126.3842 3.8504,-6.927 -8.3872,-14.7062 -12.2361,-26.3855 -3.8491,-11.6793 -4.7084,-20.1125 -0.097,-40.9935 3.9527,-17.898 39.9891,-41.3608 39.9891,-41.3608 -27.433,31.2471 -35.5926,52.7621 -25.7173,74.6198 z"
       id="path3023-4"
       inkscape:connector-curvature="0"
       sodipodi:nodetypes="cccccsscc" />
    <path
       style="color:#000000;display:inline;overflow:visible;visibility:visible;fill:#ffffff;fill-opacity:1;fill-rule:nonzero;stroke:none;stroke-width:1.24837px;marker:none;enable-background:accumulate"
       d="m 1380.3027,1450.8419 c 65.8497,-28.0462 78.4621,-86.1375 90.2102,-126.6975 16.6063,-57.3342 1.8435,-63.2522 1.8435,-63.2522 l 29.8886,-4.9473 c 11.5377,-2.8141 4.798,161.6465 -121.9423,194.897 z"
       id="path3072-1-3"
       inkscape:connector-curvature="0"
       sodipodi:nodetypes="csccc" />
  </g>
  <g
     inkscape:groupmode="layer"
     id="layer1"
     inkscape:label="txt"
     style="display:inline">
    <text
       id="text4246-4-2-7"
       y="1168.6454"
       x="326.61557"
       style="font-style:normal;font-variant:normal;font-weight:normal;font-stretch:normal;line-height:0%;font-family:Lavi;-inkscape-font-specification:Lavi;text-align:center;letter-spacing:0px;word-spacing:0px;text-anchor:middle;fill:#000000;fill-opacity:1;stroke:none"
       xml:space="preserve"><tspan
         y="1168.6454"
         x="326.61557"
         style="font-size:45px;line-height:1.25"
         sodipodi:role="line"
         id="tspan4993">Ma cosa sta</tspan><tspan
         y="1224.8954"
         x="326.61557"
         style="font-size:45px;line-height:1.25"
         sodipodi:role="line"
         id="tspan6345">succedendo?</tspan></text>
    <text
       id="text4246-4-2-7-3"
       y="1307.0507"
       x="330.63736"
       style="font-style:normal;font-variant:normal;font-weight:normal;font-stretch:normal;line-height:0%;font-family:Lavi;-inkscape-font-specification:Lavi;text-align:center;letter-spacing:0px;word-spacing:0px;text-anchor:middle;fill:#000000;fill-opacity:1;stroke:none"
       xml:space="preserve"><tspan
         y="1307.0507"
         x="330.63736"
         style="font-size:45px;line-height:1.25"
         sodipodi:role="line"
         id="tspan48107">Alcuni si stanno</tspan><tspan
         y="1362.774"
         x="330.63736"
         style="font-size:45px;line-height:1.25"
         sodipodi:role="line"
         id="tspan13938"><tspan
           style="font-weight:bold"
           id="tspan24716">baciando…?!</tspan></tspan></text>
    <text
       id="text4246-4-2-7-3-6"
       y="1178.2039"
       x="1144.6746"
       style="font-style:normal;font-variant:normal;font-weight:normal;font-stretch:normal;line-height:0%;font-family:Lavi;-inkscape-font-specification:Lavi;text-align:center;letter-spacing:0px;word-spacing:0px;text-anchor:middle;fill:#000000;fill-opacity:1;stroke:none"
       xml:space="preserve"><tspan
         y="1178.2039"
         x="1144.6746"
         style="font-size:45px;line-height:1.25"
         sodipodi:role="line"
         id="tspan67460">Uh… Ci sono un sacco</tspan><tspan
         y="1234.4539"
         x="1144.6746"
         style="font-size:45px;line-height:1.25"
         sodipodi:role="line"
         id="tspan31052">di nuove coppie!</tspan></text>
    <text
       id="text4246-4-2-7-3-6-3"
       y="1207.6427"
       x="1565.8838"
       style="font-style:normal;font-variant:normal;font-weight:normal;font-stretch:normal;line-height:0%;font-family:Lavi;-inkscape-font-specification:Lavi;text-align:center;letter-spacing:0px;word-spacing:0px;text-anchor:middle;fill:#000000;fill-opacity:1;stroke:none"
       xml:space="preserve"><tspan
         y="1207.6427"
         x="1565.8838"
         style="font-size:45px;line-height:1.25"
         sodipodi:role="line"
         id="tspan39922">Era tutto </tspan><tspan
         y="1263.8927"
         x="1565.8838"
         style="font-size:45px;line-height:1.25"
         sodipodi:role="line"
         id="tspan44730">previsto, Pepper?</tspan></text>
    <text
       id="text4246-4-2-7-3-6-3-6"
       y="1144.2382"
       x="2152.9924"
       style="font-style:normal;font-variant:normal;font-weight:normal;font-stretch:normal;line-height:0%;font-family:Lavi;-inkscape-font-specification:Lavi;text-align:center;letter-spacing:0px;word-spacing:0px;text-anchor:middle;fill:#000000;fill-opacity:1;stroke:none"
       xml:space="preserve"><tspan
         y="1144.2382"
         x="2152.9924"
         style="font-size:45px;line-height:1.25"
         sodipodi:role="line"
         id="tspan61898">Oh, no! </tspan><tspan
         y="1200.4882"
         x="2152.9924"
         style="font-size:45px;line-height:1.25"
         sodipodi:role="line"
         id="tspan87824">Penso sia stata</tspan><tspan
         y="1256.7382"
         x="2152.9924"
         style="font-size:45px;line-height:1.25"
         sodipodi:role="line"
         id="tspan84608">la Rea del drago</tspan><tspan
         y="1312.9882"
         x="2152.9924"
         style="font-size:45px;line-height:1.25"
         sodipodi:role="line"
         id="tspan65216">ad amplificare</tspan><tspan
         y="1369.2382"
         x="2152.9924"
         style="font-size:45px;line-height:1.25"
         sodipodi:role="line"
         id="tspan97452">l'amore del mio</tspan><tspan
         y="1425.4882"
         x="2152.9924"
         style="font-size:45px;line-height:1.25"
         sodipodi:role="line"
         id="tspan1172">incantesimo.</tspan></text>
    <text
       id="text4246-4-2-7-3-6-3-6-1"
       y="2207.3054"
       x="1012.6952"
       style="font-style:normal;font-variant:normal;font-weight:normal;font-stretch:normal;line-height:0%;font-family:Lavi;-inkscape-font-specification:Lavi;text-align:center;letter-spacing:0px;word-spacing:0px;text-anchor:middle;fill:#000000;fill-opacity:1;stroke:none"
       xml:space="preserve"><tspan
         y="2207.3054"
         x="1012.6952"
         style="font-size:45px;line-height:1.25"
         sodipodi:role="line"
         id="tspan103411">Haha, questa battaglia</tspan><tspan
         y="2263.5554"
         x="1012.6952"
         style="font-size:45px;line-height:1.25"
         sodipodi:role="line"
         id="tspan106191">entrerà direttamente </tspan><tspan
         y="2319.8054"
         x="1012.6952"
         style="font-size:45px;line-height:1.25"
         sodipodi:role="line"
         id="tspan109377">nei libri di storia.</tspan></text>
    <text
       id="text4246-4-2-7-3-6-3-6-1-3"
       y="2346.5227"
       x="1457.3495"
       style="font-style:normal;font-variant:normal;font-weight:normal;font-stretch:normal;line-height:0%;font-family:Lavi;-inkscape-font-specification:Lavi;text-align:center;letter-spacing:0px;word-spacing:0px;text-anchor:middle;fill:#000000;fill-opacity:1;stroke:none"
       xml:space="preserve"><tspan
         y="2346.5227"
         x="1457.3495"
         style="font-size:45px;line-height:1.25"
         sodipodi:role="line"
         id="tspan83228-9">Hee-hee,</tspan></text>
    <text
       id="text4246-4-2-7-3-6-3-6-1-3-2"
       y="2401.8772"
       x="1461.7375"
       style="font-style:normal;font-variant:normal;font-weight:normal;font-stretch:normal;line-height:0%;font-family:Lavi;-inkscape-font-specification:Lavi;text-align:center;letter-spacing:0px;word-spacing:0px;text-anchor:middle;fill:#000000;fill-opacity:1;stroke:none"
       xml:space="preserve"><tspan
         y="2401.8772"
         x="1461.7375"
         style="font-size:45px;line-height:1.25"
         sodipodi:role="line"
         id="tspan83228-9-2">di sicuro!</tspan></text>
    <text
       id="text4246-4-2-7-3-6-3-6-1-3-2-8"
       y="2984.0247"
       x="1141.675"
       style="font-style:normal;font-variant:normal;font-weight:normal;font-stretch:normal;font-size:42px;line-height:0%;font-family:Lavi;-inkscape-font-specification:Lavi;text-align:center;letter-spacing:0px;word-spacing:0px;text-anchor:middle;fill:#000000;fill-opacity:1;stroke:none"
       xml:space="preserve"><tspan
         y="2984.0247"
         x="1141.675"
         style="font-size:42px;line-height:1.25"
         sodipodi:role="line"
         id="tspan130424">Ooohhh, che cosa</tspan><tspan
         y="3036.5247"
         x="1141.675"
         style="font-size:42px;line-height:1.25"
         sodipodi:role="line"
         id="tspan1176">imbarazzante!!</tspan></text>
    <text
       transform="matrix(0.85852879,0,-0.29243083,1.1647833,0,0)"
       id="text4213-7"
       y="2982.4719"
       x="2454.0139"
       style="font-style:normal;font-variant:normal;font-weight:normal;font-stretch:normal;font-size:10.7631px;line-height:0%;font-family:Lavi;-inkscape-font-specification:Lavi;text-align:center;letter-spacing:0px;word-spacing:0px;text-anchor:middle;display:inline;fill:#d97041;fill-opacity:1;stroke:#000000;stroke-width:0;stroke-miterlimit:4;stroke-dasharray:none;stroke-opacity:1"
       xml:space="preserve"><tspan
         style="font-style:normal;font-variant:normal;font-weight:bold;font-stretch:normal;font-size:64.7408px;line-height:1.25;font-family:Lavi;-inkscape-font-specification:'Lavi Bold';fill:#d97041;fill-opacity:1;stroke:none;stroke-width:0;stroke-miterlimit:4;stroke-dasharray:none"
         y="2982.4719"
         x="2454.0139"
         id="tspan3562-5"
         sodipodi:role="line">- FINE -</tspan></text>
  </g>
</svg>
