<?xml version="1.0" encoding="UTF-8" standalone="no"?>
<!-- Created with Inkscape (http://www.inkscape.org/) -->

<svg
   xmlns:dc="http://purl.org/dc/elements/1.1/"
   xmlns:cc="http://creativecommons.org/ns#"
   xmlns:rdf="http://www.w3.org/1999/02/22-rdf-syntax-ns#"
   xmlns:svg="http://www.w3.org/2000/svg"
   xmlns="http://www.w3.org/2000/svg"
   xmlns:xlink="http://www.w3.org/1999/xlink"
   xmlns:sodipodi="http://sodipodi.sourceforge.net/DTD/sodipodi-0.dtd"
   xmlns:inkscape="http://www.inkscape.org/namespaces/inkscape"
   id="svg2"
   version="1.1"
   inkscape:version="0.92.3 (2405546, 2018-03-11)"
   width="2481"
   height="3503"
   sodipodi:docname="E08P04.svg">
  <sodipodi:namedview
     pagecolor="#ffffff"
     bordercolor="#666666"
     inkscape:pageopacity="0"
     inkscape:pageshadow="2"
     inkscape:window-width="1813"
     inkscape:window-height="955"
     id="namedview70"
     showgrid="false"
     inkscape:zoom="0.6996025"
     inkscape:cx="976.93939"
     inkscape:cy="2831.0336"
     inkscape:current-layer="layer3"
     inkscape:window-x="0"
     inkscape:window-y="26"
     inkscape:window-maximized="0" />
  <metadata
     id="metadata8">
    <rdf:RDF>
      <cc:Work
         rdf:about="">
        <dc:format>image/svg+xml</dc:format>
        <dc:type
           rdf:resource="http://purl.org/dc/dcmitype/StillImage" />
        <dc:title />
      </cc:Work>
    </rdf:RDF>
  </metadata>
  <defs
     id="defs6" />
  <sodipodi:namedview
     pagecolor="#ffffff"
     bordercolor="#666666"
     borderopacity="1"
     objecttolerance="10"
     gridtolerance="10"
     guidetolerance="10"
     inkscape:pageopacity="0"
     inkscape:pageshadow="2"
     inkscape:window-width="1920"
     inkscape:window-height="1025"
     id="namedview4"
     showgrid="false"
     inkscape:zoom="0.16171625"
     inkscape:cx="739.29888"
     inkscape:cy="2371.6478"
     inkscape:window-x="0"
     inkscape:window-y="26"
     inkscape:window-maximized="1"
     inkscape:current-layer="layer3" />
  <g
     inkscape:groupmode="layer"
     id="layer2"
     inkscape:label="artwork"
     sodipodi:insensitive="true">
    <image
       sodipodi:absref="/home/deevad/peppercarrot/webcomics/ep08_Pepper-s-Birthday-Party/lang/vi/../gfx_Pepper-and-Carrot_by-David-Revoy_E08P04.png"
       xlink:href="../gfx_Pepper-and-Carrot_by-David-Revoy_E08P04.png"
       y="0"
       x="0"
       id="image10"
       height="3503"
       width="2481" />
  </g>
  <g
     inkscape:groupmode="layer"
     id="layer3"
     inkscape:label="speechbubbles">
    <path
       style="color:#000000;display:inline;overflow:visible;visibility:visible;fill:#ffffff;fill-opacity:1;fill-rule:nonzero;stroke:none;stroke-width:1px;marker:none;enable-background:accumulate"
       d="m 908.77022,436.30153 c 0.12924,-33.76631 46.98345,-65.56095 181.65818,-60.66235 72.1391,2.62392 177.1473,18.77677 177.6454,60.46715 0.9918,83.00989 -132.0245,62.40731 -167.299,64.7296 -35.3549,2.32758 -106.94173,1.62709 -146.70917,-15.1594 -24.77093,-10.45621 -46.39511,-18.8926 -45.29541,-49.375 z"
       id="path4546-0-5"
       inkscape:connector-curvature="0"
       sodipodi:nodetypes="cssssc" />
    <path
       style="color:#000000;display:inline;overflow:visible;visibility:visible;fill:#ffffff;fill-opacity:1;fill-rule:nonzero;stroke:none;stroke-width:1px;marker:none;enable-background:accumulate"
       d="m 1130.9675,520.14236 c 0.1159,-18.27017 42.1384,-75.95276 162.9249,-70.27769 64.6999,3.03982 153.9951,21.75865 154.6221,70.05155 0.8897,68.50897 -126.9744,66.44352 -148.6688,68.47455 -21.6943,2.03111 -91.7845,2.31248 -128.2538,-14.95622 -31.0861,-14.71963 -40.502,-28.40229 -40.6244,-53.29219 z"
       id="path4546"
       inkscape:connector-curvature="0"
       sodipodi:nodetypes="cssssc" />
    <flowRoot
       xml:space="preserve"
       id="flowRoot2987-4-9-3"
       style="font-style:normal;font-variant:normal;font-weight:normal;font-stretch:normal;line-height:0.01%;font-family:Lavi;-inkscape-font-specification:Lavi;text-align:center;letter-spacing:0px;word-spacing:0px;text-anchor:middle;fill:#000000;fill-opacity:1;stroke:none"
       transform="translate(868.51012,226.367)"><flowRegion
         id="flowRegion2989-5-4-5"><rect
           id="rect2991-7-9-6"
           width="602.40173"
           height="310.73996"
           x="120.55251"
           y="265.53046"
           style="font-style:normal;font-variant:normal;font-weight:normal;font-stretch:normal;font-family:Lavi;-inkscape-font-specification:Lavi;text-align:center;text-anchor:middle" /></flowRegion><flowPara
         style="font-style:normal;font-variant:normal;font-weight:500;font-stretch:normal;font-size:48px;line-height:1.25;font-family:ComicSpice;-inkscape-font-specification:'ComicSpice Medium';text-align:center;text-anchor:middle"
         id="flowPara3013">... họ sẽ tới ...</flowPara></flowRoot>    <path
       style="color:#000000;display:inline;overflow:visible;visibility:visible;fill:#ffffff;fill-opacity:1;fill-rule:nonzero;stroke:none;stroke-width:0.99999994px;marker:none;enable-background:accumulate"
       d="m 897.36611,373.54199 c 0.13445,-37.64305 48.87299,-73.08808 188.96389,-67.62706 75.0402,2.92518 184.2716,20.93255 184.7898,67.40945 1.0317,92.54036 -137.3341,69.57238 -174.0273,72.1613 -36.7768,2.59481 -111.24255,1.81389 -152.60932,-16.89988 -25.76715,-11.65671 -48.26099,-21.06168 -47.11707,-55.04381 z"
       id="path4546-0"
       inkscape:connector-curvature="0"
       sodipodi:nodetypes="cssssc" />
    <flowRoot
       xml:space="preserve"
       id="flowRoot2987-4-9-3-3"
       style="font-style:normal;font-variant:normal;font-weight:normal;font-stretch:normal;line-height:0.01%;font-family:Lavi;-inkscape-font-specification:Lavi;text-align:center;letter-spacing:0px;word-spacing:0px;text-anchor:middle;fill:#000000;fill-opacity:1;stroke:none"
       transform="translate(666.82807,83.806841)"><flowRegion
         id="flowRegion2989-5-4-5-3"><rect
           id="rect2991-7-9-6-8"
           width="602.40173"
           height="310.73996"
           x="120.55251"
           y="265.53046"
           style="font-style:normal;font-variant:normal;font-weight:normal;font-stretch:normal;font-family:Lavi;-inkscape-font-specification:Lavi;text-align:center;text-anchor:middle" /></flowRegion><flowPara
         style="font-style:normal;font-variant:normal;font-weight:500;font-stretch:normal;font-size:48px;line-height:1.25;font-family:ComicSpice;-inkscape-font-specification:'ComicSpice Medium';text-align:center;text-anchor:middle"
         id="flowPara3051">Nhưng, chắc ...</flowPara><flowPara
         style="font-style:normal;font-variant:normal;font-weight:500;font-stretch:normal;font-size:48px;line-height:1.25;font-family:ComicSpice;-inkscape-font-specification:'ComicSpice Medium';text-align:center;text-anchor:middle"
         id="flowPara3372">tớ chắc chắn ...</flowPara></flowRoot>    <path
       style="color:#000000;display:inline;overflow:visible;visibility:visible;fill:#ffffff;fill-opacity:1;fill-rule:nonzero;stroke:none;stroke-width:1px;marker:none;enable-background:accumulate"
       d="m 1370.433,563.36999 c 18.7289,5.11471 39.3681,13.94076 42.3389,17.10636 2.9707,3.16561 3.5403,29.0288 9.435,31.36015 5.8946,2.33123 19.9529,-4.23421 23.181,-1.87166 3.2281,2.36253 6.9164,21.25493 11.735,22.7987 4.8187,1.54378 31.4537,-1.43509 33.8787,0.67009 2.425,2.10524 15.6258,13.41875 31.9608,19.09482 -24.538,-22.91551 -24.3587,-30.38519 -30.2534,-32.71645 -5.8946,-2.33133 -22.6507,1.59871 -27.2277,-2.08151 -4.577,-3.68014 -8.5227,-21.76961 -14.9476,-23.8279 -6.4248,-2.05835 -17.3175,1.53629 -17.3175,1.53629 1.5283,-6.15207 4.6076,-39.25886 -25.7157,-55.17241 -30.3235,-15.91365 -37.0675,23.10352 -37.0675,23.10352 z"
       id="path5050"
       inkscape:connector-curvature="0" />
  </g>
  <g
     inkscape:groupmode="layer"
     id="layer1"
     inkscape:label="txt" />
</svg>
