<?xml version="1.0" encoding="UTF-8" standalone="no"?>
<svg
   id="svg2"
   version="1.1"
   inkscape:version="1.2.1 (9c6d41e410, 2022-07-14)"
   width="2481"
   height="3503"
   sodipodi:docname="E34P09.svg"
   xmlns:inkscape="http://www.inkscape.org/namespaces/inkscape"
   xmlns:sodipodi="http://sodipodi.sourceforge.net/DTD/sodipodi-0.dtd"
   xmlns:xlink="http://www.w3.org/1999/xlink"
   xmlns="http://www.w3.org/2000/svg"
   xmlns:svg="http://www.w3.org/2000/svg"
   xmlns:rdf="http://www.w3.org/1999/02/22-rdf-syntax-ns#"
   xmlns:cc="http://creativecommons.org/ns#"
   xmlns:dc="http://purl.org/dc/elements/1.1/">
  <metadata
     id="metadata8">
    <rdf:RDF>
      <cc:Work
         rdf:about="">
        <dc:format>image/svg+xml</dc:format>
        <dc:type
           rdf:resource="http://purl.org/dc/dcmitype/StillImage" />
        <dc:title />
      </cc:Work>
    </rdf:RDF>
  </metadata>
  <defs
     id="defs6">
    <filter
       style="color-interpolation-filters:sRGB"
       id="filter4375-4-1-1-1-9-5-8-8-5-5-3-3-3-0"
       inkscape:label="soundFX1"
       x="-0.033615746"
       y="-0.0062320224"
       width="1.0349039"
       height="1.0414012">
      <feFlood
         id="feFlood4377-7-9-0-8-1-7-3-1-2-7-6-6-5-96"
         flood-opacity="1"
         flood-color="rgb(52,52,52)"
         result="flood" />
      <feComposite
         id="feComposite4379-3-8-8-2-77-4-1-0-6-4-7-7-6-3"
         in2="SourceGraphic"
         in="flood"
         operator="in"
         result="composite1"
         baseFrequency="0.053999999999999999 0.053999999999999999" />
      <feMorphology
         id="feMorphology4393-1-0-49-8-9-3-0-1-9-9-5-5-2-8"
         operator="dilate"
         radius="2.5856550817276021"
         result="result3" />
      <feComposite
         id="feComposite4385-9-5-7-0-8-8-7-5-4-9-3-3-9-5"
         in2="result3"
         in="SourceGraphic"
         operator="over"
         result="fbSourceGraphic" />
      <feColorMatrix
         result="fbSourceGraphicAlpha"
         in="fbSourceGraphic"
         values="0 0 0 -1 0 0 0 0 -1 0 0 0 0 -1 0 0 0 0 1 0"
         id="feColorMatrix4544-9-4-4-5-5-1-6" />
      <feTurbulence
         id="feTurbulence4546-3-6-5-6-6-2-1"
         type="fractalNoise"
         numOctaves="4"
         seed="147"
         baseFrequency="0.046080819231719368"
         result="turbulence" />
      <feDisplacementMap
         id="feDisplacementMap4548-8-0-9-2-2-7-1"
         in2="turbulence"
         in="fbSourceGraphic"
         scale="13.20326"
         yChannelSelector="G"
         xChannelSelector="R"
         result="fbSourceGraphic" />
      <feColorMatrix
         result="fbSourceGraphicAlpha"
         in="fbSourceGraphic"
         values="0 0 0 -1 0 0 0 0 -1 0 0 0 0 -1 0 0 0 0 1 0"
         id="feColorMatrix4670-7-7-3-9-9-0-5" />
      <feFlood
         id="feFlood4672-4-4-5-1-1-9-9"
         flood-opacity="1"
         flood-color="rgb(28,28,28)"
         result="flood"
         in="fbSourceGraphic" />
      <feComposite
         id="feComposite4674-8-3-7-2-2-3-8"
         in2="fbSourceGraphic"
         in="flood"
         operator="in"
         result="composite1" />
      <feGaussianBlur
         id="feGaussianBlur4676-3-7-08-7-7-6-4"
         in="composite1"
         stdDeviation="0"
         result="blur" />
      <feOffset
         id="feOffset4678-6-9-1-0-0-0-8"
         dx="-8.3919392296330813"
         dy="1.5526614972014983"
         result="offset" />
      <feComposite
         id="feComposite4680-4-0-9-9-9-6-1"
         in2="offset"
         in="fbSourceGraphic"
         operator="over"
         result="composite2" />
    </filter>
    <filter
       style="color-interpolation-filters:sRGB"
       id="filter4375-4-1-1-1-9-5-8-8-5-5-3-3-3-0-6"
       inkscape:label="soundFX1"
       x="-0.034405416"
       y="-0.0053716034"
       width="1.0357238"
       height="1.0356852">
      <feFlood
         id="feFlood4377-7-9-0-8-1-7-3-1-2-7-6-6-5-96-3"
         flood-opacity="1"
         flood-color="rgb(52,52,52)"
         result="flood" />
      <feComposite
         id="feComposite4379-3-8-8-2-77-4-1-0-6-4-7-7-6-3-2"
         in2="SourceGraphic"
         in="flood"
         operator="in"
         result="composite1"
         baseFrequency="0.053999999999999999 0.053999999999999999" />
      <feMorphology
         id="feMorphology4393-1-0-49-8-9-3-0-1-9-9-5-5-2-8-0"
         operator="dilate"
         radius="2.5856550817276021"
         result="result3" />
      <feComposite
         id="feComposite4385-9-5-7-0-8-8-7-5-4-9-3-3-9-5-6"
         in2="result3"
         in="SourceGraphic"
         operator="over"
         result="fbSourceGraphic" />
      <feColorMatrix
         result="fbSourceGraphicAlpha"
         in="fbSourceGraphic"
         values="0 0 0 -1 0 0 0 0 -1 0 0 0 0 -1 0 0 0 0 1 0"
         id="feColorMatrix4544-9-4-4-5-5-1-6-1" />
      <feTurbulence
         id="feTurbulence4546-3-6-5-6-6-2-1-5"
         type="fractalNoise"
         numOctaves="4"
         seed="147"
         baseFrequency="0.046080819231719368"
         result="turbulence" />
      <feDisplacementMap
         id="feDisplacementMap4548-8-0-9-2-2-7-1-5"
         in2="turbulence"
         in="fbSourceGraphic"
         scale="13.20326"
         yChannelSelector="G"
         xChannelSelector="R"
         result="fbSourceGraphic" />
      <feColorMatrix
         result="fbSourceGraphicAlpha"
         in="fbSourceGraphic"
         values="0 0 0 -1 0 0 0 0 -1 0 0 0 0 -1 0 0 0 0 1 0"
         id="feColorMatrix4670-7-7-3-9-9-0-5-4" />
      <feFlood
         id="feFlood4672-4-4-5-1-1-9-9-7"
         flood-opacity="1"
         flood-color="rgb(28,28,28)"
         result="flood"
         in="fbSourceGraphic" />
      <feComposite
         id="feComposite4674-8-3-7-2-2-3-8-6"
         in2="fbSourceGraphic"
         in="flood"
         operator="in"
         result="composite1" />
      <feGaussianBlur
         id="feGaussianBlur4676-3-7-08-7-7-6-4-5"
         in="composite1"
         stdDeviation="0"
         result="blur" />
      <feOffset
         id="feOffset4678-6-9-1-0-0-0-8-6"
         dx="-8.3919392296330813"
         dy="1.5526614972014983"
         result="offset" />
      <feComposite
         id="feComposite4680-4-0-9-9-9-6-1-9"
         in2="offset"
         in="fbSourceGraphic"
         operator="over"
         result="composite2" />
    </filter>
  </defs>
  <sodipodi:namedview
     pagecolor="#ffffff"
     bordercolor="#666666"
     borderopacity="1"
     objecttolerance="10"
     gridtolerance="10"
     guidetolerance="10"
     inkscape:pageopacity="0"
     inkscape:pageshadow="2"
     inkscape:window-width="1261"
     inkscape:window-height="1388"
     id="namedview4"
     showgrid="false"
     inkscape:zoom="0.4665165"
     inkscape:cx="1259.3338"
     inkscape:cy="2363.2605"
     inkscape:window-x="1283"
     inkscape:window-y="36"
     inkscape:window-maximized="1"
     inkscape:current-layer="layer1"
     inkscape:document-rotation="0"
     inkscape:snap-global="false"
     borderlayer="true"
     inkscape:showpageshadow="2"
     inkscape:pagecheckerboard="0"
     inkscape:deskcolor="#d1d1d1" />
  <g
     inkscape:groupmode="layer"
     id="layer2"
     inkscape:label="artwork"
     sodipodi:insensitive="true">
    <image
       xlink:href="../gfx_Pepper-and-Carrot_by-David-Revoy_E34P09.png"
       width="2481"
       height="3503"
       id="image10"
       x="0"
       y="0" />
  </g>
  <g
     inkscape:groupmode="layer"
     id="layer3"
     inkscape:label="speechbubbles"
     style="display:inline">
    <path
       style="color:#000000;display:inline;overflow:visible;visibility:visible;fill:#ffffff;fill-opacity:1;fill-rule:nonzero;stroke:none;stroke-width:1.06937px;marker:none;enable-background:accumulate"
       d="m 1413.9252,2288.6897 c -21.0035,-5.3737 -81.566,-47.9371 -7.2888,-45.7139 -54.6661,-17.9093 -47.3991,-53.5519 -2.4758,-74.369 -58.9238,4.2548 -100.5769,0.6207 -70.2151,-36.1664 -79.2184,3.5955 -122.8044,10.2673 -109.8003,-28.5578 -40.1503,42.6369 -78.6617,34.6793 -88.5825,-15.1981 -6.9274,35.2294 -81.7002,33.1271 -167.99998,12.6992 8.30388,14.5849 88.47908,54.7735 -30.55105,45.7152 47.04927,26.0011 49.14048,39.3386 -30.92339,50.3382 40.80347,11.6971 66.82446,27.5422 3.23088,52.7159 41.20562,7.9508 106.39464,5.6199 27.23252,53.7673 52.19075,-22.7557 139.25082,-6.3139 101.72672,30.3911 102.2721,-41.2428 121.9423,-30.2458 137.385,-0.6941 38.0267,-43.2711 92.9821,-38.37 124.9467,-13.2168 -15.5391,-38.3461 66.3526,-31.727 113.3151,-31.7108 z"
       id="path3549-3-78-5"
       inkscape:connector-curvature="0"
       sodipodi:nodetypes="ccccccccccccccc" />
    <path
       style="color:#000000;display:inline;overflow:visible;visibility:visible;fill:#ffffff;fill-opacity:1;fill-rule:nonzero;stroke:none;stroke-width:1.53798px;marker:none;enable-background:accumulate"
       d="M 1165.125 2415.5957 C 1130.4961 2415.3971 1095.0603 2423.1298 1065.7591 2442.1634 C 1034.0314 2463.018 1012.4338 2496.9293 1002.3955 2533.1554 C 992.59617 2568.5592 994.46263 2607.4336 1009.3327 2641.1701 C 1016.1701 2656.2876 1027.4362 2668.8862 1039.3142 2680.254 C 1046.8855 2687.8765 1055.8402 2694.0208 1065.5476 2698.6 C 1080.001 2705.4324 1095.4478 2709.892 1110.918 2713.7598 C 1137.2367 2719.946 1164.6219 2721.6842 1191.4772 2718.4018 C 1210.0229 2716.3248 1228.6862 2712.8862 1245.8592 2705.3477 C 1267.2776 2695.5069 1285.9394 2680.4166 1301.9961 2663.3125 C 1312.5213 2651.8799 1320.8033 2638.3469 1325.6024 2623.5344 C 1336.6453 2590.7606 1334.1192 2554.4228 1322.3121 2522.2219 C 1312.2354 2494.3965 1294.7895 2469.0929 1271.4314 2450.7849 C 1248.3998 2432.4135 1220.2152 2420.7112 1190.9864 2417.1249 C 1182.4155 2416.0108 1173.7662 2415.5389 1165.125 2415.5957 z "
       id="path3365-3"
       inkscape:connector-curvature="0"
       sodipodi:nodetypes="cssccsc" />
    <path
       style="display:inline;fill:#ffffff;fill-rule:evenodd;stroke:none;stroke-width:1.23814px;stroke-linecap:butt;stroke-linejoin:miter;stroke-opacity:1"
       d="m 110.47937,2161.9777 c 30.08073,30.5566 32.2934,50.587 4.98784,37.845 25.85944,20.2958 19.78118,24.163 -1.21641,31.4045 50.13217,48.4469 33.21973,82.3498 14.73041,115.9106 57.96,-18.6238 58.50221,10.0397 71.61864,28.3481 15.15758,-39.1345 19.81269,-14.9455 21.5375,26.9124 16.20034,-50.3409 25.42657,-54.8363 28.29622,-17.5261 14.34678,-32.1048 31.01852,-45.1294 50.362,-36.2236 39.79098,-31.571 51.31979,7.5635 71.98322,23.8453 1.21348,-38.2468 17.82843,-49.3869 52.66847,-14.1128 1.08167,-23.1453 27.6739,-24.4555 53.41544,6.6692 -34.33999,-62.3313 20.61174,-7.9801 29.24033,-4.7769 -16.52407,-32.1576 1.00223,-55.9178 73.22511,-15.9188 -23.54339,-6.5023 -36.62904,-44.2221 -2.60905,-59.9155 -35.21297,-11.9409 -33.31799,-28.6874 -11.92868,-47.9591 -39.24297,-24.2871 4.90485,-52.8742 28.24493,-80.3881 -43.47666,15.1516 -77.2556,16.982 -81.21111,-22.1549 -67.1522,34.9993 -55.99507,17.4563 -48.40819,2.3085 -43.35519,39.7495 -47.42642,6.2301 -47.08299,-4.298 -59.09033,44.1106 -105.27321,5.7912 -125.42765,-17.9142 -14.15076,54.2582 -35.16653,35.128 -56.2109,15.6952 13.54852,38.1297 -6.91337,36.5435 -28.66049,22.0288 7.37584,25.7578 -9.55205,49.7265 -45.90612,15.3504 12.63321,17.4269 -8.30891,27.8555 -51.64852,-5.13 z"
       id="path4289-9"
       inkscape:connector-curvature="0"
       sodipodi:nodetypes="cccccccccccccccccccccccc" />
    <path
       style="fill:#ffffff;fill-rule:evenodd;stroke:none;stroke-width:1.7511px;stroke-linecap:butt;stroke-linejoin:miter;stroke-opacity:1"
       d="m 853.31038,1281.9721 c 45.59086,91.7805 62.88437,84.7087 69.97168,41.9832 12.4574,15.4323 15.10926,60.6932 50.75457,5.5858 22.00957,40.023 39.75897,34.914 54.01787,-7.1739 38.2338,75.8538 61.547,32.0394 82.0636,15.1094 51.7725,42.4272 194.1642,48.8759 256.4943,-5.8369 13.2017,19.5051 27.2693,34.8489 53.737,-1.9364 -2.5895,44.5449 31.9481,7.5009 61.2748,-49.2058 -3.7564,33.3537 -23.0417,90.2026 17.0084,57.2753 4.637,23.8344 0.9735,55.3699 86.6382,4.0248 -24.9158,67.9175 47.1738,-1.2141 117.0281,-67.1871 -44.0232,57.5257 -104.1694,128.2944 -28.9864,105.1684 -42.2682,48.1932 -38.4817,65.8771 81.5149,63.4999 -113.5749,24.8181 -141.4514,57.3228 -73.5613,123.2148 -49.1223,-31.0307 -119.6592,-35.2418 -59.0238,7.5461 -61.1014,-34.2663 -69.9039,-17.672 -48.1591,10.4041 -66.7103,-49.3277 -35.3391,-9.7825 -31.6398,29.1527 -48.0235,-24.5276 -80.1737,-52.6972 -73.1039,10.0835 -49.9795,-48.1752 -58.5026,-30.9006 -64.3782,-9.4462 -88.7388,-72.8026 -77.2591,-29.2975 -94.3123,-18.9061 -25.6583,-26.9338 -25.0088,-4.8298 -20.2787,24.8798 -24.5565,-31.4777 -46.8033,-43.6108 -63.1316,-6.1606 -15.3842,-17.3167 -30.4814,-41.8525 -48.0039,-5.4578 -21.1902,-19.8523 -43.5405,-27.744 -70.9052,16.0725 -11.6389,-26.4714 -28.8125,-45.5282 -86.3816,-10.4684 -10.8523,-56.7978 -60.14153,-47.6201 -121.94497,-16.9621 1.89713,-33.3735 -2.98441,-55.2983 -67.03626,22.7077 13.30719,-34.0901 28.46333,-70.0258 -10.32474,-52.1235 24.33935,-65.2228 -9.72932,-47.7521 -81.87914,-34.4229 73.70457,-37.9606 111.96642,-76.2312 40.79393,-75.6147 48.91268,-37.8995 45.07654,-57.7575 23.02899,-56.1043 3.34055,-11.7108 43.1708,-32.981 -12.62572,-32.175 29.46659,-15.9508 72.93426,-11.3665 61.35029,-87.5263 z"
       id="path4656"
       inkscape:connector-curvature="0"
       sodipodi:nodetypes="ccccccccccccccccccccccccccccccccc" />
    <path
       style="fill:#ffffff;fill-rule:evenodd;stroke:none;stroke-width:0.952655px;stroke-linecap:butt;stroke-linejoin:miter;stroke-opacity:1"
       d="m 689.88946,1243.8849 c 26.43275,14.044 94.22891,21.827 2.69355,63.7133 48.45417,1.0041 75.25976,1.8207 29.62901,19.855 62.00786,0.3275 1.31528,10.2798 -29.3372,20.0332 33.7469,-0.2688 83.75233,-7.5567 7.69296,25.5758 62.91187,-9.642 46.12557,2.1124 -17.26665,25.0866 61.44411,-18.7811 86.82678,-16.1344 60.77331,-1.3008 25.77432,-4.6379 28.97445,9.7525 -21.98648,24.0646 69.34824,-19.377 67.87714,-12.031 71.60421,35.9717 16.48365,-84.544 19.28803,-18.694 23.23679,21.9148 26.27646,-126.0413 61.801,-32.9576 69.58978,-19.3862 -6.53671,-97.9665 41.35113,-57.5885 53.87101,-20.3445 -3.22758,-23.8919 12.12623,-72.1433 57.95248,-13.6203 -10.92653,-21.5428 -3.49028,-43.9131 37.66857,9.4201 -12.4821,-35.6581 10.6404,-45.8568 82.6804,-12.2517 -0.5558,-17.73 -7.5817,-36.3525 68.1587,-5.0178 -1.421,-16.276 -16.864,-38.6299 86.1935,-9.6083 0.6723,-28.4219 17.2731,-30.2227 46.1956,-17.1437 -4.941,-24.3915 26.6457,-13.395 66.6805,2.9021 -25.4984,-33.2668 9.2684,-29.7185 59.5113,-19.5412 -4.8787,-16.1605 -11.8537,-32.744 17.508,-41.9822 -56.7699,-47.5684 -6.5521,-51.4311 10.7742,-56.508 -28.4362,-1.4633 -49.6931,-18.1213 -13.073,-31.3213 -42.6379,7.7297 -26.981,-15.741 -24.6366,-28.5454 l -68.6856,-19.6277 -67.3389,-8.7104 -80.8065,-8.6315 -75.4195,-1.3799 -76.7663,0.4489 -67.33873,4.0359 -57.91137,-8.7654 -59.25813,9.4507 -83.50008,-1.3327 -40.40326,31.191 c 13.60552,29.8925 -29.38975,29.6387 -68.68557,31.3553 z"
       id="path4323"
       inkscape:connector-curvature="0"
       sodipodi:nodetypes="ccccccccccccccccccccccccccccccccccc" />
    <path
       style="color:#000000;display:inline;overflow:visible;visibility:visible;fill:#ffffff;fill-opacity:1;fill-rule:nonzero;stroke:none;stroke-width:1.36179px;marker:none;enable-background:accumulate"
       d="m 1926.8997,2192.4418 c -41.0353,1.7548 -82.202,1.8928 -123.0642,6.6373 -21.0813,2.8179 -42.1752,9.6045 -59.3324,23.2105 -23.5438,17.7721 -39.0202,46.3764 -42.5659,76.5735 -5.172,31.7812 -8.5781,64.7308 -2.0613,96.5876 6.5584,25.3777 27.6137,44.7114 51.3025,51.4959 49.6268,16.5893 101.9303,21.7423 153.757,22.8151 32.9344,0.6998 65.8799,0.242 98.8156,-0.024 46.3033,-1.1667 92.4458,-5.8977 138.4642,-11.1757 19.6187,-2.7131 39.5332,-6.0634 57.7027,-14.6928 19.1504,-9.4583 35.2924,-26.0159 43.5944,-46.6511 12.867,-29.8903 12.6871,-64.6684 3.7678,-95.7277 -9.0564,-30.7061 -28.9732,-57.7942 -55.3347,-74.0992 -27.0179,-17.6013 -58.8454,-25.2568 -90.3049,-26.8301 -56.5229,-4.9523 -113.2208,-8.0394 -169.9427,-8.3186 -1.5994,0.066 -3.1987,0.1326 -4.7981,0.1991 z"
       id="path4546-6-5-5"
       inkscape:connector-curvature="0"
       sodipodi:nodetypes="cssssc" />
    <path
       style="color:#000000;display:inline;overflow:visible;visibility:visible;fill:#ffffff;fill-opacity:1;fill-rule:nonzero;stroke:none;stroke-width:0.710908px;marker:none;enable-background:accumulate"
       d="m 427.36079,1539.322 c -18.49435,2.3317 -20.41009,4.4325 -21.96654,15.8617 -1.55611,11.4299 -0.85275,28.3587 -14.56075,40.6485 -13.70771,12.2903 -23.6764,10.0093 -30.31719,9.0645 4.26773,13.7681 1.4232,41.4005 9.47615,45.7822 8.05295,4.3816 -16.23573,2.0167 -16.23573,2.0167 0,0 -18.78665,-30.5045 -14.52874,-48.8854 4.25786,-18.3808 31.63742,-15.9961 42.0788,-22.7096 10.44133,-6.7135 10.50842,-30.2213 17.90427,-37.5835 7.39563,-7.363 19.29539,-5.4547 28.14973,-4.1951 z"
       id="path4538-7"
       inkscape:connector-curvature="0"
       sodipodi:nodetypes="ccscccsscc" />
    <path
       style="color:#000000;display:inline;overflow:visible;visibility:visible;fill:#ffffff;fill-opacity:1;fill-rule:nonzero;stroke:none;stroke-width:0.576009px;marker:none;enable-background:accumulate"
       d="m 269.38616,1653.529 c 23.98622,-18.7388 72.99975,-31.6297 113.83578,1.6461 32.33893,26.3516 21.53309,64.4595 4.25504,76.2832 -17.27802,11.8238 -72.26174,14.2552 -97.55286,8.4261 -19.52455,-4.5006 -40.92884,-15.7046 -42.10867,-45.5966 -0.48149,-12.2006 -2.41553,-22.02 21.57071,-40.7588 z"
       id="path4040-2-9"
       inkscape:connector-curvature="0"
       sodipodi:nodetypes="zssssz" />
    <path
       style="color:#000000;display:inline;overflow:visible;visibility:visible;fill:#ffffff;fill-opacity:1;fill-rule:nonzero;stroke:none;stroke-width:0.590855px;marker:none;enable-background:accumulate"
       d="m 248.38875,1580.4882 c 25.2386,-18.1575 76.81125,-29.8607 119.77943,4.4047 34.02742,27.1353 22.65738,64.9814 4.47719,76.3864 -18.18014,11.405 -76.0347,12.504 -102.64632,6.062 -20.54397,-4.9737 -43.06584,-16.6964 -44.30727,-46.617 -0.50663,-12.2123 -2.54165,-22.0785 22.69697,-40.2361 z"
       id="path4040-2"
       inkscape:connector-curvature="0"
       sodipodi:nodetypes="zssssz" />
    <path
       style="display:inline;fill:#ffffff;stroke:none;stroke-width:0.839925"
       d="m 2022.1435,1074.4163 c -1.5264,-22.6653 25.8398,-79.40575 159.3307,-75.13778 133.4907,4.26798 175.2713,29.19828 179.1832,69.48618 6.1883,63.7339 -64.0411,80.7653 -164.8841,85.4865 -103.9582,4.8662 -175.2431,-38.8826 -173.6298,-79.8349 z"
       id="path3280-8-3-6"
       inkscape:connector-curvature="0"
       sodipodi:nodetypes="csssc" />
    <path
       style="display:inline;fill:#ffffff;stroke:none;stroke-width:1.58169"
       d="m 2044.2199,157.73242 c -54.798,1.22741 -110.1324,0.65377 -164.0691,11.64271 -35.9242,7.26866 -71.6749,18.24311 -102.8838,37.64919 -23.7701,15.61757 -40.7436,40.37176 -47.8793,67.52394 -9.2541,34.18818 -3.5989,72.58536 17.3847,101.60212 13.0436,18.28386 32.0215,31.94767 52.9228,40.32323 25.9097,11.11943 53.4803,17.69836 80.7927,24.49612 78.7595,18.23843 161.026,23.55943 241.1935,11.66052 32.3128,-4.66315 64.455,-11.36172 95.3044,-22.04822 29.1348,-10.79845 57.1614,-26.26921 78.5805,-48.85575 18.4519,-21.28933 26.5482,-49.8403 26.0552,-77.51336 -0.01,-24.0505 -6.0121,-48.94976 -21.2794,-68.15825 -15.1844,-18.42402 -36.4043,-30.59177 -57.5021,-41.34071 -31.7627,-15.26532 -66.6946,-22.13652 -101.1812,-28.50582 -32.091,-5.93596 -64.7824,-8.90582 -97.4389,-8.47572 z"
       id="path3280-8-3"
       inkscape:connector-curvature="0"
       sodipodi:nodetypes="csssc" />
    <path
       style="color:#000000;display:inline;overflow:visible;visibility:visible;fill:#ffffff;fill-opacity:1;fill-rule:nonzero;stroke:none;stroke-width:0.608783px;marker:none;enable-background:accumulate"
       d="m 1751.2966,118.06982 c -18.0333,0.18933 -36.0674,0.22455 -54.1008,0.0344 -11.8069,-0.14349 -23.6739,0.0747 -35.3256,1.9339 -21.7025,3.33547 -42.8876,10.36344 -60.9783,21.58126 -5.0414,3.15184 -9.8752,6.71023 -13.2123,11.37103 -12.5007,16.257 -12.9164,39.54684 0.49,55.49229 8.9508,10.35064 22.6898,16.12839 36.063,20.81189 33.1778,11.68115 69.2079,15.30029 104.6925,15.4305 30.6511,0.016 61.6457,3.38414 92.0083,-1.81956 26.5951,-4.66092 52.6534,-14.43113 72.6572,-30.91977 12.1858,-10.71873 18.2326,-27.36074 13.0367,-42.12219 -4.9328,-15.01303 -18.236,-26.96879 -33.7278,-33.98225 -24.2465,-11.69586 -52.0403,-16.28689 -79.4047,-17.27415 -14.0556,-0.58807 -28.1303,-0.61588 -42.1982,-0.53739 z"
       id="path3525-8"
       inkscape:connector-curvature="0"
       sodipodi:nodetypes="cscsc" />
    <path
       style="fill:#ffffff;fill-rule:evenodd;stroke:none;stroke-width:1.06468px;stroke-linecap:butt;stroke-linejoin:miter;stroke-opacity:1"
       d="m 784.45325,422.60021 c 0,0 22.37691,25.375 30.38987,41.353 9.55841,41.6769 -15.08254,52.26548 -11.80509,72.946 4.69971,21.617 12.77263,34.196 42.40829,52.053 -36.46109,-14.098 -60.72938,-25.376 -65.42892,-46.992 -4.6996,-21.617 12.02504,-48.872 9.37974,-58.27 -2.64548,-9.399 -11.01511,-33.835 -33.19349,-51.692 -22.17826,-17.857 28.2496,-9.398 28.2496,-9.398 z"
       id="path1303"
       inkscape:connector-curvature="0"
       sodipodi:nodetypes="cccccccc" />
    <path
       style="color:#000000;display:inline;overflow:visible;visibility:visible;fill:#ffffff;fill-opacity:1;fill-rule:nonzero;stroke:none;stroke-width:1.11006px;marker:none;enable-background:accumulate"
       d="m 1293.2869,912.25708 c -56.8659,0.047 -114.6764,5.56716 -168.2744,20.81894 -26.9555,7.21658 -49.64,21.71647 -64.3454,39.25625 -20.6514,22.6125 -29.7742,49.51773 -30.8479,75.89163 -1.89,23.9494 -0.915,48.5552 10.6483,71.0657 9.7265,18.1185 23.3403,35.9148 45.1285,47.9583 16.6118,8.9003 37.6242,12.3319 58.1925,13.8806 50.0342,4.0724 101.3115,-2.5447 150.9113,4.3437 36.5645,4.488 73.1125,11.0023 110.7341,9.699 22.6843,-1.2008 44.6077,-6.3493 67.077,-8.7753 14.7686,-1.6436 30.2882,-2.6655 43.5732,-8.1929 3.7659,-1.2402 6.1139,-3.7354 7.4684,-6.4323 3.4434,-6.8819 2.3709,-14.2502 2.2002,-21.3379 -0.9964,-14.0469 -2.7838,-28.3978 2.4379,-42.2916 6.7118,-29.7022 17.9674,-59.4082 15.7279,-89.5501 -2.2031,-21.53125 -10.5368,-43.227 -28.803,-60.45148 -16.5938,-14.03116 -40.6559,-22.16199 -64.676,-28.19656 -36.8405,-8.85869 -75.7856,-12.57596 -114.4599,-15.89708 -14.169,-1.02048 -28.4105,-1.68937 -42.6927,-1.7889 z"
       id="path4040-40"
       inkscape:connector-curvature="0"
       sodipodi:nodetypes="zsssszccccccccz" />
    <path
       style="display:inline;fill:#ffffff;stroke:none;stroke-width:0.973412"
       d="m 765.26611,81.412961 c -66.86527,2.600242 -141.33564,-2.466213 -177.26657,0.966656 -5.11208,85.524513 -24.06685,151.585093 -17.62007,192.206803 5.61002,33.64126 11.90906,67.27391 21.5683,100.45506 6.37868,18.77118 18.42748,37.20772 38.9167,50.17049 22.80177,14.88849 52.31469,22.91333 81.57319,28.80487 70.64193,14.26468 147.1454,15.46871 217.59837,-0.045 19.05684,-4.06897 37.16729,-10.27562 53.62142,-18.27709 30.98795,-14.86292 57.09985,-34.96688 75.56695,-58.19082 18.2362,-24.45166 23.719,-52.37569 27.5974,-79.59941 4.6377,-33.19844 2.8131,-67.56158 -13.2728,-99.17136 -12.3787,-23.86919 -31.2822,-46.32378 -57.2429,-63.85253 C 984.22555,114.14468 943.25272,102.21371 902.07553,94.145888 857.56197,85.46574 811.3995,81.121864 765.26611,81.412961 Z"
       id="path3280-5"
       inkscape:connector-curvature="0"
       sodipodi:nodetypes="ccsscccccccccc" />
    <path
       style="fill:#ffffff;fill-rule:evenodd;stroke:none;stroke-width:1.36569px;stroke-linecap:butt;stroke-linejoin:miter;stroke-opacity:1"
       d="m 1309.5687,939.23352 c 8.7674,-29.78389 -2.55,-70.85724 -21.3421,-92.51878 19.294,12.00335 47.6581,40.90723 49.4868,77.53639 2.8542,57.16677 -26.6522,18.09019 -26.6522,18.09019 z"
       id="path4248"
       inkscape:connector-curvature="0"
       sodipodi:nodetypes="ccscc" />
    <path
       style="color:#000000;display:inline;overflow:visible;visibility:visible;fill:#ffffff;fill-opacity:1;fill-rule:nonzero;stroke:none;stroke-width:1.27845px;marker:none;enable-background:accumulate"
       d="m 2159.8838,536.71889 c 47.5494,-40.109 11.4958,-121.92186 -22.0631,-138.04748 -43.9644,-41.61081 21.7355,-52.5057 21.7355,-52.5057 l 27.3389,46.67174 c -4.9414,6.99806 59.5251,106.49368 -27.0113,143.88144 z"
       id="path3072-56"
       inkscape:connector-curvature="0"
       sodipodi:nodetypes="ccccc" />
    <path
       style="fill:#ffffff;fill-rule:evenodd;stroke:none;stroke-width:1px;stroke-linecap:butt;stroke-linejoin:miter;stroke-opacity:1"
       d="m 2145.9447,911.76156 c 17.8164,6.86787 32.8659,22.27667 36.9127,41.22902 2.4357,13.03639 -1.9004,26.29118 -8.401,37.50329 -6.139,11.51773 -13.902,22.87523 -15.1546,36.21623 -0.038,3.7486 4.352,7.1591 7.7995,4.9374 5.4591,-2.2621 9.1063,-7.2123 13.9986,-10.3572 13.619,-10.9723 25.9848,-24.85172 30.732,-42.05359 4.3293,-16.93725 -3.8025,-35.55082 -17.8163,-45.50969 -14.6218,-11.8782 -32.4276,-19.47815 -50.851,-23.07104 0.9267,0.36853 1.8534,0.73706 2.7801,1.10558 z"
       id="path914"
       inkscape:connector-curvature="0"
       sodipodi:nodetypes="cscc" />
    <path
       style="fill:#ffffff;fill-rule:evenodd;stroke:none;stroke-width:1.13761px;stroke-linecap:butt;stroke-linejoin:miter;stroke-opacity:1"
       d="m 1859.1104,1611.6362 -131.6815,-92.9388 -7.8515,33.3207 -92.4364,-61.6811 -14.4757,27.4382 118.3566,66.5103 10.5992,-37.7549 z"
       id="path4667"
       inkscape:connector-curvature="0" />
    <path
       style="color:#000000;display:inline;overflow:visible;visibility:visible;fill:#ffffff;fill-opacity:1;fill-rule:nonzero;stroke:none;stroke-width:1.14715px;marker:none;enable-background:accumulate"
       d="m 285.67734,2318.4867 c -40.4116,58.36 -53.3089,167.707 24.2468,263.215 -108.4132,-99.32 -82.2954,-214.062 -72.6196,-244.978 2.0322,-33.697 48.3728,-18.237 48.3728,-18.237 z"
       id="path4008-0"
       inkscape:connector-curvature="0"
       sodipodi:nodetypes="cccc" />
    <path
       style="color:#000000;display:inline;overflow:visible;visibility:visible;fill:#ffffff;fill-opacity:1;fill-rule:nonzero;stroke:none;stroke-width:1px;marker:none;enable-background:accumulate"
       d="m 2007.8186,2508.6854 c -16.2035,68.7147 -23.8042,123.8365 19.1198,161.3448 -35.9827,-18.9303 -60.1167,-37.3437 -55.228,-133.0047 3.2811,-29.3033 15.4575,-25.6682 36.1082,-28.3401 z"
       id="path4064-5"
       inkscape:connector-curvature="0"
       sodipodi:nodetypes="cccc" />
    <path
       style="fill:#ffffff;fill-rule:evenodd;stroke:none;stroke-width:1.0599px;stroke-linecap:butt;stroke-linejoin:miter;stroke-opacity:1"
       d="m 1312.6704,2517.7831 c 23.7195,-14.0861 43.1327,-10.969 67.1439,-1.3968 -21.0663,-24.318 -50.0172,-29.1023 -87.4659,-14.9118 -44.493,16.8599 17.6099,16.5876 17.6099,16.5876 z"
       id="path4248-5"
       inkscape:connector-curvature="0"
       sodipodi:nodetypes="ccscc" />
    <path
       style="fill:#ffffff;fill-opacity:1;stroke:none;stroke-width:0.656533"
       d="m 2186.6362,2529.7013 c -20.2714,-4.5023 -28.068,-8.6829 -24.4295,-11.2559 -33.9462,-21.5129 -5.0712,-41.3861 -1.0396,-43.737 -0.011,-1.592 -10.9154,0.6431 -12.4746,-0.643 -1.5593,-1.2869 10.7022,-12.0255 8.6232,-12.6686 -2.0793,-0.6437 -46.567,3.9856 -53.3241,1.0911 -6.7572,-2.8945 -3.1188,-10.2913 -5.1978,-10.6129 -2.0791,-0.3215 -21.311,1.6078 -23.9099,1.2862 -2.5987,-0.3215 -7.2767,-9.9691 -9.8756,-10.2907 -2.599,-0.3215 -14.5539,4.1808 -16.633,3.8592 -2.0791,-0.3216 -1.0395,-8.3614 -3.6384,-8.6829 -2.599,-0.3216 -14.034,6.753 -15.5934,6.4315 -1.5593,-0.3216 -7.2769,-16.4013 -9.8758,-17.3659 -2.599,-0.9647 -19.2317,17.6874 -20.7911,18.0089 -1.5593,0.3222 -11.4351,-21.8681 -13.5143,-22.1897 -2.0791,-0.3215 -12.4746,15.1152 -14.0339,14.7936 -1.5594,-0.3216 -11.4352,-9.3267 -13.5142,-9.9698 -2.0791,-0.643 -15.5934,19.9389 -17.6725,19.9389 -2.0792,0 -19.7516,-8.6829 -21.3109,-10.2907 -1.5594,-1.6083 -3.1187,8.3615 -5.1978,8.3615 -2.0791,0 -25.9889,-5.7891 -26.5088,-5.4676 -0.5197,0.3216 3.6386,6.4322 2.0792,6.4322 -1.5593,0 -25.9888,-8.0398 -27.0285,-6.4322 -1.0395,1.6084 -53.0173,-8.0398 -56.6558,-6.7536 -3.6385,1.2868 23.3901,26.371 20.7912,28.3009 -2.5989,1.9292 -11.955,-0.3215 -12.4748,0.6431 -0.5197,0.9646 5.7176,5.1453 4.1584,6.4315 -1.5595,1.2868 -19.2319,6.4321 -20.7912,8.0399 -1.5594,1.6083 7.7966,5.789 5.7176,6.7536 -2.0792,0.9653 -32.7463,7.0753 -33.2659,8.6836 -0.5198,1.6078 15.5934,9.326 13.5142,11.5768 -2.0791,2.2515 -7.7967,3.2161 -7.2769,4.8245 0.5198,1.6077 10.3957,3.5376 9.8758,5.1453 -0.5197,1.6077 -5.7175,9.6483 -7.2768,10.9344 -1.5594,1.2862 10.9153,0.6431 10.9153,1.9293 0,1.2868 -0.9181,20.6031 -19.3844,32.291 32.2989,-7.7421 45.8931,-3.9901 63.0458,-1.4178 17.1527,2.573 10.3955,18.6528 12.9944,19.6174 2.5988,0.9652 21.8307,-5.4669 24.4296,-3.2161 2.5989,2.2515 3.6384,6.4321 5.7176,6.4321 2.079,0 14.034,-9.0045 16.6328,-8.6829 2.5989,0.3215 27.0285,14.472 30.6671,14.7935 3.6384,0.3216 17.6723,-5.4675 20.7911,-5.789 3.1187,-0.3216 5.7174,7.7183 8.3164,7.0752 2.5989,-0.6431 19.2318,-6.4321 21.8305,-5.789 2.599,0.6437 4.6781,3.216 6.7573,2.573 2.079,-0.6432 11.4351,-3.2161 11.4351,-3.2161 0,0 6.7571,1.9299 9.8757,1.9299 3.1187,0 24.4295,-10.6129 27.0285,-11.256 2.5989,-0.6431 29.2801,10.9614 27.7207,12.8907 3.3116,-8.4443 19.3137,-13.7539 22.6978,-14.1768 3.6384,-0.9653 14.5538,1.9292 15.5933,0.9646 1.0396,-0.9646 4.1582,-6.1106 7.2769,-6.4322 3.1187,-0.3215 10.3956,-1.6077 10.3956,-1.6077 l -1.0395,-1.9298 c 0,0 21.8306,5.1459 24.4296,7.0751 2.5988,1.93 -1.5594,-8.3614 -3.1188,-10.9343 9.356,2.5729 36.9043,8.0398 38.9833,9.6482 2.0792,1.6077 -3.6383,-5.789 -6.757,-8.0399 4.1582,0.9646 7.7967,1.2862 7.7967,1.2862 l -11.955,-7.7183 3.6386,-0.6431 c 0,0 -7.7967,-3.5376 -7.7967,-5.1453 0,-1.6084 20.2712,-3.5376 20.2712,-3.5376 0,0 -8.3164,-2.8945 -6.2373,-4.5023 2.0792,-1.6083 7.277,-2.573 7.277,-2.573 l 1.0394,-4.1807 z"
       id="path5888-3"
       inkscape:connector-curvature="0"
       sodipodi:nodetypes="cccccsscccccccsccscscsccsccccccsccscscssccsccscscccccccsccccccsccccc" />
  </g>
  <g
     inkscape:groupmode="layer"
     id="layer1"
     inkscape:label="txt">
    <text
       xml:space="preserve"
       style="font-style:normal;font-variant:normal;font-weight:normal;font-stretch:normal;font-size:80px;line-height:1.25;font-family:Lavi;-inkscape-font-specification:Lavi;letter-spacing:0px;word-spacing:0px;fill:#ffffff;fill-opacity:1;stroke:#ffffff;stroke-width:0.668774;stroke-miterlimit:4;stroke-dasharray:none;stroke-opacity:1;filter:url(#filter4375-4-1-1-1-9-5-8-8-5-5-3-3-3-0)"
       id="text4580-6-0-0-0-9-3-3-2-0"
       transform="matrix(1.1484433,-0.31259721,-0.62973044,2.2133476,1615.3614,-1809.1372)"
       x="-607.91235"
       y="1245.0809"><tspan
         id="tspan1534-6"
         style="font-size:61.3371px"><tspan
   id="tspan882"
   style="font-size:71.8115px">DZJ</tspan>OE!!</tspan></text>
    <text
       xml:space="preserve"
       style="font-style:normal;font-variant:normal;font-weight:normal;font-stretch:normal;font-size:45px;line-height:1.25;font-family:Lavi;-inkscape-font-specification:Lavi;text-align:center;letter-spacing:0px;word-spacing:0px;text-anchor:middle;fill:#000000;fill-opacity:1;stroke:none"
       x="837.48688"
       y="182.10773"
       id="text4246-3-2-2-6-3-7-9-3-3-56-9-3-20"><tspan
         style="font-size:45px"
         sodipodi:role="line"
         x="837.48688"
         y="182.10773"
         id="tspan218">Goed dan. Ik zie</tspan><tspan
         style="font-size:45px"
         sodipodi:role="line"
         x="837.48688"
         y="238.35773"
         id="tspan915">dat je het niveau van</tspan><tspan
         style="font-size:45px"
         sodipodi:role="line"
         x="837.48688"
         y="294.60773"
         id="tspan917">je voorgangers sneller </tspan><tspan
         style="font-size:45px"
         sodipodi:role="line"
         x="837.48688"
         y="350.85773"
         id="tspan921">geëvenaard hebt dan</tspan><tspan
         style="font-size:45px"
         sodipodi:role="line"
         x="844.51813"
         y="407.10773"
         id="tspan1288">ik verwachtte... </tspan></text>
    <text
       xml:space="preserve"
       style="font-style:normal;font-variant:normal;font-weight:normal;font-stretch:normal;font-size:45px;line-height:1.25;font-family:Lavi;-inkscape-font-specification:Lavi;text-align:center;letter-spacing:0px;word-spacing:0px;text-anchor:middle;fill:#000000;fill-opacity:1;stroke:none"
       x="1300.8749"
       y="992.3111"
       id="text4246-3-2-2-6-3-7-9-3-3-56-9-3-20-3"><tspan
         style="font-size:45px"
         sodipodi:role="line"
         x="1300.8749"
         y="992.3111"
         id="tspan133">Dat dwingt me mijn</tspan><tspan
         style="font-size:45px"
         sodipodi:role="line"
         x="1300.8749"
         y="1048.561"
         id="tspan1415">plannen te versnellen,</tspan><tspan
         style="font-size:45px"
         sodipodi:role="line"
         x="1300.8749"
         y="1104.811"
         id="tspan1417">maar dat is alleen</tspan><tspan
         style="font-size:45px"
         sodipodi:role="line"
         x="1300.8749"
         y="1161.061"
         id="tspan1419">maar goed nieuws.</tspan></text>
    <text
       xml:space="preserve"
       style="font-style:normal;font-variant:normal;font-weight:normal;font-stretch:normal;font-size:45px;line-height:1.25;font-family:Lavi;-inkscape-font-specification:Lavi;text-align:center;letter-spacing:0px;word-spacing:0px;text-anchor:middle;fill:#000000;fill-opacity:1;stroke:none"
       x="1729.1007"
       y="191.33838"
       id="text4246-3-2-2-6-3-7-9-3-3-56-9-3-20-3-2"><tspan
         style="font-size:45px"
         sodipodi:role="line"
         x="1729.1007"
         y="191.33838"
         id="tspan994-7">Je plannen?</tspan></text>
    <text
       xml:space="preserve"
       style="font-style:normal;font-variant:normal;font-weight:normal;font-stretch:normal;font-size:45px;line-height:1.25;font-family:Lavi;-inkscape-font-specification:Lavi;text-align:center;letter-spacing:0px;word-spacing:0px;text-anchor:middle;fill:#000000;fill-opacity:1;stroke:none"
       x="2021.0695"
       y="242.51447"
       id="text4246-3-2-2-6-3-7-9-3-3-56-9-3-20-3-2-0"><tspan
         style="font-size:45px"
         sodipodi:role="line"
         x="2021.0695"
         y="242.51447"
         id="tspan233">Dit alles was alleen</tspan><tspan
         style="font-size:45px"
         sodipodi:role="line"
         x="2021.0695"
         y="298.76447"
         id="tspan1430">maar een test, iets wat niks</tspan><tspan
         style="font-size:45px"
         sodipodi:role="line"
         x="2021.0695"
         y="355.01447"
         id="tspan1432">te maken had met mijn</tspan><tspan
         style="font-size:45px"
         sodipodi:role="line"
         x="2021.0695"
         y="411.26447"
         id="tspan1434">te laat komen?</tspan></text>
    <text
       xml:space="preserve"
       style="font-style:normal;font-variant:normal;font-weight:normal;font-stretch:normal;font-size:45px;line-height:1.25;font-family:Lavi;-inkscape-font-specification:Lavi;text-align:center;letter-spacing:0px;word-spacing:0px;text-anchor:middle;fill:#000000;fill-opacity:1;stroke:none"
       x="2194.8494"
       y="1060.1942"
       id="text4246-3-2-2-6-3-7-9-3-3-56-9-3-20-3-2-0-3"><tspan
         style="font-size:45px"
         sodipodi:role="line"
         x="2194.8494"
         y="1060.1942"
         id="tspan137">Je bent</tspan><tspan
         style="font-size:45px"
         sodipodi:role="line"
         x="2194.8494"
         y="1116.4442"
         id="tspan2393">bespottelijk!</tspan></text>
    <text
       xml:space="preserve"
       style="font-style:normal;font-variant:normal;font-weight:normal;font-stretch:normal;font-size:45px;line-height:1.25;font-family:Lavi;-inkscape-font-specification:Lavi;text-align:center;letter-spacing:0px;word-spacing:0px;text-anchor:middle;fill:#000000;fill-opacity:1;stroke:none"
       x="314.83337"
       y="1631.6757"
       id="text4246-3-2-2-6-3-7-9-3-3-56-9-3-20-3-2-0-3-1"><tspan
         style="font-size:45px"
         sodipodi:role="line"
         x="314.83337"
         y="1631.6757"
         id="tspan1224">Ha...</tspan></text>
    <text
       xml:space="preserve"
       style="font-style:normal;font-variant:normal;font-weight:normal;font-stretch:normal;font-size:45px;line-height:1.25;font-family:Lavi;-inkscape-font-specification:Lavi;text-align:center;letter-spacing:0px;word-spacing:0px;text-anchor:middle;fill:#000000;fill-opacity:1;stroke:none"
       x="327.27063"
       y="1708.0287"
       id="text4246-3-2-2-6-3-7-9-3-3-56-9-3-20-3-2-0-3-1-2"><tspan
         style="font-size:45px"
         sodipodi:role="line"
         x="327.27063"
         y="1708.0287"
         id="tspan1224-2">ha.</tspan></text>
    <text
       xml:space="preserve"
       style="font-style:normal;font-variant:normal;font-weight:normal;font-stretch:normal;font-size:51.7551px;line-height:1.25;font-family:Lavi;-inkscape-font-specification:Lavi;text-align:center;letter-spacing:0px;word-spacing:0px;text-anchor:middle;fill:#000000;fill-opacity:1;stroke:none;stroke-width:1.15011"
       x="1252.5894"
       y="1282.978"
       id="text4246-3-2-2-6-3-7-9-3-3-56-9-3-20-3-3"
       transform="skewX(-7.1285627)"><tspan
         style="font-style:normal;font-variant:normal;font-weight:bold;font-stretch:normal;font-size:51.7551px;font-family:Lavi;-inkscape-font-specification:'Lavi Bold';stroke-width:1.15011"
         sodipodi:role="line"
         x="1252.5894"
         y="1282.978"
         id="tspan237">WAT STAAN JULLIE DAAR</tspan><tspan
         style="font-style:normal;font-variant:normal;font-weight:bold;font-stretch:normal;font-size:51.7551px;font-family:Lavi;-inkscape-font-specification:'Lavi Bold';stroke-width:1.15011"
         sodipodi:role="line"
         x="1252.5894"
         y="1347.6719"
         id="tspan1686">MAAR WAT TE KIJKEN?</tspan></text>
    <text
       xml:space="preserve"
       style="font-style:normal;font-variant:normal;font-weight:normal;font-stretch:normal;font-size:47.4643px;line-height:1.25;font-family:Lavi;-inkscape-font-specification:Lavi;text-align:center;letter-spacing:0px;word-spacing:0px;text-anchor:middle;fill:#000000;fill-opacity:1;stroke:none;stroke-width:1.05476"
       x="1396.2771"
       y="1437.6506"
       id="text4246-3-2-2-6-3-7-9-3-3-56-9-3-20-3-3-2"
       transform="skewX(-7.1285625)"><tspan
         style="font-style:normal;font-variant:normal;font-weight:bold;font-stretch:normal;font-size:47.4643px;font-family:Lavi;-inkscape-font-specification:'Lavi Bold';stroke-width:1.05476"
         sodipodi:role="line"
         x="1396.2771"
         y="1437.6506"
         id="tspan144">IK WORDT AANGEVALLEN EN</tspan><tspan
         style="font-style:normal;font-variant:normal;font-weight:bold;font-stretch:normal;font-size:47.4643px;font-family:Lavi;-inkscape-font-specification:'Lavi Bold';stroke-width:1.05476"
         sodipodi:role="line"
         x="1396.2771"
         y="1496.981"
         id="tspan1688">JULLIE STAAN DAAR MAAR?! </tspan><tspan
         style="font-style:normal;font-variant:normal;font-weight:bold;font-stretch:normal;font-size:47.4643px;font-family:Lavi;-inkscape-font-specification:'Lavi Bold';stroke-width:1.05476"
         sodipodi:role="line"
         x="1396.2771"
         y="1556.3114"
         id="tspan146">GRIJP HAAR!!!</tspan></text>
    <text
       xml:space="preserve"
       style="font-style:normal;font-variant:normal;font-weight:normal;font-stretch:normal;font-size:55.0712px;line-height:1.25;font-family:Lavi;-inkscape-font-specification:Lavi;text-align:center;letter-spacing:0px;word-spacing:0px;text-anchor:middle;fill:#000000;fill-opacity:1;stroke:none;stroke-width:1.22379"
       x="631.82904"
       y="2227.1194"
       id="text4246-3-2-2-6-3-7-9-3-3-56-9-3-20-3-3-2-7"
       transform="matrix(0.99725425,0,-0.12471947,1.0027533,0,0)"><tspan
         style="font-style:normal;font-variant:normal;font-weight:bold;font-stretch:normal;font-size:55.0712px;font-family:Lavi;-inkscape-font-specification:'Lavi Bold';stroke-width:1.22379"
         sodipodi:role="line"
         x="631.82904"
         y="2227.1194"
         id="tspan150">Ik wil haar</tspan><tspan
         style="font-style:normal;font-variant:normal;font-weight:bold;font-stretch:normal;font-size:55.0712px;font-family:Lavi;-inkscape-font-specification:'Lavi Bold';stroke-width:1.22379"
         sodipodi:role="line"
         x="631.82904"
         y="2295.9585"
         id="tspan1814">levend hebben!</tspan></text>
    <text
       xml:space="preserve"
       style="font-style:normal;font-variant:normal;font-weight:normal;font-stretch:normal;font-size:56px;line-height:1.25;font-family:Lavi;-inkscape-font-specification:Lavi;text-align:center;letter-spacing:0px;word-spacing:0px;text-anchor:middle;fill:#000000;fill-opacity:1;stroke:none;stroke-width:1.57727"
       x="1541.7188"
       y="1964.4592"
       id="text4246-3-2-2-6-3-7-9-3-3-56-9-3-20-3-3-2-7-2"
       transform="matrix(0.89307379,0,-0.11169036,1.1197283,0,0)"><tspan
         style="font-style:normal;font-variant:normal;font-weight:bold;font-stretch:normal;font-size:56px;font-family:Lavi;-inkscape-font-specification:'Lavi Bold';stroke-width:1.57727"
         sodipodi:role="line"
         x="1541.7188"
         y="1964.4592"
         id="tspan1816">NEEM HAAR</tspan><tspan
         style="font-style:normal;font-variant:normal;font-weight:bold;font-stretch:normal;font-size:56px;font-family:Lavi;-inkscape-font-specification:'Lavi Bold';stroke-width:1.57727"
         sodipodi:role="line"
         x="1541.7188"
         y="2034.4592"
         id="tspan1820">GEVANGEN!!!</tspan></text>
    <text
       xml:space="preserve"
       style="font-style:normal;font-variant:normal;font-weight:normal;font-stretch:normal;font-size:45px;line-height:1.25;font-family:Lavi;-inkscape-font-specification:Lavi;text-align:center;letter-spacing:0px;word-spacing:0px;text-anchor:middle;fill:#000000;fill-opacity:1;stroke:none"
       x="1167.3616"
       y="2496.3752"
       id="text4246-3-2-2-6-3-7-9-3-3-56-9-3-20-3-2-0-3-19"><tspan
         style="font-size:45px"
         sodipodi:role="line"
         x="1167.3616"
         y="2496.3752"
         id="tspan1031">Shichimi, </tspan><tspan
         style="font-size:45px"
         sodipodi:role="line"
         x="1167.3616"
         y="2552.6252"
         id="tspan171">we spreken</tspan><tspan
         style="font-size:45px"
         sodipodi:role="line"
         x="1167.3616"
         y="2608.8752"
         id="tspan1876">hier later nog</tspan><tspan
         style="font-size:45px"
         sodipodi:role="line"
         x="1167.3616"
         y="2665.1252"
         id="tspan1878">wel over!</tspan></text>
    <text
       xml:space="preserve"
       style="font-style:normal;font-variant:normal;font-weight:normal;font-stretch:normal;font-size:45px;line-height:1.25;font-family:Lavi;-inkscape-font-specification:Lavi;text-align:center;letter-spacing:0px;word-spacing:0px;text-anchor:middle;fill:#000000;fill-opacity:1;stroke:none"
       x="1970.5493"
       y="2260.6709"
       id="text4246-3-2-2-6-3-7-9-3-3-56-9-3-20-3-2-0-3-19-8-3"><tspan
         style="font-size:45px"
         sodipodi:role="line"
         x="1970.5493"
         y="2260.6709"
         id="tspan8507">Het spijt me, Carrot, </tspan><tspan
         style="font-size:45px"
         sodipodi:role="line"
         x="1970.5493"
         y="2316.9209"
         id="tspan188">maar we zullen nog een</tspan><tspan
         style="font-size:45px"
         sodipodi:role="line"
         x="1970.5493"
         y="2373.1709"
         id="tspan2143">keer op supersnelheid</tspan><tspan
         style="font-size:45px"
         sodipodi:role="line"
         x="1970.5493"
         y="2429.4209"
         id="tspan2145">moeten vertrekken.</tspan></text>
    <text
       xml:space="preserve"
       style="font-style:normal;font-variant:normal;font-weight:normal;font-stretch:normal;font-size:45px;line-height:1.25;font-family:Lavi;-inkscape-font-specification:Lavi;text-align:center;letter-spacing:0px;word-spacing:0px;text-anchor:middle;fill:#000000;fill-opacity:1;stroke:none"
       x="1974.8418"
       y="2527.3699"
       id="text4246-3-2-2-6-3-7-9-3-3-56-9-3-20-3-2-0-3-19-8"><tspan
         style="font-size:45px"
         sodipodi:role="line"
         x="1974.8418"
         y="2527.3699"
         id="tspan1046">Zet je schrap!</tspan></text>
    <text
       xml:space="preserve"
       style="font-style:normal;font-variant:normal;font-weight:normal;font-stretch:normal;font-size:6.99764px;line-height:0%;font-family:Lavi;-inkscape-font-specification:Lavi;letter-spacing:0px;word-spacing:0px;fill:#000000;fill-opacity:1;stroke:#000000;stroke-width:6.65341;stroke-miterlimit:4;stroke-dasharray:none;stroke-opacity:1;paint-order:stroke fill markers"
       x="1234.3364"
       y="2988.7241"
       id="text4580-25"
       transform="matrix(0.70061135,-0.52267462,0.27429036,1.222697,0,0)"><tspan
         sodipodi:role="line"
         id="tspan4582-4"
         x="1234.3364"
         y="2988.7241"
         style="font-size:40.8195px;line-height:100%;letter-spacing:2.84772px;fill:#ffffff;stroke:#000000;stroke-width:6.65341;stroke-miterlimit:4;stroke-dasharray:none;stroke-opacity:1;paint-order:stroke fill markers"><tspan
           style="font-size:46.8842px;line-height:100%;letter-spacing:2.84772px;stroke:#000000;stroke-width:6.65341;stroke-miterlimit:4;stroke-dasharray:none;stroke-opacity:1;paint-order:stroke fill markers"
           id="tspan4617-9">Tap!</tspan></tspan></text>
    <text
       xml:space="preserve"
       style="font-style:normal;font-variant:normal;font-weight:normal;font-stretch:normal;font-size:6.12727px;line-height:0%;font-family:Lavi;-inkscape-font-specification:Lavi;letter-spacing:0px;word-spacing:0px;fill:#000000;fill-opacity:1;stroke:#000000;stroke-width:5.82585;stroke-miterlimit:4;stroke-dasharray:none;stroke-opacity:1;paint-order:stroke fill markers"
       x="1244.6915"
       y="2939.7729"
       id="text4580-25-6"
       transform="matrix(0.70061135,-0.52267462,0.27429036,1.222697,0,0)"><tspan
         sodipodi:role="line"
         id="tspan4582-4-1"
         x="1244.6915"
         y="2939.7729"
         style="font-size:35.7423px;line-height:100%;letter-spacing:2.49352px;fill:#ffffff;stroke:#000000;stroke-width:5.82585;stroke-miterlimit:4;stroke-dasharray:none;stroke-opacity:1;paint-order:stroke fill markers"><tspan
           style="font-size:41.0527px;line-height:100%;letter-spacing:2.49352px;stroke:#000000;stroke-width:5.82585;stroke-miterlimit:4;stroke-dasharray:none;stroke-opacity:1;paint-order:stroke fill markers"
           id="tspan4617-9-0">Tap!</tspan></tspan></text>
    <text
       xml:space="preserve"
       style="font-style:normal;font-variant:normal;font-weight:normal;font-stretch:normal;font-size:80px;line-height:1.25;font-family:Lavi;-inkscape-font-specification:Lavi;letter-spacing:0px;word-spacing:0px;fill:#ffffff;fill-opacity:1;stroke:#ffffff;stroke-width:0.668774;stroke-miterlimit:4;stroke-dasharray:none;stroke-opacity:1;filter:url(#filter4375-4-1-1-1-9-5-8-8-5-5-3-3-3-0-6)"
       id="text4580-6-0-0-0-9-3-3-2-0-3"
       transform="matrix(1.2199315,-0.31719701,-0.66892978,2.2459164,3443.4589,177.24169)"
       x="-607.91235"
       y="1245.0809"><tspan
         sodipodi:role="line"
         id="tspan2007"
         x="-607.91235"
         y="1245.0809"><tspan
           id="tspan1534-6-7"
           style="font-size:66.5743px">ZjooEE</tspan><tspan
           style="font-size:61.3371px"
           id="tspan2009">!!</tspan></tspan></text>
  </g>
</svg>
