<?xml version="1.0" encoding="UTF-8" standalone="no"?>
<svg
   id="svg2"
   version="1.1"
   inkscape:version="1.1.1 (3bf5ae0d25, 2021-09-20, custom)"
   width="2481"
   height="3503"
   sodipodi:docname="E34P04.svg"
   xmlns:inkscape="http://www.inkscape.org/namespaces/inkscape"
   xmlns:sodipodi="http://sodipodi.sourceforge.net/DTD/sodipodi-0.dtd"
   xmlns:xlink="http://www.w3.org/1999/xlink"
   xmlns="http://www.w3.org/2000/svg"
   xmlns:svg="http://www.w3.org/2000/svg"
   xmlns:rdf="http://www.w3.org/1999/02/22-rdf-syntax-ns#"
   xmlns:cc="http://creativecommons.org/ns#"
   xmlns:dc="http://purl.org/dc/elements/1.1/">
  <metadata
     id="metadata8">
    <rdf:RDF>
      <cc:Work
         rdf:about="">
        <dc:format>image/svg+xml</dc:format>
        <dc:type
           rdf:resource="http://purl.org/dc/dcmitype/StillImage" />
        <dc:title />
      </cc:Work>
    </rdf:RDF>
  </metadata>
  <defs
     id="defs6">
    <filter
       style="color-interpolation-filters:sRGB"
       id="filter4375-4-1-1-1-9-5-8-8-5-5-3-8"
       inkscape:label="soundFX1"
       x="-0.044353127"
       y="-0.0023842071"
       width="1.0467294"
       height="1.0447156">
      <feFlood
         id="feFlood4377-7-9-0-8-1-7-3-1-2-7-6-7"
         flood-opacity="1"
         flood-color="rgb(255,255,255)"
         result="flood" />
      <feComposite
         id="feComposite4379-3-8-8-2-77-4-1-0-6-4-7-9"
         in2="SourceGraphic"
         in="flood"
         operator="in"
         result="composite1"
         baseFrequency="0.053999999999999999 0.053999999999999999" />
      <feMorphology
         id="feMorphology4393-1-0-49-8-9-3-0-1-9-9-5-2"
         operator="dilate"
         radius="2.9756367599225957"
         result="result3" />
      <feComposite
         id="feComposite4385-9-5-7-0-8-8-7-5-4-9-3-0"
         in2="result3"
         in="SourceGraphic"
         operator="over"
         result="fbSourceGraphic" />
      <feColorMatrix
         result="fbSourceGraphicAlpha"
         in="fbSourceGraphic"
         values="0 0 0 -1 0 0 0 0 -1 0 0 0 0 -1 0 0 0 0 1 0"
         id="feColorMatrix4544-9-4-4-5-2" />
      <feTurbulence
         id="feTurbulence4546-3-6-5-6-3"
         type="fractalNoise"
         numOctaves="5"
         seed="174"
         baseFrequency="0.053999999999999999 0.054054054054054057"
         result="turbulence" />
      <feDisplacementMap
         id="feDisplacementMap4548-8-0-9-2-7"
         in2="turbulence"
         in="fbSourceGraphic"
         scale="6.6"
         yChannelSelector="G"
         xChannelSelector="R"
         result="fbSourceGraphic" />
      <feColorMatrix
         result="fbSourceGraphicAlpha"
         in="fbSourceGraphic"
         values="0 0 0 -1 0 0 0 0 -1 0 0 0 0 -1 0 0 0 0 1 0"
         id="feColorMatrix4670-7-7-3-9-5" />
      <feFlood
         id="feFlood4672-4-4-5-1-9"
         flood-opacity="1"
         flood-color="rgb(255,255,255)"
         result="flood"
         in="fbSourceGraphic" />
      <feComposite
         id="feComposite4674-8-3-7-2-22"
         in2="fbSourceGraphic"
         in="flood"
         operator="in"
         result="composite1" />
      <feGaussianBlur
         id="feGaussianBlur4676-3-7-08-7-8"
         in="composite1"
         stdDeviation="0"
         result="blur" />
      <feOffset
         id="feOffset4678-6-9-1-0-9"
         dx="-6.3258232761971414"
         dy="6"
         result="offset" />
      <feComposite
         id="feComposite4680-4-0-9-9-7"
         in2="offset"
         in="fbSourceGraphic"
         operator="over"
         result="composite2" />
    </filter>
  </defs>
  <sodipodi:namedview
     pagecolor="#ffffff"
     bordercolor="#666666"
     borderopacity="1"
     objecttolerance="10"
     gridtolerance="10"
     guidetolerance="10"
     inkscape:pageopacity="0"
     inkscape:pageshadow="2"
     inkscape:window-width="1888"
     inkscape:window-height="1146"
     id="namedview4"
     showgrid="false"
     inkscape:zoom="0.26450001"
     inkscape:cx="1510.3969"
     inkscape:cy="1952.7409"
     inkscape:window-x="32"
     inkscape:window-y="0"
     inkscape:window-maximized="1"
     inkscape:current-layer="layer1"
     inkscape:document-rotation="0"
     borderlayer="true"
     inkscape:snap-global="false"
     inkscape:pagecheckerboard="0" />
  <g
     inkscape:groupmode="layer"
     id="layer2"
     inkscape:label="artwork"
     sodipodi:insensitive="true">
    <image
       xlink:href="../gfx_Pepper-and-Carrot_by-David-Revoy_E34P04.png"
       width="2481"
       height="3503"
       id="image10"
       x="0"
       y="0" />
  </g>
  <g
     inkscape:groupmode="layer"
     id="layer3"
     inkscape:label="speechbubbles"
     style="display:inline">
    <path
       style="color:#000000;display:inline;overflow:visible;visibility:visible;fill:#ffffff;fill-opacity:1;fill-rule:nonzero;stroke:none;stroke-width:0.771972px;marker:none;enable-background:accumulate"
       d="m 942.00596,161.07596 c -28.41127,0.18837 -57.39429,4.42461 -83.12012,17.07786 -19.19091,9.69733 -33.51347,28.01801 -39.23952,48.70023 -5.65504,17.99606 -6.20409,38.27366 1.67335,55.70123 8.01786,16.7172 24.03642,28.51556 41.43815,33.96613 36.30202,13.29837 75.16708,18.11032 113.6517,18.43526 30.61068,-0.48222 61.69178,-8.24083 87.25878,-25.55631 12.523,-8.76969 22.2829,-21.77859 26.0612,-36.7251 6.7602,-24.07685 1.5312,-51.05613 -13.1338,-71.19589 -9.5408,-12.7977 -23.3343,-22.26699 -38.6444,-26.66428 -16.5718,-5.41618 -33.8476,-8.17666 -51.02484,-10.85683 -14.88569,-1.98048 -29.90361,-2.96657 -44.9205,-2.8823 z"
       id="path4040-4-5-3-5"
       inkscape:connector-curvature="0"
       sodipodi:nodetypes="zssssz" />
    <path
       style="color:#000000;display:inline;overflow:visible;visibility:visible;fill:#ffffff;fill-opacity:1;fill-rule:nonzero;stroke:none;stroke-width:1.01432px;marker:none;enable-background:accumulate"
       d="m 969.62974,313.60855 c -33.80174,1.36027 -67.11164,8.81223 -99.89084,17.62045 -18.79691,5.94224 -36.18728,17.26941 -49.8607,32.75214 -15.9162,17.15778 -28.27391,39.39109 -31.31151,64.05887 -3.5035,27.87677 4.85109,57.85675 23.61957,77.23072 15.74073,16.54238 37.19093,25.33252 58.65458,26.94292 41.21207,4.57016 82.57904,7.70406 124.00699,8.13146 24.69357,0.26593 49.41767,-0.0962 74.05557,-2.03891 22.6085,-2.71297 45.1395,-9.03585 65.2477,-21.01938 16.8128,-11.52844 26.8986,-33.27132 26.8943,-54.99014 0.4898,-24.95343 -5.4051,-50.15325 -17.5805,-71.24216 -10.0348,-17.46702 -22.2368,-33.92604 -38.0063,-45.37835 -12.9947,-9.55674 -28.2023,-14.41931 -43.2162,-18.45268 -16.0344,-4.05288 -32.1177,-8.00208 -48.4425,-10.34808 -14.63372,-2.19183 -29.39912,-3.38788 -44.17016,-3.26686 z"
       id="path4040-4-5-3"
       inkscape:connector-curvature="0"
       sodipodi:nodetypes="zssssz" />
    <path
       style="color:#000000;display:inline;overflow:visible;visibility:visible;fill:#ffffff;fill-opacity:1;fill-rule:nonzero;stroke:none;stroke-width:1px;marker:none;enable-background:accumulate"
       d="m 883.20886,587.44869 c 72.99905,-2.53565 65.7638,-63.19299 71.48587,-78.47444 l 37.78086,7.15422 c 0,0 -26.16471,95.6219 -109.26673,71.32022 z"
       id="path3072-5-5"
       inkscape:connector-curvature="0"
       sodipodi:nodetypes="cccc" />
    <path
       style="display:inline;fill:#ffffff;fill-rule:evenodd;stroke:none;stroke-width:1.408px;stroke-linecap:butt;stroke-linejoin:miter;stroke-opacity:1"
       d="m 1729.4941,1533.8343 c -263.4619,-188.6648 -719.6026,-198.4778 -988.12534,-169.638 l -8.73311,23.8296 c 289.95695,-44.5653 772.14605,6.8513 996.85845,145.8084 z"
       id="path1094"
       inkscape:connector-curvature="0"
       sodipodi:nodetypes="cccc" />
    <path
       style="color:#000000;display:inline;overflow:visible;visibility:visible;fill:#ffffff;fill-opacity:1;fill-rule:nonzero;stroke:none;stroke-width:1.37201px;marker:none;enable-background:accumulate"
       d="m 1186.3976,1269.1385 c -44.6651,-0.3269 -89.8691,4.1292 -131.0742,16.7419 -26.1647,8.07 -50.1675,20.7364 -66.41426,37.9253 -19.3455,20.313 -24.66873,47.9475 -11.77848,71.3508 12.59053,22.8549 37.19574,41.5817 66.17904,53.789 24.0981,9.9705 51.6503,14.1923 78.8537,15.8193 35.6612,2.3677 71.5157,1.6809 107.048,-0.6711 18.6986,-1.2411 37.3774,-2.7145 55.9349,-4.733 28.6985,-3.65 56.8016,-11.9639 78.4503,-26.3595 20.1341,-13.0596 36.5288,-29.8625 43.4044,-49.1626 5.806,-17.55 -0.4935,-37.092 -16.5071,-51.0801 -24.6453,-23.9179 -59.5409,-41.9446 -98.0984,-51.5699 -34.0769,-8.6373 -70.2345,-11.807 -105.9979,-12.0501 z"
       id="path3365-3"
       inkscape:connector-curvature="0"
       sodipodi:nodetypes="cssccc" />
    <path
       style="fill:#ffffff;fill-rule:evenodd;stroke:none;stroke-width:0.96065px;stroke-linecap:butt;stroke-linejoin:miter;stroke-opacity:1"
       d="m 532.99258,1247.5076 c -38.94936,0.5635 -77.95457,-0.1653 -116.84042,2.7908 -21.60086,2.4907 -43.38349,5.0233 -64.26304,11.9311 -21.48966,8.8833 -42.19135,21.6326 -57.89256,40.4106 -12.50344,15.6856 -21.35994,35.456 -22.99478,56.4408 -0.65913,15.2065 4.4197,29.8565 10.77362,43.0733 9.57134,20.249 23.92688,38.1692 42.29648,49.0171 15.80367,9.4872 33.64752,13.6077 51.25381,16.6934 20.33786,3.37 40.90189,4.5733 61.42104,5.714 60.90212,2.6437 121.86728,-1.456 182.47207,-7.9844 24.02364,-2.9749 48.18423,-6.555 71.26285,-14.7962 17.29777,-6.9413 33.47952,-18.8966 43.70864,-36.0741 8.3329,-14.3744 12.93589,-30.8635 17.11228,-47.1581 2.18786,-12.4899 -1.40176,-25.1187 -5.96759,-36.4462 -5.92249,-14.8085 -13.88565,-28.6831 -23.784,-40.6375 -6.8938,-7.9225 -15.50833,-13.8003 -24.6958,-17.9006 -13.94887,-6.6784 -28.56507,-11.4629 -43.20965,-15.8731 -22.56412,-6.3394 -45.88638,-9.1902 -69.15531,-8.9086 -17.16383,-0.3588 -34.33165,-0.2911 -51.49764,-0.2923 z"
       id="path1079"
       inkscape:connector-curvature="0" />
    <path
       id="path5050-5"
       style="color:#000000;display:inline;overflow:visible;visibility:visible;fill:#ffffff;fill-opacity:1;fill-rule:nonzero;stroke:none;stroke-width:1.10542px;marker:none;enable-background:accumulate"
       d="m 1055.3066,2327.9473 c -6.7695,3.1849 -13.5391,6.3698 -20.3086,9.5547 -5.4515,8.7234 -8.4665,18.631 -12.08,28.1855 0.2877,8.9888 4.778,17.1081 7.4112,25.5492 4.8043,13.3509 10.142,27.6669 6.8338,42.0256 -3.4158,16.5674 -11.898,31.5008 -16.4345,47.7397 -0.956,12.8214 5.6959,25.4955 16.2957,32.604 7.6345,5.5383 17.8577,10.6572 22.2668,17.4448 4.4091,6.7876 3.9198,12.9565 3.0275,20.0069 -0.8923,7.0504 -6.8233,13.4216 -10.106,20.1773 -2.5543,5.2297 -6.5724,10.2065 -4.8898,16.3644 0.5485,8.6419 3.5528,16.9498 8.2569,24.18 1.9155,5.167 7.5375,11.5732 1.5157,15.9953 -3.2977,3.3341 -6.6403,6.6236 -10.0035,9.8933 6.6199,-4.2691 13.2848,-8.7213 18.4668,-14.7364 2.2175,-7.1316 -0.2102,-14.5787 -3.3587,-21.0008 -3.3881,-9.4513 -0.8017,-19.8562 4.2602,-28.1901 5.6073,-9.9289 13.8919,-19.3951 13.8982,-31.4245 0.5595,-12.2965 -5.2038,-24.6049 -15.0512,-32.0084 -6.3523,-5.6552 -13.9693,-10.3956 -18.4457,-17.7889 -5.2096,-11.3685 -1.3783,-24.1347 3.0069,-35.0894 5.3982,-14.2627 13.5704,-28.4586 12.1858,-44.2358 -1.3898,-17.7099 -13.4465,-33.5966 -10.8255,-51.7808 1.5634,-10.2967 5.5548,-20.0386 7.2382,-30.3113 -0.044,-1.6098 -1.4268,-3.3809 -3.1602,-3.1543 z"
       sodipodi:nodetypes="ccccccczzcccccccccccccccc" />
    <path
       id="path1086-2"
       style="display:inline;fill:#ffffff;fill-rule:evenodd;stroke:none;stroke-width:1.75651px;stroke-linecap:butt;stroke-linejoin:miter;stroke-opacity:1"
       d="m 967.74937,2362.244 c -22.95414,2.072 -44.85862,11.2864 -68.19582,10.1905 -16.84394,-0.046 -34.72882,-3.2616 -50.49681,4.1788 -12.26294,5.7666 -25.15922,12.7516 -32.17017,24.4734 -7.69487,14.5227 -10.32475,33.1117 -0.79614,47.4824 12.91312,19.6335 36.54841,32.5447 60.82255,32.4581 20.60398,0.1222 41.22568,2.0994 61.20336,7.0853 15.93554,3.5903 32.72314,5.4007 48.73966,1.128 15.5281,-3.5641 31.5301,-7.7909 47.584,-4.9333 20.2296,2.8709 40.4353,8.7921 61.0804,5.9357 25.4366,-2.8639 50.2639,-12.2598 76.2078,-9.4962 15.309,1.1364 32.1561,2.2363 45.3444,-6.8501 21.5934,-13.656 29.9521,-43.783 18.1466,-65.8698 -9.0614,-13.4201 -25.4792,-19.8261 -40.6894,-24.6114 -23.0298,-6.8718 -47.8987,-1.9296 -70.8322,-9.3646 -14.2597,-4.261 -28.9806,-8.1533 -44.0728,-6.9259 -26.9333,1.1429 -54.3251,6.2281 -80.9432,-0.3296 -10.19545,-2.1008 -20.44285,-4.5119 -30.93225,-4.5513 z" />
    <path
       id="path1086"
       style="display:inline;fill:#ffffff;fill-rule:evenodd;stroke:none;stroke-width:1.11353px;stroke-linecap:butt;stroke-linejoin:miter;stroke-opacity:1"
       d="m 934.30234,2287.7817 c 10.78081,-13.0131 28.81314,-20.4085 46.62557,-25.1206 18.40039,-4.8304 37.75119,-6.7484 57.02339,-6.9132 17.8187,-0.3452 36.247,-1.505 53.4176,3.2629 8.3024,2.5751 15.9552,6.3476 23.7186,9.8373 10.3691,5.0191 21.1931,11.2049 25.3413,20.9226 2.7053,6.2472 0.6668,12.8861 0.6937,19.3176 -0.4914,9.8612 -1.1289,20.7155 -9.372,28.5913 -7.9837,8.1476 -20.7005,11.2975 -32.4093,14.2544 -19.3435,4.4306 -39.194,7.4298 -59.1803,9.0531 -12.8688,1.0974 -26.0272,2.1776 -38.7848,-0.2271 -15.29934,-2.6873 -29.04661,-9.3127 -41.78739,-16.513 -10.26309,-6.1764 -20.44315,-13.394 -25.49663,-23.2141 -3.02881,-7.1043 -2.4354,-14.833 -1.78824,-22.2214 0.4343,-3.7008 1.06758,-7.3899 1.9985,-11.0298 z" />
    <path
       style="color:#000000;display:inline;overflow:visible;visibility:visible;fill:#ffffff;fill-opacity:1;fill-rule:nonzero;stroke:none;stroke-width:1.00142px;marker:none;enable-background:accumulate"
       d="m 1524.4215,2878.2676 c -26.8681,26.3341 -43.8455,65.9906 -27.9619,106.1587 15.8839,40.168 -2.7967,41.867 -2.7967,41.867 l -38.7428,-11.8655 c 0,0 -15.1358,-89.5331 69.5014,-136.1602 z"
       id="path3072-6"
       inkscape:connector-curvature="0"
       sodipodi:nodetypes="csccc" />
    <path
       style="display:inline;fill:#ffffff;stroke:none;stroke-width:0.591289"
       d="m 1409.2076,3091.1581 c -30.3891,0.7195 -60.9931,9.0982 -86.7762,26.5654 -20.2375,14.2358 -35.6731,36.7901 -40.4126,62.3154 -2.8103,16.7177 0.1268,33.703 3.3313,50.0997 4.1601,20.8775 8.9606,38.5003 23.9882,56.4339 11.6001,11.2647 24.9459,15.7195 40.2718,19.719 16.1571,3.6502 36.1987,6.1704 53.3866,6.528 28.3815,1.2328 56.7979,0.5625 85.1791,-0.3028 24.1769,-1.2236 48.6847,-4.5808 71.1571,-14.6522 23.2662,-10.5812 43.4605,-29.7526 54.2744,-54.3169 9.919,-22.6127 11.4581,-49.6523 2.6479,-72.9441 -7.7429,-19.5203 -22.4917,-34.9916 -39.053,-46.2534 -16.1074,-10.9437 -34.5176,-17.4818 -53.2148,-21.1792 -20.6309,-4.3641 -41.5499,-6.8926 -62.4209,-9.5341 -17.3926,-1.8513 -34.8809,-2.6708 -52.3589,-2.4787 z"
       id="path3280-5"
       inkscape:connector-curvature="0"
       sodipodi:nodetypes="csssccccccccccc" />
    <path
       style="fill:#ffffff;stroke:none;stroke-width:0.394774"
       d="m 1432.8973,2994.5247 c -23.9706,0.4739 -48.3439,2.7722 -70.8012,10.4538 -12.6277,4.3405 -25.0592,9.7977 -34.9054,17.9315 -6.1361,5.0705 -10.7981,11.4109 -13.1798,18.3778 -3.3782,9.4662 -3.5964,19.6495 -1.1787,29.2491 1.9648,7.1067 6.8218,13.7771 14.2136,17.6868 9.9126,5.7135 21.5663,8.722 33.0567,11.3608 23.1703,4.668 47.1974,4.4724 70.9105,4.8574 27.2056,0.3226 54.4875,0.5837 81.6243,-1.7321 15.731,-1.4063 31.81,-2.7239 46.5792,-7.9435 9.3183,-3.3623 17.6479,-9.0569 22.5594,-16.6384 9.3255,-13.8537 8.3906,-32.4471 -3.4561,-44.8722 -9.6101,-10.2486 -23.455,-16.8357 -37.5018,-21.8805 -25.0622,-9.1775 -52.0101,-14.6251 -79.3121,-16.315 -9.5122,-0.6184 -19.0647,-0.7346 -28.6086,-0.5355 z"
       id="path3280-8-0"
       inkscape:connector-curvature="0"
       sodipodi:nodetypes="csssc" />
  </g>
  <g
     inkscape:groupmode="layer"
     id="layer1"
     inkscape:label="txt">
    <text
       xml:space="preserve"
       style="font-style:normal;font-variant:normal;font-weight:normal;font-stretch:normal;font-size:45px;line-height:1.25;font-family:Lavi;-inkscape-font-specification:Lavi;text-align:center;letter-spacing:0px;word-spacing:0px;text-anchor:middle;fill:#000000;fill-opacity:1;stroke:none"
       x="956.604"
       y="230.24884"
       id="text4246-3-2-2-6-3-7-9-3"><tspan
         style="font-size:45px"
         sodipodi:role="line"
         x="956.604"
         y="230.24884"
         id="tspan68">Da, vaša</tspan><tspan
         style="font-size:45px"
         sodipodi:role="line"
         x="956.604"
         y="286.49884"
         id="tspan60048">visokost.</tspan></text>
    <text
       xml:space="preserve"
       style="font-style:normal;font-variant:normal;font-weight:normal;font-stretch:normal;font-size:45px;line-height:1.25;font-family:Lavi;-inkscape-font-specification:Lavi;text-align:center;letter-spacing:0px;word-spacing:0px;text-anchor:middle;fill:#000000;fill-opacity:1;stroke:none"
       x="973.4469"
       y="384.76639"
       id="text4246-3-2-2-6-3-7-9-3-3"><tspan
         style="font-size:45px"
         sodipodi:role="line"
         x="973.4469"
         y="384.76639"
         id="tspan896">Ime ji je</tspan><tspan
         style="font-size:45px"
         sodipodi:role="line"
         x="973.4469"
         y="441.01639"
         id="tspan75">Pepper, iz</tspan><tspan
         style="font-size:45px"
         sodipodi:role="line"
         x="973.4469"
         y="497.26639"
         id="tspan77">Chaosah šole.</tspan></text>
    <text
       xml:space="preserve"
       style="font-style:normal;font-variant:normal;font-weight:normal;font-stretch:normal;font-size:45px;line-height:1.25;font-family:Lavi;-inkscape-font-specification:Lavi;text-align:center;letter-spacing:0px;word-spacing:0px;text-anchor:middle;fill:#000000;fill-opacity:1;stroke:none"
       x="518.08118"
       y="1322.5897"
       id="text4246-3-2-2-6-3-7-9-3-3-3"><tspan
         style="font-size:45px"
         sodipodi:role="line"
         x="518.08118"
         y="1322.5897"
         id="tspan909">Njena navzočnost</tspan><tspan
         style="font-size:45px"
         sodipodi:role="line"
         x="518.08118"
         y="1378.8397"
         id="tspan23490">oskrunja svetost</tspan><tspan
         style="font-size:45px"
         sodipodi:role="line"
         x="518.08118"
         y="1435.0897"
         id="tspan54402">naše šole.</tspan></text>
    <text
       xml:space="preserve"
       style="font-style:normal;font-variant:normal;font-weight:normal;font-stretch:normal;font-size:45px;line-height:1.25;font-family:Lavi;-inkscape-font-specification:Lavi;text-align:center;letter-spacing:0px;word-spacing:0px;text-anchor:middle;fill:#000000;fill-opacity:1;stroke:none"
       x="1188.6613"
       y="1346.1543"
       id="text4246-3-2-2-6-3-7-9-3-3-3-9"><tspan
         style="font-size:45px"
         sodipodi:role="line"
         x="1188.6613"
         y="1346.1543"
         id="tspan73">Spravi mi jo</tspan><tspan
         style="font-size:45px"
         sodipodi:role="line"
         x="1188.6613"
         y="1402.4043"
         id="tspan28121">izpred oči, takoj.</tspan></text>
    <text
       xml:space="preserve"
       style="font-style:normal;font-variant:normal;font-weight:normal;font-stretch:normal;font-size:45px;line-height:1.25;font-family:Lavi;-inkscape-font-specification:Lavi;text-align:center;letter-spacing:0px;word-spacing:0px;text-anchor:middle;fill:#000000;fill-opacity:1;stroke:none"
       x="1041.905"
       y="2320.762"
       id="text4246-3-2-2-6-3-7-9-3-3-3-9-0-0"><tspan
         style="font-size:45px"
         sodipodi:role="line"
         x="1041.905"
         y="2320.762"
         id="tspan1031-6-6">Ampak...</tspan></text>
    <text
       xml:space="preserve"
       style="font-style:normal;font-variant:normal;font-weight:normal;font-stretch:normal;font-size:45px;line-height:1.25;font-family:Lavi;-inkscape-font-specification:Lavi;text-align:center;letter-spacing:0px;word-spacing:0px;text-anchor:middle;fill:#000000;fill-opacity:1;stroke:none"
       x="1028.5508"
       y="2444.2068"
       id="text4246-3-2-2-6-3-7-9-3-3-3-9-0"><tspan
         style="font-size:45px"
         sodipodi:role="line"
         x="1028.5508"
         y="2444.2068"
         id="tspan1031-6">Mojstrica Wasabi...</tspan></text>
    <text
       xml:space="preserve"
       style="font-style:normal;font-variant:normal;font-weight:normal;font-stretch:normal;font-size:45px;line-height:1.25;font-family:Lavi;-inkscape-font-specification:Lavi;text-align:center;letter-spacing:0px;word-spacing:0px;text-anchor:middle;fill:#000000;fill-opacity:1;stroke:none"
       x="1448.437"
       y="3065.0918"
       id="text4246-3-2-2-6-3-7-9-3-3-3-9-0-6"><tspan
         style="font-size:45px"
         sodipodi:role="line"
         x="1448.437"
         y="3065.0918"
         id="tspan1199">Ampak kaj?</tspan></text>
    <text
       xml:space="preserve"
       style="font-style:normal;font-variant:normal;font-weight:normal;font-stretch:normal;font-size:45px;line-height:1.25;font-family:Lavi;-inkscape-font-specification:Lavi;text-align:center;letter-spacing:0px;word-spacing:0px;text-anchor:middle;fill:#000000;fill-opacity:1;stroke:none"
       x="1446.9824"
       y="3168.0901"
       id="text4246-3-2-2-6-3-7-9-3-3-3-9-0-6-8"><tspan
         style="font-size:45px"
         sodipodi:role="line"
         x="1446.9824"
         y="3168.0901"
         id="tspan104">Raje vidiš da</tspan><tspan
         style="font-size:45px"
         sodipodi:role="line"
         x="1446.9824"
         y="3224.3401"
         id="tspan34914">si izključena</tspan><tspan
         style="font-size:45px"
         sodipodi:role="line"
         x="1446.9824"
         y="3280.5901"
         id="tspan41258">iz te šole?</tspan></text>
    <text
       xml:space="preserve"
       style="font-style:normal;font-variant:normal;font-weight:normal;font-stretch:normal;font-size:105.817px;line-height:1.25;font-family:Lavi;-inkscape-font-specification:Lavi;letter-spacing:0px;word-spacing:0px;fill:#000000;fill-opacity:1;stroke:#030303;stroke-width:0.716208;stroke-miterlimit:4;stroke-dasharray:none;stroke-opacity:1;filter:url(#filter4375-4-1-1-1-9-5-8-8-5-5-3-8)"
       x="787.65729"
       y="1584.5073"
       id="text4580-6-0-0-0-9-3-36"
       transform="matrix(0.78722097,-0.19942868,-0.30990333,0.91892591,1994.5561,1995.3356)"><tspan
         style="font-size:195.17px;fill:#000000;fill-opacity:1;stroke:#030303;stroke-width:0.716208;stroke-miterlimit:4;stroke-dasharray:none;stroke-opacity:1"
         sodipodi:role="line"
         id="tspan876-6-1"
         x="787.65729"
         y="1584.5073">!<tspan
   style="font-size:173.821px;fill:#000000;stroke:#030303;stroke-opacity:1"
   id="tspan1317">!</tspan><tspan
   id="tspan1322"
   style="font-size:152.472px;fill:#000000;stroke:#030303;stroke-opacity:1">!</tspan></tspan></text>
  </g>
</svg>
