<?xml version="1.0" encoding="UTF-8" standalone="no"?>
<!-- Created with Inkscape (http://www.inkscape.org/) -->

<svg
   xmlns:dc="http://purl.org/dc/elements/1.1/"
   xmlns:cc="http://creativecommons.org/ns#"
   xmlns:rdf="http://www.w3.org/1999/02/22-rdf-syntax-ns#"
   xmlns:svg="http://www.w3.org/2000/svg"
   xmlns="http://www.w3.org/2000/svg"
   xmlns:xlink="http://www.w3.org/1999/xlink"
   xmlns:sodipodi="http://sodipodi.sourceforge.net/DTD/sodipodi-0.dtd"
   xmlns:inkscape="http://www.inkscape.org/namespaces/inkscape"
   id="svg2"
   version="1.1"
   inkscape:version="0.92.4 (5da689c313, 2019-01-14)"
   width="2481"
   height="3503"
   sodipodi:docname="E29P04.svg">
  <metadata
     id="metadata8">
    <rdf:RDF>
      <cc:Work
         rdf:about="">
        <dc:format>image/svg+xml</dc:format>
        <dc:type
           rdf:resource="http://purl.org/dc/dcmitype/StillImage" />
        <dc:title />
      </cc:Work>
    </rdf:RDF>
  </metadata>
  <defs
     id="defs6">
    <filter
       style="color-interpolation-filters:sRGB"
       id="filter4375-4-1-1-1-9"
       inkscape:label="deevad outline effect">
      <feFlood
         id="feFlood4377-7-9-0-8-1"
         flood-opacity="1"
         flood-color="rgb(0,0,0)"
         result="flood" />
      <feComposite
         id="feComposite4379-3-8-8-2-77"
         in2="SourceGraphic"
         in="flood"
         operator="in"
         result="composite1" />
      <feMorphology
         id="feMorphology4393-1-0-49-8-9"
         operator="dilate"
         radius="3.5"
         result="result3" />
      <feComposite
         id="feComposite4385-9-5-7-0-8"
         in2="result3"
         in="SourceGraphic"
         operator="over"
         result="composite2" />
    </filter>
  </defs>
  <sodipodi:namedview
     pagecolor="#ffffff"
     bordercolor="#666666"
     borderopacity="1"
     objecttolerance="10"
     gridtolerance="10"
     guidetolerance="10"
     inkscape:pageopacity="0"
     inkscape:pageshadow="2"
     inkscape:window-width="1920"
     inkscape:window-height="1027"
     id="namedview4"
     showgrid="false"
     inkscape:zoom="0.47935747"
     inkscape:cx="1405.0078"
     inkscape:cy="2745.8771"
     inkscape:window-x="1920"
     inkscape:window-y="26"
     inkscape:window-maximized="1"
     inkscape:current-layer="layer3"
     inkscape:snap-global="false"
     showguides="false" />
  <g
     inkscape:groupmode="layer"
     id="layer2"
     inkscape:label="artwork"
     sodipodi:insensitive="true">
    <image
       sodipodi:absref="/felles/omsetting/pepper-carrot/webcomics/ep29_Destroyer-of-Worlds/lang/nn/../gfx_Pepper-and-Carrot_by-David-Revoy_E29P04.png"
       xlink:href="../gfx_Pepper-and-Carrot_by-David-Revoy_E29P04.png"
       y="0"
       x="0"
       id="image10"
       height="3503"
       width="2481" />
  </g>
  <g
     inkscape:groupmode="layer"
     id="layer3"
     inkscape:label="speechbubbles">
    <path
       style="color:#000000;display:inline;overflow:visible;visibility:visible;fill:#ffffff;fill-opacity:1;fill-rule:nonzero;stroke:none;stroke-width:0.99999994px;marker:none;enable-background:accumulate"
       d="m 1777.2253,129.9164 c 31.9665,-18.8721 438.0003,-30.509914 495.7727,10.2865 36.6603,25.88785 32.7464,123.78943 -14.0631,142.54889 -55.09,22.0779 -362.9928,16.09462 -440.4305,3.78839 -73.674,-11.70814 -76.3956,-51.8108 -80.1112,-90.76835 -1.5165,-15.90016 6.8654,-46.98327 38.8321,-65.85543 z"
       id="path4040-4-0"
       inkscape:connector-curvature="0"
       sodipodi:nodetypes="zssssz" />
    <path
       style="fill:#ffffff;stroke:none"
       d="m 2131.7915,445.1527 c 52.0797,-62.97217 40.5599,-106.89763 -10.3849,-161.57773 -30.8676,-33.13074 -53.0957,-49.56362 -53.0957,-49.56362 l 44.4365,-11.17106 49.9606,31.26438 c 0,0 89.2487,110.10775 -30.9165,191.04803 z"
       id="path3063"
       inkscape:connector-curvature="0"
       sodipodi:nodetypes="cscccc" />
    <path
       style="color:#000000;display:inline;overflow:visible;visibility:visible;fill:#ffffff;fill-opacity:1;fill-rule:nonzero;stroke:none;stroke-width:1px;marker:none;enable-background:accumulate"
       d="m 1683.2274,970.18403 c 1.4495,-28.03525 -12.8421,-61.11181 25.7705,-104.65775 27.4903,-31.00266 58.97,-31.09877 174.5658,-33.22158 106.6451,-4.42675 208.1378,55.05462 178.1591,156.37916 -3.2891,82.08904 -136.0931,74.32644 -163.8452,77.69654 -27.7521,3.3702 -160.8207,2.3888 -187.1197,-24.0982 -16.4626,-16.58 -27.3872,-37.8236 -27.5305,-72.09817 z"
       id="path4546-6"
       inkscape:connector-curvature="0"
       sodipodi:nodetypes="csccssc" />
    <path
       style="color:#000000;display:inline;overflow:visible;visibility:visible;fill:#ffffff;fill-opacity:1;fill-rule:nonzero;stroke:none;stroke-width:1px;marker:none;enable-background:accumulate"
       d="m 2058.949,780.54364 c 9.1284,42.15323 9.9229,57.84514 -32.0252,91.28724 -41.9482,33.44204 -30.1382,47.46229 -30.1382,47.46229 l 35.2785,-4.99268 c 0,0 84.878,-77.03313 26.8849,-133.75685 z"
       id="path3072"
       inkscape:connector-curvature="0" />
    <path
       style="color:#000000;display:inline;overflow:visible;visibility:visible;fill:#ffffff;fill-opacity:1;fill-rule:nonzero;stroke:none;stroke-width:0.97763973px;marker:none;enable-background:accumulate"
       d="m 740.40042,180.77898 c 23.04773,-35.34082 217.59699,-73.70115 285.97408,-0.87112 68.3771,72.83004 26.9024,160.22615 -12.3304,188.03391 -39.23269,27.80788 -154.68902,58.26407 -207.37291,34.42878 -52.684,-23.83529 -93.72146,-59.46442 -96.40046,-132.41826 -1.09339,-29.77538 7.08185,-53.83237 30.12969,-89.17331 z"
       id="path4040"
       inkscape:connector-curvature="0"
       sodipodi:nodetypes="zssssz" />
    <path
       style="color:#000000;display:inline;overflow:visible;visibility:visible;fill:#ffffff;fill-opacity:1;fill-rule:nonzero;stroke:none;stroke-width:1px;marker:none;enable-background:accumulate"
       d="m 927.43282,520.21555 c 19.56717,-37.91334 24.33095,-91.92051 -16.62461,-116.94423 -32.00795,-36.20829 -9.67863,-17.32971 -9.67863,-17.32971 l 32.39871,9.54307 c 0,0 63.63839,61.67926 -6.09547,124.73087 z"
       id="path3072-1"
       inkscape:connector-curvature="0"
       sodipodi:nodetypes="ccccc" />
    <path
       style="fill:#ffffff;fill-opacity:1;fill-rule:evenodd;stroke:none;stroke-width:1px;stroke-linecap:butt;stroke-linejoin:miter;stroke-opacity:1"
       d="m 478.01054,431.48436 c -12.3039,2.66574 -27.16995,-0.57729 -36.10654,-6.28365 -7.39417,-5.15417 -17.7637,-10.28883 -18.50999,-16.94732 -0.82075,-7.64545 6.20813,-16.01059 -3.87723,-23.14364 -14.05828,-6.57783 -22.46842,-10.72808 -22.90453,-21.15637 -0.51647,-8.88801 5.82581,-17.47612 13.8954,-23.82778 6.75029,-4.38824 3.37489,-10.60778 -2.19203,-15.35758 -5.85188,-7.6047 -10.12559,-17.626 0.78569,-23.65267 7.07534,-2.8713 14.80783,-3.86419 15.46589,-9.87472 1.82674,-8.36467 -6.45098,-16.01939 -7.82757,-24.30311 -6.64444,-8.26251 -2.94043,-30.68957 4.14757,-37.41943 5.27085,-4.67108 20.69209,-16.08852 32.88132,-16.20694 20.6574,-3.28366 34.59139,2.96055 49.82423,-5.74924 7.44174,-5.39281 12.17795,-13.12452 26.14697,-14.53133 16.26695,-1.91025 32.24214,8.03406 47.07303,11.70526 14.46387,-7.98536 40.54108,-6.79156 48.41757,1.21742 4.36632,4.51913 24.54917,24.34096 25.69293,29.37245 4.25698,10.03482 -8.83766,27.11262 3.13923,35.83589 12.75989,6.31875 7.33537,21.51781 4.6682,29.62804 -3.82616,6.42852 2.26495,13.11334 3.68776,19.76833 2.50049,7.0948 -5.44608,14.79988 -3.50932,21.89162 5.46386,10.62695 11.59564,20.16686 6.37917,31.1616 -2.0267,9.60482 -3.53687,13.54473 -16.91618,18.81587 -4.37506,2.35984 -6.8063,6.79465 -7.97075,10.44268 -4.06447,8.9605 -7.48225,13.3477 -17.8592,21.04453 -8.9548,5.70234 -25.35574,7.02015 -39.07015,4.04717 -10.63904,-1.40454 -22.31756,-6.24392 -32.65376,-4.37512 -13.3506,4.06599 -16.93394,17.33978 -34.28304,16.14418 -9.26627,-0.66749 -16.10613,-4.92165 -25.11665,-6.14382 -4.4014,-0.86309 -8.89007,-1.54835 -13.40785,-2.10201 z"
       id="path4367"
       inkscape:connector-curvature="0"
       sodipodi:nodetypes="ccccccccccccccccccccccccccccccc" />
    <path
       style="fill:#ffffff;stroke:none;stroke-width:1"
       d="m 481.33413,569.27983 c -26.16799,-11.86997 -29.23382,-39.59074 -20.73941,-48.80022 8.49436,-9.2095 12.7305,-19.1347 12.40759,-27.59531 -0.32293,-8.46061 -5.50646,-17.21425 -10.12026,-24.21281 -4.61385,-6.99861 0.88784,-16.71803 5.41776,-24.19003 4.52995,-7.47208 25.74725,-46.21168 25.74725,-46.21168 0,0 -33.81232,12.14437 -40.8764,20.86652 -7.0641,8.72215 -8.88284,16.10827 -10.78771,20.43039 -1.90487,4.32223 -5.43175,20.28888 -2.44001,28.74234 2.99167,8.45347 10.76629,15.12526 14.36709,20.98686 3.60084,5.86151 2.03948,12.29665 -2.9751,20.77153 -5.01458,8.47491 -9.53561,29.71668 2.24235,44.7525 6.98238,8.91376 16.67122,13.76389 27.75685,14.45991 z"
       id="path3023"
       inkscape:connector-curvature="0"
       sodipodi:nodetypes="csssscssssssc"
       inkscape:transform-center-x="-13.368944"
       inkscape:transform-center-y="102.37524" />
    <path
       style="fill:#ffffff;fill-opacity:1;fill-rule:evenodd;stroke:none;stroke-width:1px;stroke-linecap:butt;stroke-linejoin:miter;stroke-opacity:1"
       d="m 186.28565,251.23852 c -4.21854,-8.75614 1.01882,-19.74314 5.19453,-23.63215 4.68139,-7.23319 10.69603,-7.17532 16.31727,-6.63166 5.59189,1.42257 9.69121,-5.54505 13.32222,-12.74773 5.747,-9.34526 14.09167,-12.55224 20.87346,-5.7373 5.04024,4.64544 10.86871,10.35653 16.39333,5.02738 6.58836,-5.39333 14.97453,-10.11262 21.33391,-1.2116 4.52385,10.33717 12.03468,5.94184 17.56894,1.86249 7.10837,-4.78548 14.88813,-7.69079 22.23026,-3.04989 4.86817,2.71634 10.90552,4.04211 13.30721,14.27616 2.89882,11.20816 6.01742,24.58764 12.80637,27.94666 4.80545,2.90069 11.7181,4.65827 12.92784,16.32583 -0.14081,10.41186 -2.68516,20.67864 -4.99918,29.74696 -6.84152,11.74931 -17.33502,2.71392 -26.02346,5.9673 -5.68099,2.09513 -10.34108,14.61164 -19.83722,16.23179 -13.14953,2.71401 -15.82421,-7.46961 -23.80601,-2.47843 -9.41291,4.66448 -11.9848,-0.9595 -20.90339,7.43889 -10.15569,7.80412 -22.10392,5.27486 -31.01505,-7.26802 -3.82454,-6.23361 -12.77635,2.30753 -17.64636,3.49956 -6.50514,0.42067 -9.8426,2.42268 -14.64756,-8.28686 -3.85184,-7.63818 -2.81566,-5.22309 -5.38141,-13.71796 -2.68242,-8.38714 -8.91253,-10.21248 -10.78525,-20.13508 -1.43447,-8.20079 3.54003,-14.8495 2.76955,-23.42634 z"
       id="path4367-3"
       inkscape:connector-curvature="0"
       sodipodi:nodetypes="ccccccccccccccccccccccc" />
    <path
       style="opacity:1;fill:#ffffff;fill-rule:evenodd;stroke:none;stroke-width:0.99999994px;stroke-linecap:butt;stroke-linejoin:miter;stroke-opacity:1"
       d="m 309.34922,457.71798 c -15.64979,-24.8542 8.77501,-47.91607 8.58626,-62.92677 -0.19481,-15.49635 -40.69805,-21.31418 -41.62679,-35.6781 -0.92874,-14.36402 24.25197,-42.90833 22.3945,-65.352 -1.85748,-22.44378 -33.11728,-22.62637 -30.33094,3.4084 2.78634,26.03475 -20.58525,41.20496 -15.67743,61.79602 8.18516,34.34048 37.35935,31.20382 47.00302,40.86297 6.38476,6.395 -4.2802,22.87728 -1.49386,38.139 2.78634,15.26172 11.14524,19.75048 11.14524,19.75048 z"
       id="path4272"
       inkscape:connector-curvature="0"
       sodipodi:nodetypes="csssssssc" />
    <path
       style="color:#000000;display:inline;overflow:visible;visibility:visible;fill:#ffffff;fill-opacity:1;fill-rule:nonzero;stroke:none;stroke-width:1.09947145px;marker:none;enable-background:accumulate"
       d="m 2035.1547,976.92632 c -1.1316,-24.73089 16.108,-61.85257 48.676,-77.22508 48.3771,-22.8346 72.3901,-13.56392 113.311,-12.51338 38.0128,0.97588 112.1264,-7.45154 144.0647,20.05659 24.7084,21.28103 26.6316,70.77409 20.973,96.75395 -5.6584,25.9797 -21.42,60.9378 -63.7606,68.1046 -45.4106,7.6864 -121.1153,1.1782 -164.4006,2.5716 -38.7134,1.2462 -62.2431,-7.6412 -82.6134,-25.9799 -20.6515,-18.5917 -15.1183,-47.0376 -16.2501,-71.76838 z"
       id="path3373"
       inkscape:connector-curvature="0"
       sodipodi:nodetypes="zsssssssz" />
    <path
       style="fill:#ffffff;fill-rule:evenodd;stroke:none;stroke-width:0.99999994px;stroke-linecap:butt;stroke-linejoin:miter;stroke-opacity:1"
       d="m 874.87177,1223.5898 c 37.7834,3.4907 93.11077,-13.0192 62.5645,-65.5744 60.27036,26.313 109.64793,45.8066 204.34863,-27.7326 -8.0146,81.4659 39.5169,66.479 78.3781,50.8385 -37.2959,27.4139 25.2264,50.4985 61.2382,52.0384 -66.1796,44.2943 -35.1374,67.3435 -0.9629,76.7065 -58.6303,7.4468 -61.9563,32.0871 -48.0331,52.0996 -64.224,-42.8941 -154.582,-17.5824 -144.7109,12.5816 -28.6526,-17.3709 -51.3395,-64.3702 -122.48276,4.554 26.16118,-59.5014 -8.13028,-53.2559 -63.64853,-23.9247 8.70091,-20.2671 60.41442,-51.086 -26.69124,-47.8499 54.40776,-19.2669 65.81736,-45.3663 0,-83.737 z"
       id="path4584"
       inkscape:connector-curvature="0"
       sodipodi:nodetypes="cccccccccccc" />
    <path
       style="color:#000000;display:inline;overflow:visible;visibility:visible;fill:#ffffff;fill-opacity:1;fill-rule:nonzero;stroke:none;stroke-width:1px;marker:none;enable-background:accumulate"
       d="m 1284.4552,1484.7539 c -74.0623,-16.7815 -162.4554,-85.4407 -173.3256,-102.2336 5.7646,-4.0191 72.5018,-4.3109 72.5018,-4.3109 -25.8476,-20.7242 -129.727,-70.2911 -122.0213,-64.8466 -4.5243,-14.4638 68.3453,-13.6441 68.3453,-13.6441 0,0 96.3576,81.9196 112.2383,92.2829 -16.3671,10.5299 -65.2194,8.0221 -73.0419,9.9521 2.0894,11.1694 89.3696,76.2156 115.3034,82.8002 z"
       id="path4456"
       inkscape:connector-curvature="0"
       sodipodi:nodetypes="cccccccc" />
  </g>
  <g
     inkscape:groupmode="layer"
     id="layer1"
     inkscape:label="txt">
    <text
       xml:space="preserve"
       style="font-style:normal;font-variant:normal;font-weight:normal;font-stretch:normal;line-height:0%;font-family:Lavi;-inkscape-font-specification:Lavi;text-align:center;letter-spacing:0px;word-spacing:0px;text-anchor:middle;fill:#000000;fill-opacity:1;stroke:none"
       x="267.45477"
       y="274.67358"
       id="text4246"><tspan
         sodipodi:role="line"
         style="font-size:37.33333206px;line-height:1.20000005"
         x="267.45477"
         y="274.67358"
         id="tspan4252">Æsj!</tspan></text>
    <text
       xml:space="preserve"
       style="font-style:normal;font-variant:normal;font-weight:normal;font-stretch:normal;line-height:0%;font-family:Lavi;-inkscape-font-specification:Lavi;text-align:center;letter-spacing:0px;word-spacing:0px;text-anchor:middle;fill:#000000;fill-opacity:1;stroke:none"
       x="535.77979"
       y="263.51706"
       id="text4246-3"><tspan
         sodipodi:role="line"
         style="font-size:37.33333206px;line-height:1.20000005"
         x="535.77979"
         y="263.51706"
         id="tspan886">Uææh!</tspan><tspan
         sodipodi:role="line"
         style="font-size:37.33333206px;line-height:1.20000005"
         x="535.77979"
         y="308.31705"
         id="tspan887">Nokon har</tspan><tspan
         sodipodi:role="line"
         style="font-size:37.33333206px;line-height:1.20000005"
         x="535.77979"
         y="353.11707"
         id="tspan889">hatt han i</tspan><tspan
         sodipodi:role="line"
         style="font-size:37.33333206px;line-height:1.20000005"
         x="535.77979"
         y="397.91705"
         id="tspan894">munnen!</tspan></text>
    <text
       xml:space="preserve"
       style="font-style:normal;font-variant:normal;font-weight:normal;font-stretch:normal;line-height:0%;font-family:Lavi;-inkscape-font-specification:Lavi;text-align:center;letter-spacing:0px;word-spacing:0px;text-anchor:middle;fill:#000000;fill-opacity:1;stroke:none"
       x="886.26306"
       y="206.86362"
       id="text4246-9"><tspan
         sodipodi:role="line"
         style="font-size:45px;line-height:1.20000005"
         x="886.26306"
         y="206.86362"
         id="tspan922">Ha-ha!</tspan><tspan
         sodipodi:role="line"
         style="font-size:45px;line-height:1.20000005"
         x="886.26306"
         y="260.86362"
         id="tspan905">Du imponerer</tspan><tspan
         sodipodi:role="line"
         style="font-size:45px;line-height:1.20000005"
         x="886.26306"
         y="314.86362"
         id="tspan909">som alltid,</tspan><tspan
         sodipodi:role="line"
         style="font-size:45px;line-height:1.20000005"
         x="886.26306"
         y="368.86362"
         id="tspan907">Pepar!</tspan></text>
    <text
       xml:space="preserve"
       style="font-style:normal;font-variant:normal;font-weight:normal;font-stretch:normal;line-height:0%;font-family:Lavi;-inkscape-font-specification:Lavi;text-align:center;letter-spacing:0px;word-spacing:0px;text-anchor:middle;fill:#000000;fill-opacity:1;stroke:none"
       x="2023.1425"
       y="191.92598"
       id="text4246-9-2"><tspan
         sodipodi:role="line"
         style="font-size:45px;line-height:1.20000005"
         x="2023.1425"
         y="191.92598"
         id="tspan926">Fint, Pepar. Takk for</tspan><tspan
         sodipodi:role="line"
         style="font-size:45px;line-height:1.20000005"
         x="2023.1425"
         y="245.92598"
         id="tspan918">denne ... «forklaringa».</tspan></text>
    <text
       xml:space="preserve"
       style="font-style:normal;font-variant:normal;font-weight:normal;font-stretch:normal;line-height:0%;font-family:Lavi;-inkscape-font-specification:Lavi;text-align:center;letter-spacing:0px;word-spacing:0px;text-anchor:middle;fill:#000000;fill-opacity:1;stroke:none"
       x="1866.0244"
       y="908.52747"
       id="text4246-9-2-6"><tspan
         sodipodi:role="line"
         style="font-size:45px;line-height:1.20000005"
         x="1866.0244"
         y="908.52747"
         id="tspan913">Men no er det</tspan><tspan
         sodipodi:role="line"
         style="font-size:45px;line-height:1.20000005"
         x="1866.0244"
         y="962.52747"
         id="tspan936">vel på tide å</tspan><tspan
         sodipodi:role="line"
         style="font-size:45px;line-height:1.20000005"
         x="1866.0244"
         y="1016.5275"
         id="tspan875">krypa til køys?</tspan></text>
    <text
       xml:space="preserve"
       style="font-style:normal;font-variant:normal;font-weight:normal;font-stretch:normal;font-size:10.59237862px;line-height:0%;font-family:Lavi;-inkscape-font-specification:Lavi;text-align:center;letter-spacing:0px;word-spacing:0px;text-anchor:middle;fill:#000000;fill-opacity:1;stroke:none;stroke-width:0.99999994"
       x="2198.416"
       y="947.43225"
       id="text4246-3-2"><tspan
         sodipodi:role="line"
         style="font-size:37.33333206px;line-height:1.20000005;stroke-width:0.99999994"
         x="2198.416"
         y="947.43225"
         id="tspan945">Og så bør nok</tspan><tspan
         sodipodi:role="line"
         style="font-size:37.33333206px;line-height:1.20000005;stroke-width:0.99999994"
         x="2198.416"
         y="992.23224"
         id="tspan881">nokon vaska</tspan><tspan
         sodipodi:role="line"
         style="font-size:37.33333206px;line-height:1.20000005;stroke-width:0.99999994"
         x="2204.2493"
         y="1037.0322"
         id="tspan882">hendene sine. </tspan></text>
    <text
       xml:space="preserve"
       style="font-style:normal;font-variant:normal;font-weight:normal;font-stretch:normal;line-height:0%;font-family:Lavi;-inkscape-font-specification:Lavi;text-align:center;letter-spacing:0px;word-spacing:0px;text-anchor:middle;fill:#000000;fill-opacity:1;stroke:none"
       x="1084.2517"
       y="1249.4321"
       id="text4246-9-2-6-2"><tspan
         sodipodi:role="line"
         style="font-size:45px;line-height:1.20000005"
         x="1084.2517"
         y="1249.4321"
         id="tspan957">Hei sann!</tspan><tspan
         sodipodi:role="line"
         style="font-size:45px;line-height:1.20000005"
         x="1084.2517"
         y="1303.4321"
         id="tspan949">Vent på meg!</tspan></text>
    <text
       xml:space="preserve"
       style="font-style:normal;font-variant:normal;font-weight:normal;font-stretch:normal;font-size:14.62346077px;line-height:0%;font-family:Lavi;-inkscape-font-specification:Lavi;text-align:center;letter-spacing:0px;word-spacing:0px;text-anchor:middle;fill:#ffffff;fill-opacity:0.78431373;stroke:none;stroke-width:0.99999994"
       x="1401.4032"
       y="2192.7847"
       id="text4246-7"
       transform="matrix(0.79017753,-0.5292546,0.38466968,1.0078897,0,0)"><tspan
         sodipodi:role="line"
         style="font-style:normal;font-variant:normal;font-weight:bold;font-stretch:normal;font-size:58.49384308px;line-height:1.20000005;font-family:Lavi;-inkscape-font-specification:'Lavi Bold';fill:#ffffff;fill-opacity:0.78431373;stroke-width:0.82059908"
         x="1401.4032"
         y="2192.7847"
         id="tspan4252-5">Knips!</tspan></text>
    <text
       xml:space="preserve"
       style="font-style:normal;font-variant:normal;font-weight:normal;font-stretch:normal;font-size:11.79470253px;line-height:0%;font-family:Lavi;-inkscape-font-specification:Lavi;text-align:center;letter-spacing:0px;word-spacing:0px;text-anchor:middle;fill:#ffffff;fill-opacity:0.78431373;stroke:none;stroke-width:0.99999994"
       x="-563.61938"
       y="2443.198"
       id="text4246-7-9"
       transform="matrix(0.80236382,-0.52121629,0.39060214,0.99258189,0,0)"><tspan
         sodipodi:role="line"
         style="font-style:normal;font-variant:normal;font-weight:bold;font-stretch:normal;font-size:47.17881012px;line-height:1.20000005;font-family:Lavi;-inkscape-font-specification:'Lavi Bold';fill:#ffffff;fill-opacity:0.78431373;stroke-width:0.82059908"
         x="-563.61938"
         y="2443.198"
         id="tspan4252-5-2">Tapp!</tspan></text>
    <text
       xml:space="preserve"
       style="font-style:normal;font-variant:normal;font-weight:normal;font-stretch:normal;font-size:11.79470253px;line-height:0%;font-family:Lavi;-inkscape-font-specification:Lavi;text-align:center;letter-spacing:0px;word-spacing:0px;text-anchor:middle;fill:#ffffff;fill-opacity:0.78431373;stroke:none;stroke-width:0.99999994"
       x="-363.09036"
       y="2526.7615"
       id="text4246-7-9-2"
       transform="matrix(0.80236382,-0.52121629,0.39060214,0.99258189,0,0)"><tspan
         sodipodi:role="line"
         style="font-style:normal;font-variant:normal;font-weight:bold;font-stretch:normal;font-size:47.17881012px;line-height:1.20000005;font-family:Lavi;-inkscape-font-specification:'Lavi Bold';fill:#ffffff;fill-opacity:0.78431373;stroke-width:0.82059908"
         x="-363.09036"
         y="2526.7615"
         id="tspan4252-5-2-8">Tapp!</tspan></text>
    <text
       xml:space="preserve"
       style="font-style:normal;font-variant:normal;font-weight:normal;font-stretch:normal;line-height:0%;font-family:Lavi;-inkscape-font-specification:Lavi;letter-spacing:0px;word-spacing:0px;fill:#000000;fill-opacity:1;stroke:none;stroke-width:0;stroke-miterlimit:4;stroke-dasharray:none;stroke-opacity:1;filter:url(#filter4375-4-1-1-1-9)"
       x="787.65729"
       y="1584.5073"
       id="text4580"
       transform="matrix(1.0562812,-1.0457132,0.34852463,1.662996,-176.82337,824.6776)"><tspan
         sodipodi:role="line"
         id="tspan4582"
         x="787.65729"
         y="1584.5073"
         style="font-size:70px;line-height:1.25;fill:#ffffff;stroke:none;stroke-width:0;stroke-miterlimit:4;stroke-dasharray:none">SMEKK<tspan
   style="font-size:80.40014648px;stroke:none;stroke-width:0;stroke-miterlimit:4;stroke-dasharray:none"
   id="tspan4617">!</tspan></tspan></text>
    <text
       xml:space="preserve"
       style="font-style:normal;font-variant:normal;font-weight:normal;font-stretch:normal;font-size:15.75232887px;line-height:0%;font-family:Lavi;-inkscape-font-specification:Lavi;text-align:center;letter-spacing:0px;word-spacing:0px;text-anchor:middle;opacity:1;fill:#ffffff;fill-opacity:0.84180789;stroke:none;stroke-width:0.99999994"
       x="1881.7031"
       y="2489.1436"
       id="text4246-7-9-2-3"
       transform="matrix(0.98943475,-0.09116349,0.01957156,1.0088748,0,0)"><tspan
         sodipodi:role="line"
         style="font-style:normal;font-variant:normal;font-weight:bold;font-stretch:normal;font-size:63.00931549px;line-height:1.20000005;font-family:Lavi;-inkscape-font-specification:'Lavi Bold';fill:#ffffff;fill-opacity:0.84180789;stroke-width:0.82059902"
         x="1881.7031"
         y="2489.1436"
         id="tspan4252-5-2-8-6">?</tspan></text>
  </g>
</svg>
