<?xml version="1.0" encoding="UTF-8" standalone="no"?>
<!-- Created with Inkscape (http://www.inkscape.org/) -->

<svg
   id="svg2"
   version="1.1"
   inkscape:version="1.2 (dc2aedaf03, 2022-05-15)"
   width="2481"
   height="3503"
   sodipodi:docname="E37P04.svg"
   xmlns:inkscape="http://www.inkscape.org/namespaces/inkscape"
   xmlns:sodipodi="http://sodipodi.sourceforge.net/DTD/sodipodi-0.dtd"
   xmlns:xlink="http://www.w3.org/1999/xlink"
   xmlns="http://www.w3.org/2000/svg"
   xmlns:svg="http://www.w3.org/2000/svg"
   xmlns:rdf="http://www.w3.org/1999/02/22-rdf-syntax-ns#"
   xmlns:cc="http://creativecommons.org/ns#"
   xmlns:dc="http://purl.org/dc/elements/1.1/">
  <metadata
     id="metadata8">
    <rdf:RDF>
      <cc:Work
         rdf:about="">
        <dc:format>image/svg+xml</dc:format>
        <dc:type
           rdf:resource="http://purl.org/dc/dcmitype/StillImage" />
        <dc:title />
      </cc:Work>
    </rdf:RDF>
  </metadata>
  <defs
     id="defs6">
    <filter
       inkscape:label="Ripple"
       inkscape:menu="Distort"
       inkscape:menu-tooltip="Horizontal rippling of edges"
       style="color-interpolation-filters:sRGB"
       id="filter4265-7-37"
       y="0"
       x="0"
       width="1"
       height="1">
      <feTurbulence
         numOctaves="1"
         baseFrequency="0.002 0.107"
         id="feTurbulence4267-7-7" />
      <feColorMatrix
         values="5 0 0 0 0 0 0 0 0 0 0 0 0 0 0 0 0 0 4 0 "
         result="result91"
         id="feColorMatrix4269-1-2" />
      <feDisplacementMap
         yChannelSelector="A"
         xChannelSelector="R"
         scale="14.3"
         in="SourceGraphic"
         in2="result91"
         id="feDisplacementMap4271-2-64" />
    </filter>
    <filter
       inkscape:label="Magmah-FX"
       inkscape:menu="Distort"
       inkscape:menu-tooltip="Horizontal rippling of edges"
       style="color-interpolation-filters:sRGB"
       id="filter4265-7"
       y="0"
       x="0"
       width="1"
       height="1">
      <feTurbulence
         numOctaves="1"
         baseFrequency="0.002 0.107"
         id="feTurbulence4267-7" />
      <feColorMatrix
         values="5 0 0 0 0 0 0 0 0 0 0 0 0 0 0 0 0 0 4 0 "
         result="result91"
         id="feColorMatrix4269-1" />
      <feDisplacementMap
         yChannelSelector="A"
         xChannelSelector="R"
         scale="14.3"
         in="SourceGraphic"
         in2="result91"
         id="feDisplacementMap4271-2" />
    </filter>
    <filter
       style="color-interpolation-filters:sRGB"
       inkscape:label="Magmah-spell-glow"
       id="filter4751"
       x="-0.035967053"
       y="-0.17833759"
       width="1.0719341"
       height="1.3566752">
      <feFlood
         flood-opacity="1"
         flood-color="rgb(255,255,255)"
         result="flood"
         id="feFlood4753" />
      <feComposite
         in="flood"
         in2="SourceGraphic"
         operator="in"
         result="composite1"
         id="feComposite4755" />
      <feGaussianBlur
         in="composite1"
         stdDeviation="5.4"
         result="blur"
         id="feGaussianBlur4757" />
      <feOffset
         dx="0"
         dy="0"
         result="offset"
         id="feOffset4759" />
      <feComposite
         in="SourceGraphic"
         in2="offset"
         operator="over"
         result="composite2"
         id="feComposite4761" />
    </filter>
  </defs>
  <sodipodi:namedview
     pagecolor="#ffffff"
     bordercolor="#666666"
     borderopacity="1"
     objecttolerance="10"
     gridtolerance="10"
     guidetolerance="10"
     inkscape:pageopacity="0"
     inkscape:pageshadow="2"
     inkscape:window-width="1920"
     inkscape:window-height="951"
     id="namedview4"
     showgrid="false"
     inkscape:zoom="0.52487078"
     inkscape:cx="1527.0425"
     inkscape:cy="3060.7534"
     inkscape:window-x="0"
     inkscape:window-y="88"
     inkscape:window-maximized="1"
     inkscape:current-layer="layer3"
     inkscape:pagecheckerboard="0"
     inkscape:showpageshadow="0"
     inkscape:deskcolor="#d1d1d1" />
  <g
     inkscape:groupmode="layer"
     id="layer2"
     inkscape:label="artwork"
     sodipodi:insensitive="true">
    <image
       xlink:href="../gfx_Pepper-and-Carrot_by-David-Revoy_E37P04.png"
       y="0"
       x="0"
       id="image10"
       height="3503"
       width="2481" />
  </g>
  <g
     inkscape:groupmode="layer"
     id="layer3"
     inkscape:label="speechbubbles">
    <path
       style="color:#000000;display:inline;overflow:visible;visibility:visible;fill:#ffffff;fill-opacity:1;fill-rule:nonzero;stroke:none;stroke-width:1px;marker:none;enable-background:accumulate"
       d="m 342.68131,1466.4073 c -55.40662,1.6569 -115.57618,-5.5865 -165.22368,21.2435 -23.08136,12.4734 -43.03973,32.1274 -48.48325,61.7887 -2.72211,18.6702 2.90806,44.9974 9.39194,61.6798 8.45739,21.6233 24.22708,31.316 42.4305,38.2917 39.30842,18.0764 82.42904,18.0115 123.70039,21.459 20.11835,1.8041 40.25948,3.7637 60.43034,3.3455 39.56845,-0.3368 79.03657,-4.2663 118.61807,-4.0316 24.9354,-0.6383 68.66774,-8.3729 92.40143,-17.8768 42.96834,-13.7146 58.97724,-43.221 64.02575,-84.75 2.84104,-29.387 -11.41761,-59.6115 -32.95261,-72.1935 -15.85488,-9.7242 -33.44047,-13.7101 -50.7582,-16.8051 -19.61285,-3.1663 -39.33253,-5.0345 -59.01085,-7.3457 -51.4264,-5.1904 -103.05433,-6.518 -154.56983,-4.8055 z"
       id="path4040-4-4"
       inkscape:connector-curvature="0"
       sodipodi:nodetypes="zsssszcccccccz" />
    <path
       style="color:#000000;display:inline;overflow:visible;visibility:visible;fill:#ffffff;fill-opacity:1;fill-rule:nonzero;stroke:none;stroke-width:1.10661px;marker:none;enable-background:accumulate"
       d="m 232.88521,1829.6545 c -15.49911,-4.3258 -30.36527,-25.9083 -39.85487,-45.1151 -2.6023,-5.5279 -4.9768,-11.4623 -5.91137,-17.7034 0.23014,-6.7406 4.6456,-11.9989 9.68489,-14.2208 7.08756,-3.8231 15.87763,-4.2925 21.36573,-11.5454 3.88883,-5.3975 2.44347,-12.8787 1.69304,-19.2745 -2.17932,-16.2588 -6.20379,-32.2732 -6.21379,-48.8483 -1.02235,-18.6687 -0.97071,-38.3918 6.06435,-55.4786 2.87848,-6.7043 6.67303,-13.2274 12.33892,-16.8574 14.17763,-10.1059 33.45012,-10.5499 47.30692,0.9314 8.26682,8.3259 10.21944,25.1454 2.569,34.7308 -3.97524,5.1331 -10.21215,6.1902 -15.7493,5.1661 -10.4586,0.3997 -20.04905,8.0914 -25.18673,18.8336 -4.36159,8.7814 -6.37218,19.1354 -6.13892,29.3576 -2.73879,13.9759 2.82926,27.469 5.69121,40.7504 1.23215,6.0908 2.19987,12.6668 0.87478,18.791 -3.62099,8.1775 -11.75152,10.5256 -18.8271,11.5577 -7.27261,1.2901 -15.83507,1.7981 -20.79951,9.2364 -4.02698,4.5998 -0.25135,11.0835 0.90045,16.2897 5.52666,16.1978 15.18264,30.1517 26.62182,40.8647 1.15331,0.9227 2.35952,1.7296 3.57048,2.5341 z"
       id="path4496-8"
       inkscape:connector-curvature="0"
       sodipodi:nodetypes="ccccccccccccccccccccc" />
    <path
       style="fill:#ffffff;stroke:none;stroke-width:0.999997"
       d="m 2038.6275,3111.8602 c -59.8078,0.2131 -120.4739,2.7471 -178.1874,19.1406 -74.4763,8.8738 -101.1665,66.4956 -97.4738,127.3767 6.9522,58.5464 22.7626,97.406 92.8999,112.6615 50.3104,16.3577 104.1271,16.2269 156.6229,16.0246 50.9605,-0.5954 101.9714,1.0523 152.8891,-1.6307 28.6183,-1.7476 58.9212,0.033 85.1738,-11.5496 50.5269,-22.2919 77.9844,-40.932 87.9468,-84.9647 5.5058,-24.2699 5.4148,-49.5982 0.8801,-74.0015 -4.6223,-21.9142 -16.3598,-42.9401 -35.0662,-56.6473 -24.0461,-18.4817 -54.0062,-27.8948 -83.7112,-34.1062 -41.9673,-8.4397 -84.9721,-10.0622 -127.6889,-11.6881 -18.0902,-0.4863 -36.1885,-0.6405 -54.2851,-0.6153 z"
       id="path3280-10"
       inkscape:connector-curvature="0"
       sodipodi:nodetypes="ccccccscccccc" />
    <path
       style="color:#000000;display:inline;overflow:visible;visibility:visible;fill:#ffffff;fill-opacity:1;fill-rule:nonzero;stroke:none;stroke-width:0.999999px;marker:none;enable-background:accumulate"
       d="m 2277.3144,3049.2866 c 21.1533,40.5816 26.0863,56.0003 -12.7047,94.096 -38.791,38.0948 -21.8429,50.5398 -21.8429,50.5398 l 38.5724,-9.167 c 0,0 76.0812,-86.3431 -4.0248,-135.4688 z"
       id="path3072-56"
       inkscape:connector-curvature="0" />
    <path
       style="display:inline;fill:#ffffff;stroke:none;stroke-width:0.870791"
       d="m 851.78114,1512.3835 c -26.78787,0.8116 -66.4416,2.4641 -90.93798,15.5072 -19.26911,10.6789 -21.93578,34.4507 -26.88558,58.5718 -3.98554,18.8131 -3.50731,38.3502 -3.11195,57.5635 0.60943,17.3003 3.29861,35.08 11.30364,50.0157 10.19842,19.2726 27.51574,32.6277 46.20488,38.5865 25.7411,9.1883 52.92979,10.3839 79.67896,10.568 31.5233,0.016 63.34226,0.381 94.41053,-6.6608 17.73042,-4.8851 34.83338,-15.4103 46.19726,-32.1732 9.8148,-15.0385 13.9118,-33.885 15.5382,-52.3296 1.9173,-25.0289 8.7694,-54.7488 1.0025,-78.1931 -6.9862,-21.0876 -14.3613,-32.5444 -32.73322,-45.1955 -18.9363,-12.7211 -44.11706,-12.8061 -65.7985,-14.0896 -24.05682,-1.4241 -50.67016,-2.2602 -74.86874,-2.1709 z"
       id="path3280-8-1"
       inkscape:connector-curvature="0"
       sodipodi:nodetypes="csssccccccscsc" />
    <path
       style="display:inline;fill:#ffffff;stroke:none;stroke-width:0.87079"
       d="m 1365.8692,1560.0865 c -56.6334,0.4887 -114.1838,-6.6337 -169.8977,3.5111 -37.3922,6.8086 -72.1054,18.2323 -77.4849,70.8108 -2.693,26.321 -11.9195,57.9645 13.6512,75.6123 16.8372,11.2829 37.8535,17.7492 58.7581,22.8584 34.8064,8.0531 75.4457,8.8481 111.4599,7.5866 70.3841,-2.4654 172.6168,3.6813 227.3534,-12.8792 52.5427,-35.1756 49.1064,-104.0144 3.7094,-144.3056 -20.6241,-18.3045 -61.1477,-17.5461 -89.2671,-20.4718 -20.5367,-1.8048 -57.6349,-2.9008 -78.2823,-2.7226 z"
       id="path3280-8-1-0"
       inkscape:connector-curvature="0"
       sodipodi:nodetypes="sssccscscs" />
    <path
       style="display:inline;fill:#ffffff;stroke:none;stroke-width:0.870791"
       d="m 2031.6074,1619.3086 c -68.8226,1.6376 -137.6274,4.3361 -206.39,7.8487 -39.9567,2.5543 -80.3894,6.2051 -118.7584,19.4064 -35.4149,14.4233 -55.3857,53.942 -55.3663,94.7955 -2.6256,41.5614 5.6942,85.3196 20.7162,123.7393 12.718,26.8515 31.0472,44.8872 57.7042,51.1801 36.7948,10.8398 75.043,13.2318 112.8539,16.6312 98.0008,6.7788 196.2725,4.1535 294.3531,1.2859 55.2116,-2.5636 99.4918,-8.0111 150.4244,-33.0916 30.0399,-17.9209 51.3873,-57.4682 54.0224,-93.5777 3.1382,-42.1542 3.8069,-85.6883 -17.92,-121.4848 -12.5093,-21.2928 -32.0226,-36.8588 -53.7868,-45.0324 -27.2202,-11.0307 -56.559,-11.0109 -85.0583,-14.3582 -50.7902,-4.7991 -101.7908,-8.3924 -152.7944,-7.3424 z"
       id="path3280-8-1-0-6"
       inkscape:connector-curvature="0"
       sodipodi:nodetypes="cssscccccccccc" />
    <path
       style="color:#000000;display:inline;overflow:visible;visibility:visible;fill:#ffffff;fill-opacity:1;fill-rule:nonzero;stroke:none;stroke-width:0.999999px;marker:none;enable-background:accumulate"
       d="m 1778.817,1868.4621 c -12.833,-0.6526 -23.8662,8.7491 -27.831,19.5381 -19.6036,19.4059 -1.839,-8.6641 -6.4214,4.8364 -13.5019,11.0957 -15.4266,35.2523 -15.8537,65.4931 -5.2817,5.1994 -14.9376,-8.1861 -19.6475,-2.164 -4.937,10.3078 -6.0593,21.8252 -6.4897,33.0281 -0.3179,32.1806 14.1211,63.8185 37.0812,87.8622 7.5298,8.5773 15.2692,16.9924 22.966,25.4398 -17.5595,-23.2829 -32.5888,-49.3497 -36.2923,-77.8541 -1.1276,-8.6692 1.6106,-30.4788 3.0954,-39.0712 10.4198,2.2428 18.5432,14.1601 29.054,13.5885 -3.9254,-39.033 12.0854,-78.9568 32.5429,-100.807 3.2112,-8.5188 -4.1806,-18.0085 -1.2971,-26.6329 -3.0138,-2.4158 -7.0942,-3.0258 -10.9068,-3.257 z"
       id="path4456-8"
       inkscape:connector-curvature="0"
       inkscape:transform-center-x="-13.453102"
       inkscape:transform-center-y="80.02882"
       sodipodi:nodetypes="cccccccccccccc" />
    <path
       style="color:#000000;display:inline;overflow:visible;visibility:visible;fill:#ffffff;fill-opacity:1;fill-rule:nonzero;stroke:none;stroke-width:1px;marker:none;enable-background:accumulate"
       d="m 820.0369,1693.3353 c -3.48578,39.7252 -1.62886,86.2092 5.54134,93.7569 -12.06557,-4.746 -23.61413,-7.3843 -32.58824,-9.1289 -2.74679,19.0391 9.33544,52.9316 19.75971,79.3624 -34.85384,-28.0115 -46.11754,-83.8349 -45.91311,-113.8427 11.20297,7.5747 21.79689,11.4361 28.26889,11.3872 1.30177,-15.339 -8.85591,-66.1714 -9.7642,-66.4676 z"
       id="path5066-6"
       inkscape:connector-curvature="0"
       sodipodi:nodetypes="cccccccc" />
    <path
       style="display:inline;fill:#ffffff;stroke:none;stroke-width:1"
       d="m 1212.2906,1950.0193 c -49.4365,-32.6898 -72.7866,-129.8899 -27.8679,-175.5787 26.5021,-26.9561 40.3128,-43.3873 40.3128,-43.3873 l -37.4624,-18.4741 c -109.4756,100.752 -33.5333,204.9909 25.0175,237.4401 z"
       id="path3063-1-0"
       inkscape:connector-curvature="0"
       sodipodi:nodetypes="csccc" />
  </g>
  <g
     inkscape:groupmode="layer"
     id="layer1"
     inkscape:label="txt">
    <text
       xml:space="preserve"
       style="font-style:normal;font-variant:normal;font-weight:normal;font-stretch:normal;font-size:48.2957px;line-height:125%;font-family:Lavi;-inkscape-font-specification:Lavi;text-align:center;letter-spacing:0px;word-spacing:0px;text-anchor:middle;fill:#000000;fill-opacity:1;stroke:none;stroke-width:0.999999"
       x="383.77191"
       y="1551.6519"
       id="text4246-70-2-2-2-7-4"><tspan
         sodipodi:role="line"
         style="font-size:48.2957px;stroke-width:0.999999"
         x="383.77191"
         y="1551.6519"
         id="tspan1004">Kvifor trengjer du</tspan><tspan
         sodipodi:role="line"
         style="font-size:48.2957px;stroke-width:0.999999"
         x="383.77191"
         y="1612.0215"
         id="tspan320">deg på, menneske?</tspan></text>
    <text
       xml:space="preserve"
       style="font-style:normal;font-variant:normal;font-weight:normal;font-stretch:normal;font-size:49.0523px;line-height:125%;font-family:Lavi;-inkscape-font-specification:Lavi;text-align:center;letter-spacing:0px;word-spacing:0px;text-anchor:middle;fill:#000000;fill-opacity:1;stroke:none;stroke-width:1"
       x="880.40576"
       y="1582.8677"
       id="text4246-70-2-2-2-7-4-3"><tspan
         sodipodi:role="line"
         style="font-style:normal;font-variant:normal;font-weight:bold;font-stretch:normal;font-size:49.0523px;font-family:Lavi;-inkscape-font-specification:'Lavi Bold';stroke-width:1"
         x="880.40576"
         y="1582.8677"
         id="tspan1123">Ver helsa,</tspan><tspan
         sodipodi:role="line"
         style="font-style:normal;font-variant:normal;font-weight:bold;font-stretch:normal;font-size:49.0523px;font-family:Lavi;-inkscape-font-specification:'Lavi Bold';stroke-width:1"
         x="880.40576"
         y="1644.1831"
         id="tspan381">o store</tspan><tspan
         sodipodi:role="line"
         style="font-style:normal;font-variant:normal;font-weight:bold;font-stretch:normal;font-size:49.0523px;font-family:Lavi;-inkscape-font-specification:'Lavi Bold';stroke-width:1"
         x="880.40576"
         y="1705.4984"
         id="tspan379">føniks!</tspan></text>
    <text
       xml:space="preserve"
       style="font-style:normal;font-variant:normal;font-weight:normal;font-stretch:normal;font-size:45.3333px;line-height:125%;font-family:Lavi;-inkscape-font-specification:Lavi;text-align:center;letter-spacing:0px;word-spacing:0px;text-anchor:middle;fill:#000000;fill-opacity:1;stroke:none"
       x="1341.1355"
       y="1633.1865"
       id="text4246-70-2-2-2-7-4-3-5"><tspan
         sodipodi:role="line"
         style="font-size:45.3333px"
         x="1341.1355"
         y="1633.1865"
         id="tspan1193">Eg heiter Pepar</tspan><tspan
         sodipodi:role="line"
         style="font-size:45.3333px"
         x="1341.1355"
         y="1689.8531"
         id="tspan440">og er kaosah-heks.</tspan></text>
    <text
       xml:space="preserve"
       style="font-style:normal;font-variant:normal;font-weight:normal;font-stretch:normal;font-size:45.3333px;line-height:125%;font-family:Lavi;-inkscape-font-specification:Lavi;text-align:center;letter-spacing:0px;word-spacing:0px;text-anchor:middle;fill:#000000;fill-opacity:1;stroke:none"
       x="1996.8721"
       y="1706.526"
       id="text4246-70-2-2-2-7-4-3-5-6"><tspan
         sodipodi:role="line"
         style="font-size:45.3333px"
         x="1996.8721"
         y="1706.526"
         id="tspan1229">Nyleg vart eg utsett for ein</tspan><tspan
         sodipodi:role="line"
         style="font-size:45.3333px"
         x="1996.8721"
         y="1763.1926"
         id="tspan502">stor dose drake-rea, og sidan</tspan><tspan
         sodipodi:role="line"
         style="font-size:45.3333px"
         x="1996.8721"
         y="1819.8593"
         id="tspan504">då har eg hatt dette her, som</tspan><tspan
         sodipodi:role="line"
         style="font-size:45.3333px"
         x="1996.8721"
         y="1876.5259"
         id="tspan514">vert større dag for dag ...</tspan></text>
    <text
       xml:space="preserve"
       style="font-style:normal;font-variant:normal;font-weight:normal;font-stretch:normal;font-size:45.3333px;line-height:125%;font-family:Lavi;-inkscape-font-specification:Lavi;text-align:center;letter-spacing:0px;word-spacing:0px;text-anchor:middle;fill:#000000;fill-opacity:1;stroke:none"
       x="2052.0574"
       y="3208.7605"
       id="text4246-70-2-2-2-7-4-3-5-6-2"><tspan
         sodipodi:role="line"
         style="font-size:45.3333px"
         x="2052.0574"
         y="3208.7605"
         id="tspan1294">Det set kreftene mine</tspan><tspan
         sodipodi:role="line"
         style="font-size:45.3333px"
         x="2052.0574"
         y="3265.4272"
         id="tspan596">ut av spel – og kan med</tspan><tspan
         sodipodi:role="line"
         style="font-size:45.3333px"
         x="2052.0574"
         y="3322.0938"
         id="tspan468">tida ta livet av meg!</tspan></text>
  </g>
</svg>
