<?xml version="1.0" encoding="UTF-8" standalone="no"?>
<svg
   xmlns:dc="http://purl.org/dc/elements/1.1/"
   xmlns:cc="http://creativecommons.org/ns#"
   xmlns:rdf="http://www.w3.org/1999/02/22-rdf-syntax-ns#"
   xmlns:svg="http://www.w3.org/2000/svg"
   xmlns="http://www.w3.org/2000/svg"
   xmlns:xlink="http://www.w3.org/1999/xlink"
   xmlns:sodipodi="http://sodipodi.sourceforge.net/DTD/sodipodi-0.dtd"
   xmlns:inkscape="http://www.inkscape.org/namespaces/inkscape"
   id="svg2"
   version="1.1"
   inkscape:version="0.92.5 (2060ec1f9f, 2020-04-08)"
   width="2481"
   height="3503"
   sodipodi:docname="E35P11.svg">
  <metadata
     id="metadata8">
    <rdf:RDF>
      <cc:Work
         rdf:about="">
        <dc:format>image/svg+xml</dc:format>
        <dc:type
           rdf:resource="http://purl.org/dc/dcmitype/StillImage" />
        <dc:title />
      </cc:Work>
    </rdf:RDF>
  </metadata>
  <defs
     id="defs6">
    <filter
       style="color-interpolation-filters:sRGB"
       id="filter4375-4-1-1-1-9-3-2-3-8-7-6-4-9"
       inkscape:label="deevad outline effect"
       x="-0.002101149"
       y="-0.0071745174"
       width="1.0042023"
       height="1.014349">
      <feFlood
         id="feFlood4377-7-9-0-8-1-6-9-6-7-5-32-7-4"
         flood-opacity="1"
         flood-color="rgb(95,141,211)"
         result="flood" />
      <feComposite
         id="feComposite4379-3-8-8-2-77-7-1-0-9-9-0-6-8"
         in2="SourceGraphic"
         in="flood"
         operator="in"
         result="composite1" />
      <feMorphology
         id="feMorphology4393-1-0-49-8-9-5-2-6-2-2-6-5-1"
         operator="dilate"
         radius="4"
         result="result3" />
      <feComposite
         id="feComposite4385-9-5-7-0-8-3-7-2-0-2-1-6-2"
         in2="result3"
         in="SourceGraphic"
         operator="over"
         result="composite2" />
    </filter>
  </defs>
  <sodipodi:namedview
     pagecolor="#ffffff"
     bordercolor="#666666"
     borderopacity="1"
     objecttolerance="10"
     gridtolerance="10"
     guidetolerance="10"
     inkscape:pageopacity="0"
     inkscape:pageshadow="2"
     inkscape:window-width="1920"
     inkscape:window-height="1023"
     id="namedview4"
     showgrid="false"
     inkscape:zoom="0.46261216"
     inkscape:cx="928.38382"
     inkscape:cy="913.70715"
     inkscape:window-x="0"
     inkscape:window-y="0"
     inkscape:window-maximized="1"
     inkscape:current-layer="layer1"
     inkscape:document-rotation="0"
     inkscape:snap-global="false"
     inkscape:pagecheckerboard="0" />
  <g
     inkscape:groupmode="layer"
     id="layer2"
     inkscape:label="artwork"
     sodipodi:insensitive="true">
    <image
       sodipodi:absref="/home/peppercarrot/webcomics/"
       xlink:href="../gfx_Pepper-and-Carrot_by-David-Revoy_E35P11.png"
       y="0"
       x="0"
       id="image10"
       height="3503"
       width="2481" />
  </g>
  <g
     inkscape:groupmode="layer"
     id="layer3"
     inkscape:label="speechbubbles">
    <path
       style="color:#000000;display:inline;overflow:visible;visibility:visible;fill:#ffffff;fill-opacity:1;fill-rule:nonzero;stroke:none;stroke-width:1.10381007px;marker:none;enable-background:accumulate"
       d="m 666.60308,1525.1345 c 32.97556,-23.1511 318.46094,-33.0443 394.07892,7.0084 63.1166,33.4316 38.4907,113.8793 -17.642,131.6296 -56.13229,17.75 -242.86395,12.7041 -324.70422,2.9986 -77.92326,-9.2401 -91.00789,-33.7002 -94.84087,-82.6011 -1.56438,-19.9592 10.1324,-35.8848 43.10817,-59.0355 z"
       id="path4040-4-9-2"
       inkscape:connector-curvature="0"
       sodipodi:nodetypes="zssssz" />
    <path
       style="color:#000000;display:inline;overflow:visible;visibility:visible;fill:#ffffff;fill-opacity:1;fill-rule:nonzero;stroke:none;stroke-width:1.36564px;marker:none;enable-background:accumulate"
       d="m 672.87343,351.47617 c 33.46845,54.26318 16.77932,109.75225 -42.25383,148.97796 101.91057,-50.70471 112.5118,-145.0271 95.84592,-167.01491 -16.31806,-21.52888 -53.59209,18.03695 -53.59209,18.03695 z"
       id="path5010-4"
       inkscape:connector-curvature="0"
       sodipodi:nodetypes="ccsc" />
    <path
       style="display:inline;fill:#ffffff;stroke:none;stroke-width:0.65905911"
       d="m 1188.1732,57.299 c -46.3644,0.291165 -93.551,5.226017 -136.2557,20.596138 -23.369,9.035479 -42.7125,26.398282 -47.7957,47.340992 -4.8958,20.62219 -3.1006,42.19634 4.3059,62.27217 8.8501,18.83833 28.5488,33.143 50.6436,41.62797 32.5234,13.35548 69.0895,18.26676 105.108,20.41751 48.8385,3.26547 97.9847,6.45676 146.964,3.28382 37.4891,-2.53403 75.062,-10.51405 107.0912,-26.93945 18.334,-9.57802 35.4843,-21.8084 45.3436,-37.87408 8.3184,-13.08567 10.2564,-28.38022 7.5732,-42.81545 -3.2765,-17.3016 -14.4035,-33.4704 -30.7757,-44.85659 -19.6009,-14.191543 -44.7,-21.85208 -69.5014,-27.88553 -33.7447,-7.963814 -68.8078,-11.472072 -103.7692,-13.544453 -26.2717,-1.406949 -52.6108,-1.66886 -78.9318,-1.623047 z"
       id="path3280-8-1"
       inkscape:connector-curvature="0"
       sodipodi:nodetypes="csssc" />
    <path
       style="color:#000000;display:inline;overflow:visible;visibility:visible;fill:#ffffff;fill-opacity:1;fill-rule:nonzero;stroke:none;stroke-width:0.768319px;marker:none;enable-background:accumulate"
       d="m 1964.8579,80.042241 c -32.012,0.406432 -64.9167,6.568789 -91.2979,22.208449 -21.9887,13.16571 -40.4018,31.61855 -47.819,53.53875 -4.1234,13.03951 -5.487,26.75881 -3.6198,40.16175 3.1779,21.10953 15.9513,40.74776 33.5559,56.00596 14.6773,12.70148 33.5083,22.1213 54.0991,26.47524 49.9822,12.34459 102.0716,17.93543 154.0665,19.84518 49.4187,1.52074 99.562,-1.50162 147.0796,-13.43241 31.1707,-8.85512 60.5897,-24.40452 79.3546,-47.26665 15.2938,-19.38443 19.7523,-43.2101 18.8339,-65.9967 -0.6025,-21.44646 -7.6988,-43.71351 -25.2082,-60.02958 -16.5773,-15.127089 -40.9807,-22.876397 -65.1478,-24.641498 -59.6833,-7.607729 -120.235,-5.079663 -180.3715,-6.383948 -24.5072,-0.270672 -49.0153,-0.607176 -73.5254,-0.484543 z"
       id="path4546-6-7"
       inkscape:connector-curvature="0"
       sodipodi:nodetypes="cscssssc" />
    <path
       style="color:#000000;display:inline;overflow:visible;visibility:visible;fill:#ffffff;fill-opacity:1;fill-rule:nonzero;stroke:none;stroke-width:1.106112px;marker:none;enable-background:accumulate"
       d="m 554.7467,1380.7931 c 38.39646,-26.5278 370.81363,-41.5041 458.8622,2.6112 73.4928,36.8228 44.8184,127.7979 -20.54191,148.551 -65.36003,20.7528 -282.78897,17.5717 -378.08315,7.7337 -90.73322,-9.3662 -105.96887,-36.7513 -110.43198,-91.799 -1.82154,-22.4682 11.79809,-40.5693 50.19484,-67.0969 z"
       id="path4040-4-9"
       inkscape:connector-curvature="0"
       sodipodi:nodetypes="zssssz" />
    <path
       style="fill:#ffffff;fill-rule:evenodd;stroke:none;stroke-width:0.89598614px;stroke-linecap:butt;stroke-linejoin:miter;stroke-opacity:1"
       d="m 1064.9356,1626.7208 c -35.3007,0.5355 -70.56929,1.9258 -105.8082,3.5447 -21.9344,1.2246 -44.14229,2.6552 -65.16253,7.8592 -27.07715,7.3979 -48.6374,24.3058 -59.76894,44.2067 -5.12562,9.281 -8.715,19.0236 -11.37998,28.8658 -2.43256,9.923 -2.08893,20.4725 3.14993,29.8733 6.04093,11.5348 16.19502,21.5112 27.04026,30.6862 20.49995,16.5459 48.21463,28.2395 78.05516,31.3098 25.74678,3.2111 51.76534,4.941 77.752,6.596 43.3036,2.1865 86.7506,2.6392 130.1285,1.7142 36.4867,-0.8535 72.9687,-2.7286 109.155,-6.4261 19.2332,-2.3335 38.8487,-6.0273 54.9925,-14.6454 15.689,-8.5791 26.3235,-21.8833 30.3798,-36.1243 4.0874,-10.8481 7.5709,-22.4084 4.195,-33.6476 -4.2064,-13.4605 -13.5571,-25.5142 -22.321,-37.5024 -9.1285,-11.7181 -20.986,-22.7604 -37.0369,-29.3137 -19.4258,-8.3969 -41.4085,-12.277 -62.7363,-16.8738 -33.7275,-6.6612 -68.6744,-8.7428 -103.4145,-9.3842 -15.7327,-0.4461 -31.4736,-0.8425 -47.2198,-0.7384 z"
       id="path1079"
       inkscape:connector-curvature="0" />
    <path
       style="color:#000000;display:inline;overflow:visible;visibility:visible;fill:#ffffff;fill-opacity:1;fill-rule:nonzero;stroke:none;stroke-width:0.939237px;marker:none;enable-background:accumulate"
       d="m 1404.4998,1793.8153 c -45.9909,-29.4273 -78.0349,-27.5278 -104.8526,-18.0354 -25.7868,9.1275 -19.8278,10.3608 -19.8278,10.3608 l 10.5667,-48.0852 c -3.1179,-4.3789 71.5596,-1.8389 114.1137,55.7598 z"
       id="path3072-12"
       inkscape:connector-curvature="0"
       sodipodi:nodetypes="csccc" />
    <path
       style="display:inline;fill:#ffffff;stroke:none;stroke-width:0.912089"
       d="m 1364.1825,197.26135 c -47.5216,0.71141 -95.6195,6.56567 -139.9311,23.18281 -36.3256,15.5755 -65.7666,45.87113 -75.9487,82.0756 -6.6231,25.0237 -5.9933,51.00356 -5.6241,76.57747 1.6757,29.0786 17.5941,56.19505 39.5473,76.47645 12.9731,12.23074 28.949,21.35899 45.8405,28.16258 38.0716,15.82346 79.8497,22.86993 121.3841,24.03039 31.2129,0.6584 62.4273,-0.37645 93.6318,-0.94856 38.7376,-1.17898 77.7473,-3.0418 115.6398,-11.13023 21.0624,-4.70887 42.3306,-11.56473 59.0668,-24.77076 21.9753,-17.34664 36.1545,-41.96217 43.4215,-67.61578 7.4536,-26.9469 5.6299,-55.48535 -1.6656,-82.27993 -6.2897,-25.61175 -18.2533,-50.87469 -38.9631,-69.27695 -21.4238,-19.27673 -49.3657,-31.03158 -77.8937,-38.14607 -43.9048,-11.44019 -89.6898,-14.37129 -135.0595,-15.94323 -14.4778,-0.39537 -28.9631,-0.42638 -43.446,-0.39379 z"
       id="path3280-8-1-3"
       inkscape:connector-curvature="0"
       sodipodi:nodetypes="csssc" />
    <path
       style="display:inline;fill:#ffffff;stroke:none;stroke-width:0.986136"
       d="m 2011.8516,226.1866 c -58.2287,0.51905 -117.4901,9.31627 -171.1225,36.71618 -29.3487,16.1073 -53.642,47.05952 -60.026,84.39353 -6.1486,36.76262 -3.8941,75.2223 5.4076,111.01093 11.1149,33.5826 35.8544,59.08314 63.6028,74.20908 40.8459,23.80845 86.769,32.56366 132.0043,36.39776 61.3359,5.82125 123.0581,11.51027 184.5707,5.85396 47.0823,-4.51735 94.2697,-18.74311 134.495,-48.02423 23.0253,-17.07448 44.5645,-38.87726 56.9466,-67.51711 10.4469,-23.32748 12.8809,-50.59266 9.5111,-76.32597 -4.1149,-30.84309 -18.0892,-59.6668 -38.6511,-79.96465 -24.6166,-25.29889 -56.1382,-38.9551 -87.2862,-49.71079 -42.3795,-14.19688 -86.415,-20.45096 -130.3227,-24.14535 -32.9944,-2.50813 -66.0734,-2.97503 -99.1296,-2.89334 z"
       id="path3280-8-1-1"
       inkscape:connector-curvature="0"
       sodipodi:nodetypes="csssc" />
    <path
       style="display:inline;fill:#ffffff;stroke:none;stroke-width:0.72504026"
       d="m 2040.6286,512.42969 c -38.6078,0.18487 -77.6493,6.32564 -113.4194,22.10775 -9.7444,4.24066 -19.1184,9.55499 -27.2601,16.67052 -20.2198,17.13429 -34.4831,42.40621 -37.4661,69.72533 -3.7287,26.74245 1.07,55.62763 16.7525,77.48593 16.5222,23.18242 41.0301,38.7689 66.8504,47.84477 27.8779,10.56549 57.6202,13.79117 87.036,15.21843 44.4907,3.83831 89.2725,2.99293 133.715,-1.13563 20.7831,-1.92176 41.7813,-4.64216 61.392,-12.54448 20.7056,-8.23697 39.2732,-22.40607 53.2452,-40.48289 11.8591,-15.45553 20.2783,-34.29083 21.7889,-54.26521 3.0931,-34.84717 -11.1247,-71.45215 -38.0678,-92.37888 -23.1802,-18.65957 -51.4978,-28.21538 -79.5298,-35.26583 -47.4717,-11.61817 -96.5095,-13.15605 -145.0368,-12.97981 z"
       id="path3280-8-1-1-8"
       inkscape:connector-curvature="0"
       sodipodi:nodetypes="csssc" />
    <path
       style="fill:#ffffff;fill-rule:evenodd;stroke:none;stroke-width:1px;stroke-linecap:butt;stroke-linejoin:miter;stroke-opacity:1"
       d="m 1917.1509,703.14914 c -35.1448,34.55495 -40.918,43.76621 -48.2945,59.20991 -7.3765,15.44359 -1.4166,45.82505 15.3336,59.77726 16.7502,13.95231 20.6476,39.75145 6.4656,51.09426 -14.1819,11.34295 -70.6572,56.04997 -12.3413,98.68519 -52.1304,-50.93005 4.6214,-80.3316 15.046,-87.77901 10.4245,-7.44749 30.9525,-25.50425 13.4446,-59.50485 -17.5082,-34.00062 -21.7713,-50.818 31.7495,-83.72489 53.5207,-32.90685 -21.4035,-37.75787 -21.4035,-37.75787 z"
       id="path1081"
       inkscape:connector-curvature="0"
       sodipodi:nodetypes="ccccccssc" />
    <path
       style="color:#000000;display:inline;overflow:visible;visibility:visible;fill:#ffffff;fill-opacity:1;fill-rule:nonzero;stroke:none;stroke-width:1.4638px;marker:none;enable-background:accumulate"
       d="m 1446.9857,482.25247 c 38.5518,83.9689 2.5856,139.06018 -54.1917,168.09629 98.918,-30.2652 116.1188,-134.92733 86.7076,-167.77583 -23.1309,-25.83416 -32.5159,-0.32046 -32.5159,-0.32046 z"
       id="path5010-4-3"
       inkscape:connector-curvature="0"
       sodipodi:nodetypes="ccsc" />
    <path
       style="color:#000000;display:inline;overflow:visible;visibility:visible;fill:#ffffff;fill-opacity:1;fill-rule:nonzero;stroke:none;stroke-width:0.861506px;marker:none;enable-background:accumulate"
       d="m 1708.9341,2344.6889 c 0.1396,-105.6475 -1.9817,-81.2211 156.3841,-79.1966 68.739,0.8787 150.308,10.6222 143.7753,157.3952 -5.1637,116.0161 -130.901,110.3132 -154.2725,113.5955 -23.2236,3.2615 -117.9728,-16.6744 -138.5725,-62.3724 -12.895,-28.6062 -8.0693,-101.383 -7.3144,-129.4217 z"
       id="path4546-6-59"
       inkscape:connector-curvature="0"
       sodipodi:nodetypes="cssssc" />
    <path
       style="fill:#ffffff;stroke:none;stroke-width:1.40498"
       d="m 720.93646,74.334276 c -50.55152,3.08778 -100.03953,15.416754 -149.93195,23.909777 -31.45318,6.242517 -62.81602,17.304637 -88.87367,37.942527 -16.49827,13.20659 -29.33925,31.97773 -35.29672,53.34425 -9.54535,30.12085 -9.93681,62.865 -5.11563,94.04195 3.84814,22.99347 12.27848,45.81666 27.54972,62.71498 15.19086,17.11859 34.15817,30.07813 54.65516,38.33478 17.69799,7.8496 36.26553,13.26302 55.14052,16.50527 42.14937,7.86858 85.03779,9.8885 127.74302,9.45199 43.67122,-0.77799 87.28472,-6.16766 129.93481,-16.42186 21.26672,-4.78213 42.71551,-11.63012 60.62503,-25.42823 19.75792,-15.0267 35.44362,-36.34047 44.53157,-60.59277 3.97062,-10.73934 5.91123,-22.25046 6.27639,-33.7908 0.74213,-14.8313 0.81776,-29.69103 1.10115,-44.53743 0.10717,-44.82775 -3.44038,-89.73925 -11.72081,-133.685824 -3.09725,-3.45486 -7.93984,-1.880213 -11.78697,-3.251442 C 857.91557,82.354172 789.57167,74.056384 720.93646,74.334276 Z"
       id="path3100-2"
       inkscape:connector-curvature="0"
       sodipodi:nodetypes="cccccccccccccc" />
    <path
       style="display:inline;fill:#ffffff;fill-rule:evenodd;stroke:none;stroke-width:1.14884px;stroke-linecap:butt;stroke-linejoin:miter;stroke-opacity:1"
       d="m 1876.2442,2473.0319 c 29.6781,34.3855 -48.3918,61.0872 -32.7914,98.1006 6.1219,14.5249 50.1858,21.814 59.4409,88.3499 -23.107,-54.5774 -70.7535,-56.808 -83.5614,-79.4341 -24.3256,-42.971 15.5983,-74.4437 22.7675,-83.4264 9.5884,-12.0136 34.1444,-23.59 34.1444,-23.59 z"
       id="path4186-80"
       inkscape:connector-curvature="0"
       sodipodi:nodetypes="cscssc" />
    <path
       style="color:#000000;display:inline;overflow:visible;visibility:visible;fill:#ffffff;fill-opacity:1;fill-rule:nonzero;stroke:none;stroke-width:0.60507298px;marker:none;enable-background:accumulate"
       d="m 163.64041,2086.542 c 21.93568,-13.964 211.84371,-22.406 262.14537,0.5429 41.98604,19.1552 25.60451,66.8586 -11.73546,77.8463 -37.33987,10.9877 -161.55575,9.7123 -215.99678,4.7305 -51.83538,-4.7428 -60.53939,-19.0595 -63.08912,-47.8849 -1.04068,-11.7653 6.74013,-21.2709 28.67599,-35.2348 z"
       id="path4040-4-9-3"
       inkscape:connector-curvature="0"
       sodipodi:nodetypes="zssssz" />
    <path
       style="color:#000000;display:inline;overflow:visible;visibility:visible;fill:#ffffff;fill-opacity:1;fill-rule:nonzero;stroke:none;stroke-width:0.816531px;marker:none;enable-background:accumulate"
       d="m 354.58902,2078.2586 c 35.58146,-4.2267 52.48817,-58.2989 28.13393,-95.1145 44.43236,49.6051 29.57055,64.2564 4.74971,120.5184 -6.58837,14.934 -32.88364,-25.4039 -32.88364,-25.4039 z"
       id="path5010-4-5"
       inkscape:connector-curvature="0"
       sodipodi:nodetypes="ccsc" />
  </g>
  <g
     inkscape:groupmode="layer"
     id="layer1"
     inkscape:label="txt">
    <text
       xml:space="preserve"
       style="font-style:normal;font-variant:normal;font-weight:normal;font-stretch:normal;font-size:45px;line-height:1.25;font-family:Lavi;-inkscape-font-specification:Lavi;text-align:center;letter-spacing:0px;word-spacing:0px;text-anchor:middle;fill:#000000;fill-opacity:1;stroke:none"
       x="690.90973"
       y="179.30602"
       id="text4246-3-2-2"><tspan
         style="font-size:45px"
         sodipodi:role="line"
         x="697.94098"
         y="179.30602"
         id="tspan908">Mòran taing </tspan><tspan
         style="font-size:45px"
         sodipodi:role="line"
         x="697.94098"
         y="235.55602"
         id="tspan896">gun dug thu cead do </tspan><tspan
         style="font-size:45px"
         sodipodi:role="line"
         x="697.94098"
         y="291.80603"
         id="tspan892">Churran aodach glan </tspan><tspan
         style="font-size:45px"
         sodipodi:role="line"
         x="690.90973"
         y="348.05603"
         id="tspan905">fhaighinn dhomh.</tspan></text>
    <text
       xml:space="preserve"
       style="font-style:normal;font-variant:normal;font-weight:normal;font-stretch:normal;font-size:45px;line-height:1.25;font-family:Lavi;-inkscape-font-specification:Lavi;text-align:center;letter-spacing:0px;word-spacing:0px;text-anchor:middle;fill:#000000;fill-opacity:1;stroke:none"
       x="1235.6431"
       y="179.79465"
       id="text4246-3-2-2-3-3-3"><tspan
         style="font-size:45px"
         sodipodi:role="line"
         x="1235.6431"
         y="179.79465"
         id="tspan876-3">Tha tu làn di-beathte.</tspan></text>
    <text
       xml:space="preserve"
       style="font-style:normal;font-variant:normal;font-weight:normal;font-stretch:normal;font-size:45px;line-height:1.25;font-family:Lavi;-inkscape-font-specification:Lavi;text-align:center;letter-spacing:0px;word-spacing:0px;text-anchor:middle;fill:#000000;fill-opacity:1;stroke:none"
       x="1403.865"
       y="288.4176"
       id="text4246-3-2-2-3-3"><tspan
         style="font-size:45px"
         sodipodi:role="line"
         x="1410.8962"
         y="288.4176"
         id="tspan941">Rinn thu ar n-obair </tspan><tspan
         style="font-size:45px"
         sodipodi:role="line"
         x="1410.8962"
         y="344.6676"
         id="tspan928">nas fhasa dhuinn agus </tspan><tspan
         style="font-size:45px"
         sodipodi:role="line"
         x="1410.8962"
         y="400.9176"
         id="tspan926">chan eil adhbhar nach </tspan><tspan
         style="font-size:45px"
         sodipodi:role="line"
         x="1403.865"
         y="457.1676"
         id="tspan942">bithinn bàidheil.</tspan></text>
    <text
       xml:space="preserve"
       style="font-style:normal;font-variant:normal;font-weight:normal;font-stretch:normal;font-size:45px;line-height:1.25;font-family:Lavi;-inkscape-font-specification:Lavi;text-align:center;letter-spacing:0px;word-spacing:0px;text-anchor:middle;fill:#000000;fill-opacity:1;stroke:none"
       x="2073.3838"
       y="162.92065"
       id="text4246-3-2-2-3-3-67"><tspan
         style="font-size:45px"
         sodipodi:role="line"
         x="2080.415"
         y="162.92065"
         id="tspan898">Ach fhios a’d, chuir </tspan><tspan
         style="font-size:45px"
         sodipodi:role="line"
         x="2073.3838"
         y="219.17065"
         id="tspan946">thu Raidis mun cuairt.</tspan></text>
    <text
       xml:space="preserve"
       style="font-style:normal;font-variant:normal;font-weight:normal;font-stretch:normal;font-size:45px;line-height:1.25;font-family:Lavi;-inkscape-font-specification:Lavi;text-align:center;letter-spacing:0px;word-spacing:0px;text-anchor:middle;fill:#000000;fill-opacity:1;stroke:none"
       x="2069.8462"
       y="300.05591"
       id="text4246-3-2-2-3-3-67-2"><tspan
         style="font-size:45px"
         sodipodi:role="line"
         x="2076.8774"
         y="300.05591"
         id="tspan912">Tha i ag iarraidh </tspan><tspan
         style="font-size:45px"
         sodipodi:role="line"
         x="2076.8774"
         y="356.30591"
         id="tspan964">a h-uile càil foirfe. Mhill </tspan><tspan
         style="font-size:45px"
         sodipodi:role="line"
         x="2076.8774"
         y="412.55591"
         id="tspan1013">thu sin le do shalachar, </tspan><tspan
         style="font-size:45px"
         sodipodi:role="line"
         x="2076.8774"
         y="468.80591"
         id="tspan989">d’ aodach robach is </tspan><tspan
         style="font-size:45px"
         sodipodi:role="line"
         x="2069.8462"
         y="525.05591"
         id="tspan997">tuiteam às an speur.</tspan></text>
    <text
       xml:space="preserve"
       style="font-style:normal;font-variant:normal;font-weight:normal;font-stretch:normal;font-size:45px;line-height:1.25;font-family:Lavi;-inkscape-font-specification:Lavi;text-align:center;letter-spacing:0px;word-spacing:0px;text-anchor:middle;fill:#000000;fill-opacity:1;stroke:none"
       x="2084.2942"
       y="614.01367"
       id="text4246-3-2-2-3-3-67-2-3"><tspan
         style="font-size:45px"
         sodipodi:role="line"
         x="2091.3254"
         y="614.01367"
         id="tspan1134">Agus thug thu </tspan><tspan
         style="font-size:45px"
         sodipodi:role="line"
         x="2091.3254"
         y="670.26367"
         id="tspan1022">ionnsaigh oirre! </tspan><tspan
         style="font-size:45px"
         sodipodi:role="line"
         x="2084.2942"
         y="726.51367"
         id="tspan1020">Bidh i trom ort.</tspan></text>
    <text
       xml:space="preserve"
       style="font-style:normal;font-variant:normal;font-weight:normal;font-stretch:normal;font-size:45px;line-height:1.25;font-family:Lavi;-inkscape-font-specification:Lavi;text-align:center;letter-spacing:0px;word-spacing:0px;text-anchor:middle;fill:#000000;fill-opacity:1;stroke:none"
       x="295.56961"
       y="2138.6455"
       id="text4246-3-2-2-3-3-6-67"><tspan
         style="font-size:45px"
         sodipodi:role="line"
         x="295.56961"
         y="2138.6455"
         id="tspan1191-3">Tha fhios a’m.</tspan></text>
    <text
       xml:space="preserve"
       style="font-style:normal;font-variant:normal;font-weight:normal;font-stretch:normal;font-size:45px;line-height:1.25;font-family:Lavi;-inkscape-font-specification:Lavi;text-align:center;letter-spacing:0px;word-spacing:0px;text-anchor:middle;fill:#000000;fill-opacity:1;stroke:none"
       x="781.62054"
       y="1442.3682"
       id="text4246-3-2-2-3-3-6"><tspan
         style="font-size:45px"
         sodipodi:role="line"
         x="788.65179"
         y="1442.3682"
         id="tspan1026">Co-dhiù no co-dheth, tha </tspan><tspan
         style="font-size:45px"
         sodipodi:role="line"
         x="781.62054"
         y="1498.6182"
         id="tspan1034">mi feumach air norrag.</tspan></text>
    <text
       xml:space="preserve"
       style="font-style:normal;font-variant:normal;font-weight:normal;font-stretch:normal;font-size:45px;line-height:1.25;font-family:Lavi;-inkscape-font-specification:Lavi;text-align:center;letter-spacing:0px;word-spacing:0px;text-anchor:middle;fill:#000000;fill-opacity:1;stroke:none"
       x="863.08191"
       y="1572.6309"
       id="text4246-3-2-2-3-3-6-6"><tspan
         style="font-size:45px"
         sodipodi:role="line"
         x="870.11316"
         y="1572.6309"
         id="tspan949">Falbhaidh sinn </tspan><tspan
         style="font-size:45px"
         sodipodi:role="line"
         x="863.08191"
         y="1628.8809"
         id="tspan1038">nuair a dhùisgeas mi.</tspan></text>
    <text
       xml:space="preserve"
       style="font-style:normal;font-variant:normal;font-weight:normal;font-stretch:normal;font-size:45px;line-height:1.25;font-family:Lavi;-inkscape-font-specification:Lavi;text-align:center;letter-spacing:0px;word-spacing:0px;text-anchor:middle;fill:#000000;fill-opacity:1;stroke:none"
       x="1082.4032"
       y="1701.861"
       id="text4246-3-2-2-3-3-6-2"><tspan
         style="font-size:45px"
         sodipodi:role="line"
         x="1089.4344"
         y="1701.861"
         id="tspan1059">Dèan na thogras tu </tspan><tspan
         style="font-size:45px"
         sodipodi:role="line"
         x="1082.4032"
         y="1758.111"
         id="tspan1067">ach fuirich faisg oirnn…</tspan></text>
    <text
       xml:space="preserve"
       style="font-style:normal;font-variant:normal;font-weight:normal;font-stretch:normal;line-height:0%;font-family:Lavi;-inkscape-font-specification:Lavi;letter-spacing:0px;word-spacing:0px;display:inline;fill:#ffffff;fill-opacity:1;stroke:#5f8dd3;stroke-width:0.99236202;stroke-miterlimit:4;stroke-dasharray:none;stroke-opacity:1;filter:url(#filter4375-4-1-1-1-9-3-2-3-8-7-6-4-9)"
       x="787.65729"
       y="1584.5073"
       id="text4580-5-0-6-2-8-5-9-9"
       transform="matrix(0.71138619,-0.38856964,0.42362052,1.0933045,-1095.3818,1936.127)"><tspan
         sodipodi:role="line"
         id="tspan4582-6-9-1-3-9-5-3-3"
         x="787.65729"
         y="1584.5073"
         style="font-size:70px;line-height:1.25;fill:#ffffff;stroke:#5f8dd3">Spliut</tspan></text>
    <text
       xml:space="preserve"
       style="font-style:normal;font-variant:normal;font-weight:normal;font-stretch:normal;font-size:45px;line-height:1.25;font-family:Lavi;-inkscape-font-specification:Lavi;text-align:center;letter-spacing:0px;word-spacing:0px;text-anchor:middle;fill:#000000;fill-opacity:1;stroke:none"
       x="1861.7039"
       y="2364.5269"
       id="text4246-3-2-2-3-3-6-2-9"><tspan
         style="font-size:45px"
         sodipodi:role="line"
         x="1861.7039"
         y="2364.5269"
         id="tspan1090">Abair bana-</tspan><tspan
         style="font-size:45px"
         sodipodi:role="line"
         x="1868.7351"
         y="2420.7769"
         id="tspan1094">bhuidseach </tspan><tspan
         style="font-size:45px"
         sodipodi:role="line"
         x="1861.7039"
         y="2477.0269"
         id="tspan1088">annasach.</tspan></text>
  </g>
</svg>
