<?xml version="1.0" encoding="UTF-8" standalone="no"?>
<svg
   xmlns:dc="http://purl.org/dc/elements/1.1/"
   xmlns:cc="http://creativecommons.org/ns#"
   xmlns:rdf="http://www.w3.org/1999/02/22-rdf-syntax-ns#"
   xmlns:svg="http://www.w3.org/2000/svg"
   xmlns="http://www.w3.org/2000/svg"
   xmlns:xlink="http://www.w3.org/1999/xlink"
   xmlns:sodipodi="http://sodipodi.sourceforge.net/DTD/sodipodi-0.dtd"
   xmlns:inkscape="http://www.inkscape.org/namespaces/inkscape"
   id="svg2"
   version="1.1"
   inkscape:version="0.92.5 (2060ec1f9f, 2020-04-08)"
   width="2481"
   height="3503"
   sodipodi:docname="E35P07.svg">
  <metadata
     id="metadata8">
    <rdf:RDF>
      <cc:Work
         rdf:about="">
        <dc:format>image/svg+xml</dc:format>
        <dc:type
           rdf:resource="http://purl.org/dc/dcmitype/StillImage" />
        <dc:title />
      </cc:Work>
    </rdf:RDF>
  </metadata>
  <defs
     id="defs6">
    <filter
       style="color-interpolation-filters:sRGB"
       id="filter4375-4-1-1-1-9-5-8-8-5-5-3-8"
       inkscape:label="soundFX1"
       x="-0.044353127"
       y="-0.0023842071"
       width="1.0467294"
       height="1.0447156">
      <feFlood
         id="feFlood4377-7-9-0-8-1-7-3-1-2-7-6-7"
         flood-opacity="1"
         flood-color="rgb(255,255,255)"
         result="flood" />
      <feComposite
         id="feComposite4379-3-8-8-2-77-4-1-0-6-4-7-9"
         in2="SourceGraphic"
         in="flood"
         operator="in"
         result="composite1"
         baseFrequency="0.053999999999999999 0.053999999999999999" />
      <feMorphology
         id="feMorphology4393-1-0-49-8-9-3-0-1-9-9-5-2"
         operator="dilate"
         radius="2.9756367599225957"
         result="result3" />
      <feComposite
         id="feComposite4385-9-5-7-0-8-8-7-5-4-9-3-0"
         in2="result3"
         in="SourceGraphic"
         operator="over"
         result="fbSourceGraphic" />
      <feColorMatrix
         result="fbSourceGraphicAlpha"
         in="fbSourceGraphic"
         values="0 0 0 -1 0 0 0 0 -1 0 0 0 0 -1 0 0 0 0 1 0"
         id="feColorMatrix4544-9-4-4-5-2" />
      <feTurbulence
         id="feTurbulence4546-3-6-5-6-3"
         type="fractalNoise"
         numOctaves="5"
         seed="174"
         baseFrequency="0.053999999999999999 0.054054054054054057"
         result="turbulence" />
      <feDisplacementMap
         id="feDisplacementMap4548-8-0-9-2-7"
         in2="turbulence"
         in="fbSourceGraphic"
         scale="6.6"
         yChannelSelector="G"
         xChannelSelector="R"
         result="fbSourceGraphic" />
      <feColorMatrix
         result="fbSourceGraphicAlpha"
         in="fbSourceGraphic"
         values="0 0 0 -1 0 0 0 0 -1 0 0 0 0 -1 0 0 0 0 1 0"
         id="feColorMatrix4670-7-7-3-9-5" />
      <feFlood
         id="feFlood4672-4-4-5-1-9"
         flood-opacity="1"
         flood-color="rgb(255,255,255)"
         result="flood"
         in="fbSourceGraphic" />
      <feComposite
         id="feComposite4674-8-3-7-2-22"
         in2="fbSourceGraphic"
         in="flood"
         operator="in"
         result="composite1" />
      <feGaussianBlur
         id="feGaussianBlur4676-3-7-08-7-8"
         in="composite1"
         stdDeviation="0"
         result="blur" />
      <feOffset
         id="feOffset4678-6-9-1-0-9"
         dx="-6.3258232761971414"
         dy="6"
         result="offset" />
      <feComposite
         id="feComposite4680-4-0-9-9-7"
         in2="offset"
         in="fbSourceGraphic"
         operator="over"
         result="composite2" />
    </filter>
  </defs>
  <sodipodi:namedview
     pagecolor="#ffffff"
     bordercolor="#666666"
     borderopacity="1"
     objecttolerance="10"
     gridtolerance="10"
     guidetolerance="10"
     inkscape:pageopacity="0"
     inkscape:pageshadow="2"
     inkscape:window-width="1920"
     inkscape:window-height="1023"
     id="namedview4"
     showgrid="false"
     inkscape:zoom="0.46261216"
     inkscape:cx="1158.0579"
     inkscape:cy="2311.9801"
     inkscape:window-x="0"
     inkscape:window-y="0"
     inkscape:window-maximized="1"
     inkscape:current-layer="layer3"
     inkscape:document-rotation="0"
     inkscape:snap-global="false"
     inkscape:pagecheckerboard="0" />
  <g
     inkscape:groupmode="layer"
     id="layer2"
     inkscape:label="artwork"
     sodipodi:insensitive="true">
    <image
       sodipodi:absref="/home/peppercarrot/webcomics/"
       xlink:href="../gfx_Pepper-and-Carrot_by-David-Revoy_E35P07.png"
       width="2481"
       height="3503"
       id="image10"
       x="0"
       y="0" />
  </g>
  <g
     inkscape:groupmode="layer"
     id="layer3"
     inkscape:label="speechbubbles">
    <path
       style="fill:#ffffff;stroke:none;stroke-width:1.15197051"
       d="m 2024.6771,260.05078 c -37.6971,0.63805 -75.9059,11.34024 -103.7084,32.6875 -26.7141,20.78964 -43.242,49.02154 -51.9271,78.09168 -5.8794,19.2146 -9.0432,39.82592 -2.0913,59.15283 8.3673,22.47178 29.1098,40.68173 53.429,52.43274 36.0153,17.7576 78.8289,24.31775 120.4476,23.22087 43.5984,-0.8659 87.5587,-3.90683 129.6053,-13.91031 21.627,-5.77776 42.5988,-16.09684 54.6984,-32.36245 11.3248,-15.12264 14.1526,-33.44928 12.6925,-50.88476 -1.2675,-29.35963 -11.9725,-58.32322 -30.4462,-83.45897 -13.324,-18.52769 -29.8987,-36.35246 -52.701,-47.55439 -19.6601,-9.86954 -42.8565,-13.01382 -65.4056,-14.98265 -21.433,-2.02151 -43.0354,-2.48281 -64.5932,-2.43209 z"
       id="path3280-8"
       inkscape:connector-curvature="0"
       sodipodi:nodetypes="csssc" />
    <path
       style="fill:#ffffff;fill-rule:evenodd;stroke:none;stroke-width:0.934796px;stroke-linecap:butt;stroke-linejoin:miter;stroke-opacity:1"
       d="m 1937.2471,432.07438 c -6.2176,11.12141 -85.6078,33.31577 -108.1931,83.17757 30.1276,-36.25015 118.0705,-48.01797 132.9745,-62.07815 51.3058,-16.19189 -3.5494,-23.72277 -24.7814,-21.09942 z"
       id="path4186"
       inkscape:connector-curvature="0"
       sodipodi:nodetypes="cccc" />
    <path
       style="fill:#ffffff;fill-rule:evenodd;stroke:none;stroke-width:1px;stroke-linecap:butt;stroke-linejoin:miter;stroke-opacity:1"
       d="m 1557.7613,1692.8906 134.1326,-31.6108 -24.0947,-23.8017 91.2177,-24.1969 -16.3502,-24.7111 -106.501,38.013 26.5589,28.0558 z"
       id="path4667"
       inkscape:connector-curvature="0" />
    <path
       style="color:#000000;display:inline;overflow:visible;visibility:visible;fill:#ffffff;fill-opacity:1;fill-rule:nonzero;stroke:none;stroke-width:1.12843px;marker:none;enable-background:accumulate"
       d="m 391.5769,3167.8318 c -7.23811,18.6619 -52.05781,10.3174 -67.0863,6.0688 30.29393,21.9362 29.23779,35.0172 -11.89282,35.9167 66.66118,33.4978 16.76424,34.0668 -4.37526,28.9926 34.17899,17.7527 36.20827,33.9683 1.44476,42.1393 62.25111,2.2759 47.18102,15.2452 23.61283,33.8563 27.56221,-11.85 70.07971,-19.7446 71.58827,13.2682 39.93547,-27.7008 60.54023,-26.571 74.98161,6.3976 12.06307,-27.7524 53.13847,-32.0237 68.84482,-1.3015 13.53004,-40.6183 61.80672,-33.5147 90.54409,-12.8552 -16.13182,-14.4659 -5.1314,-37.249 49.86772,-31.0622 -4.42692,-12.9748 2.53485,-29.0046 30.3088,-26.096 -31.99215,-8.6461 -37.88812,-16.8174 21.51402,-23.7957 -45.20156,-2.0802 -87.35236,-4.9518 -34.32109,-32.8773 -16.63734,-1.1704 -58.67096,30.7099 -40.26671,-40.548 -48.72724,19.8167 -97.37037,20.7746 -94.85121,-23.6066 -18.11546,23.5432 -49.53633,34.5732 -63.20604,4.1646 -11.28433,27.7421 -45.55915,15.049 -63.36432,-4.5901 -11.76476,18.6771 -19.50089,52.7905 -53.34317,25.9285 z"
       id="path3549-3-7-8"
       inkscape:connector-curvature="0"
       sodipodi:nodetypes="ccccccccccccccccccc" />
    <path
       style="color:#000000;display:inline;overflow:visible;visibility:visible;fill:#ffffff;fill-opacity:1;fill-rule:nonzero;stroke:none;stroke-width:1.09607px;marker:none;enable-background:accumulate"
       d="m 399.13538,2971.7241 c 46.32515,46.6958 -46.64465,30.4543 -64.47731,24.0162 46.60885,16.4345 36.15885,43.8191 -12.15421,52.4096 83.41343,44.9742 17.99328,59.9513 1.52468,60.609 55.34989,18.9496 43.23007,33.4731 33.37585,56.9499 108.22594,-26.8552 32.7357,46.2035 32.8367,77.4707 5.39337,-14.0641 88.24141,-146.4956 32.55749,-9.2072 42.08041,-45.484 92.76518,-74.8643 96.78971,4.7328 16.9549,-40.0433 33.85891,-56.9669 32.55748,-9.2073 42.00893,-62.1175 102.93902,-45.7552 140.9136,-28.1985 -49.30569,-47.1673 -19.25749,-43.654 35.52013,-30.5302 -63.73259,-32.3441 -58.32111,-47.1121 15.67921,-43.2174 -32.69525,-11.2255 -38.7209,-22.8046 21.98688,-35.2653 -46.65392,-2.0316 -97.89403,-19.2028 -35.07541,-46.1693 -23.6592,2.3658 -112.10967,-3.2773 -38.53577,-69.3398 -57.74393,24.8605 -117.18724,34.9112 -99.55184,-18.0328 -49.22387,32.1536 -54.3857,51.6485 -64.59512,8.5439 -17.41005,37.4088 -40.02277,14.2383 -64.75692,-4.1082 17.99826,29.2486 -22.20424,46.494 -64.59515,8.5439 z"
       id="path3549-3-7"
       inkscape:connector-curvature="0"
       sodipodi:nodetypes="ccccccccccccccccccc" />
    <path
       style="fill:#ffffff;fill-rule:evenodd;stroke:none;stroke-width:1.61403px;stroke-linecap:butt;stroke-linejoin:miter;stroke-opacity:1"
       d="m 559.65143,2966.4499 c 7.81388,-49.8207 8.23157,-62.9667 6.02019,-75.0728 -2.2114,-12.106 -16.03862,-8.1385 -26.02653,-3.643 -6.53887,2.9161 -28.34548,24.9309 -13.34891,-11.2886 14.99673,-36.2194 33.04009,-86.6247 37.65555,-102.5126 -15.5946,27.8024 -42.45502,71.0937 -50.25242,84.9947 -7.79723,13.9012 -19.54665,39.459 -22.39666,47.151 -3.46707,9.3577 -1.1372,19.0591 14.63013,17.8664 24.66487,-3.6362 41.86312,-37.8298 13.23772,21.5203 -28.62567,59.3501 4.95095,150.5651 4.95095,150.5651 z"
       id="path1089"
       inkscape:connector-curvature="0"
       sodipodi:nodetypes="csccccscccc" />
    <path
       style="color:#000000;display:inline;overflow:visible;visibility:visible;fill:#ffffff;fill-opacity:1;fill-rule:nonzero;stroke:none;stroke-width:1.34936869px;marker:none;enable-background:accumulate"
       d="m 1768.3079,1422.3489 c -2.6977,52.4649 -53.8111,18.5086 -78.0834,5.1528 28.9299,29.5614 50.8906,69.0228 -12.8624,66.5435 71.5917,52.3922 23.7309,49.8289 12.1915,63.1131 56.2127,18.0558 40.0575,41.1776 3.9762,53.7566 64.6109,0.7685 48.9696,19.2091 24.5079,45.7456 28.6072,-17.3734 72.7364,-29.8665 74.3022,15.5575 41.4494,-39.6817 62.8353,-38.9088 77.8241,5.9627 12.5204,-38.6928 55.1529,-46.1395 71.4547,-4.4109 14.043,-56.4739 64.1498,-48.5231 93.9765,-21.1534 -16.7433,-19.3163 -5.3258,-51.1225 51.7584,-44.6903 -4.5948,-17.7071 2.6309,-40.0561 31.4577,-37.1049 -33.205,-10.6951 -39.3244,-21.7285 22.3296,-33.6011 -46.9151,-1.1473 -90.6639,-3.5007 -35.6222,-43.99 -17.268,-0.9797 -58.2385,32.8057 -39.1365,-66.0655 -50.5745,29.1539 -103.7183,44.0578 -101.1037,-17.1818 -18.8022,33.1242 -51.4142,49.5148 -65.6021,8.141 -11.7122,38.649 -47.2864,22.4651 -65.7665,-3.9143 -12.2107,26.1786 -30.4768,43.8601 -65.602,8.1394 z"
       id="path3549-3-7-8-6"
       inkscape:connector-curvature="0"
       sodipodi:nodetypes="ccccccccccccccccccc" />
  </g>
  <g
     inkscape:groupmode="layer"
     id="layer1"
     inkscape:label="txt">
    <text
       xml:space="preserve"
       style="font-style:normal;font-variant:normal;font-weight:normal;font-stretch:normal;font-size:45px;line-height:1.25;font-family:Lavi;-inkscape-font-specification:Lavi;text-align:center;letter-spacing:0px;word-spacing:0px;text-anchor:middle;fill:#000000;fill-opacity:1;stroke:none"
       x="2054.3784"
       y="332.14099"
       id="text4246-3-2-2"><tspan
         style="font-size:45px"
         sodipodi:role="line"
         x="2054.3784"
         y="332.14099"
         id="tspan886">Foirfe!</tspan><tspan
         style="font-size:45px"
         sodipodi:role="line"
         x="2061.4097"
         y="388.39099"
         id="tspan859">Tha iad a’ </tspan><tspan
         style="font-size:45px"
         sodipodi:role="line"
         x="2054.3784"
         y="444.64099"
         id="tspan863">leantainn oirnn!</tspan></text>
    <text
       xml:space="preserve"
       style="font-style:normal;font-variant:normal;font-weight:normal;font-stretch:normal;font-size:45px;line-height:1.25;font-family:Lavi;-inkscape-font-specification:Lavi;text-align:center;letter-spacing:0px;word-spacing:0px;text-anchor:middle;fill:#000000;fill-opacity:1;stroke:none"
       x="1895.5864"
       y="1499.5004"
       id="text4246-3-2-2-3"><tspan
         style="font-size:45px"
         sodipodi:role="line"
         x="1902.6177"
         y="1499.5004"
         id="tspan922">Gheibh sinn </tspan><tspan
         style="font-size:45px"
         sodipodi:role="line"
         x="1902.6177"
         y="1555.7504"
         id="tspan867">cuidhteas dhiubh </tspan><tspan
         style="font-size:45px"
         sodipodi:role="line"
         x="1895.5864"
         y="1612.0004"
         id="tspan873">gun dàil.</tspan></text>
    <text
       xml:space="preserve"
       style="font-style:normal;font-variant:normal;font-weight:normal;font-stretch:normal;font-size:50.27859879px;line-height:1.25;font-family:Lavi;-inkscape-font-specification:Lavi;text-align:center;letter-spacing:0px;word-spacing:0px;text-anchor:middle;fill:#000000;fill-opacity:1;stroke:none;stroke-width:1.11730003"
       x="531.13611"
       y="3067.8477"
       id="text4246-3-2-2-3-3"><tspan
         style="font-style:normal;font-variant:normal;font-weight:bold;font-stretch:normal;font-size:50.27859879px;font-family:Lavi;-inkscape-font-specification:'Lavi Bold';stroke-width:1.11730003"
         sodipodi:role="line"
         x="538.99213"
         y="3067.8477"
         id="tspan896">Tha mi </tspan><tspan
         style="font-style:normal;font-variant:normal;font-weight:bold;font-stretch:normal;font-size:50.27859879px;font-family:Lavi;-inkscape-font-specification:'Lavi Bold';stroke-width:1.11730003"
         sodipodi:role="line"
         x="531.13611"
         y="3130.6958"
         id="tspan877">air bhioran!</tspan></text>
    <text
       xml:space="preserve"
       style="font-style:normal;font-variant:normal;font-weight:normal;font-stretch:normal;font-size:57.32479858px;line-height:1.25;font-family:Lavi;-inkscape-font-specification:Lavi;text-align:center;letter-spacing:0px;word-spacing:0px;text-anchor:middle;fill:#000000;fill-opacity:1;stroke:none;stroke-width:1.27388"
       x="517.26379"
       y="3258.7009"
       id="text4246-3-2-2-3-3-3"><tspan
         style="font-style:normal;font-variant:normal;font-weight:bold;font-stretch:normal;font-size:57.32479858px;font-family:Lavi;-inkscape-font-specification:'Lavi Bold';stroke-width:1.27388"
         sodipodi:role="line"
         x="517.26379"
         y="3258.7009"
         id="tspan1015">Mùhahaha!</tspan></text>
    <text
       xml:space="preserve"
       style="font-style:normal;font-variant:normal;font-weight:normal;font-stretch:normal;font-size:105.817px;line-height:1.25;font-family:Lavi;-inkscape-font-specification:Lavi;letter-spacing:0px;word-spacing:0px;fill:#000000;fill-opacity:1;stroke:#030303;stroke-width:0.716208;stroke-miterlimit:4;stroke-dasharray:none;stroke-opacity:1;filter:url(#filter4375-4-1-1-1-9-5-8-8-5-5-3-8)"
       x="787.65729"
       y="1584.5073"
       id="text4580-6-0-0-0-9-3-36"
       transform="matrix(1.0545214,-0.26714456,-0.41513081,1.2309466,1890.7199,857.1408)"><tspan
         style="font-size:195.17px;fill:#000000;fill-opacity:1;stroke:#030303;stroke-width:0.716208;stroke-miterlimit:4;stroke-dasharray:none;stroke-opacity:1"
         sodipodi:role="line"
         id="tspan876-6-1"
         x="787.65729"
         y="1584.5073">!<tspan
   style="font-size:173.821px;fill:#000000;stroke:#030303;stroke-opacity:1"
   id="tspan1317">!</tspan><tspan
   id="tspan1322"
   style="font-size:152.472px;fill:#000000;stroke:#030303;stroke-opacity:1">!</tspan></tspan></text>
  </g>
</svg>
