<?xml version="1.0" encoding="UTF-8" standalone="no"?>
<svg
   id="svg2"
   version="1.1"
   inkscape:version="1.1 (ce6663b3b7, 2021-05-25)"
   width="2481"
   height="3503"
   sodipodi:docname="E35P02.svg"
   xmlns:inkscape="http://www.inkscape.org/namespaces/inkscape"
   xmlns:sodipodi="http://sodipodi.sourceforge.net/DTD/sodipodi-0.dtd"
   xmlns:xlink="http://www.w3.org/1999/xlink"
   xmlns="http://www.w3.org/2000/svg"
   xmlns:svg="http://www.w3.org/2000/svg"
   xmlns:rdf="http://www.w3.org/1999/02/22-rdf-syntax-ns#"
   xmlns:cc="http://creativecommons.org/ns#"
   xmlns:dc="http://purl.org/dc/elements/1.1/">
  <metadata
     id="metadata8">
    <rdf:RDF>
      <cc:Work
         rdf:about="">
        <dc:format>image/svg+xml</dc:format>
        <dc:type
           rdf:resource="http://purl.org/dc/dcmitype/StillImage" />
        <dc:title />
      </cc:Work>
    </rdf:RDF>
  </metadata>
  <defs
     id="defs6" />
  <sodipodi:namedview
     pagecolor="#ffffff"
     bordercolor="#666666"
     borderopacity="1"
     objecttolerance="10"
     gridtolerance="10"
     guidetolerance="10"
     inkscape:pageopacity="0"
     inkscape:pageshadow="2"
     inkscape:window-width="1920"
     inkscape:window-height="1015"
     id="namedview4"
     showgrid="false"
     inkscape:zoom="0.69565218"
     inkscape:cx="1211.0937"
     inkscape:cy="1484.2187"
     inkscape:window-x="0"
     inkscape:window-y="0"
     inkscape:window-maximized="1"
     inkscape:current-layer="layer1"
     inkscape:document-rotation="0"
     inkscape:snap-global="false"
     inkscape:pagecheckerboard="0" />
  <g
     inkscape:groupmode="layer"
     id="layer2"
     inkscape:label="artwork"
     sodipodi:insensitive="true">
    <image
       xlink:href="../gfx_Pepper-and-Carrot_by-David-Revoy_E35P02.png"
       y="0"
       x="0"
       id="image10"
       height="3503"
       width="2481" />
  </g>
  <g
     inkscape:groupmode="layer"
     id="layer3"
     inkscape:label="speechbubbles">
    <path
       style="color:#000000;display:inline;overflow:visible;visibility:visible;fill:#ffffff;fill-opacity:1;fill-rule:nonzero;stroke:none;stroke-width:1.2914px;marker:none;enable-background:accumulate"
       d="m 281.01819,2063.0285 c -8.07749,22.1361 -53.63591,23.993 -70.4072,19.4935 33.80703,24.7633 32.6284,40.1495 -13.27199,42.5375 76.9759,44.631 14.07218,37.8772 1.66496,49.1935 60.44024,15.3811 40.40723,38.6925 1.61232,49.4082 69.47019,0.6546 52.65245,16.3636 26.35113,38.9691 30.75853,-14.7999 78.20665,-25.4423 79.89016,13.2528 44.56666,-33.8034 67.56089,-33.145 83.677,5.0795 13.46199,-32.9612 59.30078,-39.3047 76.82857,-3.7575 15.09906,-48.1082 68.97425,-41.3352 101.04422,-18.0199 -18.00259,-16.4548 -5.72648,-43.5495 55.65072,-38.0701 -4.94029,-15.0841 2.8288,-34.1223 33.82363,-31.6083 -35.7022,-9.1109 -42.28191,-18.5098 24.00893,-28.6237 -50.44345,-0.9773 -97.48235,-2.9821 -38.30119,-37.4735 -18.56673,-0.8345 -62.61836,27.946 -42.07981,-56.279 -54.378,24.8353 -111.51865,37.5314 -108.70736,-14.6365 -20.21626,28.2173 -55.2809,42.18 -70.53586,6.9351 -12.59293,32.9238 -50.84251,19.1373 -70.71249,-3.3345 -13.12908,22.3007 -32.76887,37.3629 -70.53574,6.9338 z"
       id="path3549-3-7-8"
       inkscape:connector-curvature="0"
       sodipodi:nodetypes="ccccccccccccccccccc" />
    <path
       style="fill:#ffffff;stroke:none;stroke-width:1.14451"
       d="m 391.00464,2034.1293 c 32.71673,-0.9645 190.82404,-5.5332 188.3649,87.4525 -3.08119,116.5141 -4.63361,169.7573 -173.94405,167.9674 -181.84882,-1.9225 -145.24888,-72.1947 -146.67275,-160.2495 -1.2606,-77.9564 44.46053,-92.3527 132.2519,-95.1704 z"
       id="path3280-8-6"
       inkscape:connector-curvature="0"
       sodipodi:nodetypes="csssc" />
    <path
       style="color:#000000;display:inline;overflow:visible;visibility:visible;fill:#ffffff;fill-opacity:1;fill-rule:nonzero;stroke:none;stroke-width:1px;marker:none;enable-background:accumulate"
       d="m 596.40058,2341.6788 c -54.36956,-1.3158 -66.37353,-18.0831 -76.5499,-29.227 3.41593,-3.9672 8.07344,-11.8668 8.07344,-11.8668 0,0 -22.49109,-20.0802 -27.87182,-30.4304 -5.38071,-10.3501 9.28192,-17.9731 9.28192,-17.9731 0,0 44.94813,37.9871 57.64264,43.4391 -9.83295,10.5902 -13.21387,16.7305 -18.38931,19.4211 3.1733,8.211 28.66645,25.6349 47.81303,26.6371 z"
       id="path4456-3"
       inkscape:connector-curvature="0" />
    <path
       style="color:#000000;display:inline;overflow:visible;visibility:visible;fill:#ffffff;fill-opacity:1;fill-rule:nonzero;stroke:none;stroke-width:0.803733px;marker:none;enable-background:accumulate"
       d="m 1983.6307,2169.1943 c -4.3305,-56.497 5.9266,-125.335 143.5229,-109.0086 131.1888,15.5659 122.995,36.9633 124.3842,108.6937 1.4636,75.5745 -52.0802,112.1707 -146.0786,104.9253 -55.0849,-4.2457 -109.9759,-8.2642 -121.8285,-104.6104 z"
       id="path5026-4"
       inkscape:connector-curvature="0"
       sodipodi:nodetypes="csssc" />
    <path
       style="color:#000000;display:inline;overflow:visible;visibility:visible;fill:#ffffff;fill-opacity:1;fill-rule:nonzero;stroke:none;stroke-width:1.63768px;marker:none;enable-background:accumulate"
       d="m 2065.086,2229.8886 c -4.2272,-2.5286 -41.7209,44.7549 -41.7209,44.7549 l -35.4466,3.459 1.2502,26.926 -53.4012,-4.5662 35.1739,-8.2914 -1.9242,-26.5703 33.0101,-11.5413 29.8178,-33.9388 z"
       id="path4448"
       inkscape:connector-curvature="0"
       sodipodi:nodetypes="cccccccccc" />
    <path
       style="color:#000000;display:inline;overflow:visible;visibility:visible;fill:#ffffff;fill-opacity:1;fill-rule:nonzero;stroke:none;stroke-width:1.026px;marker:none;enable-background:accumulate"
       d="m 148.48197,2684.0009 c -39.3733,-86.6402 17.37255,-121.912 129.43844,-118.9565 112.06578,2.9554 142.88072,40.0437 145.61398,52.387 2.73334,12.3432 5.56773,85.87 -81.89827,107.9033 -87.46608,22.0331 -165.82099,5.334 -193.15415,-41.3338 z"
       id="path3525"
       inkscape:connector-curvature="0"
       sodipodi:nodetypes="csssc" />
    <path
       style="color:#000000;display:inline;overflow:visible;visibility:visible;fill:#ffffff;fill-opacity:1;fill-rule:nonzero;stroke:none;stroke-width:0.8273px;marker:none;enable-background:accumulate"
       d="m 1164.4585,2497.723 c -29.0745,1.9267 -101.6067,7.9567 -114.8758,22.7619 -28.7253,13.8942 -12.9823,59.8772 -0.7598,68.1078 20.5846,30.9454 145.8262,21.4657 195.4761,18.737 20.7598,-1.3088 41.6527,-4.9224 60.4769,-13.2573 8.3672,-3.5602 16.6877,-8.4478 21.0883,-16.0968 5.8373,-9.7255 6.2569,-21.3487 4.2218,-32.0561 -2.5188,-13.2028 -10.1184,-25.8753 -22.2073,-33.7852 -29.3928,-14.4715 -80.2591,-12.1792 -143.4202,-14.4113 z"
       id="path3525-3"
       inkscape:connector-curvature="0"
       sodipodi:nodetypes="ccccccccc" />
    <path
       style="color:#000000;display:inline;overflow:visible;visibility:visible;fill:#ffffff;fill-opacity:1;fill-rule:nonzero;stroke:none;stroke-width:0.850812px;marker:none;enable-background:accumulate"
       d="m 378.31396,2800.4734 c -21.81603,-6.0365 -24.7236,-21.3438 -23.81085,-34.7307 0.91307,-13.3879 3.43731,-21.6544 -10.14803,-38.2382 -13.58559,-16.5829 -43.44749,-17.8668 -26.36893,-33.9071 2.07754,-10.3968 3.18888,-19.4098 8.63924,-29.73 6.0118,-11.3839 -30.60834,-11.6128 -30.60834,-11.6128 0,0 -9.2601,36.4069 -8.60393,58.2554 0.65624,21.8486 37.98578,15.4181 49.29264,29.8458 10.55851,13.4728 3.54145,36.8172 10.69223,46.6028 7.15061,9.7866 19.89022,13.3481 30.91597,13.5148 z"
       id="path4538-8"
       inkscape:connector-curvature="0"
       sodipodi:nodetypes="csscscsssc" />
    <path
       style="fill:#ffffff;fill-rule:evenodd;stroke:none;stroke-width:1.00018px;stroke-linecap:butt;stroke-linejoin:miter;stroke-opacity:1"
       d="m 683.3565,2839.4097 c 22.47948,-7.6888 8.18259,-27.2917 13.56572,-36.5201 5.55722,-9.5269 47.07364,3.0903 52.88651,-5.37 5.81286,-8.4604 -12.6074,-31.2018 -3.16551,-44.2198 9.44226,-13.0187 37.29048,-1.0958 25.77916,13.6924 -11.51166,14.7889 6.85876,28.7751 -4.63767,39.1332 -19.17293,17.274 -46.18634,1.6002 -58.07288,2.8253 -7.86988,0.8115 -1.86593,15.6117 -9.63373,23.71 -7.76824,8.099 -16.7216,6.749 -16.7216,6.749 z"
       id="path4272-2"
       inkscape:connector-curvature="0"
       sodipodi:nodetypes="csssssssc" />
    <path
       style="fill:#ffffff;stroke:none;stroke-width:0.94655"
       d="m 1757.6864,2729.572 c -1.258,-28.0682 21.2997,-98.3339 131.3348,-93.0491 110.0352,5.285 144.4743,36.1594 147.699,86.0504 5.101,78.9269 -52.7885,100.0195 -135.9123,105.8651 -85.6919,6.0268 -144.4514,-48.1509 -143.1215,-98.8664 z"
       id="path3280-8-90"
       inkscape:connector-curvature="0"
       sodipodi:nodetypes="csssc" />
    <path
       style="color:#000000;display:inline;overflow:visible;visibility:visible;fill:#ffffff;fill-opacity:1;fill-rule:nonzero;stroke:none;stroke-width:1px;marker:none;enable-background:accumulate"
       d="m 1981.8954,2716.5742 c 21.7602,57.3157 81.8906,99.8161 102.9782,111.0989 -62.8332,-18.8149 -116.4083,-51.6111 -129.2847,-90.9766 -12.8765,-39.3656 26.3065,-20.1223 26.3065,-20.1223 z"
       id="path4480"
       inkscape:connector-curvature="0" />
    <path
       style="fill:#ffffff;fill-rule:evenodd;stroke:none;stroke-width:0.940147px;stroke-linecap:butt;stroke-linejoin:miter;stroke-opacity:1"
       d="m 1136.1678,1146.3192 c -27.8994,0.2098 -55.9105,2.8075 -83.0438,9.7802 -10.1873,2.7171 -20.3113,5.8813 -29.9691,10.239 -12.6426,6.2002 -22.2115,17.5248 -29.3711,29.7489 -8.12942,14.0258 -13.29408,29.7743 -15.84097,45.9013 -2.03642,12.6017 -3.04025,25.3677 -3.56862,38.1258 -0.52691,17.578 1.36095,35.3667 6.93097,52.0354 6.54137,20.7171 17.45742,40.4123 33.52722,54.6973 15.4209,13.1517 34.4323,20.6381 53.4501,26.1295 31.3382,8.6618 63.9898,9.9761 96.2519,9.9598 24.3009,-0.2678 48.4268,-4.4165 71.9307,-10.6648 18.0912,-4.5133 36.1366,-9.6635 53.2452,-17.3528 12.7604,-6.1407 24.5419,-15.4911 31.5716,-28.3655 9.3731,-16.1494 13.4744,-34.7996 16.8961,-53.1155 3.7105,-21.0011 5.5608,-42.8387 1.1685,-63.8919 -4.251,-19.9523 -14.6274,-37.7794 -26.2978,-53.9586 -14.9605,-19.4153 -36.3548,-32.6367 -59.049,-39.8896 -24.4421,-7.8472 -50.2424,-9.0117 -75.6447,-9.336 -14.0619,-0.099 -28.1251,-0.094 -42.1872,-0.043 z"
       id="path1353"
       inkscape:connector-curvature="0"
       sodipodi:nodetypes="cssscscssccc" />
    <path
       style="color:#000000;display:inline;overflow:visible;visibility:visible;fill:#ffffff;fill-opacity:1;fill-rule:nonzero;stroke:none;stroke-width:1.32704px;marker:none;enable-background:accumulate"
       d="m 1567.2167,1263.2749 c -23.3951,-13.5874 -47.4345,-27.8488 -80.2438,-37.3029 -9.419,-2.6108 -19.456,-5.052 -29.7275,-6.2777 -10.8699,-0.2589 -18.5833,3.1803 -21.2691,7.3616 -4.9062,5.8321 -4.0751,13.3543 -14.8239,17.5815 -8.0334,2.9766 -20.4058,1.2285 -30.8948,0.151 -55.5613,-5.5966 -116.4529,-16.3815 -168.9125,-7.1839 -10.3316,2.0201 -20.2049,4.8402 -25.0559,9.4641 -13.7945,11.5007 -11.0257,28.0336 10.0671,40.719 14.9737,7.6682 42.5542,10.484 56.687,4.5569 7.5899,-3.0688 8.1735,-8.3583 5.5139,-13.1861 -1.2458,-8.9607 7.6217,0.022 24.0822,-3.6677 37.2334,-5.6014 77.5291,-14.6477 110.5037,-9.7254 10.0809,1.4739 25.6582,0.1256 35.3315,-0.599 12.5832,-2.5592 14.9137,-9.3886 15.3033,-15.3984 0.7726,-6.1637 0.047,-13.4883 11.1891,-17.2514 6.7172,-3.1499 17.8965,0.5337 26.5328,1.8753 27.2211,5.8451 51.5565,15.088 70.9679,25.6439 1.7031,1.0526 3.2274,2.1441 4.749,3.2392 z"
       id="path4496-9"
       inkscape:connector-curvature="0"
       inkscape:transform-center-x="43.812193"
       inkscape:transform-center-y="17.777857"
       sodipodi:nodetypes="ccccccccccccccccccc" />
    <path
       style="fill:#ffffff;stroke:none;stroke-width:0.86966"
       d="m 870.21516,506.07458 c 4.03551,-79.95564 23.59527,-109.60227 260.85484,-112.65143 328.367,-4.2206 351.3414,63.76808 345.1033,157.5583 -6.7305,101.19365 -200.3957,101.47753 -358.706,98.35148 -273.19102,-5.39418 -244.789,-61.2111 -247.25214,-143.25835 z"
       id="path3280-8-0"
       inkscape:connector-curvature="0"
       sodipodi:nodetypes="csssc" />
    <path
       style="display:inline;fill:#ffffff;stroke:none;stroke-width:0.760991"
       d="m 846.25597,318.63754 c 2.51728,-62.9498 16.90873,-145.15068 149.80284,-146.44194 132.89389,-1.29222 177.61179,38.50078 185.01359,107.2676 14.1784,131.72583 -53.3341,121.41139 -152.8999,135.97035 -102.64159,15.00816 -185.80637,-4.53008 -181.91653,-96.79601 z"
       id="path3280-8-2"
       inkscape:connector-curvature="0"
       sodipodi:nodetypes="csssc" />
    <path
       style="color:#000000;display:inline;overflow:visible;visibility:visible;fill:#ffffff;fill-opacity:1;fill-rule:nonzero;stroke:none;stroke-width:1.12734px;marker:none;enable-background:accumulate"
       d="m 1054.8727,654.26102 c 26.1383,-30.95776 348.576,-53.00464 423.0628,17.01045 51.9098,48.79294 31.8845,142.36388 -12.6087,166.72126 -44.4935,24.35859 -259.3045,31.21923 -320.3574,18.81389 -54.9019,-11.15418 -112.53,-35.16455 -115.5682,-99.06921 -1.2399,-26.0814 -0.6668,-72.51986 25.4715,-103.47639 z"
       id="path4040-5"
       inkscape:connector-curvature="0"
       sodipodi:nodetypes="zssssz" />
    <path
       style="color:#000000;display:inline;overflow:visible;visibility:visible;fill:#ffffff;fill-opacity:1;fill-rule:nonzero;stroke:none;stroke-width:1px;marker:none;enable-background:accumulate"
       d="m 880.35523,328.5815 c -13.93862,-43.79995 -75.39205,-33.32608 -131.42892,10.54697 35.43843,-36.41055 76.35778,-76.93843 143.98747,-47.05147 49.32789,21.79901 14.57754,15.53221 14.57754,15.53221 z"
       id="path4035-4"
       inkscape:connector-curvature="0"
       sodipodi:nodetypes="ccscc" />
    <path
       style="display:inline;fill:#ffffff;fill-rule:evenodd;stroke:none;stroke-width:1.30048px;stroke-linecap:butt;stroke-linejoin:miter;stroke-opacity:1"
       d="m 1548.4515,71.619933 c 24.985,5.793404 24.4053,18.959491 12.7022,17.639048 7.502,22.947809 30.4769,75.029379 10.5214,81.465079 0.3216,63.9758 13.4148,96.99152 -1.5675,133.3805 55.2137,-16.22272 57.3634,11.34478 53.2124,37.36138 20.3681,-34.64111 35.9429,-12.07585 29.8359,19.78535 20.93,-34.83705 45.1859,-50.69323 41.2991,-13.35757 23.6513,-26.97855 24.8612,-39.45512 44.7286,-27.78038 36.1161,-32.36707 51.1793,12.81962 73.0469,32.93992 8.1542,-36.73832 23.3152,-29.5983 49.8625,-10.87598 9.0829,-15.46913 -12.0518,-42.91267 12.7553,-9.1895 -9.9891,-38.67303 40.684,-20.02028 51.0233,-14.32381 -12.6632,-17.39684 9.1057,-22.00167 70.4804,-11.89519 -23.7677,-9.30819 -33.969,-40.04329 13.7163,-61.82426 -62.5354,8.83659 -39.2315,-9.45622 -20.0369,-29.45507 -40.898,-30.71396 -0.2138,-59.34641 20.1138,-88.49783 -41.3041,13.50432 -56.3387,-44.502353 -63.9558,-58.334579 -62.6921,10.543316 -53.3929,4.67716 -47.3762,-0.440896 -38.8414,12.824672 -36.6646,1.446479 -46.7026,-2.724502 -106.7351,15.616521 -102.9554,-0.688504 -125.0299,-9.525581 -8.7451,18.669199 -31.2305,11.414952 -53.7729,4.053771 0.845,15.799861 -12.7693,11.180214 -26.0813,6.987641 -1.7053,6.812619 -14.9264,8.77544 -43.6739,4.198974 20.5299,5.623526 7.8516,6.563777 -55.1011,0.413485 z"
       id="path4289-9-2"
       inkscape:connector-curvature="0"
       sodipodi:nodetypes="cccccccccccccccccccccccc" />
    <path
       style="fill:#ffffff;fill-opacity:1;fill-rule:evenodd;stroke:none;stroke-width:0.979061px;stroke-linecap:butt;stroke-linejoin:miter;stroke-opacity:1"
       d="m 2392.5249,828.31665 c -1.2192,6.34195 -56.3523,55.67385 -21.9235,12.27055 l -32.213,12.12489 c -62.4398,-26.31741 -266.7205,-10.24548 -335.0513,4.27336 l -18.7446,-26.10175 3.7388,21.91163 -21.7325,-32.45316 12.1794,43.70313 -11.4715,-14.83665 4.818,16.38217 -11.1428,-7.96597 1.8848,14.02227 c -25.907,13.02061 -40.6372,38.6939 -46.4729,65.18156 l -20.9217,-2.39962 19.4351,10.35709 c -0.2473,1.60795 -0.4702,3.2159 -0.6541,4.81912 -0.011,0.10971 -0.025,0.22227 -0.035,0.33199 l -21.9906,-3.78341 21.1159,14.1055 c -0.046,0.75385 -0.092,1.5058 -0.1318,2.26627 l -42.0743,-8.83427 41.7186,24.00669 c -0.01,26.96436 3.018,54.63526 4.5854,66.73086 1.0868,8.3859 2.2549,23.9368 8.6041,27.2702 l -39.1869,10.0692 51.9277,-5.4935 c 1.1029,0.1226 2.2289,0.2449 3.3597,0.3675 l -13.4152,3.4243 23.3544,-2.3849 c 2.3898,0.2411 4.8319,0.4809 7.321,0.7194 l -24.1854,7.6712 36.075,-6.5785 c 86.8324,7.6565 272.4573,15.2779 401.9513,-3.2458 l 19.1392,3.9931 -7.3543,-5.7621 c 2.5283,-0.398 5.7736,-0.805 5.9077,-1.2225 l 0.4542,0.1682 -0.3009,-1.2778 c 0.028,-0.2112 0.057,-0.4228 0.086,-0.6363 l 1.5475,2.8101 -1.1631,-14.9918 c 0.7331,-17.4103 0.9216,-37.1654 0.8309,-57.172 l 1.4035,-12.03792 c -2.4259,6.22845 -1.5594,-7.47602 -0.034,-14.52451 l -1.3703,0.97517 c 0.1327,-16.19678 -0.3577,-45.90319 -1,-61.40761 l 0.064,-11.756 c -1.1244,1.12651 -0.4003,-8.98845 -0.014,-17.79623 -1.2346,7.9253 -1.0831,4.5959 -0.5975,-10.81204 -2.0791,4.39065 1.1132,-36.29143 1.6783,-46.48111 z"
       id="path4212-3"
       inkscape:connector-curvature="0"
       sodipodi:nodetypes="ccccccccccccccccccccccsccccccccccccccccccccccccccc" />
    <path
       style="display:inline;fill:#ffffff;fill-rule:evenodd;stroke:none;stroke-width:1.44912px;stroke-linecap:butt;stroke-linejoin:miter;stroke-opacity:1"
       d="m 2102.6149,751.43806 c 0.6806,41.31231 13.5699,99.33289 8.1415,118.1885 4.1542,65.56524 102.9122,-3.97588 46.8489,-17.72263 -23.7511,-36.29813 -38.7836,-65.39219 -54.9904,-100.46587 z"
       id="path4667-2"
       inkscape:connector-curvature="0"
       sodipodi:nodetypes="cccc" />
    <path
       style="color:#000000;display:inline;overflow:visible;visibility:visible;fill:#ffffff;fill-opacity:1;fill-rule:nonzero;stroke:none;stroke-width:0.891997px;marker:none;enable-background:accumulate"
       d="m 733.40911,2654.7496 c -27.56406,-0.098 -56.09893,5.1296 -78.89518,19.5074 -15.71474,9.8584 -27.22154,26.2721 -26.5013,43.7335 0.5462,14.2429 10.67174,27.0138 23.82523,34.6216 14.99922,8.6903 32.87844,12.1176 50.28903,14.7287 30.09288,4.0973 60.63079,3.3432 90.94509,4.9003 19.15466,0.6389 38.82433,0.9884 57.32549,-4.1125 16.58778,-6.0439 26.85665,-21.5133 28.51318,-36.9608 1.71378,-15.5734 -0.66261,-32.4583 -11.62804,-45.2137 -10.31828,-11.5412 -26.31477,-17.3952 -41.83511,-21.357 -29.86665,-7.3926 -61.09068,-10.2257 -92.03839,-9.8475 z"
       id="path3525-3-5"
       inkscape:connector-curvature="0" />
    <path
       style="fill:#ffffff;fill-rule:evenodd;stroke:none;stroke-width:1.00018px;stroke-linecap:butt;stroke-linejoin:miter;stroke-opacity:1"
       d="m 1223.463,2688.0374 c 17.4992,-16.0693 -3.4666,-28.2803 -2.2428,-38.8936 1.2634,-10.9567 44.3518,-16.0746 46.2777,-26.1572 1.9258,-10.0826 -24.0767,-23.5119 -20.6577,-39.2259 3.4191,-15.7147 33.7111,-15.9794 29.1078,2.1868 -4.6033,18.167 17.8374,23.5982 11.4686,37.7013 -10.6216,23.5196 -41.6554,20.0139 -52.0494,25.9095 -6.8814,3.9037 4.5609,15.0468 0.6993,25.5829 -3.8618,10.5369 -12.6035,12.8962 -12.6035,12.8962 z"
       id="path4272-2-3"
       inkscape:connector-curvature="0"
       sodipodi:nodetypes="csssssssc" />
    <path
       style="color:#000000;display:inline;overflow:visible;visibility:visible;fill:#ffffff;fill-opacity:1;fill-rule:nonzero;stroke:none;stroke-width:0.880068px;marker:none;enable-background:accumulate"
       d="m 1591.8617,2522.3224 c -5.5166,19.7338 -37.9706,21.9845 -49.9741,18.2182 24.3674,21.5056 23.6948,35.1623 -8.9972,37.8903 55.3546,38.545 10.443,33.3934 1.7224,43.5918 43.2493,12.8342 24.1824,30.1632 16.7198,47.2005 49.5257,-0.3425 33.6531,27.0397 36.0051,48.5677 4.0737,-10.1977 23.6388,-41.3812 25.26,-7.0964 0.01,-6.488 31.9189,-60.8477 80.9862,-9.4692 -1.5004,-26.8993 14.9994,-32.7435 31.1884,4.1555 -5.752,-40.161 50.195,-29.5513 79.9078,-17.4684 -15.2354,-24.1109 8.2476,-34.3802 33.4231,-29.9904 -3.6857,-13.3079 4.6816,-22.6579 23.7654,-28.4736 -25.5478,-7.6032 -30.3402,-15.8481 16.8023,-25.6962 -35.9671,-0.1964 -69.5185,-1.3483 -27.7096,-32.7151 -13.2434,-0.492 -44.3301,25.6094 -30.6073,-49.338 -22.4639,24.3307 -46.5819,37.9775 -77.6464,-11.5311 -14.1031,25.285 -38.9452,38.132 -50.2028,7.0859 -3.7446,13.3936 -19.8885,18.707 -33.6386,19.5706 -5.385,-5.1921 -10.9601,-12.2772 -16.8017,-21.587 -9.1157,19.9474 -22.951,33.5613 -50.2028,7.0849 z"
       id="path3549-3-7-9-6"
       inkscape:connector-curvature="0"
       sodipodi:nodetypes="cccccccccccccccccccc" />
    <path
       style="color:#000000;display:inline;overflow:visible;visibility:visible;fill:#ffffff;fill-opacity:1;fill-rule:nonzero;stroke:none;stroke-width:1.22149px;marker:none;enable-background:accumulate"
       d="m 1834.6942,302.71538 c 13.3969,25.86728 33.5213,54.90113 39.2123,61.39746 7.9957,-8.63868 17.0744,-15.33555 24.0331,-20.64544 9.0197,12.83333 45.9509,74.58787 45.5696,92.05922 3.355,-43.2627 -19.8328,-91.86712 -36.9856,-111.86967 -10.7606,5.90497 -16.2791,10.46235 -22.0396,13.47435 -9.2965,-9.62452 -29.0289,-46.10687 -29.0289,-46.10687 z"
       id="path5066-8"
       inkscape:connector-curvature="0" />
  </g>
  <g
     inkscape:groupmode="layer"
     id="layer1"
     inkscape:label="txt">
    <text
       xml:space="preserve"
       style="font-style:normal;font-variant:normal;font-weight:normal;font-stretch:normal;font-size:45px;line-height:1.25;font-family:Lavi;-inkscape-font-specification:Lavi;text-align:center;letter-spacing:0px;word-spacing:0px;text-anchor:middle;fill:#000000;fill-opacity:1;stroke:none"
       x="1018.2072"
       y="250.12212"
       id="text4246-3-2-2"><tspan
         style="font-size:45px"
         sodipodi:role="line"
         x="1018.2072"
         y="250.12212"
         id="tspan949">Estic a punt </tspan><tspan
         style="font-size:45px"
         sodipodi:role="line"
         x="1018.2072"
         y="306.37213"
         id="tspan909">de perdre la </tspan><tspan
         style="font-size:45px"
         sodipodi:role="line"
         x="1018.2072"
         y="362.62213"
         id="tspan911">hipervelocitat,</tspan></text>
    <text
       xml:space="preserve"
       style="font-style:normal;font-variant:normal;font-weight:normal;font-stretch:normal;font-size:45px;line-height:1.25;font-family:Lavi;-inkscape-font-specification:Lavi;text-align:center;letter-spacing:0px;word-spacing:0px;text-anchor:middle;fill:#000000;fill-opacity:1;stroke:none"
       x="1167.5723"
       y="475.56839"
       id="text4246-3-2-2-3"><tspan
         style="font-size:45px"
         sodipodi:role="line"
         x="1167.5723"
         y="475.56839"
         id="tspan958">i aquest pilot i el seu </tspan><tspan
         style="font-size:45px"
         sodipodi:role="line"
         x="1167.5723"
         y="531.81836"
         id="tspan924">drac ens han estat seguint</tspan><tspan
         style="font-size:45px"
         sodipodi:role="line"
         x="1167.5723"
         y="588.06836"
         id="tspan928"> el ritme durant hores.</tspan></text>
    <text
       xml:space="preserve"
       style="font-style:normal;font-variant:normal;font-weight:normal;font-stretch:normal;font-size:45px;line-height:1.25;font-family:Lavi;-inkscape-font-specification:Lavi;text-align:center;letter-spacing:0px;word-spacing:0px;text-anchor:middle;fill:#000000;fill-opacity:1;stroke:none"
       x="1263.569"
       y="697.07538"
       id="text4246-3-2-2-3-6"><tspan
         style="font-size:45px"
         sodipodi:role="line"
         x="1263.569"
         y="697.07538"
         id="tspan954">No els costarà</tspan><tspan
         style="font-size:45px"
         sodipodi:role="line"
         x="1263.569"
         y="753.32538"
         id="tspan956">gens atrapar-nos si</tspan><tspan
         style="font-size:45px"
         sodipodi:role="line"
         x="1263.569"
         y="809.57538"
         id="tspan21081"> anem més lents.</tspan></text>
    <text
       xml:space="preserve"
       style="font-style:normal;font-variant:normal;font-weight:normal;font-stretch:normal;font-size:59.5686px;line-height:1.25;font-family:Lavi;-inkscape-font-specification:Lavi;text-align:center;letter-spacing:0px;word-spacing:0px;text-anchor:middle;fill:#000000;fill-opacity:1;stroke:none;stroke-width:1.32375"
       x="1790.1418"
       y="189.64172"
       id="text4246-3-2-2-3-6-3"><tspan
         style="font-size:59.5686px;stroke-width:1.32375"
         sodipodi:role="line"
         x="1790.1418"
         y="189.64172"
         id="tspan1031-6">He estat </tspan><tspan
         style="font-size:59.5686px;stroke-width:1.32375"
         sodipodi:role="line"
         x="1799.4495"
         y="264.10248"
         id="tspan1079">una idiota! </tspan></text>
    <text
       xml:space="preserve"
       style="font-style:normal;font-variant:normal;font-weight:normal;font-stretch:normal;font-size:45px;line-height:1.25;font-family:Lavi;-inkscape-font-specification:Lavi;text-align:center;letter-spacing:0px;word-spacing:0px;text-anchor:middle;fill:#000000;fill-opacity:1;stroke:none"
       x="2153.592"
       y="917.40289"
       id="text4246-3-2-2-3-6-2"><tspan
         style="font-size:45px"
         sodipodi:role="line"
         x="2153.592"
         y="917.40289"
         id="tspan966">N'estava segura </tspan><tspan
         style="font-size:45px"
         sodipodi:role="line"
         x="2153.592"
         y="973.65289"
         id="tspan25784">que s'haurien rendit</tspan><tspan
         style="font-size:45px"
         sodipodi:role="line"
         x="2153.592"
         y="1029.9028"
         id="tspan26414">fa hores!</tspan></text>
    <text
       xml:space="preserve"
       style="font-style:normal;font-variant:normal;font-weight:normal;font-stretch:normal;font-size:45px;line-height:1.25;font-family:Lavi;-inkscape-font-specification:Lavi;text-align:center;letter-spacing:0px;word-spacing:0px;text-anchor:middle;fill:#000000;fill-opacity:1;stroke:none"
       x="1168.361"
       y="1212.8004"
       id="text4246-3-2-2-3-6-2-7"><tspan
         style="font-size:45px"
         sodipodi:role="line"
         x="1168.361"
         y="1212.8004"
         id="tspan979">Si almenys </tspan><tspan
         style="font-size:45px"
         sodipodi:role="line"
         x="1168.361"
         y="1269.0504"
         id="tspan29225">me'ls pugués </tspan><tspan
         style="font-size:45px"
         sodipodi:role="line"
         x="1168.361"
         y="1325.3004"
         id="tspan29227">desenganxar </tspan><tspan
         style="font-size:45px"
         sodipodi:role="line"
         x="1168.361"
         y="1381.5504"
         id="tspan29229">de la cua.</tspan></text>
    <text
       xml:space="preserve"
       style="font-style:normal;font-variant:normal;font-weight:normal;font-stretch:normal;font-size:45px;line-height:1.25;font-family:Lavi;-inkscape-font-specification:Lavi;text-align:center;letter-spacing:0px;word-spacing:0px;text-anchor:middle;fill:#000000;fill-opacity:1;stroke:none"
       x="424.16843"
       y="2104.4697"
       id="text4246-3-2-2-3-6-2-7-2"><tspan
         style="font-size:45px"
         sodipodi:role="line"
         x="424.16843"
         y="2104.4697"
         id="tspan1171-9"><tspan
   style="font-style:normal;font-variant:normal;font-weight:bold;font-stretch:normal;font-family:Lavi;-inkscape-font-specification:'Lavi Bold'"
   id="tspan889">NO.</tspan> </tspan><tspan
         style="font-size:45px"
         sodipodi:role="line"
         x="424.16843"
         y="2160.7197"
         id="tspan31864">Me n'he de </tspan><tspan
         style="font-size:45px"
         sodipodi:role="line"
         x="424.16843"
         y="2216.9697"
         id="tspan56589">desempallegar!</tspan></text>
    <text
       xml:space="preserve"
       style="font-style:normal;font-variant:normal;font-weight:normal;font-stretch:normal;font-size:45px;line-height:1.25;font-family:Lavi;-inkscape-font-specification:Lavi;text-align:center;letter-spacing:0px;word-spacing:0px;text-anchor:middle;fill:#000000;fill-opacity:1;stroke:none"
       x="2119.5425"
       y="2123.1331"
       id="text4246-3-2-2-3-6-2-7-2-2"><tspan
         style="font-size:45px"
         sodipodi:role="line"
         x="2119.5425"
         y="2123.1331"
         id="tspan1271">Abans</tspan><tspan
         style="font-size:45px"
         sodipodi:role="line"
         x="2119.5425"
         y="2179.3831"
         id="tspan35263">que ens</tspan><tspan
         style="font-size:45px"
         sodipodi:role="line"
         x="2119.5425"
         y="2235.6331"
         id="tspan35265">atrapin!</tspan></text>
    <text
       xml:space="preserve"
       style="font-style:normal;font-variant:normal;font-weight:normal;font-stretch:normal;font-size:45px;line-height:1.25;font-family:Lavi;-inkscape-font-specification:Lavi;text-align:center;letter-spacing:0px;word-spacing:0px;text-anchor:middle;fill:#000000;fill-opacity:1;stroke:none"
       x="272.03073"
       y="2640.2056"
       id="text4246-3-2-2-3-6-2-7-2-3"><tspan
         style="font-size:45px"
         sodipodi:role="line"
         x="272.03073"
         y="2640.2056"
         id="tspan39435">Però també</tspan><tspan
         style="font-size:45px"
         sodipodi:role="line"
         x="272.03073"
         y="2696.4556"
         id="tspan39951"> estic...</tspan></text>
    <text
       xml:space="preserve"
       style="font-style:normal;font-variant:normal;font-weight:normal;font-stretch:normal;font-size:45px;line-height:1.25;font-family:Lavi;-inkscape-font-specification:Lavi;text-align:center;letter-spacing:0px;word-spacing:0px;text-anchor:middle;fill:#000000;fill-opacity:1;stroke:none"
       x="762.94037"
       y="2724.3162"
       id="text4246-3-2-2-3-6-2-7-2-3-3-3"><tspan
         style="font-size:45px"
         x="762.94037"
         y="2724.3162"
         id="tspan1318-9-6"
         sodipodi:role="line">...molt...</tspan><tspan
         style="font-size:45px"
         x="762.94037"
         y="2780.5662"
         id="tspan1356-7"
         sodipodi:role="line" /></text>
    <text
       xml:space="preserve"
       style="font-style:normal;font-variant:normal;font-weight:normal;font-stretch:normal;font-size:45px;line-height:1.25;font-family:Lavi;-inkscape-font-specification:Lavi;text-align:center;letter-spacing:0px;word-spacing:0px;text-anchor:middle;fill:#000000;fill-opacity:1;stroke:none"
       x="1188.5862"
       y="2509.2249"
       id="text4246-3-2-2-3-6-2-7-2-3-3"><tspan
         style="font-size:45px"
         sodipodi:role="line"
         x="1188.5862"
         y="2509.2249"
         id="tspan1318-9" /><tspan
         style="font-size:45px"
         sodipodi:role="line"
         x="1195.6174"
         y="2565.4749"
         id="tspan1356">...cansada... </tspan></text>
    <text
       xml:space="preserve"
       style="font-style:normal;font-variant:normal;font-weight:normal;font-stretch:normal;font-size:64.434px;line-height:1.25;font-family:Lavi;-inkscape-font-specification:Lavi;text-align:center;letter-spacing:0px;word-spacing:0px;text-anchor:middle;fill:#000000;fill-opacity:1;stroke:none;stroke-width:1.43187"
       x="1678.2407"
       y="2630.5286"
       id="text4246-3-2-2-3-6-2-7-2-3-3-4"><tspan
         style="font-style:normal;font-variant:normal;font-weight:bold;font-stretch:normal;font-size:64.434px;font-family:Lavi;-inkscape-font-specification:'Lavi Bold';stroke-width:1.43187"
         sodipodi:role="line"
         x="1678.2407"
         y="2630.5286"
         id="tspan1356-4">UPS!</tspan></text>
    <text
       xml:space="preserve"
       style="font-style:normal;font-variant:normal;font-weight:normal;font-stretch:normal;font-size:45px;line-height:1.25;font-family:Lavi;-inkscape-font-specification:Lavi;text-align:center;letter-spacing:0px;word-spacing:0px;text-anchor:middle;fill:#000000;fill-opacity:1;stroke:none"
       x="1905.2314"
       y="2713.1885"
       id="text4246-3-2-2-3-6-2-7-2-3-5"><tspan
         style="font-size:45px"
         sodipodi:role="line"
         x="1905.2314"
         y="2713.1885"
         id="tspan1072">Aguanta, </tspan><tspan
         style="font-size:45px"
         sodipodi:role="line"
         x="1905.2314"
         y="2769.4385"
         id="tspan1074">Pepper!</tspan></text>
    <text
       xml:space="preserve"
       style="font-style:normal;font-weight:normal;font-size:40px;line-height:1.25;font-family:sans-serif;fill:#000000;fill-opacity:1;stroke:none"
       x="2158.2588"
       y="2141.5225"
       id="text35501"><tspan
         sodipodi:role="line"
         id="tspan35499"
         x="2158.2588"
         y="2141.5225"></tspan><tspan
         sodipodi:role="line"
         id="tspan35503"
         x="2158.2588"
         y="2191.5225" /></text>
  </g>
</svg>
