<?xml version="1.0" encoding="UTF-8" standalone="no"?>
<svg
   xmlns:dc="http://purl.org/dc/elements/1.1/"
   xmlns:cc="http://creativecommons.org/ns#"
   xmlns:rdf="http://www.w3.org/1999/02/22-rdf-syntax-ns#"
   xmlns:svg="http://www.w3.org/2000/svg"
   xmlns="http://www.w3.org/2000/svg"
   xmlns:xlink="http://www.w3.org/1999/xlink"
   xmlns:sodipodi="http://sodipodi.sourceforge.net/DTD/sodipodi-0.dtd"
   xmlns:inkscape="http://www.inkscape.org/namespaces/inkscape"
   sodipodi:docname="E31P01.svg"
   height="3503"
   width="2481"
   inkscape:version="1.0 (4035a4fb49, 2020-05-01)"
   version="1.1"
   id="svg2">
  <metadata
     id="metadata8">
    <rdf:RDF>
      <cc:Work
         rdf:about="">
        <dc:format>image/svg+xml</dc:format>
        <dc:type
           rdf:resource="http://purl.org/dc/dcmitype/StillImage" />
        <dc:title />
      </cc:Work>
    </rdf:RDF>
  </metadata>
  <defs
     id="defs6">
    <filter
       inkscape:label="Drop Shadow"
       id="filter4375-4-1-1-1-9-5-8-3-4"
       style="color-interpolation-filters:sRGB">
      <feFlood
         result="flood"
         flood-color="rgb(240,109,14)"
         flood-opacity="1"
         id="feFlood4377-7-9-0-8-1-7-3-6" />
      <feComposite
         result="composite1"
         operator="in"
         in="flood"
         in2="SourceGraphic"
         id="feComposite4379-3-8-8-2-77-4-1-7" />
      <feMorphology
         result="result3"
         radius="6.2000000000000002"
         operator="dilate"
         id="feMorphology4393-1-0-49-8-9-3-0-5" />
      <feComposite
         result="fbSourceGraphic"
         operator="over"
         in="SourceGraphic"
         in2="result3"
         id="feComposite4385-9-5-7-0-8-8-7-3" />
      <feColorMatrix
         id="feColorMatrix4544-5"
         values="0 0 0 -1 0 0 0 0 -1 0 0 0 0 -1 0 0 0 0 1 0"
         in="fbSourceGraphic"
         result="fbSourceGraphicAlpha" />
      <feTurbulence
         result="turbulence"
         baseFrequency="0.129 0.0050000000000000001"
         seed="37"
         numOctaves="3"
         type="fractalNoise"
         id="feTurbulence4546-6" />
      <feDisplacementMap
         result="fbSourceGraphic"
         xChannelSelector="R"
         yChannelSelector="G"
         scale="6.6"
         in="fbSourceGraphic"
         in2="turbulence"
         id="feDisplacementMap4548-2" />
      <feColorMatrix
         id="feColorMatrix4670-9-3"
         values="0 0 0 -1 0 0 0 0 -1 0 0 0 0 -1 0 0 0 0 1 0"
         in="fbSourceGraphic"
         result="fbSourceGraphicAlpha" />
      <feFlood
         in="fbSourceGraphic"
         result="flood"
         flood-color="rgb(0,0,0)"
         flood-opacity="0.40999999999999998"
         id="feFlood4672-1-0" />
      <feComposite
         result="composite1"
         operator="in"
         in="flood"
         in2="fbSourceGraphic"
         id="feComposite4674-2-3" />
      <feGaussianBlur
         result="blur"
         stdDeviation="0"
         in="composite1"
         id="feGaussianBlur4676-7" />
      <feOffset
         result="offset"
         dy="6"
         dx="6"
         id="feOffset4678-0-0" />
      <feComposite
         result="composite2"
         operator="over"
         in="fbSourceGraphic"
         in2="offset"
         id="feComposite4680-9" />
    </filter>
    <filter
       inkscape:label="Drop Shadow"
       id="filter4375-4-1-1-1-9-5-8-3-4-3"
       style="color-interpolation-filters:sRGB">
      <feFlood
         result="flood"
         flood-color="rgb(240,109,14)"
         flood-opacity="1"
         id="feFlood4377-7-9-0-8-1-7-3-6-6" />
      <feComposite
         result="composite1"
         operator="in"
         in="flood"
         in2="SourceGraphic"
         id="feComposite4379-3-8-8-2-77-4-1-7-7" />
      <feMorphology
         result="result3"
         radius="6.2000000000000002"
         operator="dilate"
         id="feMorphology4393-1-0-49-8-9-3-0-5-5" />
      <feComposite
         result="fbSourceGraphic"
         operator="over"
         in="SourceGraphic"
         in2="result3"
         id="feComposite4385-9-5-7-0-8-8-7-3-3" />
      <feColorMatrix
         id="feColorMatrix4544-5-5"
         values="0 0 0 -1 0 0 0 0 -1 0 0 0 0 -1 0 0 0 0 1 0"
         in="fbSourceGraphic"
         result="fbSourceGraphicAlpha" />
      <feTurbulence
         result="turbulence"
         baseFrequency="0.129 0.0050000000000000001"
         seed="37"
         numOctaves="3"
         type="fractalNoise"
         id="feTurbulence4546-6-6" />
      <feDisplacementMap
         result="fbSourceGraphic"
         xChannelSelector="R"
         yChannelSelector="G"
         scale="6.6"
         in="fbSourceGraphic"
         in2="turbulence"
         id="feDisplacementMap4548-2-2" />
      <feColorMatrix
         id="feColorMatrix4670-9-3-9"
         values="0 0 0 -1 0 0 0 0 -1 0 0 0 0 -1 0 0 0 0 1 0"
         in="fbSourceGraphic"
         result="fbSourceGraphicAlpha" />
      <feFlood
         in="fbSourceGraphic"
         result="flood"
         flood-color="rgb(0,0,0)"
         flood-opacity="0.40999999999999998"
         id="feFlood4672-1-0-1" />
      <feComposite
         result="composite1"
         operator="in"
         in="flood"
         in2="fbSourceGraphic"
         id="feComposite4674-2-3-2" />
      <feGaussianBlur
         result="blur"
         stdDeviation="0"
         in="composite1"
         id="feGaussianBlur4676-7-7" />
      <feOffset
         result="offset"
         dy="6"
         dx="6"
         id="feOffset4678-0-0-0" />
      <feComposite
         result="composite2"
         operator="over"
         in="fbSourceGraphic"
         in2="offset"
         id="feComposite4680-9-9" />
    </filter>
    <filter
       inkscape:label="deevad outline effect"
       id="filter4375-4-1-1-1-9-6-9-2-1-5-4"
       style="color-interpolation-filters:sRGB">
      <feFlood
         result="flood"
         flood-color="rgb(0,0,0)"
         flood-opacity="1"
         id="feFlood4377-7-9-0-8-1-0-2-2-06-5-3" />
      <feComposite
         result="composite1"
         operator="in"
         in="flood"
         in2="SourceGraphic"
         id="feComposite4379-3-8-8-2-77-6-0-8-3-8-64" />
      <feMorphology
         result="result3"
         radius="4"
         operator="dilate"
         id="feMorphology4393-1-0-49-8-9-2-2-9-2-7-3" />
      <feComposite
         result="composite2"
         operator="over"
         in="SourceGraphic"
         in2="result3"
         id="feComposite4385-9-5-7-0-8-6-3-7-0-1-1" />
    </filter>
    <filter
       inkscape:label="Roughen"
       id="filter5561-7-8"
       style="color-interpolation-filters:sRGB">
      <feFlood
         result="flood"
         flood-color="rgb(162,21,39)"
         flood-opacity="1"
         id="feFlood5563-4-9" />
      <feComposite
         result="composite1"
         operator="in"
         in="flood"
         in2="SourceGraphic"
         id="feComposite5565-6-3-4" />
      <feMorphology
         result="result3"
         radius="5.5"
         operator="dilate"
         id="feMorphology5567-3-48" />
      <feComposite
         result="fbSourceGraphic"
         operator="over"
         in="SourceGraphic"
         in2="result3"
         id="feComposite5569-6-6-8" />
      <feColorMatrix
         id="feColorMatrix4681-5"
         values="0 0 0 -1 0 0 0 0 -1 0 0 0 0 -1 0 0 0 0 1 0"
         in="fbSourceGraphic"
         result="fbSourceGraphicAlpha" />
      <feTurbulence
         result="turbulence"
         baseFrequency="0.001 0.0199"
         seed="33"
         numOctaves="1"
         type="fractalNoise"
         id="feTurbulence4683-3" />
      <feDisplacementMap
         xChannelSelector="R"
         yChannelSelector="G"
         scale="37.8"
         in="fbSourceGraphic"
         in2="turbulence"
         id="feDisplacementMap4685-0" />
    </filter>
    <filter
       inkscape:label="deevad outline effect"
       id="filter5561"
       style="color-interpolation-filters:sRGB">
      <feFlood
         result="flood"
         flood-color="rgb(0,0,0)"
         flood-opacity="1"
         id="feFlood5563" />
      <feComposite
         result="composite1"
         operator="in"
         in="flood"
         in2="SourceGraphic"
         id="feComposite5565" />
      <feMorphology
         result="result3"
         radius="1.8999999999999999 6.0999999999999996"
         operator="dilate"
         id="feMorphology5567" />
      <feComposite
         result="composite2"
         operator="over"
         in="SourceGraphic"
         in2="result3"
         id="feComposite5569" />
    </filter>
    <filter
       inkscape:label="Drop Shadow"
       id="filter4375-4-1-1-1-9-5-8-3-4-6"
       style="color-interpolation-filters:sRGB">
      <feFlood
         result="flood"
         flood-color="rgb(240,109,14)"
         flood-opacity="1"
         id="feFlood4377-7-9-0-8-1-7-3-6-1" />
      <feComposite
         result="composite1"
         operator="in"
         in="flood"
         in2="SourceGraphic"
         id="feComposite4379-3-8-8-2-77-4-1-7-8" />
      <feMorphology
         result="result3"
         radius="6.2000000000000002"
         operator="dilate"
         id="feMorphology4393-1-0-49-8-9-3-0-5-7" />
      <feComposite
         result="fbSourceGraphic"
         operator="over"
         in="SourceGraphic"
         in2="result3"
         id="feComposite4385-9-5-7-0-8-8-7-3-9" />
      <feColorMatrix
         id="feColorMatrix4544-5-2"
         values="0 0 0 -1 0 0 0 0 -1 0 0 0 0 -1 0 0 0 0 1 0"
         in="fbSourceGraphic"
         result="fbSourceGraphicAlpha" />
      <feTurbulence
         result="turbulence"
         baseFrequency="0.129 0.0050000000000000001"
         seed="37"
         numOctaves="3"
         type="fractalNoise"
         id="feTurbulence4546-6-0" />
      <feDisplacementMap
         result="fbSourceGraphic"
         xChannelSelector="R"
         yChannelSelector="G"
         scale="6.6"
         in="fbSourceGraphic"
         in2="turbulence"
         id="feDisplacementMap4548-2-23" />
      <feColorMatrix
         id="feColorMatrix4670-9-3-7"
         values="0 0 0 -1 0 0 0 0 -1 0 0 0 0 -1 0 0 0 0 1 0"
         in="fbSourceGraphic"
         result="fbSourceGraphicAlpha" />
      <feFlood
         in="fbSourceGraphic"
         result="flood"
         flood-color="rgb(0,0,0)"
         flood-opacity="0.40999999999999998"
         id="feFlood4672-1-0-5" />
      <feComposite
         result="composite1"
         operator="in"
         in="flood"
         in2="fbSourceGraphic"
         id="feComposite4674-2-3-9" />
      <feGaussianBlur
         result="blur"
         stdDeviation="0"
         in="composite1"
         id="feGaussianBlur4676-7-2" />
      <feOffset
         result="offset"
         dy="6"
         dx="6"
         id="feOffset4678-0-0-2" />
      <feComposite
         result="composite2"
         operator="over"
         in="fbSourceGraphic"
         in2="offset"
         id="feComposite4680-9-8" />
    </filter>
    <filter
       inkscape:label="Drop Shadow"
       id="filter4375-4-1-1-1-9-5-8-3-4-3-3"
       style="color-interpolation-filters:sRGB">
      <feFlood
         result="flood"
         flood-color="rgb(246,17,56)"
         flood-opacity="1"
         id="feFlood4377-7-9-0-8-1-7-3-6-6-6" />
      <feComposite
         result="composite1"
         operator="in"
         in="flood"
         in2="SourceGraphic"
         id="feComposite4379-3-8-8-2-77-4-1-7-7-7" />
      <feMorphology
         result="result3"
         radius="6.2000000000000002"
         operator="dilate"
         id="feMorphology4393-1-0-49-8-9-3-0-5-5-5" />
      <feComposite
         result="fbSourceGraphic"
         operator="over"
         in="SourceGraphic"
         in2="result3"
         id="feComposite4385-9-5-7-0-8-8-7-3-3-3" />
      <feColorMatrix
         id="feColorMatrix4544-5-5-5"
         values="0 0 0 -1 0 0 0 0 -1 0 0 0 0 -1 0 0 0 0 1 0"
         in="fbSourceGraphic"
         result="fbSourceGraphicAlpha" />
      <feTurbulence
         result="turbulence"
         baseFrequency="0.129 0.0050000000000000001"
         seed="37"
         numOctaves="3"
         type="fractalNoise"
         id="feTurbulence4546-6-6-6" />
      <feDisplacementMap
         result="fbSourceGraphic"
         xChannelSelector="R"
         yChannelSelector="G"
         scale="6.6"
         in="fbSourceGraphic"
         in2="turbulence"
         id="feDisplacementMap4548-2-2-2" />
      <feColorMatrix
         id="feColorMatrix4670-9-3-9-9"
         values="0 0 0 -1 0 0 0 0 -1 0 0 0 0 -1 0 0 0 0 1 0"
         in="fbSourceGraphic"
         result="fbSourceGraphicAlpha" />
      <feFlood
         in="fbSourceGraphic"
         result="flood"
         flood-color="rgb(0,0,0)"
         flood-opacity="0.40999999999999998"
         id="feFlood4672-1-0-1-1" />
      <feComposite
         result="composite1"
         operator="in"
         in="flood"
         in2="fbSourceGraphic"
         id="feComposite4674-2-3-2-2" />
      <feGaussianBlur
         result="blur"
         stdDeviation="0"
         in="composite1"
         id="feGaussianBlur4676-7-7-7" />
      <feOffset
         result="offset"
         dy="6"
         dx="6"
         id="feOffset4678-0-0-0-0" />
      <feComposite
         result="composite2"
         operator="over"
         in="fbSourceGraphic"
         in2="offset"
         id="feComposite4680-9-9-9" />
    </filter>
  </defs>
  <sodipodi:namedview
     inkscape:document-rotation="0"
     inkscape:snap-global="false"
     inkscape:current-layer="layer1"
     inkscape:window-maximized="1"
     inkscape:window-y="28"
     inkscape:window-x="0"
     inkscape:cy="2337.1793"
     inkscape:cx="1210.0011"
     inkscape:zoom="0.34980128"
     showgrid="false"
     id="namedview4"
     inkscape:window-height="1025"
     inkscape:window-width="1920"
     inkscape:pageshadow="2"
     inkscape:pageopacity="0"
     guidetolerance="10"
     gridtolerance="10"
     objecttolerance="10"
     borderopacity="1"
     bordercolor="#666666"
     pagecolor="#ffffff" />
  <g
     sodipodi:insensitive="true"
     inkscape:label="artwork"
     id="layer2"
     inkscape:groupmode="layer">
    <image
       sodipodi:absref="C:\Users\stero\Documents\Kernewek\Pepper and Carrot\webcomics\ep31_The-Fight\lang\gfx_Pepper-and-Carrot_by-David-Revoy_E31P01.png"
       xlink:href="../gfx_Pepper-and-Carrot_by-David-Revoy_E31P01.png"
       width="2481"
       height="3503"
       id="image10"
       x="0"
       y="0" />
  </g>
  <g
     inkscape:label="speechbubbles"
     id="layer3"
     inkscape:groupmode="layer">
    <g
       style="stroke-width:1.03945"
       transform="matrix(0.77819808,0,0,0.95027581,-105.38251,-15.162991)"
       id="g987">
      <rect
         style="color:#000000;clip-rule:nonzero;display:inline;overflow:visible;visibility:visible;opacity:0.75;isolation:auto;mix-blend-mode:normal;color-interpolation:sRGB;color-interpolation-filters:linearRGB;solid-color:#000000;solid-opacity:1;vector-effect:none;fill:#ffffff;fill-opacity:1;fill-rule:nonzero;stroke:none;stroke-width:1.53526;stroke-linecap:butt;stroke-linejoin:miter;stroke-miterlimit:4;stroke-dasharray:none;stroke-dashoffset:0;stroke-opacity:1;marker:none;paint-order:stroke fill markers;color-rendering:auto;image-rendering:auto;shape-rendering:auto;text-rendering:auto;enable-background:accumulate"
         id="rect965"
         width="558.58698"
         height="141.97903"
         x="231.95651"
         y="159.5106" />
      <rect
         style="color:#000000;clip-rule:nonzero;display:inline;overflow:visible;visibility:visible;opacity:0.75;isolation:auto;mix-blend-mode:normal;color-interpolation:sRGB;color-interpolation-filters:linearRGB;solid-color:#000000;solid-opacity:1;vector-effect:none;fill:none;fill-opacity:1;fill-rule:nonzero;stroke:#f9f9f9;stroke-width:4.54965;stroke-linecap:butt;stroke-linejoin:miter;stroke-miterlimit:4;stroke-dasharray:none;stroke-dashoffset:0;stroke-opacity:1;marker:none;paint-order:stroke fill markers;color-rendering:auto;image-rendering:auto;shape-rendering:auto;text-rendering:auto;enable-background:accumulate"
         id="rect965-3"
         width="572.68457"
         height="155.94391"
         x="224.4621"
         y="152.22754" />
    </g>
    <path
       inkscape:connector-curvature="0"
       id="path4456-8"
       d="m 629.17163,1774.9461 c 35.5569,-14.5366 41.67626,-31.6471 47.18634,-43.5618 -2.65923,-2.5035 -6.54732,-8.0178 -6.54732,-8.0178 0,0 12.65658,-22.4957 15.10184,-32.5562 2.44525,-10.0606 -7.9819,-12.8713 -7.9819,-12.8713 0,0 -25.51886,43.1486 -33.28059,50.8828 7.56813,6.5068 10.43323,10.8522 14.11349,11.8438 -1.22076,7.7115 -16.12683,28.7066 -28.59186,34.2805 z"
       style="color:#000000;display:inline;overflow:visible;visibility:visible;fill:#ffffff;fill-opacity:1;fill-rule:nonzero;stroke:none;stroke-width:1px;marker:none;enable-background:accumulate" />
    <path
       sodipodi:nodetypes="ccccccccccccccc"
       inkscape:connector-curvature="0"
       id="path3549-3-3"
       d="m 629.09295,1728.3238 c 4.40425,-5.7389 23.43868,-22.5632 20.63895,-1.7093 30.58105,-24.0626 51.91241,-11.6681 73.76945,-1.3461 7.57476,-7.4543 10.56249,-19.9016 29.77617,-14.6854 -1.30927,-8.4054 6.34386,-13.1946 21.9941,-14.7579 -19.12384,-7.1942 -21.88574,-12.6571 16.23787,-13.7909 -28.17076,-3.7867 -54.35217,-7.9096 -17.85432,-22.573 -10.32297,-1.6479 -37.78989,10.9331 -18.13398,-32.8937 -20.49792,12.3908 -41.0173,18.1653 -59.49011,-14.8794 -9.51402,11.1074 -21.96642,17.9114 -40.18515,-0.8454 -6.66741,11.3454 -32.3805,9.3796 -41.34285,5.8825 16.54791,15.4634 14.40917,23.6344 -11.54163,21.946 38.81523,28.907 4.21872,21.2305 -3.82823,26.4946 32.37907,12.1553 15.37702,20.6551 7.50424,30.1747 38.8634,4.8444 23.16799,19.7519 22.45549,32.9833 z"
       style="color:#000000;display:inline;overflow:visible;visibility:visible;fill:#ffffff;fill-opacity:1;fill-rule:nonzero;stroke:none;stroke-width:1px;marker:none;enable-background:accumulate" />
    <path
       sodipodi:nodetypes="cccccccc"
       inkscape:transform-center-y="-165"
       inkscape:transform-center-x="-76.559845"
       inkscape:connector-curvature="0"
       id="path1305"
       d="m 1307.4854,2602.0637 c -31.2075,-49.718 -57.6867,-99.436 -69.0349,-134.022 18.4436,2.9618 26.7085,2.9317 37.3517,15.2501 -6.6197,-51.879 -58.8324,-144.9481 -75.8547,-180.6151 23.642,67.011 45.933,126.4555 49.7157,146.9915 -20.3995,-8.647 -30.1264,-11.8895 -47.1487,-11.8895 12.2939,29.182 49.1756,139.426 50.1212,168.608 0.9457,29.182 54.8497,-4.323 54.8497,-4.323 z"
       style="fill:#ffffff;fill-rule:evenodd;stroke:none;stroke-width:1px;stroke-linecap:butt;stroke-linejoin:miter;stroke-opacity:1" />
    <path
       sodipodi:nodetypes="cccc"
       inkscape:connector-curvature="0"
       id="path4430-0"
       d="m 1751.6337,2648.2438 c -37.0295,110.498 234.4739,65.4497 257.3564,60.5103 18.6855,-3.0136 31.6973,-43.4872 7.2566,-73.9632 -12.8946,-17.7601 -228.662,-45.2611 -264.613,13.4529 z"
       style="fill:#ffffff;fill-rule:evenodd;stroke:none;stroke-width:0.94369966px;stroke-linecap:butt;stroke-linejoin:miter;stroke-opacity:1" />
    <path
       sodipodi:nodetypes="ccccsccc"
       inkscape:connector-curvature="0"
       id="path5074-8"
       d="m 1784.1622,2630.2265 c -46.8802,-59.9992 -98.8995,-156.6325 -31.3673,-206.3578 -4.5282,-49.7516 -28.3011,-87.1868 24.4603,-157.6171 -23.1965,52.224 -30.3543,103.8456 -3.9747,167.0512 -52.672,28.328 -38.7464,100.0612 37.0538,175.6255 63.0326,62.8365 48.7653,39.6069 48.7653,39.6069 l -56.4955,0.5477 z"
       style="color:#000000;display:inline;overflow:visible;visibility:visible;fill:#ffffff;fill-opacity:1;fill-rule:nonzero;stroke:none;stroke-width:1px;marker:none;enable-background:accumulate" />
    <path
       sodipodi:nodetypes="cccccccccccccc"
       inkscape:connector-curvature="0"
       id="path4489"
       d="m 2246.4302,2469.2243 c 10.8091,28.67 23.8371,40.143 43.3145,1.635 15.888,9.306 15.7808,38.162 67.8321,3.269 -29.8746,44.044 -17.3435,47.61 0,46.583 -25.1962,57.06 -3.7094,48.215 5.7208,56.391 -30.8793,34.465 -26.8332,50.637 -12.2588,61.294 -10.4115,20.879 -17.6853,41.13 4.0862,55.573 -17.0267,5.697 -41.1356,3.132 -33.5074,37.594 -27.0363,-21.803 -45.9051,-15.837 -62.1113,-0.818 -13.9826,-19.98 -25.3371,-45.217 -64.5631,-14.71 21.7239,-33.802 13.1289,-50.76 -4.0863,-62.929 32.342,-32.722 7.0945,-44.116 -17.9796,-55.573 45.3309,-3.935 32.4477,-40.21 20.4314,-76.005 21.2249,7.19 42.525,14.905 53.1215,-52.304 z"
       style="fill:#ffffff;fill-rule:evenodd;stroke:none;stroke-width:1px;stroke-linecap:butt;stroke-linejoin:miter;stroke-opacity:1" />
    <path
       sodipodi:nodetypes="cccccccc"
       inkscape:connector-curvature="0"
       id="path5066-6"
       d="m 2289.8945,2516.5804 c -8.018,-28.8131 -21.1087,-65.6141 -27.8785,-69.8583 9.7815,1.1772 18.6352,0.4194 25.549,-0.043 -1.8459,-14.8181 -24.8055,-57.3272 -37.1358,-81.7061 34.1168,30.0506 62.2825,80.9654 68.2074,103.5062 -9.7235,-3.4686 -18.2501,-4.2731 -22.9717,-2.9591 -2.5719,11.5641 19.8692,47.8689 20.5932,47.9117 z"
       style="color:#000000;display:inline;overflow:visible;visibility:visible;fill:#ffffff;fill-opacity:1;fill-rule:nonzero;stroke:none;stroke-width:1px;marker:none;enable-background:accumulate" />
    <path
       sodipodi:nodetypes="cccccccccccccccccccccccccccc"
       inkscape:connector-curvature="0"
       id="path4508-6"
       d="m 1081.9761,2552.4944 c 56.6997,23.694 68.7295,16.7115 54.2445,-33.46 40.5629,54.6125 94.7523,56.8871 105.8854,27.5631 35.8138,25.205 46.2631,19.3709 64.0225,1.2359 6.6193,23.322 20.8146,13.911 33.0999,12.752 4.0464,5.277 40.5157,16.957 96.6606,-0.509 3.637,6.984 8.5363,12.998 41.4229,-2.486 8.5202,28.348 35.856,-1.571 63.8604,-33.56 -17.4477,39.327 -10.2126,44.882 12.0818,29.831 -10.1928,16.195 -16.2893,28.732 22.437,1.243 -13.2577,29.893 21.5245,9.374 77.6682,-33.56 -28.0838,31.737 -102.556,85.226 -53.5044,80.792 -6.8407,9.356 -31.2406,17.507 41.4226,32.316 -13.5652,6.349 -54.9795,-2.929 -20.4325,23.952 4.6288,3.143 -10.8666,5.061 18.7067,13.336 -17.4576,-0.563 -28.1639,1.449 -12.0817,13.673 -31.8664,-0.661 -19.9434,12.193 3.4519,28.587 -46.1471,-21.029 -48.6867,-13.386 -50.0528,-4.971 -57.8357,-28.671 -77.136,-18.215 -65.0618,4.909 -25.5394,-31.222 -85.5408,-14.822 -88.5482,10.006 -8.9115,-24.009 -108.1504,-28.973 -130.9619,-2.548 14.1383,-28.159 -15.5533,-14.899 -45.3992,-4.475 16.3441,-31.606 -25.1352,-22.298 -77.6681,8.452 29.4183,-34.902 -3.9939,-22.294 -53.5045,2.486 18.7067,-34.287 -11.7591,-50.869 -84.5717,-52.203 34.8504,-12.368 55.1733,-27.933 18.9855,-55.933 40.7939,8.245 30.4296,-15.136 1.6309,-45.554 44.4951,24.967 43.5672,11.625 26.206,-21.875 z"
       style="display:inline;fill:#ffffff;fill-rule:evenodd;stroke:none;stroke-width:1.15448px;stroke-linecap:butt;stroke-linejoin:miter;stroke-opacity:1" />
  </g>
  <g
     inkscape:label="txt"
     id="layer1"
     inkscape:groupmode="layer">
    <text
       id="text4246-91"
       y="193.14441"
       x="101.26489"
       style="font-style:normal;font-variant:normal;font-weight:normal;font-stretch:normal;font-size:10.501px;line-height:0%;font-family:Lavi;-inkscape-font-specification:Lavi;text-align:center;letter-spacing:0px;word-spacing:0px;text-anchor:middle;display:inline;fill:#000000;fill-opacity:1;stroke:none;stroke-width:1"
       xml:space="preserve"><tspan
         id="tspan960"
         y="193.14441"
         x="101.26489"
         style="font-style:normal;font-variant:normal;font-weight:normal;font-stretch:normal;font-size:40px;line-height:1.25;font-family:Lavi;-inkscape-font-specification:Lavi;text-align:start;text-anchor:start;fill:#000000;stroke-width:1"
         sodipodi:role="line">Tenebrume,</tspan><tspan
         id="tspan140"
         y="243.14441"
         x="101.26489"
         style="font-style:normal;font-variant:normal;font-weight:normal;font-stretch:normal;font-size:40px;line-height:1.25;font-family:Lavi;-inkscape-font-specification:Lavi;text-align:start;text-anchor:start;fill:#000000;stroke-width:1"
         sodipodi:role="line">bre sans a Chaosah.</tspan></text>
    <text
       transform="matrix(0.91010218,-0.46835856,-0.31702395,1.5567826,1607.004,-1524.9558)"
       id="text4580-6-0-3"
       y="1584.5073"
       x="787.65729"
       style="font-style:normal;font-variant:normal;font-weight:normal;font-stretch:normal;line-height:0%;font-family:Lavi;-inkscape-font-specification:Lavi;letter-spacing:0px;word-spacing:0px;display:inline;fill:#ffffff;fill-opacity:1;stroke:none;stroke-width:0.726028;stroke-miterlimit:4;stroke-dasharray:none;stroke-opacity:1;filter:url(#filter4375-4-1-1-1-9-5-8-3-4)"
       xml:space="preserve"><tspan
         style="font-size:70px;line-height:1.25;fill:#ffffff;fill-opacity:1;stroke:none;stroke-width:0.726028;stroke-opacity:1"
         y="1584.5073"
         x="787.65729"
         id="tspan4582-1-1-6"
         sodipodi:role="line"><tspan
           id="tspan4315-8-0"
           style="font-size:93.1495px;fill:#ffffff;fill-opacity:1;stroke:none;stroke-width:0.726028;stroke-opacity:1">VRoo<tspan
   id="tspan951"
   style="font-size:79.4373px;stroke:none;stroke-width:0.726028">um</tspan></tspan><tspan
           id="tspan4313-2-6"
           style="font-size:95.3247px;fill:#ffffff;fill-opacity:1;stroke:none;stroke-width:0.726028;stroke-opacity:1">!</tspan></tspan></text>
    <text
       transform="matrix(0.96249446,0,-0.17681032,1.038967,0,0)"
       id="text4246-2-3-1-3-9-9-6"
       y="1628.063"
       x="1008.4934"
       style="font-style:normal;font-variant:normal;font-weight:normal;font-stretch:normal;font-size:14.6707px;line-height:0%;font-family:Lavi;-inkscape-font-specification:Lavi;text-align:center;letter-spacing:0px;word-spacing:0px;text-anchor:middle;display:inline;fill:#000000;fill-opacity:1;stroke:none;stroke-width:1"
       xml:space="preserve"><tspan
         id="tspan4341-1"
         y="1628.063"
         x="1008.4934"
         style="font-size:55.0153px;line-height:1.25;stroke-width:1"
         sodipodi:role="line">Tsk!</tspan></text>
    <text
       transform="matrix(1.1590129,-0.97328077,-0.02145955,2.5822564,-523.8044,-576.04227)"
       id="text4580-6-0-3-3"
       y="1584.5073"
       x="787.65729"
       style="font-style:normal;font-variant:normal;font-weight:normal;font-stretch:normal;line-height:0%;font-family:Lavi;-inkscape-font-specification:Lavi;letter-spacing:0px;word-spacing:0px;display:inline;fill:#ffffff;fill-opacity:1;stroke:none;stroke-width:0.474297;stroke-miterlimit:4;stroke-dasharray:none;stroke-opacity:1;filter:url(#filter4375-4-1-1-1-9-5-8-3-4-3)"
       xml:space="preserve"><tspan
         style="font-size:70px;line-height:1.25;fill:#ffffff;fill-opacity:1;stroke:none;stroke-width:0.474297;stroke-opacity:1"
         y="1584.5073"
         x="787.65729"
         id="tspan4582-1-1-6-6"
         sodipodi:role="line"><tspan
           id="tspan4315-8-0-0"
           style="font-size:93.1495px;fill:#ffffff;fill-opacity:1;stroke:none;stroke-width:0.474297;stroke-opacity:1">VRoo<tspan
   id="tspan951-6"
   style="font-size:79.4373px;stroke:none;stroke-width:0.474297">uum</tspan></tspan></tspan></text>
    <text
       transform="matrix(1.1442968,-0.17452415,-0.86661038,1.5794501,1541.9368,-632.01185)"
       id="text4580-6-0-3-3-3"
       y="1584.5073"
       x="787.65729"
       style="font-style:normal;font-variant:normal;font-weight:normal;font-stretch:normal;line-height:0%;font-family:Lavi;-inkscape-font-specification:Lavi;letter-spacing:0px;word-spacing:0px;display:inline;fill:#ffffff;fill-opacity:1;stroke:none;stroke-width:0.635372;stroke-miterlimit:4;stroke-dasharray:none;stroke-opacity:1;filter:url(#filter4375-4-1-1-1-9-5-8-3-4-3-3)"
       xml:space="preserve"><tspan
         style="font-size:70px;line-height:1.25;fill:#ffffff;fill-opacity:1;stroke:none;stroke-width:0.635372;stroke-opacity:1"
         y="1584.5073"
         x="787.65729"
         id="tspan4582-1-1-6-6-6"
         sodipodi:role="line"><tspan
           id="tspan4313-2-6-2-2"
           style="font-size:95.3247px;fill:#ffffff;fill-opacity:1;stroke:none;stroke-width:0.635372;stroke-opacity:1">Brzouu!</tspan></tspan></text>
    <text
       id="text4246-3-5-1-0-0-8-9-3-9-8"
       y="2654.2275"
       x="1343.1772"
       style="font-style:normal;font-variant:normal;font-weight:normal;font-stretch:normal;font-size:11.4833px;line-height:0%;font-family:Lavi;-inkscape-font-specification:Lavi;text-align:center;letter-spacing:0px;word-spacing:0px;text-anchor:middle;fill:#000000;fill-opacity:1;stroke:none;stroke-width:1"
       xml:space="preserve"><tspan
         id="tspan1289-6"
         y="2654.2275"
         x="1343.1772"
         style="font-size:61.2442px;line-height:1.2;stroke-width:1"
         sodipodi:role="line">Kemmer henna!</tspan></text>
    <text
       transform="matrix(0.89499558,-0.36376929,-0.41874825,1.5248626,1084.6235,-169.80624)"
       x="1705.2566"
       y="1742.2045"
       inkscape:transform-center-y="166.71592"
       inkscape:transform-center-x="-173.31711"
       id="text4251-1"
       style="color:#000000;font-style:normal;font-variant:normal;font-weight:normal;font-stretch:normal;line-height:0%;font-family:Arial;-inkscape-font-specification:Arial;letter-spacing:0.0273496px;word-spacing:0px;clip-rule:nonzero;display:inline;overflow:visible;visibility:visible;opacity:1;isolation:auto;mix-blend-mode:normal;color-interpolation:sRGB;color-interpolation-filters:linearRGB;solid-color:#000000;solid-opacity:1;fill:#ffffff;fill-opacity:1;fill-rule:nonzero;stroke:#ffffff;stroke-width:1.02115;stroke-linecap:butt;stroke-linejoin:miter;stroke-miterlimit:4;stroke-dasharray:none;stroke-dashoffset:0;stroke-opacity:1;marker:none;filter:url(#filter5561);color-rendering:auto;image-rendering:auto;shape-rendering:auto;text-rendering:auto;enable-background:accumulate"
       xml:space="preserve"><tspan
         style="font-style:normal;font-variant:normal;font-weight:normal;font-stretch:normal;font-size:45.5771px;line-height:1.25;font-family:Lavi;-inkscape-font-specification:Lavi;letter-spacing:8.21055px;stroke-width:1.02115"
         y="1742.2045"
         x="1705.2566"
         id="tspan4253-5"
         sodipodi:role="line">Schh!</tspan></text>
    <text
       id="text4246-7-6-4-6-4"
       y="2684.9863"
       x="1892.8262"
       style="font-style:normal;font-variant:normal;font-weight:normal;font-stretch:normal;line-height:0%;font-family:Lavi;-inkscape-font-specification:Lavi;text-align:center;letter-spacing:0px;word-spacing:0px;text-anchor:middle;fill:#000000;fill-opacity:1;stroke:none"
       xml:space="preserve"><tspan
         sodipodi:role="line"
         id="tspan142"
         y="2684.9863"
         x="1892.8262"
         style="font-size:45px;line-height:1.25">Bodhesik!</tspan></text>
    <text
       transform="matrix(0.83492136,-0.87630452,0.22267567,0.96400493,0,0)"
       id="text4246-4-9-8-0-3"
       y="4210.5483"
       x="1607.3204"
       style="font-style:normal;font-variant:normal;font-weight:normal;font-stretch:normal;font-size:10.4619px;line-height:0%;font-family:Lavi;-inkscape-font-specification:Lavi;text-align:center;letter-spacing:0px;word-spacing:0px;text-anchor:middle;fill:#000000;fill-opacity:1;stroke:none;stroke-width:0.871821"
       xml:space="preserve"><tspan
         id="tspan4205-3-3"
         y="4210.5483"
         x="1607.3204"
         style="font-size:122.964px;line-height:1.25;stroke-width:0.871821"
         sodipodi:role="line"><tspan
   id="tspan4438"
   style="font-size:105.886px;stroke-width:0.871821">!</tspan>!</tspan></text>
    <text
       transform="matrix(1.0457775,-1.3497041,0.35783864,2.8171264,591.95945,-14.7141)"
       id="text4580-6-0-3-9"
       y="1584.5073"
       x="787.65729"
       style="font-style:normal;font-variant:normal;font-weight:normal;font-stretch:normal;line-height:0%;font-family:Lavi;-inkscape-font-specification:Lavi;letter-spacing:0px;word-spacing:0px;display:inline;fill:#ffffff;fill-opacity:1;stroke:none;stroke-width:0.441556;stroke-miterlimit:4;stroke-dasharray:none;stroke-opacity:1;filter:url(#filter4375-4-1-1-1-9-5-8-3-4-6)"
       xml:space="preserve"><tspan
         style="font-style:normal;font-variant:normal;font-weight:bold;font-stretch:normal;font-size:70px;line-height:1.25;font-family:Lavi;-inkscape-font-specification:'Lavi Bold';fill:#ffffff;fill-opacity:1;stroke:none;stroke-width:0.441556;stroke-opacity:1"
         y="1584.5073"
         x="787.65729"
         id="tspan4582-1-1-6-7"
         sodipodi:role="line"><tspan
           id="tspan4315-8-0-3"
           style="font-style:normal;font-variant:normal;font-weight:bold;font-stretch:normal;font-size:79.4689px;font-family:Lavi;-inkscape-font-specification:'Lavi Bold';fill:#ffffff;fill-opacity:1;stroke:none;stroke-width:0.441556;stroke-opacity:1">SLAMM</tspan><tspan
           id="tspan4313-2-6-29"
           style="font-style:normal;font-variant:normal;font-weight:bold;font-stretch:normal;font-size:95.3247px;font-family:Lavi;-inkscape-font-specification:'Lavi Bold';fill:#ffffff;fill-opacity:1;stroke:none;stroke-width:0.441556;stroke-opacity:1">!</tspan></tspan></text>
  </g>
</svg>
