<?xml version="1.0" encoding="UTF-8" standalone="no"?>
<!-- Created with Inkscape (http://www.inkscape.org/) -->

<svg
   id="svg2"
   version="1.1"
   inkscape:version="1.1.2 (0a00cf5339, 2022-02-04)"
   width="2481"
   height="3503"
   sodipodi:docname="E37P01.svg"
   xmlns:inkscape="http://www.inkscape.org/namespaces/inkscape"
   xmlns:sodipodi="http://sodipodi.sourceforge.net/DTD/sodipodi-0.dtd"
   xmlns:xlink="http://www.w3.org/1999/xlink"
   xmlns="http://www.w3.org/2000/svg"
   xmlns:svg="http://www.w3.org/2000/svg"
   xmlns:rdf="http://www.w3.org/1999/02/22-rdf-syntax-ns#"
   xmlns:cc="http://creativecommons.org/ns#"
   xmlns:dc="http://purl.org/dc/elements/1.1/">
  <metadata
     id="metadata8">
    <rdf:RDF>
      <cc:Work
         rdf:about="">
        <dc:format>image/svg+xml</dc:format>
        <dc:type
           rdf:resource="http://purl.org/dc/dcmitype/StillImage" />
        <dc:title />
      </cc:Work>
    </rdf:RDF>
  </metadata>
  <defs
     id="defs6" />
  <sodipodi:namedview
     pagecolor="#ffffff"
     bordercolor="#666666"
     borderopacity="1"
     objecttolerance="10"
     gridtolerance="10"
     guidetolerance="10"
     inkscape:pageopacity="0"
     inkscape:pageshadow="2"
     inkscape:window-width="1920"
     inkscape:window-height="1011"
     id="namedview4"
     showgrid="false"
     inkscape:zoom="0.45720279"
     inkscape:cx="1112.1979"
     inkscape:cy="2876.1854"
     inkscape:window-x="1920"
     inkscape:window-y="32"
     inkscape:window-maximized="1"
     inkscape:current-layer="layer1"
     inkscape:pagecheckerboard="0"
     inkscape:showpageshadow="0"
     inkscape:deskcolor="#d1d1d1"
     showguides="false" />
  <g
     inkscape:groupmode="layer"
     id="layer2"
     inkscape:label="artwork"
     sodipodi:insensitive="true">
    <image
       xlink:href="../gfx_Pepper-and-Carrot_by-David-Revoy_E37P01.png"
       y="0"
       x="0"
       id="image10"
       height="3503"
       width="2481" />
  </g>
  <g
     inkscape:groupmode="layer"
     id="layer3"
     inkscape:label="speechbubbles">
    <path
       style="color:#000000;display:inline;overflow:visible;visibility:visible;fill:#ffffff;fill-opacity:1;fill-rule:nonzero;stroke:none;stroke-width:0.999998px;marker:none;enable-background:accumulate"
       d="m 1957.6629,2315.1087 c 15.8896,4.7552 27.218,-10.2594 36.5884,-10.1737 9.3705,0.085 20.4858,-1.4767 31.5776,-11.7728 11.8207,-15.5362 46.6253,-47.4088 4.9039,-39.2982 -15.2177,1.3778 -15.6011,25.3088 -21.9093,33.4823 -6.3081,8.1734 -14.6485,3.6312 -21.2243,9.0949 -6.5758,5.4636 -12.6894,16.2295 -29.9363,18.6675 z"
       id="path4538-0"
       inkscape:connector-curvature="0"
       sodipodi:nodetypes="ccccccc" />
    <path
       style="color:#000000;display:inline;overflow:visible;visibility:visible;fill:#ffffff;fill-opacity:1;fill-rule:nonzero;stroke:none;stroke-width:1px;marker:none;enable-background:accumulate"
       d="m 2249.24,3145.8561 c 34.555,29.8645 38.7386,62.8188 5.9526,98.2544 -21.168,42.3886 0.4462,38.3212 0.4462,38.3212 l 34.145,-19.6238 c 0,0 46.2012,-75.3554 -40.5438,-116.9518 z"
       id="path3072-56-6"
       inkscape:connector-curvature="0"
       sodipodi:nodetypes="ccccc" />
    <path
       style="color:#000000;display:inline;overflow:visible;visibility:visible;fill:#ffffff;fill-opacity:1;fill-rule:nonzero;stroke:none;stroke-width:1.24776px;marker:none;enable-background:accumulate"
       d="m 847.1762,2234.3704 c -28.32832,0.667 -57.2014,0.5678 -84.02305,10.1173 -15.74509,5.5745 -30.61223,16.2146 -39.27852,33.3187 -10.13387,19.5988 -9.81916,46.2069 -2.25385,68.9801 3.54761,10.567 8.4571,20.6616 14.64869,29.4264 6.72464,9.3324 15.55183,16.4797 25.14208,19.6119 27.79854,11.5633 56.71591,14.3241 85.08587,15.485 29.6679,0.8973 59.20878,-0.3057 88.51254,-3.0891 24.70663,-2.7804 49.52503,-7.7974 71.48064,-20.6774 13.2568,-8.1013 25.4772,-20.3565 30.8022,-37.8994 7.4314,-24.2539 2.6051,-55.3961 -13.4195,-75.8136 -12.8078,-15.6635 -30.16391,-23.2508 -46.88491,-27.8613 -27.6138,-7.4778 -55.5152,-8.8065 -83.22699,-10.5704 -15.55285,-0.8334 -31.12316,-1.5798 -46.5852,-1.0282 z"
       id="path4546-6-21-1"
       inkscape:connector-curvature="0"
       sodipodi:nodetypes="cssssc" />
    <path
       style="color:#000000;display:inline;overflow:visible;visibility:visible;fill:#ffffff;fill-opacity:1;fill-rule:nonzero;stroke:none;stroke-width:1.24776px;marker:none;enable-background:accumulate"
       d="m 849.18072,2151.1293 c -18.14856,0.3855 -36.60784,0.3282 -54.22804,5.8465 -10.34202,3.2213 -20.37079,9.3697 -26.75086,19.2536 -7.4408,11.3254 -8.54323,26.7013 -4.82103,39.861 1.75096,6.1063 4.39595,11.9396 7.92602,17.0045 3.84313,5.3928 9.13788,9.5229 15.11734,11.3329 17.21046,6.682 35.56772,8.2774 53.65329,8.9483 18.9285,0.5184 37.87868,-0.1767 56.75468,-1.7852 15.93601,-1.6067 32.05304,-4.5058 46.7246,-11.9486 8.8747,-4.6815 17.29002,-11.7632 21.55478,-21.9007 5.94067,-14.0154 4.38006,-32.0113 -4.86713,-43.8099 -7.42318,-9.0513 -18.15062,-13.4357 -28.61755,-16.0999 -17.29268,-4.3212 -35.07036,-5.089 -52.70551,-6.1083 -9.90514,-0.4816 -19.8257,-0.9129 -29.74059,-0.5942 z"
       id="path4546-6-21-1-7"
       inkscape:connector-curvature="0"
       sodipodi:nodetypes="cssssc" />
    <path
       style="color:#000000;display:inline;overflow:visible;visibility:visible;fill:#ffffff;fill-opacity:1;fill-rule:nonzero;stroke:none;stroke-width:0.999999px;marker:none;enable-background:accumulate"
       d="m 1112.0298,2244.6942 c -36.4729,-14.2248 -66.2411,-6.7142 -86.7414,26.8513 -30.09489,27.8109 -33.25183,11.7546 -33.25183,11.7546 l 6.41738,-29.5186 c 0,0 50.85485,-55.2993 113.57585,-9.0873 z"
       id="path3072-56"
       inkscape:connector-curvature="0"
       sodipodi:nodetypes="ccccc" />
    <path
       style="fill:#ffffff;stroke:none;stroke-width:1.11254"
       d="m 2102.1499,2130.2232 c -30.2975,0.737 -61.8362,3.9658 -88.7171,18.7399 -33.516,20.8971 -45.6957,68.1489 -26.52,102.1877 8.3781,15.4895 23.0125,27.1654 39.7612,33.0754 20.3981,7.6184 42.3356,9.5244 63.7127,13.015 55.8523,7.3538 113.3933,5.9094 168.0557,-8.181 15.9615,-3.969 32.9654,-11.7535 39.9408,-27.3582 8.3325,-19.4274 7.9522,-41.5226 3.1003,-61.7501 -5.1695,-19.7492 -15.8876,-38.8283 -32.7124,-51.2383 -19.1127,-12.2355 -42.6507,-13.1743 -64.6478,-15.6155 -33.8961,-3.0117 -67.9704,-2.9243 -101.9734,-2.8749 z"
       id="path3280-10"
       inkscape:connector-curvature="0"
       sodipodi:nodetypes="csssc" />
    <path
       style="color:#000000;display:inline;overflow:visible;visibility:visible;fill:#ffffff;fill-opacity:1;fill-rule:nonzero;stroke:none;stroke-width:1.29115px;marker:none;enable-background:accumulate"
       d="m 2082.6947,2518.166 c -37.2976,0.9363 -75.2275,1.7668 -111.2036,12.0113 -25.3653,6.8578 -49.1931,20.7208 -64.311,41.2543 -18.6004,23.5737 -31.7968,51.5852 -33.8538,81.0407 -1.6434,23.694 2.8792,47.952 14.1767,69.295 7.9846,14.9518 20.4935,28.0601 36.5572,35.7008 17.3371,8.629 37.0107,11.8881 56.4019,13.3455 24.9708,2.3581 49.9841,4.3135 74.9392,6.8204 57.9344,5.2663 116.2198,9.2286 174.4435,6.4035 39.0933,-1.3068 78.2051,-2.0736 117.3137,-2.801 20.2797,-0.7449 40.8516,-1.8946 60.3449,-7.5533 12.9362,-5.4078 20.5948,-18.7912 20.3171,-31.7639 2.0493,-24.2364 -5.861,-48.1727 -17.0191,-69.7861 -10.3644,-20.2484 -22.0117,-39.9024 -32.201,-60.2308 -10.4419,-19.2648 -23.2049,-38.313 -42.2451,-51.1448 -23.0443,-15.8932 -51.1032,-23.6852 -78.9153,-28.6034 -46.6533,-8.3198 -94.1672,-11.0345 -141.5096,-13.459 -11.0725,-0.4069 -22.1546,-0.5958 -33.2357,-0.5292 z"
       id="path4546-6-21-1-2"
       inkscape:connector-curvature="0"
       sodipodi:nodetypes="cssssccccccccc" />
    <path
       style="color:#000000;display:inline;overflow:visible;visibility:visible;fill:#ffffff;fill-opacity:1;fill-rule:nonzero;stroke:none;stroke-width:0.999994px;marker:none;enable-background:accumulate"
       d="m 2072.4015,2461.8063 c 23.2757,17.8081 28.2898,43.1252 10.979,76.5719 -9.716,36.9964 3.1402,30.1775 3.1402,30.1775 l 19.3218,-21.1913 c 0,0 22.491,-67.2 -33.441,-85.5581 z"
       id="path3072-56-7"
       inkscape:connector-curvature="0"
       sodipodi:nodetypes="ccccc" />
    <path
       style="color:#000000;display:inline;overflow:visible;visibility:visible;fill:#ffffff;fill-opacity:1;fill-rule:nonzero;stroke:none;stroke-width:0.965419px;marker:none;enable-background:accumulate"
       d="m 2176.3001,3212.229 c -35.0052,0.9378 -70.6332,6.1723 -101.8556,20.529 -23.0086,10.1014 -39.9101,29.275 -46.6928,50.7097 -8.6502,24.0721 -10.1582,50.8975 0.7529,74.6279 9.0779,19.5651 28.2363,34.6601 50.1428,43.2546 29.4606,12.137 61.5985,18.4704 93.7217,22.5662 47.4507,5.6449 95.8235,5.5732 143.2423,-0.2677 26.8363,-3.8565 53.9082,-11.4738 74.9548,-26.9358 22.7824,-16.8328 34.98,-43.4571 32.4926,-69.2494 -1.8083,-29.5948 -16.7289,-58.9701 -42.8014,-78.4817 -21.0207,-16.1756 -48.1343,-25.1999 -75.5629,-29.2859 -42.2661,-7.0133 -85.5157,-7.3682 -128.3944,-7.4669 z"
       id="path4040-40"
       inkscape:connector-curvature="0"
       sodipodi:nodetypes="zssssz" />
  </g>
  <g
     inkscape:groupmode="layer"
     id="layer1"
     inkscape:label="txt"
     style="display:inline">
    <text
       xml:space="preserve"
       style="font-style:normal;font-variant:normal;font-weight:normal;font-stretch:normal;font-size:45.3333px;line-height:125%;font-family:Lavi;-inkscape-font-specification:Lavi;text-align:center;letter-spacing:0px;word-spacing:0px;text-anchor:middle;fill:#000000;fill-opacity:1;stroke:none"
       x="870.99451"
       y="2214.8057"
       id="text4246-70-2-2-2-7-4-9-9-6-1-2-3-9"><tspan
         sodipodi:role="line"
         style="font-size:45.3333px"
         x="870.99451"
         y="2214.8057"
         id="tspan2979">Ah...</tspan></text>
    <text
       xml:space="preserve"
       style="font-style:normal;font-variant:normal;font-weight:normal;font-stretch:normal;font-size:45.3333px;line-height:125%;font-family:Lavi;-inkscape-font-specification:Lavi;text-align:center;letter-spacing:0px;word-spacing:0px;text-anchor:middle;fill:#000000;fill-opacity:1;stroke:none"
       x="874.24341"
       y="2307.0212"
       id="text4246-70-2-2-2-7-4-9-9-6-1-2-3-9-3"><tspan
         sodipodi:role="line"
         style="font-size:45.3333px"
         x="874.24341"
         y="2307.0212"
         id="tspan982">Che bello</tspan><tspan
         sodipodi:role="line"
         style="font-size:45.3333px"
         x="874.24341"
         y="2363.688"
         id="tspan5453">essere qui!</tspan></text>
    <text
       xml:space="preserve"
       style="font-style:normal;font-variant:normal;font-weight:normal;font-stretch:normal;font-size:45.3333px;line-height:125%;font-family:Lavi;-inkscape-font-specification:Lavi;text-align:center;letter-spacing:0px;word-spacing:0px;text-anchor:middle;fill:#000000;fill-opacity:1;stroke:none"
       x="2150.7051"
       y="2174.5933"
       id="text4246-70-2-2-2-7-4-9-9-6-1-2-3-9-3-5"><tspan
         sodipodi:role="line"
         style="font-size:45.3333px"
         x="2150.7051"
         y="2174.5933"
         id="tspan1026">Ehi,</tspan><tspan
         sodipodi:role="line"
         style="font-size:45.3333px"
         x="2150.7051"
         y="2231.26"
         id="tspan13933">è il giorno del</tspan><tspan
         sodipodi:role="line"
         style="font-size:45.3333px"
         x="2150.7051"
         y="2287.9265"
         id="tspan16987">mercato.</tspan></text>
    <text
       xml:space="preserve"
       style="font-style:normal;font-variant:normal;font-weight:normal;font-stretch:normal;font-size:45.3333px;line-height:125%;font-family:Lavi;-inkscape-font-specification:Lavi;text-align:center;letter-spacing:0px;word-spacing:0px;text-anchor:middle;fill:#000000;fill-opacity:1;stroke:none"
       x="2127.5532"
       y="2570.2517"
       id="text4246-70-2-2-2-7-4-9-9-6-1-2-3-9-3-5-2"><tspan
         sodipodi:role="line"
         style="font-size:45.3333px"
         x="2127.5532"
         y="2570.2517"
         id="tspan1196">Dovremmo</tspan><tspan
         sodipodi:role="line"
         style="font-size:45.3333px"
         x="2127.5532"
         y="2626.9185"
         id="tspan20850">mangiare un boccone</tspan><tspan
         sodipodi:role="line"
         style="font-size:45.3333px"
         x="2127.5532"
         y="2683.585"
         id="tspan23768">prima di salire sul</tspan><tspan
         sodipodi:role="line"
         style="font-size:45.3333px"
         x="2127.5532"
         y="2740.2517"
         id="tspan24940">vulcano, no?</tspan></text>
    <text
       xml:space="preserve"
       style="font-style:normal;font-variant:normal;font-weight:normal;font-stretch:normal;font-size:45.3333px;line-height:125%;font-family:Lavi;-inkscape-font-specification:Lavi;text-align:center;letter-spacing:0px;word-spacing:0px;text-anchor:middle;fill:#000000;fill-opacity:1;stroke:none"
       x="2218.8394"
       y="3275.2043"
       id="text4246-70-2-2-2-7-4-9-9-6-1-2-3-9-3-5-2-0"><tspan
         sodipodi:role="line"
         style="font-size:45.3333px"
         x="2218.8394"
         y="3275.2043"
         id="tspan1238">Ero sicura che</tspan><tspan
         sodipodi:role="line"
         style="font-size:45.3333px"
         x="2218.8394"
         y="3331.8711"
         id="tspan40897">l’idea ti sarebbe</tspan><tspan
         sodipodi:role="line"
         style="font-size:45.3333px"
         x="2218.8394"
         y="3388.5376"
         id="tspan45421">piaciuta!</tspan></text>
  </g>
</svg>
