<?xml version="1.0" encoding="UTF-8" standalone="no"?>
<!-- Created with Inkscape (http://www.inkscape.org/) -->

<svg
   xmlns:dc="http://purl.org/dc/elements/1.1/"
   xmlns:cc="http://creativecommons.org/ns#"
   xmlns:rdf="http://www.w3.org/1999/02/22-rdf-syntax-ns#"
   xmlns:svg="http://www.w3.org/2000/svg"
   xmlns="http://www.w3.org/2000/svg"
   xmlns:xlink="http://www.w3.org/1999/xlink"
   xmlns:sodipodi="http://sodipodi.sourceforge.net/DTD/sodipodi-0.dtd"
   xmlns:inkscape="http://www.inkscape.org/namespaces/inkscape"
   id="svg2"
   version="1.1"
   inkscape:version="0.92.2 2405546, 2018-03-11"
   width="2481"
   height="3503"
   sodipodi:docname="E28P08.svg">
  <metadata
     id="metadata8">
    <rdf:RDF>
      <cc:Work
         rdf:about="">
        <dc:format>image/svg+xml</dc:format>
        <dc:type
           rdf:resource="http://purl.org/dc/dcmitype/StillImage" />
        <dc:title />
      </cc:Work>
    </rdf:RDF>
  </metadata>
  <defs
     id="defs6" />
  <sodipodi:namedview
     pagecolor="#ffffff"
     bordercolor="#666666"
     borderopacity="1"
     objecttolerance="10"
     gridtolerance="10"
     guidetolerance="10"
     inkscape:pageopacity="0"
     inkscape:pageshadow="2"
     inkscape:window-width="1366"
     inkscape:window-height="715"
     id="namedview4"
     showgrid="false"
     inkscape:zoom="0.45"
     inkscape:cx="1180.7432"
     inkscape:cy="1897.0544"
     inkscape:window-x="-8"
     inkscape:window-y="-8"
     inkscape:window-maximized="1"
     inkscape:current-layer="layer1" />
  <g
     inkscape:groupmode="layer"
     id="layer2"
     inkscape:label="artwork"
     sodipodi:insensitive="true">
    <image
       sodipodi:absref="/home/midgard/git/peppercarrot/comics/new-ep28_The-Festivities/lang/cn/../gfx_Pepper-and-Carrot_by-David-Revoy_E28P08.png"
       xlink:href="../gfx_Pepper-and-Carrot_by-David-Revoy_E28P08.png"
       y="0"
       x="0"
       id="image10"
       height="3503"
       width="2481" />
  </g>
  <g
     inkscape:groupmode="layer"
     id="layer3"
     inkscape:label="speechbubbles">
    <path
       style="fill:#ffffff;fill-rule:evenodd;stroke:none;stroke-width:0.98556405px;stroke-linecap:butt;stroke-linejoin:miter;stroke-opacity:1"
       d="m 177.01571,1279.393 c 15.491,-38.0685 47.3842,-53.988 57.40778,-58.1409 10.02357,-4.1529 57.40778,-11.7666 71.98754,-11.7666 14.57976,0 143.06383,-3.4608 168.57842,1.3843 25.51455,4.8451 72.89876,19.3803 87.4785,39.4527 14.57976,20.0724 32.80447,57.4487 25.51458,80.9819 -7.28989,23.5333 -10.93482,55.3723 -51.02915,75.4447 -40.09431,20.0724 -176.77952,25.6097 -213.2289,24.2254 -36.44938,-1.3843 -83.83358,-3.4607 -113.90432,-20.0724 -30.07074,-16.6117 -49.20668,-53.2959 -48.29544,-76.8291 0.91123,-23.5331 15.49099,-54.68 15.49099,-54.68 z"
       id="path1079"
       inkscape:connector-curvature="0" />
    <path
       style="fill:#ffffff;fill-rule:evenodd;stroke:none;stroke-width:1px;stroke-linecap:butt;stroke-linejoin:miter;stroke-opacity:1"
       d="m 227.53576,1416.2623 c -20.60902,44.7713 -22.74099,55.4311 -24.1623,72.4869 -1.42132,17.0557 14.92377,43.35 35.5328,50.4565 20.60902,7.1066 33.40083,29.8476 24.1623,45.482 -9.23853,15.6345 -46.19264,77.4615 23.45165,96.6493 -66.80167,-29.1369 -24.16231,-76.7509 -17.05575,-87.4107 7.10656,-10.6599 19.89837,-34.8222 -8.52787,-60.4058 -28.42624,-25.5836 -38.37542,-39.7967 0,-89.5427 38.37542,-49.7459 -33.40083,-27.7155 -33.40083,-27.7155 z"
       id="path1081"
       inkscape:connector-curvature="0"
       sodipodi:nodetypes="ccccccssc" />
    <path
       style="fill:#ffffff;fill-rule:evenodd;stroke:none;stroke-width:0.99085414px;stroke-linecap:butt;stroke-linejoin:miter;stroke-opacity:1"
       d="m 390.41547,2090.3614 c 15.75924,-33.5164 42.30112,-45.5479 67.18413,-44.6885 24.88301,0.8594 83.77281,7.7345 97.87318,7.7345 14.10038,0 77.13734,-4.297 106.16751,-2.5782 29.03018,1.7188 48.10715,13.7503 56.40149,29.2195 8.29435,15.469 14.10037,34.3757 10.78264,59.2981 -3.31774,24.9224 -23.22414,55.8607 -53.08375,63.5951 -29.85961,7.7346 -112.80299,7.7346 -155.93354,8.594 -43.13055,0.8594 -96.2143,-12.0315 -115.29128,-30.0788 -19.07698,-18.0472 -34.00679,-45.5479 -14.10038,-91.0957 z"
       id="path1083"
       inkscape:connector-curvature="0" />
    <path
       style="fill:#ffffff;fill-rule:evenodd;stroke:none;stroke-width:1px;stroke-linecap:butt;stroke-linejoin:miter;stroke-opacity:1"
       d="m 521.52769,2076.2416 c -21.62867,-11.7413 -40.78548,-28.4263 -40.78548,-37.6957 0,-9.2694 14.83108,-37.0777 -11.74127,-37.6957 -26.57236,-0.6179 -37.69567,6.1796 -37.07771,-3.7077 0.61796,-9.8874 8.03351,-25.9544 21.62866,-30.2802 -31.51605,12.3593 -34.60585,34.6059 -27.19031,40.7855 7.41554,6.1796 10.67283,9.5522 36.18391,8.6549 20.28805,2.4824 -29.05118,18.071 7.69137,66.7364 32.13401,21.6287 51.29083,-6.7975 51.29083,-6.7975 z"
       id="path1085"
       inkscape:connector-curvature="0"
       sodipodi:nodetypes="cscscsccc" />
    <path
       style="fill:#ffffff;fill-rule:evenodd;stroke:none;stroke-width:0.99999994px;stroke-linecap:butt;stroke-linejoin:miter;stroke-opacity:1"
       d="m 1196.7567,1374.4067 c -2.0612,-17.5917 -18.7863,-50.2645 -51.4246,-16.1368 13.4861,-40.6864 -2.0483,-45.8436 -20.2475,-47.7381 14.3275,-14.6662 26.8461,-29.914 8.3492,-55.134 24.1301,-8.2443 29.8524,-28.7456 21.6847,-58.496 24.2775,23.2401 46.106,36.0759 52.4648,-16.8093 7.8988,41.4017 36.9104,48.8809 51.4071,4.7067 -2.1364,34.4681 6.0078,43.2805 21.8243,32.946 -9.212,21.6913 -6.6421,38.149 8.3629,49.0828 -25.8737,22.9443 -22.3046,36.8913 4.6106,43.7038 -43.282,5.9825 -37.4678,34.4558 -39.319,55.8065 -20.9277,-33.2159 -62.9528,-0.075 -57.7125,8.0684 z"
       id="path1087"
       inkscape:connector-curvature="0"
       sodipodi:nodetypes="cccccccccccc" />
    <path
       style="fill:#ffffff;fill-rule:evenodd;stroke:none;stroke-width:1px;stroke-linecap:butt;stroke-linejoin:miter;stroke-opacity:1"
       d="m 1191.0392,1352.1713 c -8.4109,39.2505 -9.8127,49.5304 -9.8127,58.8758 0,9.3453 7.2361,5.602 12.611,1.6262 3.5164,-2.5819 16.3596,-20.7842 5.6125,8.1864 -10.7472,28.9706 -24.2979,69.1557 -28.0361,81.7719 10.2799,-22.4289 27.5688,-57.474 32.7088,-68.6884 5.1399,-11.2144 13.3039,-31.7117 15.4198,-37.8487 2.574,-7.4657 2.2967,-14.9288 -5.6521,-13.2604 -12.5951,3.9915 -24.253,31.4839 -4.6278,-16.1775 19.6253,-47.6613 11.2144,-117.2842 11.2144,-117.2842 z"
       id="path1089"
       inkscape:connector-curvature="0"
       sodipodi:nodetypes="csccccscccc" />
    <path
       style="fill:#ffffff;fill-rule:evenodd;stroke:none;stroke-width:1.01666367px;stroke-linecap:butt;stroke-linejoin:miter;stroke-opacity:1"
       d="m 1335.7417,1200.1939 c 1.0518,-32.2368 -8.4148,-33.2137 9.4665,-34.1905 17.8812,-0.9769 208.2642,-0.9769 242.975,-0.9769 34.7107,0 62.0586,18.5606 74.6806,44.9362 12.6221,26.3755 33.2047,77.0157 -8.8689,106.3218 -42.0736,29.3063 -165.7365,16.7643 -213.0693,14.8106 -47.3327,-1.9539 -98.8729,-7.8258 -111.495,-35.1783 -12.6221,-27.3524 6.3111,-95.7229 6.3111,-95.7229 z"
       id="path1109"
       inkscape:connector-curvature="0"
       sodipodi:nodetypes="ccsccccc" />
    <path
       style="fill:#ffffff;fill-rule:evenodd;stroke:none;stroke-width:1px;stroke-linecap:butt;stroke-linejoin:miter;stroke-opacity:1"
       d="m 1639.998,1307.0864 c 41.353,7.5187 60.1499,15.9773 68.6085,23.4961 8.4586,7.5187 44.1726,33.8343 14.0976,68.6085 46.9921,-37.5937 7.5188,-93.0445 -46.0522,-115.6007 -15.0375,-3.7593 -36.6539,23.4961 -36.6539,23.4961 z"
       id="path1111"
       inkscape:connector-curvature="0"
       sodipodi:nodetypes="ccccc" />
    <path
       style="fill:#ffffff;fill-rule:evenodd;stroke:none;stroke-width:0.99061108px;stroke-linecap:butt;stroke-linejoin:miter;stroke-opacity:1"
       d="m 1882.3848,2006.581 c -5.3966,-11.7342 2.9099,-24.8008 24.9612,-33.4427 30.7873,-12.2441 75.3828,-16.8163 116.9033,-16.9399 19.7431,-0.067 39.289,1.2618 57.9261,3.5791 61.9131,3.9604 126.2347,-3.6261 187.4989,2.4006 25.7594,2.615 50.2609,8.7746 63.2254,18.1914 22.7296,21.1434 21.3283,44.9911 18.9964,67.8462 -1.0272,6.4809 -0.6704,13.0003 -2.3595,19.4559 -6.4814,15.7111 -32.8812,29.7419 -67.8254,37.34 -34.971,7.8338 -75.9592,10.4858 -114.8465,8.7884 -61.4816,1.4462 -125.0724,3.1426 -183.7855,-4.6798 -37.7172,-5.1514 -73.3928,-15.138 -89.8271,-30.0912 -20.0969,-17.5065 -17.1231,-37.5999 -13.603,-56.6091 0.9814,-5.2785 2.0452,-10.5563 2.7357,-15.8389 z"
       id="path1113"
       inkscape:connector-curvature="0" />
    <path
       style="fill:#ffffff;fill-rule:evenodd;stroke:none;stroke-width:1px;stroke-linecap:butt;stroke-linejoin:miter;stroke-opacity:1"
       d="m 1833.1209,2118.2621 c 42.1519,38.9095 103.7586,57.2834 162.1228,3.2424 58.3643,-54.0409 82.1423,-58.3642 82.1423,-58.3642 0,0 -3.2425,50.7985 -58.3642,83.2231 -55.1218,32.4245 -125.375,41.0711 -185.9009,-28.1013 z"
       id="path1128"
       inkscape:connector-curvature="0" />
  </g>
  <g
     inkscape:groupmode="layer"
     id="layer1"
     inkscape:label="txt">
    <text
       xml:space="preserve"
       style="font-style:normal;font-variant:normal;font-weight:normal;font-stretch:normal;line-height:0%;font-family:'小赖字体 SC';-inkscape-font-specification:'小赖字体 SC';text-align:center;letter-spacing:0px;word-spacing:0px;text-anchor:middle;fill:#000000;fill-opacity:1;stroke:none"
       x="384.51514"
       y="1278.4037"
       id="text4246"><tspan
         sodipodi:role="line"
         style="font-style:normal;font-variant:normal;font-weight:normal;font-stretch:normal;font-size:45px;line-height:1.20000005;font-family:'小赖字体 SC';-inkscape-font-specification:'小赖字体 SC'"
         x="384.51514"
         y="1278.4037"
         id="tspan873">对了，小辣椒，</tspan><tspan
         sodipodi:role="line"
         style="font-style:normal;font-variant:normal;font-weight:normal;font-stretch:normal;font-size:45px;line-height:1.20000005;font-family:'小赖字体 SC';-inkscape-font-specification:'小赖字体 SC'"
         x="384.51514"
         y="1332.4037"
         id="tspan3386">我终于有幸结识</tspan><tspan
         sodipodi:role="line"
         style="font-style:normal;font-variant:normal;font-weight:normal;font-stretch:normal;font-size:45px;line-height:1.20000005;font-family:'小赖字体 SC';-inkscape-font-specification:'小赖字体 SC'"
         x="384.51514"
         y="1386.4037"
         id="tspan3388">你的教母们了。</tspan></text>
    <text
       xml:space="preserve"
       style="font-style:normal;font-variant:normal;font-weight:normal;font-stretch:normal;line-height:0%;font-family:'小赖字体 SC';-inkscape-font-specification:'小赖字体 SC';text-align:center;letter-spacing:0px;word-spacing:0px;text-anchor:middle;fill:#000000;fill-opacity:1;stroke:none"
       x="551.51831"
       y="2118.9434"
       id="text4246-3"><tspan
         sodipodi:role="line"
         style="font-style:normal;font-variant:normal;font-weight:normal;font-stretch:normal;font-size:45px;line-height:1.20000005;font-family:'小赖字体 SC';-inkscape-font-specification:'小赖字体 SC'"
         x="551.51831"
         y="2118.9434"
         id="tspan878">他们可是真</tspan><tspan
         sodipodi:role="line"
         style="font-style:normal;font-variant:normal;font-weight:normal;font-stretch:normal;font-size:45px;line-height:1.20000005;font-family:'小赖字体 SC';-inkscape-font-specification:'小赖字体 SC'"
         x="551.51831"
         y="2172.9434"
         id="tspan3392">“特殊”。</tspan></text>
    <text
       xml:space="preserve"
       style="font-style:normal;font-variant:normal;font-weight:normal;font-stretch:normal;line-height:0%;font-family:'小赖字体 SC';-inkscape-font-specification:'小赖字体 SC';text-align:center;letter-spacing:0px;word-spacing:0px;text-anchor:middle;fill:#000000;fill-opacity:1;stroke:none;stroke-width:0.99999994"
       x="1522.0032"
       y="1199.5613"
       id="text4246-3-5"
       transform="matrix(0.91106211,0,-0.15422983,1.09762,0,0)"><tspan
         sodipodi:role="line"
         style="font-style:normal;font-variant:normal;font-weight:normal;font-stretch:normal;font-size:91.28633118px;line-height:1.20000005;font-family:'小赖字体 SC';-inkscape-font-specification:'小赖字体 SC';stroke-width:0.99999994"
         x="1522.0032"
         y="1199.5613"
         id="tspan872-2">!!!</tspan></text>
    <text
       xml:space="preserve"
       style="font-style:normal;font-variant:normal;font-weight:normal;font-stretch:normal;line-height:0%;font-family:'小赖字体 SC';-inkscape-font-specification:'小赖字体 SC';text-align:center;letter-spacing:0px;word-spacing:0px;text-anchor:middle;fill:#000000;fill-opacity:1;stroke:none"
       x="1520.0366"
       y="1237.6084"
       id="text4246-3-9"><tspan
         sodipodi:role="line"
         style="font-style:normal;font-variant:normal;font-weight:normal;font-stretch:normal;font-size:45px;line-height:1.20000005;font-family:'小赖字体 SC';-inkscape-font-specification:'小赖字体 SC'"
         x="1520.0366"
         y="1237.6084"
         id="tspan886">在我看来，</tspan><tspan
         sodipodi:role="line"
         style="font-style:normal;font-variant:normal;font-weight:normal;font-stretch:normal;font-size:45px;line-height:1.20000005;font-family:'小赖字体 SC';-inkscape-font-specification:'小赖字体 SC'"
         x="1520.0366"
         y="1291.6084"
         id="tspan3406">你真幸运啊。</tspan></text>
    <text
       xml:space="preserve"
       style="font-style:normal;font-variant:normal;font-weight:normal;font-stretch:normal;line-height:0%;font-family:'小赖字体 SC';-inkscape-font-specification:'小赖字体 SC';text-align:center;letter-spacing:0px;word-spacing:0px;text-anchor:middle;fill:#000000;fill-opacity:1;stroke:none"
       x="2128.644"
       y="2022.2135"
       id="text4246-3-9-0"><tspan
         sodipodi:role="line"
         style="font-style:normal;font-variant:normal;font-weight:normal;font-stretch:normal;font-size:45px;line-height:1.20000005;font-family:'小赖字体 SC';-inkscape-font-specification:'小赖字体 SC'"
         x="2128.644"
         y="2022.2135"
         id="tspan3402">我敢肯定你想干什么</tspan><tspan
         sodipodi:role="line"
         style="font-style:normal;font-variant:normal;font-weight:normal;font-stretch:normal;font-size:45px;line-height:1.20000005;font-family:'小赖字体 SC';-inkscape-font-specification:'小赖字体 SC'"
         x="2128.644"
         y="2076.2136"
         id="tspan3404">她们就让你干什么。</tspan></text>
    <text
       xml:space="preserve"
       style="font-style:normal;font-variant:normal;font-weight:normal;font-stretch:normal;line-height:0%;font-family:'小赖字体 SC';-inkscape-font-specification:'小赖字体 SC';text-align:center;letter-spacing:0px;word-spacing:0px;text-anchor:middle;fill:#000000;fill-opacity:1;stroke:none"
       x="644.56738"
       y="2385.6553"
       id="text4246-3-9-0-6"><tspan
         sodipodi:role="line"
         style="font-style:normal;font-variant:normal;font-weight:normal;font-stretch:normal;font-size:45px;line-height:1.20000005;font-family:'小赖字体 SC';-inkscape-font-specification:'小赖字体 SC'"
         x="644.56738"
         y="2385.6553"
         id="tspan918">比如不管什么</tspan><tspan
         sodipodi:role="line"
         style="font-style:normal;font-variant:normal;font-weight:normal;font-stretch:normal;font-size:45px;line-height:1.20000005;font-family:'小赖字体 SC';-inkscape-font-specification:'小赖字体 SC'"
         x="644.56738"
         y="2439.6553"
         id="tspan3420">官方身份和无用</tspan><tspan
         sodipodi:role="line"
         style="font-style:normal;font-variant:normal;font-weight:normal;font-stretch:normal;font-size:45px;line-height:1.20000005;font-family:'小赖字体 SC';-inkscape-font-specification:'小赖字体 SC'"
         x="644.56738"
         y="2493.6553"
         id="tspan3422">的寒暄而出现的</tspan><tspan
         sodipodi:role="line"
         style="font-style:normal;font-variant:normal;font-weight:normal;font-stretch:normal;font-size:45px;line-height:1.20000005;font-family:'小赖字体 SC';-inkscape-font-specification:'小赖字体 SC'"
         x="644.56738"
         y="2547.6553"
         id="tspan3432">外交问题。</tspan></text>
    <text
       xml:space="preserve"
       style="font-style:normal;font-variant:normal;font-weight:normal;font-stretch:normal;line-height:0%;font-family:'小赖字体 SC';-inkscape-font-specification:'小赖字体 SC';text-align:center;letter-spacing:0px;word-spacing:0px;text-anchor:middle;fill:#000000;fill-opacity:1;stroke:none"
       x="1362.5385"
       y="2368.8999"
       id="text4246-3-9-0-6-1"><tspan
         sodipodi:role="line"
         style="font-style:normal;font-variant:normal;font-weight:normal;font-stretch:normal;font-size:45px;line-height:1.20000005;font-family:'小赖字体 SC';-inkscape-font-specification:'小赖字体 SC'"
         x="1362.5385"
         y="2368.8999"
         id="tspan972">或者是不在乎</tspan><tspan
         sodipodi:role="line"
         style="font-style:normal;font-variant:normal;font-weight:normal;font-stretch:normal;font-size:45px;line-height:1.20000005;font-family:'小赖字体 SC';-inkscape-font-specification:'小赖字体 SC'"
         x="1362.5385"
         y="2422.8999"
         id="tspan3442">他人眼光而</tspan><tspan
         sodipodi:role="line"
         style="font-style:normal;font-variant:normal;font-weight:normal;font-stretch:normal;font-size:45px;line-height:1.20000005;font-family:'小赖字体 SC';-inkscape-font-specification:'小赖字体 SC'"
         x="1362.5385"
         y="2476.8999"
         id="tspan3444">自娱自乐。</tspan></text>
    <text
       xml:space="preserve"
       style="font-style:normal;font-variant:normal;font-weight:normal;font-stretch:normal;line-height:0%;font-family:'小赖字体 SC';-inkscape-font-specification:'小赖字体 SC';text-align:center;letter-spacing:0px;word-spacing:0px;text-anchor:middle;fill:#000000;fill-opacity:1;stroke:none"
       x="1879.3203"
       y="2391.613"
       id="text4246-3-9-0-6-1-0"><tspan
         sodipodi:role="line"
         style="font-style:normal;font-variant:normal;font-weight:normal;font-stretch:normal;font-size:45px;line-height:1.20000005;font-family:'小赖字体 SC';-inkscape-font-specification:'小赖字体 SC'"
         x="1879.3203"
         y="2391.613"
         id="tspan942">再或者是尝尽</tspan><tspan
         sodipodi:role="line"
         style="font-style:normal;font-variant:normal;font-weight:normal;font-stretch:normal;font-size:45px;line-height:1.20000005;font-family:'小赖字体 SC';-inkscape-font-specification:'小赖字体 SC'"
         x="1879.3203"
         y="2445.613"
         id="tspan3452">所有食物！</tspan></text>
  </g>
</svg>
