<?xml version="1.0" encoding="UTF-8" standalone="no"?>
<svg
   sodipodi:docname="E35P05.svg"
   height="3503"
   width="2481"
   inkscape:version="1.2.1 (9c6d41e410, 2022-07-14)"
   version="1.1"
   id="svg2"
   xmlns:inkscape="http://www.inkscape.org/namespaces/inkscape"
   xmlns:sodipodi="http://sodipodi.sourceforge.net/DTD/sodipodi-0.dtd"
   xmlns:xlink="http://www.w3.org/1999/xlink"
   xmlns="http://www.w3.org/2000/svg"
   xmlns:svg="http://www.w3.org/2000/svg"
   xmlns:rdf="http://www.w3.org/1999/02/22-rdf-syntax-ns#"
   xmlns:cc="http://creativecommons.org/ns#"
   xmlns:dc="http://purl.org/dc/elements/1.1/">
  <metadata
     id="metadata8">
    <rdf:RDF>
      <cc:Work
         rdf:about="">
        <dc:format>image/svg+xml</dc:format>
        <dc:type
           rdf:resource="http://purl.org/dc/dcmitype/StillImage" />
        <dc:title />
      </cc:Work>
    </rdf:RDF>
  </metadata>
  <defs
     id="defs6" />
  <sodipodi:namedview
     inkscape:pagecheckerboard="0"
     inkscape:snap-global="false"
     inkscape:document-rotation="0"
     inkscape:current-layer="layer1"
     inkscape:window-maximized="1"
     inkscape:window-y="36"
     inkscape:window-x="1283"
     inkscape:cy="2188.2878"
     inkscape:cx="1246.5755"
     inkscape:zoom="0.46086259"
     showgrid="false"
     id="namedview4"
     inkscape:window-height="1388"
     inkscape:window-width="1261"
     inkscape:pageshadow="2"
     inkscape:pageopacity="0"
     guidetolerance="10"
     gridtolerance="10"
     objecttolerance="10"
     borderopacity="1"
     bordercolor="#666666"
     pagecolor="#ffffff"
     inkscape:showpageshadow="2"
     inkscape:deskcolor="#d1d1d1" />
  <g
     sodipodi:insensitive="true"
     inkscape:label="artwork"
     id="layer2"
     inkscape:groupmode="layer">
    <image
       xlink:href="../gfx_Pepper-and-Carrot_by-David-Revoy_E35P05.png"
       y="0"
       x="0"
       id="image10"
       height="3503"
       width="2481" />
  </g>
  <g
     inkscape:label="speechbubbles"
     id="layer3"
     inkscape:groupmode="layer">
    <path
       sodipodi:nodetypes="ccccccccccccccc"
       inkscape:connector-curvature="0"
       id="path3549-3-1"
       d="m 1301.1307,3036.6191 c 3.9166,-35.2866 21.4719,-34.9849 81.9168,-3.067 -15.9501,-62.9304 65.203,-65.9059 140.8368,-72.2891 -8.6746,-17.6816 -42.1625,-37.9887 12.1253,-49.0096 -29.1593,-10.5394 -29.2537,-24.5601 -3.4142,-41.6866 -60.3661,8.1611 -83.0723,3.1364 -11.6747,-34.8365 -67.3865,21.5729 -131.918,40.777 -106.5036,-14.6168 -25.5173,7.5397 -39.7537,51.3953 -139.6954,-28.8246 -1.1315,36.9373 -101.4141,67.3285 -150.6624,19.6447 24.932,39.7309 -56.7941,85.3245 -95.116,53.4256 22.7655,22.2732 3.9496,44.0543 -24.7382,47.7038 81.4502,5.8931 65.1102,19.3944 8.729,41.7916 167.7619,3.496 75.4384,25.7471 76.2606,40.8097 102.1273,-13.8535 95.564,14.2909 110.1855,35.1552 97.2576,-63.6402 67.7102,-52.2733 101.7505,5.7996 z"
       style="color:#000000;display:inline;overflow:visible;visibility:visible;fill:#ffffff;fill-opacity:1;fill-rule:nonzero;stroke:none;stroke-width:1.47415px;marker:none;enable-background:accumulate" />
    <path
       sodipodi:nodetypes="cccccccccccccccccccc"
       inkscape:connector-curvature="0"
       id="path3549-3-7"
       d="m 1272.3487,2958.4986 c -4.6696,26.8502 -31.0065,29.1016 -40.7017,23.6439 19.5435,30.037 18.8622,48.6993 -7.6724,51.597 44.499,54.1344 14.2194,63.393 0.9624,59.6696 34.9399,18.6558 36.8012,62.8637 13.0869,64.9864 40.1601,0.794 27.0174,37.843 28.7102,67.3503 3.4045,-13.8461 19.5787,-55.9998 20.552,-9.0644 21.977,-34.8212 48.5233,-51.9167 61.099,4.6593 10.7028,-39.4224 21.3736,-56.0839 20.5522,-9.0644 26.5183,-61.1547 50.3487,-39.1418 74.3203,-21.8573 -5.4571,-18.7544 -19.8726,-47.4935 27.3987,-40.1694 -16.6344,-17.7153 -17.3298,-29.9727 19.5531,-38.3391 -20.639,-11.0515 -24.4426,-22.4509 13.8794,-34.7185 -29.1609,-1.1866 -56.3536,-3.6177 -22.1414,-45.4536 -10.7334,-1.0122 -36.1993,33.8967 -24.326,-68.2651 -18.4564,32.7055 -38.1478,50.7567 -62.8426,-17.7531 -11.6869,34.2261 -31.9573,51.1626 -40.776,8.4114 -3.1696,18.2256 -16.3125,25.08 -27.4699,25.9111 -4.3144,-7.2394 -8.7646,-17.0727 -13.4083,-29.9556 -7.5898,27.0509 -18.9434,45.3199 -40.7759,8.4115 z"
       style="color:#000000;display:inline;overflow:visible;visibility:visible;fill:#ffffff;fill-opacity:1;fill-rule:nonzero;stroke:none;stroke-width:0.87948px;marker:none;enable-background:accumulate" />
    <path
       sodipodi:nodetypes="ccsccscsc"
       inkscape:transform-center-y="220.66697"
       inkscape:transform-center-x="-51.96084"
       inkscape:connector-curvature="0"
       id="path891"
       d="m 1204.7404,2519.8617 c 50.5917,78.9459 60.9555,113.3414 65.2028,134.3512 -41.2056,-22.133 -58.2095,-26.0517 -64.1574,-16.5377 -5.9478,9.5142 78.8131,323.8736 78.8131,323.8736 l 27.3427,-77.0906 c 0,0 -45.9792,-134.5245 -55.8759,-162.7161 -9.897,-28.1916 -17.6794,-59.5815 -17.6794,-59.5815 0,0 32.7448,22.5895 42.5581,23.1114 9.813,0.5218 45.9229,-15.5328 -76.204,-165.4103 z"
       style="fill:#ffffff;fill-rule:evenodd;stroke:none;stroke-width:1.65188px;stroke-linecap:butt;stroke-linejoin:miter;stroke-opacity:1" />
    <path
       inkscape:connector-curvature="0"
       id="path1355"
       d="m 2185.1028,3280.612 c 1.1322,-19.455 14.7184,-55.122 35.0979,-61.607 20.3793,-6.485 76.9887,-6.485 88.3106,-3.242 11.3219,3.242 29.4369,27.02 33.9657,36.748 4.5288,9.727 16.9828,44.313 -3.3965,58.364 -20.3795,14.051 -40.7588,24.859 -62.2705,23.778 -21.5116,-1.081 -64.5347,-8.647 -74.7244,-21.616 -10.1897,-12.97 -16.9828,-32.425 -16.9828,-32.425 z"
       style="fill:#ffffff;fill-rule:evenodd;stroke:none;stroke-width:1.02349px;stroke-linecap:butt;stroke-linejoin:miter;stroke-opacity:1" />
    <path
       inkscape:connector-curvature="0"
       id="path1367"
       d="m 2210.3858,3260.9854 c 0,0 -9.9729,30.1184 -20.5324,37.3461 -10.5597,7.2275 -37.179,18.9359 -56.6531,11.8546 35.6758,21.6634 55.6021,14.7863 64.3759,10.0326 8.7751,-4.7533 39.4153,-35.3687 39.4153,-35.3687 z"
       style="fill:#ffffff;fill-rule:evenodd;stroke:none;stroke-width:1.40704px;stroke-linecap:butt;stroke-linejoin:miter;stroke-opacity:1" />
  </g>
  <g
     inkscape:label="txt"
     id="layer1"
     inkscape:groupmode="layer">
    <text
       transform="skewX(-9.8231434)"
       id="text4246-3-2-2"
       y="2937.1594"
       x="1781.5028"
       style="font-style:normal;font-variant:normal;font-weight:normal;font-stretch:normal;font-size:64px;line-height:1.25;font-family:Lavi;-inkscape-font-specification:Lavi;text-align:center;letter-spacing:0px;word-spacing:0px;text-anchor:middle;fill:#000000;fill-opacity:1;stroke:none"
       xml:space="preserve"><tspan
         id="tspan905"
         y="2937.1594"
         x="1781.5028"
         sodipodi:role="line"
         style="font-style:normal;font-variant:normal;font-weight:bold;font-stretch:normal;font-size:64px;font-family:Lavi;-inkscape-font-specification:'Lavi Bold'">DROMMELS!</tspan></text>
    <text
       id="text4246-3-2-2-7"
       y="3061.1643"
       x="1354.6593"
       style="font-style:normal;font-variant:normal;font-weight:normal;font-stretch:normal;font-size:56px;line-height:1.25;font-family:Lavi;-inkscape-font-specification:Lavi;text-align:center;letter-spacing:0px;word-spacing:0px;text-anchor:middle;fill:#000000;fill-opacity:1;stroke:none"
       xml:space="preserve"><tspan
         y="3061.1643"
         x="1354.6593"
         sodipodi:role="line"
         style="font-style:normal;font-variant:normal;font-weight:bold;font-stretch:normal;font-size:56px;font-family:Lavi;-inkscape-font-specification:'Lavi Bold'"
         id="tspan284">WAT</tspan><tspan
         y="3131.1643"
         x="1354.6593"
         sodipodi:role="line"
         style="font-style:normal;font-variant:normal;font-weight:bold;font-stretch:normal;font-size:56px;font-family:Lavi;-inkscape-font-specification:'Lavi Bold'"
         id="tspan288">NU?!</tspan></text>
    <text
       id="text4246-3-2-2-7-3"
       y="3294.04"
       x="2267.2617"
       style="font-style:normal;font-variant:normal;font-weight:normal;font-stretch:normal;font-size:56px;line-height:1.25;font-family:Lavi;-inkscape-font-specification:Lavi;text-align:center;letter-spacing:0px;word-spacing:0px;text-anchor:middle;fill:#000000;fill-opacity:1;stroke:none"
       xml:space="preserve"><tspan
         id="tspan935-6"
         y="3294.04"
         x="2267.2617"
         sodipodi:role="line"
         style="font-style:normal;font-variant:normal;font-weight:bold;font-stretch:normal;font-size:56px;font-family:Lavi;-inkscape-font-specification:'Lavi Bold'">Ooh!</tspan></text>
  </g>
</svg>
