<?xml version="1.0" encoding="UTF-8" standalone="no"?>
<svg
   xmlns:dc="http://purl.org/dc/elements/1.1/"
   xmlns:cc="http://creativecommons.org/ns#"
   xmlns:rdf="http://www.w3.org/1999/02/22-rdf-syntax-ns#"
   xmlns:svg="http://www.w3.org/2000/svg"
   xmlns="http://www.w3.org/2000/svg"
   xmlns:xlink="http://www.w3.org/1999/xlink"
   xmlns:sodipodi="http://sodipodi.sourceforge.net/DTD/sodipodi-0.dtd"
   xmlns:inkscape="http://www.inkscape.org/namespaces/inkscape"
   id="svg2"
   version="1.1"
   inkscape:version="1.0.1 (3bc2e813f5, 2020-09-07)"
   width="2481"
   height="3503"
   sodipodi:docname="E16P03.svg">
  <sodipodi:namedview
     pagecolor="#ffffff"
     bordercolor="#666666"
     inkscape:pageopacity="0"
     inkscape:pageshadow="2"
     inkscape:window-width="1366"
     inkscape:window-height="768"
     id="namedview70"
     showgrid="false"
     inkscape:zoom="1.6"
     inkscape:cx="668.83408"
     inkscape:cy="2675.2153"
     inkscape:current-layer="layer1"
     inkscape:document-rotation="0"
     inkscape:window-x="0"
     inkscape:window-y="0"
     inkscape:window-maximized="0" />
  <metadata
     id="metadata8">
    <rdf:RDF>
      <cc:Work
         rdf:about="">
        <dc:format>image/svg+xml</dc:format>
        <dc:type
           rdf:resource="http://purl.org/dc/dcmitype/StillImage" />
        <dc:title />
      </cc:Work>
    </rdf:RDF>
  </metadata>
  <defs
     id="defs6">
    <filter
       style="color-interpolation-filters:sRGB"
       id="filter4375-4-1-1-1"
       inkscape:label="deevad outline effect">
      <feFlood
         id="feFlood4377-7-9-0-8"
         flood-opacity="1"
         flood-color="rgb(0,0,0)"
         result="flood" />
      <feComposite
         id="feComposite4379-3-8-8-2"
         in2="SourceGraphic"
         in="flood"
         operator="in"
         result="composite1" />
      <feMorphology
         id="feMorphology4393-1-0-49-8"
         operator="dilate"
         radius="4"
         result="result3" />
      <feComposite
         id="feComposite4385-9-5-7-0"
         in2="result3"
         in="SourceGraphic"
         operator="over"
         result="composite2" />
    </filter>
    <filter
       style="color-interpolation-filters:sRGB"
       id="filter4375-4-1-1-1-8"
       inkscape:label="deevad outline effect">
      <feFlood
         id="feFlood4377-7-9-0-8-4"
         flood-opacity="1"
         flood-color="rgb(0,0,0)"
         result="flood" />
      <feComposite
         id="feComposite4379-3-8-8-2-5"
         in2="SourceGraphic"
         in="flood"
         operator="in"
         result="composite1" />
      <feMorphology
         id="feMorphology4393-1-0-49-8-1"
         operator="dilate"
         radius="4"
         result="result3" />
      <feComposite
         id="feComposite4385-9-5-7-0-7"
         in2="result3"
         in="SourceGraphic"
         operator="over"
         result="composite2" />
    </filter>
  </defs>
  <sodipodi:namedview
     pagecolor="#ffffff"
     bordercolor="#666666"
     borderopacity="1"
     objecttolerance="10"
     gridtolerance="10"
     guidetolerance="10"
     inkscape:pageopacity="0"
     inkscape:pageshadow="2"
     inkscape:window-width="1920"
     inkscape:window-height="1025"
     id="namedview4"
     showgrid="false"
     inkscape:zoom="0.4946937"
     inkscape:cx="1216.2797"
     inkscape:cy="542.33733"
     inkscape:window-x="0"
     inkscape:window-y="26"
     inkscape:window-maximized="1"
     inkscape:current-layer="layer1" />
  <g
     inkscape:groupmode="layer"
     id="layer2"
     inkscape:label="artwork"
     sodipodi:insensitive="true">
    <image
       sodipodi:absref="C:\Users\quentinlipeck\Downloads\webcomics-master-ec7d62e6553c2c63bb1cf2e799ee31f9cb9ce5e2\webcomics-master-ec7d62e6553c2c63bb1cf2e799ee31f9cb9ce5e2\ep16_The-Sage-of-the-Mountain\lang\gfx_Pepper-and-Carrot_by-David-Revoy_E16P03.png"
       xlink:href="../gfx_Pepper-and-Carrot_by-David-Revoy_E16P03.png"
       width="2481"
       height="3503"
       id="image10"
       x="0"
       y="0" />
  </g>
  <g
     inkscape:groupmode="layer"
     id="layer3"
     inkscape:label="speechbubbles">
    <path
       style="color:#000000;display:inline;overflow:visible;visibility:visible;fill:#ffffff;fill-opacity:1;fill-rule:nonzero;stroke:none;stroke-width:1px;marker:none;enable-background:accumulate"
       d="m 1530.5664,614.12504 c -23.5422,-44.79099 -54.1129,-86.36208 -69.4889,-134.89415 l -9.2637,44.46765 c -14.5297,-14.22937 -19.1139,-35.6541 -27.0752,-54.63573 l -11.338,37.30803 c -33.8829,-34.01763 -74.8115,-85.94086 -98.9326,-124.1838 l -58.8695,-5.7337 c 28.9026,35.70192 134.8788,118.42738 157.7121,160.07431 l 12.6468,-24.8312 c 9.8817,13.23086 19.2558,26.89199 26.3633,42.47502 L 1465.44,521.55 Z"
       id="path4032"
       inkscape:connector-curvature="0"
       sodipodi:nodetypes="cccccccccccc" />
    <path
       style="color:#000000;display:inline;overflow:visible;visibility:visible;fill:#ffffff;fill-opacity:1;fill-rule:nonzero;stroke:none;stroke-width:1.09687px;marker:none;enable-background:accumulate"
       d="m 987.34176,237.31343 -57.39568,-8.62236 5.08275,14.09441 c -34.18007,0.76478 -51.98852,-3.65883 -76.2404,-6.04045 l 38.12013,18.12127 -6.35332,5.03373 c 6.18898,2.94322 15.52748,4.95064 17.78937,9.06067 -17.26648,2.56124 -29.68073,2.55955 -43.96016,3.543 13.43597,3.40383 24.62211,7.34232 32.52411,12.06145 l -45.74419,8.05387 41.92939,7.04607 c -31.53798,11.58645 -71.17717,18.89383 -108.00453,27.68651 l 130.87944,-4.02702 -20.33066,9.06067 c 13.46862,2.78405 12.025,1.88393 17.78936,3.52363 2.85573,3.39377 -44.99259,17.50461 -40.66157,16.10785 5.0828,-0.50341 48.28564,-2.51691 48.28564,-2.51691 0,0 -38.12027,14.0944 -33.0375,14.0944 5.08259,0 47.01489,-3.52362 47.01489,-3.52362 l -13.97739,13.591 40.48951,-6.89718 -10.29487,24.24952 c 14.41219,-0.99416 31.05208,-2.32127 37.98578,-1.34549 -4.82789,6.82503 -10.52273,9.37481 -22.72527,20.24412 23.15912,-4.71821 75.34221,-13.64591 75.34221,-13.64591 l 7.5407,22.19484 50.8271,-17.61795 8.8949,12.08089 38.12,-15.10112 v 15.60452 c 19.692,-3.01772 30.9933,-12.52262 49.5565,-18.12135 l 3.8117,58.39091 66.3243,-54.86198 13.2644,28.54067 32.2312,-21.4988 3.8119,16.10783 35.579,-21.64489 26.6842,19.63139 25.4135,-18.12128 c 41.0591,18.37512 63.9488,35.00224 95.3005,49.33023 -5.3634,-20.32012 -9.839,-40.05427 -7.624,-55.37067 14.4011,-1.59608 28.8018,1.59628 43.2028,6.04044 l -7.6241,-13.591 53.3685,9.06067 -24.1429,-21.14157 c 81.4651,-0.67737 65.1107,2.95086 83.8647,5.03372 l -15.248,-13.591 55.9099,10.57078 c -15.2739,-11.24696 -35.3353,-23.44229 -45.7446,-33.72578 l 58.451,2.51683 c -22.9049,-9.04805 -51.6827,-15.76968 -67.7075,-27.54316 l 51.1889,-1.1489 -48.2856,-15.10111 38.1199,-8.55728 -30.4958,-2.01352 50.8267,-18.12126 -67.3458,-1.51012 81.3234,-32.71907 -94.0301,7.04725 7.6239,-23.65841 -52.0974,17.11456 52.0974,-59.39762 c -42.4555,20.98117 -81.8681,32.90986 -131.5999,53.57048 l -18.3484,-5.96477 -20.3221,3.089 5.0827,-16.96892 -74.9696,20.6381 7.624,-9.564 -22.8722,9.06068 5.0825,-12.58429 -39.3908,15.10111 3.6267,-13.15756 -18.8748,8.62723 -5.8121,-8.26719 -22.1427,5.24697 c -21.3058,-20.23219 -40.9847,-55.95509 -40.9847,-55.95509 0,0 -23.2179,25.43081 -49.2335,56.96187 l -13.9773,-9.56061 -17.4277,8.84054 -17.6041,-11.4274 -26.505,13.65531 c -20.9596,-10.40298 -33.167,-16.77675 -41.3877,-27.17975 4.0543,9.74979 7.0019,16.29936 1.088,27.03632 -77.37327,-16.43858 -75.057,-17.90451 -104.01289,-27.03632 -7.93447,11.73738 19.95279,22.75764 15.46335,31.77737 z"
       id="path4024"
       inkscape:connector-curvature="0"
       sodipodi:nodetypes="cccccccccccccccccsccccccccccccccccccccccccccccccccccccccccccccccccccccccccccccccccccc" />
    <path
       inkscape:connector-curvature="0"
       style="fill:#ffffff;fill-rule:evenodd;stroke:none;stroke-width:1.02775"
       d="m 527.07114,1199.0507 c -154.86371,-0.1258 -310.04941,1.1314 -321.61599,2.641 -13.08884,1.7081 -35.22811,13.4061 -56.64268,27.7978 l -12.75713,-0.6247 8.02142,3.8649 c -0.88906,0.6171 -1.7764,1.2358 -2.65967,1.8598 l -42.631445,-8.7452 30.667985,17.5504 c -9.17875,7.039 -17.578,14.1698 -24.24196,20.6927 4.64906,34.8451 8.26993,56.2509 20.61496,73.3865 l -7.76292,12.1561 19.86168,0.9711 c 0.12965,0.113 0.26496,0.2255 0.39582,0.3383 l -13.83149,13.7867 24.08041,-5.9555 c 0.0526,0.036 0.10066,0.071 0.15348,0.1075 l -30.6599,32.0139 33.41449,-9.0583 -39.84051,29.1847 76.25596,-30.7882 c 1.14014,0.5341 2.24957,1.061 3.42506,1.6035 0.67074,0.3096 1.38425,0.6129 2.12046,0.9124 l -0.83607,9.1517 17.71699,-4.2224 c 92.41681,20.189 384.41573,8.5724 516.28479,-0.7654 l 26.33618,22.0969 -5.14163,-16.1018 38.55612,24.1527 -19.27806,-32.2052 20.56246,11.0714 -7.71041,-12.0772 20.56244,6.0378 -2.32039,-10.2949 c 58.82365,-10.4912 90.46233,-33.7358 99.99306,-56.1255 10.28141,-24.1532 5.14117,-57.3643 2.57081,-69.4408 -1.31038,-6.1567 -9.98085,-16.7557 -20.87951,-26.7384 l 14.45348,-12.5104 -22.44865,5.625 c -8.473,-6.8314 -17.49129,-12.7091 -25.10227,-15.6891 -10.2814,-4.0255 -164.82367,-5.534 -319.68737,-5.6598 z"
       id="path4212" />
    <path
       style="fill:#ffffff;fill-rule:evenodd;stroke:none;stroke-width:1px;stroke-linecap:butt;stroke-linejoin:miter;stroke-opacity:1"
       d="m 859.93893,1272.3203 c 56.86661,-10.0335 105.79244,-10.5381 175.55377,-36.0453 l -19.7842,24.3214 30.6717,-8.1632 -12.4294,26.1018 c 0,0 202.5995,-33.5594 193.8989,-33.5594 -8.7006,0 -224.9071,61.577 -224.9071,61.577 l 17.0647,-28.9567 -42.99824,16.0553 22.13933,-23.8168 -161.58242,57.1754 z"
       id="path4230"
       inkscape:connector-curvature="0"
       sodipodi:nodetypes="cccccscccccc" />
    <path
       style="fill:#ffffff;fill-rule:evenodd;stroke:none"
       d="m 798.10186,1823.7856 -40.08519,29.8306 -13.36171,14.9153 11.30607,13.6724 -15.41738,0 4.11131,23.6159 -38.02954,2.4859 35.97389,18.6441 -27.75128,2.4859 27.75128,18.6441 -2.05566,9.9435 -11.30607,11.1865 11.30607,44.7459 38.02953,22.373 -16.4452,8.7006 30.83475,1.2429 17.47304,22.373 35.97387,12.4294 27.75128,4.9717 -24.66781,16.1583 44.19649,-9.9435 -19.52868,18.6441 43.16866,-13.6724 68.86425,1.243 109.97737,-4.9718 37.0017,-4.9718 28.7791,14.9153 -6.167,-11.1864 27.7514,-1.243 74.0033,21.13 22.6122,6.2147 -14.3896,-32.3165 20.5565,13.6724 -5.1391,-27.3447 35.9739,-4.9718 18.5008,-13.6723 50.3634,29.8306 -19.5286,-29.8306 27.7512,18.6441 -18.5008,-26.1018 24.6678,11.1865 -18.5009,-24.8589 26.7235,-2.4858 3.0834,-39.7742 c 0,0 -15.4173,-11.1865 -11.306,-11.1865 4.1112,0 22.6122,-11.1864 22.6122,-11.1864 l -14.3896,-8.7006 24.6678,-4.9718 -27.7513,-17.4012 12.3339,-14.9153 -16.4452,-34.8023 -4.1113,-26.1018 -22.6122,-16.1583 -35.9738,-38.5312 -26.7235,-8.7006 -333.01533,-9.9435 -101.75468,9.9435 z"
       id="path4294"
       inkscape:connector-curvature="0" />
    <path
       style="fill:#ffffff;fill-rule:evenodd;stroke:none;stroke-width:1px;stroke-linecap:butt;stroke-linejoin:miter;stroke-opacity:1"
       d="m 1462.9425,2214.0693 -101.9212,-93.2206 6.2147,28.5876 -91.9777,-82.0341 -62.1471,11.1865 178.9836,110.6218 -9.9435,-28.5877 z"
       id="path4305"
       inkscape:connector-curvature="0" />
    <path
       style="fill:#ffffff;fill-rule:evenodd;stroke:none;stroke-width:1.05537px;stroke-linecap:butt;stroke-linejoin:miter;stroke-opacity:1"
       d="m 394.97675,2625.9484 c -15.99284,14.0495 -17.40798,51.2796 -16.71614,64.6324 0.69186,13.3527 16.65325,63.2387 30.23164,67.1321 13.57836,3.8935 104.52129,16.4505 119.53751,15.8234 15.01623,-0.6272 99.80068,-10.1156 112.91783,-15.1239 13.11715,-5.0085 24.08187,-51.5585 23.54375,-61.9441 -0.5381,-10.3853 -6.56555,-62.1732 -23.55774,-67.4109 -16.99218,-5.2377 -90.04318,-27.463 -104.98254,-25.3521 -14.93935,2.1107 -136.96822,2.7468 -140.97431,22.2431 z"
       id="path4408"
       inkscape:connector-curvature="0" />
    <path
       style="fill:#ffffff;fill-rule:evenodd;stroke:none;stroke-width:1px;stroke-linecap:butt;stroke-linejoin:miter;stroke-opacity:1"
       d="m 775.86914,2700.9124 c 14.79411,-21.3692 37.80717,-29.5882 55.88887,-29.5882 18.0817,0 290.95099,-4.9314 300.81369,-1.6438 9.8628,3.2876 55.8889,14.7941 55.8889,37.8072 0,23.0131 4.9314,49.3137 -8.219,64.1078 -13.1503,14.7941 -133.147,26.3007 -167.6666,23.0131 -34.51963,-3.2876 -184.10457,-8.219 -202.18627,-9.8628 -18.08169,-1.6437 -42.73855,-23.013 -39.45097,-39.4509 3.28758,-16.4379 4.93138,-44.3824 4.93138,-44.3824 z"
       id="path4410"
       inkscape:connector-curvature="0"
       sodipodi:nodetypes="csssssssc" />
    <path
       style="fill:#ffffff;fill-rule:evenodd;stroke:none;stroke-width:1px;stroke-linecap:butt;stroke-linejoin:miter;stroke-opacity:1"
       d="m 522.03985,2689.4104 c 193.55341,-0.3243 379.15326,41.3597 567.43005,79.9806 44.8357,122.0573 105.1467,166.4381 215.0829,188.0625 -136.5707,-22.4748 -165.0897,-59.102 -228.0528,-171.8502 -183.40766,-54.4054 -369.51017,-68.3491 -558.78343,-82.1423 z"
       id="path4412"
       inkscape:connector-curvature="0"
       sodipodi:nodetypes="cccccc" />
  </g>
  <g
     inkscape:groupmode="layer"
     id="layer1"
     inkscape:label="txt">
    <text
       xml:space="preserve"
       style="font-style:normal;font-variant:normal;font-weight:normal;font-stretch:normal;line-height:0%;font-family:Lavi;-inkscape-font-specification:Lavi;text-align:center;letter-spacing:0px;word-spacing:0px;text-anchor:middle;fill:#000000;fill-opacity:1;stroke:none"
       x="1268.6267"
       y="292.50793"
       id="text4246"><tspan
         sodipodi:role="line"
         style="font-size:45px;line-height:1.25"
         x="1268.6267"
         y="292.50793"
         id="tspan3537">ni li seme? sina toki e ni tan seme:</tspan><tspan
         sodipodi:role="line"
         style="font-size:45px;line-height:1.25"
         x="1268.6267"
         y="348.75793"
         id="tspan71">sina kama sona e ala?!</tspan></text>
    <text
       xml:space="preserve"
       style="font-style:normal;font-variant:normal;font-weight:normal;font-stretch:normal;line-height:0%;font-family:Lavi;-inkscape-font-specification:Lavi;text-align:center;letter-spacing:0px;word-spacing:0px;text-anchor:middle;fill:#000000;fill-opacity:1;stroke:none"
       x="512.66364"
       y="1288.5115"
       id="text4246-9"><tspan
         sodipodi:role="line"
         style="font-size:45px;line-height:1.25"
         x="512.66364"
         y="1288.5115"
         id="tspan3544">suli la, sina toki e ni kepeken jan ante. </tspan><tspan
         sodipodi:role="line"
         style="font-size:45px;line-height:1.25"
         x="512.66364"
         y="1344.7615"
         id="tspan77">sina wawa ala pilin anu seme?!</tspan></text>
    <text
       xml:space="preserve"
       style="font-style:normal;font-variant:normal;font-weight:normal;font-stretch:normal;line-height:0%;font-family:Lavi;-inkscape-font-specification:Lavi;text-align:center;letter-spacing:0px;word-spacing:0px;text-anchor:middle;fill:#000000;fill-opacity:1;stroke:none"
       x="1079.519"
       y="1882.459"
       id="text4246-9-6"><tspan
         sodipodi:role="line"
         style="font-size:45px;line-height:1.25"
         x="1079.519"
         y="1882.459"
         id="tspan85">monsi mi li pakala ala la, </tspan><tspan
         sodipodi:role="line"
         style="font-size:45px;line-height:1.25"
         x="1079.519"
         y="1938.709"
         id="tspan89">mi pana e sona mi, </tspan><tspan
         sodipodi:role="line"
         style="font-size:45px;line-height:1.25"
         x="1079.519"
         y="1994.959"
         id="tspan91">e sona pi wawa nasa ala a. </tspan><tspan
         sodipodi:role="line"
         style="font-size:45px;line-height:1.25"
         x="1079.519"
         y="2051.209"
         id="tspan93">sina lukin e sona ni!</tspan></text>
    <text
       xml:space="preserve"
       style="font-style:normal;font-variant:normal;font-weight:normal;font-stretch:normal;line-height:0%;font-family:Lavi;-inkscape-font-specification:Lavi;text-align:center;letter-spacing:0px;word-spacing:0px;text-anchor:middle;fill:#000000;fill-opacity:1;stroke:none"
       x="527.3103"
       y="2674.6978"
       id="text4246-9-6-3"><tspan
         sodipodi:role="line"
         style="font-size:45px;line-height:1.25"
         x="527.3103"
         y="2674.6978"
         id="tspan4292-8">jan Tume o,</tspan><tspan
         sodipodi:role="line"
         style="font-size:45px;line-height:1.25"
         x="527.3103"
         y="2730.9478"
         id="tspan4349">utala ala</tspan></text>
    <text
       xml:space="preserve"
       style="font-style:normal;font-variant:normal;font-weight:normal;font-stretch:normal;line-height:0%;font-family:Lavi;-inkscape-font-specification:Lavi;text-align:center;letter-spacing:0px;word-spacing:0px;text-anchor:middle;fill:#000000;fill-opacity:1;stroke:none"
       x="982.7735"
       y="2744.8301"
       id="text4246-9-6-9"><tspan
         sodipodi:role="line"
         style="font-size:45px;line-height:1.25"
         x="982.7735"
         y="2744.8301"
         id="tspan4292-6">toki ona li pona...</tspan></text>
    <text
       xml:space="preserve"
       style="font-style:normal;font-variant:normal;font-weight:normal;font-stretch:normal;line-height:0%;font-family:Lavi;-inkscape-font-specification:Lavi;text-align:center;letter-spacing:0px;word-spacing:0px;text-anchor:middle;fill:#ffffff;fill-opacity:1;stroke:#ffffff;stroke-width:0.410156;stroke-miterlimit:4;stroke-dasharray:none;stroke-opacity:1"
       x="764.05621"
       y="923.35193"
       id="text4246-8"
       transform="matrix(0.89618362,-0.24886542,0.02679547,1.1084018,0,0)"><tspan
         sodipodi:role="line"
         style="font-size:30.7617px;line-height:1.25;fill:#ffffff;stroke:#ffffff;stroke-width:0.410156;stroke-miterlimit:4;stroke-dasharray:none;stroke-opacity:1"
         x="764.05621"
         y="923.35193"
         id="tspan4150-8">mu</tspan></text>
    <text
       xml:space="preserve"
       style="font-style:normal;font-variant:normal;font-weight:normal;font-stretch:normal;line-height:0%;font-family:Lavi;-inkscape-font-specification:Lavi;text-align:center;letter-spacing:0px;word-spacing:0px;text-anchor:middle;fill:#ffffff;fill-opacity:1;stroke:#ffffff;stroke-width:0.410156;stroke-miterlimit:4;stroke-dasharray:none;stroke-opacity:1"
       x="543.87469"
       y="837.68304"
       id="text4246-8-4"
       transform="matrix(0.89618362,-0.24886542,0.02679547,1.1084018,0,0)"><tspan
         sodipodi:role="line"
         style="font-size:30.7617px;line-height:1.25;fill:#ffffff;stroke:#ffffff;stroke-width:0.410156;stroke-miterlimit:4;stroke-dasharray:none;stroke-opacity:1"
         x="543.87469"
         y="837.68304"
         id="tspan4150-8-7">mu</tspan></text>
    <text
       xml:space="preserve"
       style="font-style:normal;font-variant:normal;font-weight:normal;font-stretch:normal;line-height:0%;font-family:Lavi;-inkscape-font-specification:Lavi;text-align:center;letter-spacing:0px;word-spacing:0px;text-anchor:middle;fill:#ffffff;fill-opacity:1;stroke:#ffffff;stroke-width:0.410156;stroke-miterlimit:4;stroke-dasharray:none;stroke-opacity:1"
       x="334.54736"
       y="936.29169"
       id="text4246-8-5"
       transform="matrix(0.89618362,-0.24886542,0.02679547,1.1084018,0,0)"><tspan
         sodipodi:role="line"
         style="font-size:30.7617px;line-height:1.25;fill:#ffffff;stroke:#ffffff;stroke-width:0.410156;stroke-miterlimit:4;stroke-dasharray:none;stroke-opacity:1"
         x="334.54736"
         y="936.29169"
         id="tspan4150-8-71">mu</tspan></text>
    <text
       xml:space="preserve"
       style="font-style:normal;font-variant:normal;font-weight:normal;font-stretch:normal;line-height:0%;font-family:Lavi;-inkscape-font-specification:Lavi;text-align:center;letter-spacing:0px;word-spacing:0px;text-anchor:middle;fill:#ffffff;fill-opacity:1;stroke:#ffffff;stroke-width:0.410156;stroke-miterlimit:4;stroke-dasharray:none;stroke-opacity:1"
       x="87.779213"
       y="987.71484"
       id="text4246-8-7"
       transform="matrix(0.73686042,-0.56755246,0.44156597,1.0170015,0,0)"><tspan
         sodipodi:role="line"
         style="font-size:30.7617px;line-height:1.25;fill:#ffffff;stroke:#ffffff;stroke-width:0.410156;stroke-miterlimit:4;stroke-dasharray:none;stroke-opacity:1"
         x="87.779213"
         y="987.71484"
         id="tspan4150-8-79">mu</tspan></text>
    <text
       xml:space="preserve"
       style="font-style:normal;font-variant:normal;font-weight:normal;font-stretch:normal;line-height:0%;font-family:Lavi;-inkscape-font-specification:Lavi;text-align:center;letter-spacing:0px;word-spacing:0px;text-anchor:middle;fill:#ffffff;fill-opacity:1;stroke:#ffffff;stroke-width:0.410156;stroke-miterlimit:4;stroke-dasharray:none;stroke-opacity:1"
       x="336.62546"
       y="1084.5326"
       id="text4246-8-9"
       transform="matrix(0.89618362,-0.24886542,0.02679547,1.1084018,0,0)"><tspan
         sodipodi:role="line"
         style="font-size:30.7617px;line-height:1.25;fill:#ffffff;stroke:#ffffff;stroke-width:0.410156;stroke-miterlimit:4;stroke-dasharray:none;stroke-opacity:1"
         x="336.62546"
         y="1084.5326"
         id="tspan4150-8-2">mu</tspan></text>
    <text
       xml:space="preserve"
       style="font-style:normal;font-variant:normal;font-weight:normal;font-stretch:normal;line-height:0%;font-family:Lavi;-inkscape-font-specification:Lavi;text-align:center;letter-spacing:0px;word-spacing:0px;text-anchor:middle;fill:#ffffff;fill-opacity:1;stroke:#ffffff;stroke-width:0.410156;stroke-miterlimit:4;stroke-dasharray:none;stroke-opacity:1"
       x="552.94135"
       y="1012.8113"
       id="text4246-8-7-5"
       transform="matrix(0.89774281,-0.24318074,0.01977029,1.1085494,0,0)"><tspan
         sodipodi:role="line"
         style="font-size:30.7617px;line-height:1.25;fill:#ffffff;stroke:#ffffff;stroke-width:0.410156;stroke-miterlimit:4;stroke-dasharray:none;stroke-opacity:1"
         x="552.94135"
         y="1012.8113"
         id="tspan4150-8-79-8">mu</tspan></text>
    <text
       xml:space="preserve"
       style="font-style:normal;font-variant:normal;font-weight:normal;font-stretch:normal;line-height:0%;font-family:Lavi;-inkscape-font-specification:Lavi;text-align:center;letter-spacing:0px;word-spacing:0px;text-anchor:middle;fill:#ffffff;fill-opacity:1;stroke:#ffffff;stroke-width:0.410156;stroke-miterlimit:4;stroke-dasharray:none;stroke-opacity:1"
       x="156.05554"
       y="847.95422"
       id="text4246-8-7-4"
       transform="matrix(0.73686042,-0.56755246,0.44156597,1.0170015,0,0)"><tspan
         sodipodi:role="line"
         style="font-size:30.7617px;line-height:1.25;fill:#ffffff;stroke:#ffffff;stroke-width:0.410156;stroke-miterlimit:4;stroke-dasharray:none;stroke-opacity:1"
         x="156.05554"
         y="847.95422"
         id="tspan4150-8-79-5">mu</tspan></text>
    <text
       xml:space="preserve"
       style="font-style:normal;font-variant:normal;font-weight:normal;font-stretch:normal;line-height:0%;font-family:Lavi;-inkscape-font-specification:Lavi;text-align:center;letter-spacing:0px;word-spacing:0px;text-anchor:middle;fill:#ffffff;fill-opacity:1;stroke:#ffffff;stroke-width:0.410156;stroke-miterlimit:4;stroke-dasharray:none;stroke-opacity:1"
       x="358.29056"
       y="983.72534"
       id="text4246-8-7-6"
       transform="matrix(0.73686042,-0.56755246,0.44156597,1.0170015,0,0)"><tspan
         sodipodi:role="line"
         style="font-size:30.7617px;line-height:1.25;fill:#ffffff;stroke:#ffffff;stroke-width:0.410156;stroke-miterlimit:4;stroke-dasharray:none;stroke-opacity:1"
         x="358.29056"
         y="983.72534"
         id="tspan4150-8-79-86">mu</tspan></text>
    <text
       xml:space="preserve"
       style="font-style:normal;font-variant:normal;font-weight:normal;font-stretch:normal;line-height:0%;font-family:Lavi;-inkscape-font-specification:Lavi;text-align:center;letter-spacing:0px;word-spacing:0px;text-anchor:middle;fill:#ffffff;fill-opacity:1;stroke:#ffffff;stroke-width:0.410156;stroke-miterlimit:4;stroke-dasharray:none;stroke-opacity:1"
       x="-93.625549"
       y="854.11603"
       id="text4246-8-7-3"
       transform="matrix(0.73686042,-0.56755246,0.44156597,1.0170015,0,0)"><tspan
         sodipodi:role="line"
         style="font-size:30.7617px;line-height:1.25;fill:#ffffff;stroke:#ffffff;stroke-width:0.410156;stroke-miterlimit:4;stroke-dasharray:none;stroke-opacity:1"
         x="-93.625549"
         y="854.11603"
         id="tspan4150-8-79-2">mu</tspan></text>
    <text
       xml:space="preserve"
       style="font-style:normal;font-variant:normal;font-weight:normal;font-stretch:normal;line-height:0%;font-family:Lavi;-inkscape-font-specification:Lavi;text-align:center;letter-spacing:0px;word-spacing:0px;text-anchor:middle;fill:#ffffff;fill-opacity:1;stroke:#ffffff;stroke-width:0.410156;stroke-miterlimit:4;stroke-dasharray:none;stroke-opacity:1"
       x="-161.61777"
       y="976.23895"
       id="text4246-8-7-3-4"
       transform="matrix(0.73686042,-0.56755246,0.44156597,1.0170015,0,0)"><tspan
         sodipodi:role="line"
         style="font-size:30.7617px;line-height:1.25;fill:#ffffff;stroke:#ffffff;stroke-width:0.410156;stroke-miterlimit:4;stroke-dasharray:none;stroke-opacity:1"
         x="-161.61777"
         y="976.23895"
         id="tspan4150-8-79-2-4">mu</tspan></text>
    <text
       xml:space="preserve"
       style="font-style:normal;font-variant:normal;font-weight:normal;font-stretch:normal;line-height:0%;font-family:Lavi;-inkscape-font-specification:Lavi;letter-spacing:0px;word-spacing:0px;fill:#000000;fill-opacity:1;stroke:#000000;stroke-width:0.992362;stroke-miterlimit:4;stroke-dasharray:none;stroke-opacity:1;filter:url(#filter4375-4-1-1-1)"
       x="787.65729"
       y="1584.5073"
       id="text4580"
       transform="matrix(1.031805,-0.51321442,-0.19048641,1.3599228,744.55089,-116.50742)"><tspan
         sodipodi:role="line"
         id="tspan4582"
         x="787.65729"
         y="1584.5073"
         style="font-size:70px;line-height:1.25;fill:#ffffff"><tspan
           style="font-size:80.4001px"
           id="tspan4617">ANPA!</tspan></tspan></text>
  </g>
</svg>
