<?xml version="1.0" encoding="UTF-8" standalone="no"?>
<!-- Created with Inkscape (http://www.inkscape.org/) -->

<svg
   xmlns:dc="http://purl.org/dc/elements/1.1/"
   xmlns:cc="http://creativecommons.org/ns#"
   xmlns:rdf="http://www.w3.org/1999/02/22-rdf-syntax-ns#"
   xmlns:svg="http://www.w3.org/2000/svg"
   xmlns="http://www.w3.org/2000/svg"
   xmlns:xlink="http://www.w3.org/1999/xlink"
   xmlns:sodipodi="http://sodipodi.sourceforge.net/DTD/sodipodi-0.dtd"
   xmlns:inkscape="http://www.inkscape.org/namespaces/inkscape"
   id="svg2"
   version="1.1"
   inkscape:version="0.91 r13725"
   width="2481"
   height="3503"
   sodipodi:docname="go_E29P08.svg">
  <metadata
     id="metadata8">
    <rdf:RDF>
      <cc:Work
         rdf:about="">
        <dc:format>image/svg+xml</dc:format>
        <dc:type
           rdf:resource="http://purl.org/dc/dcmitype/StillImage" />
        <dc:title></dc:title>
      </cc:Work>
    </rdf:RDF>
  </metadata>
  <defs
     id="defs6">
    <filter
       style="color-interpolation-filters:sRGB"
       id="filter3018-3-2-2-7-8"
       inkscape:label="Lapping"
       inkscape:menu="Distort"
       inkscape:menu-tooltip="Something like a water noise"
       height="1.3"
       y="-0.15000001"
       width="1.3"
       x="-0.15000001">
      <feTurbulence
         id="feTurbulence3020-6-9-0-4-8"
         numOctaves="5"
         seed="0"
         type="fractalNoise"
         baseFrequency="0.1"
         result="result1" />
      <feGaussianBlur
         id="feGaussianBlur3022-7-1-2-4-4"
         stdDeviation="2"
         result="result2" />
      <feDisplacementMap
         id="feDisplacementMap3024-5-2-3-3-3"
         in2="result2"
         scale="55.299999999999997"
         yChannelSelector="B"
         xChannelSelector="R"
         in="SourceGraphic" />
    </filter>
    <filter
       style="color-interpolation-filters:sRGB"
       id="filter4375-4-1-1-1-9-5-8"
       inkscape:label="Drop Shadow">
      <feFlood
         id="feFlood4377-7-9-0-8-1-7-3"
         flood-opacity="1"
         flood-color="rgb(108,125,133)"
         result="flood" />
      <feComposite
         id="feComposite4379-3-8-8-2-77-4-1"
         in2="SourceGraphic"
         in="flood"
         operator="in"
         result="composite1" />
      <feMorphology
         id="feMorphology4393-1-0-49-8-9-3-0"
         operator="dilate"
         radius="6.2000000000000002"
         result="result3" />
      <feComposite
         id="feComposite4385-9-5-7-0-8-8-7"
         in2="result3"
         in="SourceGraphic"
         operator="over"
         result="fbSourceGraphic" />
      <feColorMatrix
         result="fbSourceGraphicAlpha"
         in="fbSourceGraphic"
         values="0 0 0 -1 0 0 0 0 -1 0 0 0 0 -1 0 0 0 0 1 0"
         id="feColorMatrix4544" />
      <feTurbulence
         id="feTurbulence4546"
         type="fractalNoise"
         numOctaves="3"
         seed="37"
         baseFrequency="0.129 0.0050000000000000001"
         result="turbulence" />
      <feDisplacementMap
         id="feDisplacementMap4548"
         in2="turbulence"
         in="fbSourceGraphic"
         scale="6.6"
         yChannelSelector="G"
         xChannelSelector="R"
         result="fbSourceGraphic" />
      <feColorMatrix
         result="fbSourceGraphicAlpha"
         in="fbSourceGraphic"
         values="0 0 0 -1 0 0 0 0 -1 0 0 0 0 -1 0 0 0 0 1 0"
         id="feColorMatrix4670" />
      <feFlood
         id="feFlood4672"
         flood-opacity="1"
         flood-color="rgb(17,52,65)"
         result="flood"
         in="fbSourceGraphic" />
      <feComposite
         id="feComposite4674"
         in2="fbSourceGraphic"
         in="flood"
         operator="in"
         result="composite1" />
      <feGaussianBlur
         id="feGaussianBlur4676"
         in="composite1"
         stdDeviation="0"
         result="blur" />
      <feOffset
         id="feOffset4678"
         dx="6"
         dy="6"
         result="offset" />
      <feComposite
         id="feComposite4680"
         in2="offset"
         in="fbSourceGraphic"
         operator="over"
         result="composite2" />
    </filter>
    <filter
       style="color-interpolation-filters:sRGB"
       id="filter3018-3-2-2-7-8-3"
       inkscape:label="Lapping"
       inkscape:menu="Distort"
       inkscape:menu-tooltip="Something like a water noise"
       height="1.3"
       y="-0.15000001"
       width="1.3"
       x="-0.15000001">
      <feTurbulence
         id="feTurbulence3020-6-9-0-4-8-6"
         numOctaves="5"
         seed="0"
         type="fractalNoise"
         baseFrequency="0.1"
         result="result1" />
      <feGaussianBlur
         id="feGaussianBlur3022-7-1-2-4-4-7"
         stdDeviation="2"
         result="result2" />
      <feDisplacementMap
         id="feDisplacementMap3024-5-2-3-3-3-5"
         in2="result2"
         scale="55.3"
         yChannelSelector="B"
         xChannelSelector="R"
         in="SourceGraphic" />
    </filter>
  </defs>
  <sodipodi:namedview
     pagecolor="#ffffff"
     bordercolor="#666666"
     borderopacity="1"
     objecttolerance="10"
     gridtolerance="10"
     guidetolerance="10"
     inkscape:pageopacity="0"
     inkscape:pageshadow="2"
     inkscape:window-width="959"
     inkscape:window-height="576"
     id="namedview4"
     showgrid="false"
     inkscape:zoom="0.2630065"
     inkscape:cx="1141.7956"
     inkscape:cy="392.20563"
     inkscape:window-x="65"
     inkscape:window-y="24"
     inkscape:window-maximized="1"
     inkscape:current-layer="layer1"
     inkscape:snap-global="false" />
  <g
     inkscape:groupmode="layer"
     id="layer2"
     inkscape:label="artwork"
     sodipodi:insensitive="true">
    <image
       sodipodi:absref="/home/denez/Docs Activites/Activite 3- Projet Gallo/Projet ADG/AdG 2-Travaux/5-BD pepper trad/29-go/../gfx_Pepper-and-Carrot_by-David-Revoy_E29P08.png"
       xlink:href="../gfx_Pepper-and-Carrot_by-David-Revoy_E29P08.png"
       width="2481"
       height="3503"
       id="image10"
       x="0"
       y="0" />
  </g>
  <g
     inkscape:groupmode="layer"
     id="layer3"
     inkscape:label="speechbubbles">
    <path
       style="color:#000000;display:inline;overflow:visible;visibility:visible;fill:#ffffff;fill-opacity:1;fill-rule:nonzero;stroke:none;stroke-width:0.99999994px;marker:none;enable-background:accumulate"
       d="m 180.7718,1205.3899 c 40.25215,-28.9724 558.25916,-42.4908 631.0063,20.1395 46.16257,39.7428 38.96975,205.2581 -19.97298,234.0575 -69.36945,33.8939 -468.06667,26.8822 -565.5763,7.9898 -92.77055,-17.9742 -85.32794,-96.9308 -90.00664,-156.7383 -1.90962,-24.4097 4.29712,-76.4761 44.54962,-105.4485 z"
       id="path4040-4"
       inkscape:connector-curvature="0"
       sodipodi:nodetypes="zssssz" />
    <path
       style="color:#000000;display:inline;overflow:visible;visibility:visible;fill:#ffffff;fill-opacity:1;fill-rule:nonzero;stroke:none;stroke-width:0.99999994px;marker:none;enable-background:accumulate"
       d="m 1275.2529,1270.3643 c 2.3846,-26.5504 7.7606,-47.6134 37.3379,-59.2929 29.5773,-11.6795 83.3557,-13.9754 151.5837,-9.381 36.5466,2.461 88.4758,6.0447 117.6005,17.139 29.1248,11.0942 35.4449,29.6988 32.376,68.5908 -3.0689,38.8919 -13.8016,59.6096 -47.4907,69.2521 -33.6891,9.6426 -90.3347,8.2101 -102.6653,9.1912 -32.2411,-3.0891 -94.4086,1.2921 -133.9295,-6.8838 -39.521,-8.1759 -56.3952,-28.9089 -54.8126,-88.6154 z"
       id="path4546-6-0"
       inkscape:connector-curvature="0"
       sodipodi:nodetypes="cssssscsc" />
    <path
       style="color:#000000;display:inline;overflow:visible;visibility:visible;fill:#ffffff;fill-opacity:1;fill-rule:nonzero;stroke:none;stroke-width:0.99999988px;marker:none;enable-background:accumulate"
       d="m 1717.648,1289.6632 c 4.2519,-35.5235 4.8622,-69.8192 61.1006,-90.6705 56.2386,-20.8515 155.3156,-26.6244 279.7629,-21.4451 66.661,2.7741 150.636,6.5132 203.7927,20.9321 53.1567,14.4188 75.495,39.5173 70.0399,91.5473 -5.4547,52.0302 -34.8918,74.7624 -96.2972,88.1267 -61.4051,13.3644 -154.7787,17.3615 -177.2631,18.8466 -22.4839,1.4852 -92.22,0.2057 -161.4081,-5.8035 -69.1885,-6.0089 -116.5128,-10.2102 -136.806,-27.643 -31.8128,-22.0768 -44.8563,-48.0344 -42.9217,-73.8906 z"
       id="path4546-6-2"
       inkscape:connector-curvature="0"
       sodipodi:nodetypes="cssssssscc" />
    <path
       style="color:#000000;display:inline;overflow:visible;visibility:visible;fill:#0f0f0f;fill-opacity:1;fill-rule:nonzero;stroke:none;stroke-width:1px;marker:none;enable-background:accumulate"
       d="m 1741.9308,2432.7908 c -4.8178,19.668 -0.7688,33.3874 2.4416,37.3592 3.2104,3.9717 10.8983,14.3119 13.7655,19.7718 2.3453,4.527 7.2978,10.3012 2.8751,12.116 -4.4228,1.8149 -34.8116,2.5003 -39.1041,15.4478 -4.2926,12.9476 1.2261,18.1 11.372,24.4541 10.1458,6.3542 23.2871,14.8228 21.1091,24.7749 -2.1781,9.9521 -13.1171,14.2585 -19.1504,14.6671 -6.0333,0.4087 -42.6524,-2.0129 -51.9597,1.3807 -9.3072,3.3936 -58.5684,13.2614 -54.7449,26.2831 11.9469,-13.1095 41.9984,-13.9815 50.8227,-15.2923 8.8245,-1.3108 24.7392,-5.003 34.6806,-1.6655 9.9416,3.3375 30.3591,2.6969 38.2813,-1.4051 7.9224,-4.102 22.577,-9.4024 22.9084,-20.299 0.3315,-10.8966 1.9829,-23.0056 -14.1751,-31.2699 -10.1458,-6.3541 -9.9405,-8.4674 -8.9855,-11.4734 0.9551,-3.0061 6.7542,-4.5088 18.3379,-3.2435 11.5838,1.2654 21.8199,-5.163 22.8068,-11.6474 0.9868,-6.4843 -4.6686,-27.4261 -5.0774,-33.4595 -0.4086,-6.0333 -15.9072,-37.41 -15.9072,-37.41 z"
       id="path5058"
       inkscape:connector-curvature="0"
       sodipodi:nodetypes="cscsssssscssssccscccc" />
    <path
       style="color:#000000;display:inline;overflow:visible;visibility:visible;opacity:1;fill:#0f0f0f;fill-opacity:1;fill-rule:nonzero;stroke:none;stroke-width:1.0516063px;marker:none;filter:url(#filter3018-3-2-2-7-8-3);enable-background:accumulate"
       d="m 358.47331,252.02591 c 0.0466,-13.96188 7.39186,-41.05615 31.52516,-45.9295 24.82592,-5.01323 22.83162,-7.42647 50.82871,1.2048 18.17701,5.60381 27.31738,23.75479 27.84434,32.90879 0.26348,4.577 1.82858,62.61405 1.08046,81.43083 -0.74813,18.81679 -10.39305,52.60598 -22.33297,55.32455 -18.0305,4.10531 -7.61044,7.48563 -26.2623,6.88865 -18.65186,-0.59699 -37.41469,-2.83341 -48.54882,-7.63934 -7.64142,-3.29834 -16.92567,-32.34767 -16.38912,-47.99723 0.53656,-15.64955 2.79353,-70.6371 2.25454,-76.19155 z"
       id="path3986-3-7-0-1"
       inkscape:connector-curvature="0"
       sodipodi:nodetypes="cssssssssc"
       transform="matrix(-0.02464833,-0.97640344,1.0670645,-0.01858366,1464.8343,2836.9044)" />
    <path
       style="color:#000000;display:inline;overflow:visible;visibility:visible;fill:#ffffff;fill-opacity:1;fill-rule:nonzero;stroke:none;stroke-width:0.99999994px;marker:none;enable-background:accumulate"
       d="m 311.87959,1615.1816 c -40.60124,-32.4674 -74.36032,-115.1853 -33.91931,-172.8839 3.17292,-61.055 -34.82399,-40.9983 -34.82399,-40.9983 -17.62319,2.576 -45.4318,163.5125 68.7433,213.8822 z"
       id="path3984"
       inkscape:connector-curvature="0"
       sodipodi:nodetypes="cccc" />
    <path
       style="color:#000000;display:inline;overflow:visible;visibility:visible;fill:#ffffff;fill-opacity:1;fill-rule:nonzero;stroke:none;stroke-width:1px;marker:none;enable-background:accumulate"
       d="m 1431.7617,1468.491 c 59.9751,-44.8956 60.0722,-122.3075 31.5594,-145.6457 -9.4981,-43.7555 40.3171,-10.9043 40.3171,-10.9043 0,0 13.3413,2.4791 15.0637,12.6745 5.1327,30.38 8.6371,103.3566 -86.9402,143.8755 z"
       id="path3072"
       inkscape:connector-curvature="0"
       sodipodi:nodetypes="cccsc" />
    <path
       style="fill:#ffffff;fill-rule:evenodd;stroke:none;stroke-width:1px;stroke-linecap:butt;stroke-linejoin:miter;stroke-opacity:1"
       d="m 1862.7031,1340.7927 c 37.0537,46.6722 -66.2999,66.1608 -59.716,93.6787 4.5451,18.9962 58.4627,25.3981 71.4513,107.1142 -28.5867,-68.3515 -80.8708,-62.3973 -96.4536,-91.0083 -29.5953,-54.3394 38.0899,-73.6875 46.0667,-84.002 10.6687,-13.7955 38.6516,-25.7826 38.6516,-25.7826 z"
       id="path4186"
       inkscape:connector-curvature="0"
       sodipodi:nodetypes="cscssc" />
  </g>
  <g
     inkscape:groupmode="layer"
     id="layer1"
     inkscape:label="txt">
    <text
       xml:space="preserve"
       style="font-style:normal;font-variant:normal;font-weight:normal;font-stretch:normal;line-height:0%;font-family:Lavi;-inkscape-font-specification:Lavi;text-align:center;letter-spacing:0px;word-spacing:0px;text-anchor:middle;fill:#000000;fill-opacity:1;stroke:none"
       x="486.06424"
       y="1232.8022"
       id="text4246"
       sodipodi:linespacing="0%"><tspan
         sodipodi:role="line"
         style="font-size:45px;line-height:1.20000005"
         x="486.06424"
         y="1232.8022"
         id="tspan841">En vrai ? …</tspan><tspan
         sodipodi:role="line"
         style="font-size:45px;line-height:1.20000005"
         x="493.22733"
         y="1286.8022"
         id="tspan4464">Ol araet arivae a monter ûne </tspan><tspan
         sodipodi:role="line"
         style="font-size:45px;line-height:1.20000005"
         x="493.22733"
         y="1340.8022"
         id="tspan4468">entersuelheriy d’évènements </tspan><tspan
         sodipodi:role="line"
         style="font-size:45px;line-height:1.20000005"
         x="486.06424"
         y="1394.8022"
         id="tspan4470">qi content de si grand san</tspan><tspan
         sodipodi:role="line"
         style="font-size:45px;line-height:1.20000005"
         x="486.06424"
         y="1448.8022"
         id="tspan4478">memme s’en avizer ?</tspan></text>
    <text
       xml:space="preserve"
       style="font-style:normal;font-variant:normal;font-weight:normal;font-stretch:normal;line-height:0%;font-family:Lavi;-inkscape-font-specification:Lavi;text-align:center;letter-spacing:0px;word-spacing:0px;text-anchor:middle;fill:#000000;fill-opacity:1;stroke:none"
       x="1445.2512"
       y="1272.4259"
       id="text4246-3"
       sodipodi:linespacing="0%"><tspan
         sodipodi:role="line"
         style="font-size:45px;line-height:1.20000005"
         x="1452.4143"
         y="1272.4259"
         id="tspan887">ben manqe, </tspan><tspan
         sodipodi:role="line"
         style="font-size:45px;line-height:1.20000005"
         x="1445.2512"
         y="1326.4259"
         id="tspan4501">diz-je mai.</tspan></text>
    <text
       xml:space="preserve"
       style="font-style:normal;font-variant:normal;font-weight:normal;font-stretch:normal;line-height:0%;font-family:Lavi;-inkscape-font-specification:Lavi;text-align:center;letter-spacing:0px;word-spacing:0px;text-anchor:middle;fill:#000000;fill-opacity:1;stroke:none"
       x="2021.72"
       y="1236.6133"
       id="text4246-6"
       sodipodi:linespacing="0%"><tspan
         sodipodi:role="line"
         style="font-size:45px;line-height:1.20000005"
         x="2021.72"
         y="1236.6133"
         id="tspan980">Mezdames,</tspan><tspan
         sodipodi:role="line"
         style="font-size:45px;line-height:1.20000005"
         x="2028.8831"
         y="1290.6133"
         id="tspan4514">m’ét éviz qe notr Pepper, </tspan><tspan
         sodipodi:role="line"
         style="font-size:45px;line-height:1.20000005"
         x="2021.72"
         y="1344.6133"
         id="tspan4516">ol ét preyte du coup-ci !</tspan></text>
    <text
       xml:space="preserve"
       style="color:#000000;font-style:normal;font-variant:normal;font-weight:normal;font-stretch:normal;font-size:13.80589771px;line-height:0.01%;font-family:Arial;-inkscape-font-specification:Arial;letter-spacing:0px;word-spacing:0px;display:inline;overflow:visible;visibility:visible;fill:#000000;fill-opacity:1;fill-rule:nonzero;stroke:#ffffff;stroke-width:12.78199959;stroke-miterlimit:4;stroke-dasharray:none;stroke-opacity:0.85350318;marker:none;paint-order:stroke markers fill;enable-background:accumulate"
       x="1409.5656"
       y="3018.9338"
       id="text1522"
       transform="matrix(0.73325907,-0.42022078,0.28304438,1.2015656,0,0)"><tspan
         sodipodi:role="line"
         x="1409.5656"
         y="3018.9338"
         id="tspan1520"
         style="fill:#000000;fill-opacity:1;stroke:#ffffff;stroke-width:12.78199959;stroke-miterlimit:4;stroke-dasharray:none;stroke-opacity:0.85350318;paint-order:stroke markers fill"><tspan
           x="1409.5656"
           y="3018.9338"
           style="color:#000000;font-style:normal;font-variant:normal;font-weight:normal;font-stretch:normal;font-size:73.6314621px;line-height:1.25;font-family:Lavi;-inkscape-font-specification:Lavi;text-align:center;text-anchor:middle;display:inline;overflow:visible;visibility:visible;fill:#000000;fill-opacity:1;fill-rule:nonzero;stroke:#ffffff;stroke-width:12.78199959;stroke-miterlimit:4;stroke-dasharray:none;stroke-opacity:0.85350318;marker:none;paint-order:stroke markers fill;enable-background:accumulate"
           id="tspan1518">Plop !</tspan></tspan></text>
    <flowRoot
       xml:space="preserve"
       id="flowRoot2987-4-9-3-6-6-2-8-6-5-4"
       style="font-style:normal;font-variant:normal;font-weight:normal;font-stretch:normal;line-height:0.01%;font-family:Lavi;-inkscape-font-specification:Lavi;text-align:center;letter-spacing:0px;word-spacing:0px;text-anchor:middle;opacity:1;fill:#000000;fill-opacity:1;stroke:none"
       transform="matrix(1.1000385,0,0,1.1857741,1299.6831,2049.1827)"><flowRegion
         id="flowRegion2989-5-4-5-0-1-8-4-1-2-9"><rect
           id="rect2991-7-9-6-6-8-9-5-5-5-2"
           width="615.85046"
           height="407.77811"
           x="120.55251"
           y="265.53046"
           style="font-style:normal;font-variant:normal;font-weight:normal;font-stretch:normal;font-family:Lavi;-inkscape-font-specification:Lavi;text-align:center;text-anchor:middle" /></flowRegion><flowPara
         style="font-style:normal;font-variant:normal;font-weight:normal;font-stretch:normal;font-size:67.71140289px;line-height:1.25;font-family:'Drukaatie burti';-inkscape-font-specification:'Drukaatie burti';text-align:center;text-anchor:middle;fill:#ffffff;fill-opacity:1"
         id="flowPara883">...</flowPara></flowRoot>    <text
       xml:space="preserve"
       style="font-style:normal;font-variant:normal;font-weight:normal;font-stretch:normal;line-height:0%;font-family:Lavi;-inkscape-font-specification:Lavi;letter-spacing:0px;word-spacing:0px;opacity:0.85700001;fill:#ffffff;fill-opacity:1;stroke:#98b9ca;stroke-width:0.95450699;stroke-miterlimit:4;stroke-dasharray:none;stroke-opacity:1;filter:url(#filter4375-4-1-1-1-9-5-8)"
       x="787.65729"
       y="1584.5073"
       id="text4580-6-0"
       transform="matrix(0.71047992,-0.09260253,-0.44793099,1.0912306,1045.8448,624.23108)"><tspan
         sodipodi:role="line"
         id="tspan4582-1-1"
         x="787.65729"
         y="1584.5073"
         style="font-size:70px;line-height:1.25;fill:#ffffff;fill-opacity:1;stroke:#98b9ca;stroke-width:0.95450699;stroke-opacity:1"><tspan
           style="font-size:93.14950562px;fill:#ffffff;fill-opacity:1;stroke:#98b9ca;stroke-width:0.95450699;stroke-opacity:1"
           id="tspan4315-8">Pch<tspan
   style="font-size:72.14802551px;stroke-width:0.95450699"
   id="tspan1131">hh </tspan><tspan
   style="font-size:82.64876556px;stroke-width:0.95450699"
   id="tspan1133">!</tspan></tspan><tspan
           style="font-size:114.73223114px;fill:#ffffff;fill-opacity:1;stroke:#98b9ca;stroke-width:0.95450699;stroke-opacity:1"
           id="tspan4313-2">!</tspan></tspan></text>
    <text
       xml:space="preserve"
       style="font-style:normal;font-variant:normal;font-weight:normal;font-stretch:normal;font-size:43.85733414px;line-height:0%;font-family:Lavi;-inkscape-font-specification:'Lavi, Normal';text-align:end;letter-spacing:0px;word-spacing:0px;writing-mode:lr-tb;text-anchor:end;display:inline;fill:#241c1c;fill-opacity:1;stroke:#000000;stroke-width:0.82200003;stroke-miterlimit:4;stroke-dasharray:none;stroke-opacity:1"
       x="2886.0457"
       y="3318.4402"
       id="text4213"
       transform="matrix(0.96049651,0,-0.32716292,1.0411282,0,0)"
       sodipodi:linespacing="0%"><tspan
         sodipodi:role="line"
         id="tspan3562"
         x="2886.0457"
         y="3318.4402"
         style="font-style:normal;font-variant:normal;font-weight:normal;font-stretch:normal;font-size:43.85733414px;line-height:1.25;font-family:Lavi;-inkscape-font-specification:'Lavi, Normal';text-align:end;writing-mode:lr-tb;text-anchor:end;stroke-width:0.82200003">- V’LA LE BOUT DU TERZAEN SUS LE SACR A CORIANDR -</tspan></text>
  </g>
</svg>
