<?xml version="1.0" encoding="UTF-8" standalone="no"?>
<svg
   xmlns:dc="http://purl.org/dc/elements/1.1/"
   xmlns:cc="http://creativecommons.org/ns#"
   xmlns:rdf="http://www.w3.org/1999/02/22-rdf-syntax-ns#"
   xmlns:svg="http://www.w3.org/2000/svg"
   xmlns="http://www.w3.org/2000/svg"
   xmlns:xlink="http://www.w3.org/1999/xlink"
   xmlns:sodipodi="http://sodipodi.sourceforge.net/DTD/sodipodi-0.dtd"
   xmlns:inkscape="http://www.inkscape.org/namespaces/inkscape"
   id="svg2"
   version="1.1"
   inkscape:version="1.0.1 (3bc2e813f5, 2020-09-07)"
   width="2481"
   height="3503"
   sodipodi:docname="E35P06.svg">
  <metadata
     id="metadata8">
    <rdf:RDF>
      <cc:Work
         rdf:about="">
        <dc:format>image/svg+xml</dc:format>
        <dc:type
           rdf:resource="http://purl.org/dc/dcmitype/StillImage" />
        <dc:title />
      </cc:Work>
    </rdf:RDF>
  </metadata>
  <defs
     id="defs6" />
  <sodipodi:namedview
     pagecolor="#ffffff"
     bordercolor="#666666"
     borderopacity="1"
     objecttolerance="10"
     gridtolerance="10"
     guidetolerance="10"
     inkscape:pageopacity="0"
     inkscape:pageshadow="2"
     inkscape:window-width="1366"
     inkscape:window-height="715"
     id="namedview4"
     showgrid="false"
     inkscape:zoom="0.40120419"
     inkscape:cx="1178.4146"
     inkscape:cy="2974.6838"
     inkscape:window-x="-8"
     inkscape:window-y="-8"
     inkscape:window-maximized="1"
     inkscape:current-layer="layer1"
     inkscape:document-rotation="0"
     inkscape:snap-global="false"
     inkscape:pagecheckerboard="0" />
  <g
     inkscape:groupmode="layer"
     id="layer2"
     inkscape:label="artwork"
     sodipodi:insensitive="true">
    <image
       sodipodi:absref="D:\Projects\lang\gfx_Pepper-and-Carrot_by-David-Revoy_E35P06.png"
       xlink:href="../gfx_Pepper-and-Carrot_by-David-Revoy_E35P06.png"
       width="2481"
       height="3503"
       id="image10"
       x="0"
       y="0" />
  </g>
  <g
     inkscape:groupmode="layer"
     id="layer3"
     inkscape:label="speechbubbles"
     style="display:inline">
    <path
       style="fill:#ffffff;stroke:none;stroke-width:0.897615"
       d="m 597.22708,150.09323 c -13.75701,0.37448 -27.48737,1.65125 -41.16372,3.32662 -21.11951,2.79617 -42.23467,7.4231 -62.0421,16.42057 -23.51756,11.63979 -41.06575,36.95029 -46.65234,65.40864 -8.89476,33.97584 -9.62547,71.26746 0.56523,105.04083 6.69616,20.8283 21.66253,37.19314 38.91807,46.77304 27.94075,15.99456 59.1702,24.55756 90.4178,24.12994 18.97417,0.0766 37.95991,-0.74014 56.85747,-2.64691 23.15779,-2.62304 46.46006,-9.21579 66.33513,-23.44149 13.21195,-9.53042 23.91631,-23.83005 29.20587,-40.72639 4.68524,-14.26119 5.55709,-29.71791 5.01942,-44.82653 -0.36116,-25.63185 -1.2306,-51.74057 -8.32506,-76.30738 -4.76868,-15.87208 -15.08963,-28.94518 -27.136,-38.22375 -8.2801,-6.37724 -17.52535,-10.84176 -26.66508,-15.31865 -21.7692,-10.19289 -44.83457,-17.01973 -68.29152,-19.23446 -2.34404,-0.20314 -4.6932,-0.32445 -7.04317,-0.37408 z"
       id="path3286-6"
       inkscape:connector-curvature="0"
       sodipodi:nodetypes="csssssssc" />
    <path
       style="display:inline;fill:#ffffff;fill-rule:evenodd;stroke:none;stroke-width:1.36247px;stroke-linecap:butt;stroke-linejoin:miter;stroke-opacity:1"
       d="m -11.698607,1502.9614 c 47.285128,0.9709 41.020285,18.9206 23.991775,40.2832 13.099827,-1.4369 43.737529,-21.2257 25.570695,10.0555 39.667306,-11.3646 56.420658,15.5887 53.197356,27.1509 19.484341,-3.9803 39.465281,-0.6376 19.136541,40.2724 19.63803,-9.167 36.84145,-36.8642 34.60501,7.2244 15.89818,-5.4725 36.78638,-26.5581 39.43737,9.4172 21.01567,-17.7601 41.89473,-32.9121 60.6718,-7.9194 19.53008,-36.1747 39.245,-23.3546 52.60208,12.4772 6.27564,-43.4296 43.52626,-25.9104 66.90689,19.5777 -7.42371,-37.6335 -38.94668,-89.6447 54.67081,-13.5228 -39.72841,-55.9177 -44.6055,-77.4348 72.48794,-15.7856 -14.94217,-22.6503 -39.19887,-77.1061 56.32185,-18.4508 -64.83065,-67.3048 -26.58017,-74.4012 20.0383,-86.5626 -56.61095,-1.7957 -73.29896,-19.4105 -12.88074,-26.8793 -92.57779,-8.7403 -70.1637,-30.4201 -40.69585,-66.7128 -47.37424,27.6916 -40.57833,11.5769 -29.22077,-3.1512 -84.20036,29.1003 -49.08304,-16.958 -41.30815,-34.9119 -41.35702,19.0141 -54.17414,16.8415 -50.28863,-11.8494 -22.95791,24.5753 -47.24278,23.9494 -45.05674,14.2836 l -57.8602,-8.2257 -275.30273,5.4155 -12.063932,88.2476 c 72.623699,-4.1891 28.465227,14.6958 -14.960675,19.5663 z"
       id="path961"
       sodipodi:nodetypes="cccccccccccccccccccccccc" />
    <path
       style="color:#000000;display:inline;overflow:visible;visibility:visible;fill:#ffffff;fill-opacity:1;fill-rule:nonzero;stroke:none;stroke-width:0.859172px;marker:none;enable-background:accumulate"
       d="m 666.37564,2285.3556 c -5.52311,-35.9524 9.20544,-131.4529 122.43116,-123.5877 113.22571,7.8642 131.63644,52.8058 134.398,66.2874 2.76155,13.4827 26.69547,89.8831 -61.67577,110.1061 -88.37141,20.2239 -167.53729,-1.1239 -195.15339,-52.8058 z"
       id="path3525-0"
       inkscape:connector-curvature="0" />
    <path
       style="color:#000000;display:inline;overflow:visible;visibility:visible;fill:#ffffff;fill-opacity:1;fill-rule:nonzero;stroke:none;stroke-width:1px;marker:none;enable-background:accumulate"
       d="m 777.45911,2075.5812 c 24.221,32.672 31.0089,45.658 8.1243,87.146 -22.8847,41.487 -7.3195,49.577 -7.3195,49.577 l 28.2503,-15.376 c 0,0 42.659,-91.848 -29.0551,-121.347 z"
       id="path3072-56"
       inkscape:connector-curvature="0" />
    <path
       style="color:#000000;display:inline;overflow:visible;visibility:visible;fill:#ffffff;fill-opacity:1;fill-rule:nonzero;stroke:none;stroke-width:1px;marker:none;enable-background:accumulate"
       d="m 787.3973,441.92617 c -47.0829,-20.24287 -67.22496,-54.55991 -84.15983,-115.70701 -17.59681,-45.717 -36.07245,-33.52653 -36.07245,-33.52653 l 6.37734,17.91035 c 0,0 -3.04742,117.01808 113.85494,131.32319 z"
       id="path3072-5-5"
       inkscape:connector-curvature="0"
       sodipodi:nodetypes="ccccc" />
    <path
       style="display:inline;fill:#ffffff;fill-opacity:1;stroke:none;stroke-width:1.10947"
       d="m 393.56677,1606.3671 c 21.51156,33.7205 38.79051,39.1501 50.26035,53.0664 11.46981,13.9172 -2.88402,43.4737 0.19353,53.5399 3.70439,9.4958 0.69509,16.2497 29.83986,39.4536 -46.26,-20.9908 -40.86354,-33.0957 -44.26871,-41.9175 -4.68096,-12.128 3.84885,-26.4644 -8.51834,-37.4754 -11.9791,-10.667 -55.59571,-40.8524 -64.07404,-63.4543 -8.47865,-22.6019 -12.84256,-23.9886 -12.84256,-23.9886 z"
       id="path3282-7"
       inkscape:connector-curvature="0"
       sodipodi:nodetypes="csccssscc" />
  </g>
  <g
     inkscape:groupmode="layer"
     id="layer1"
     inkscape:label="txt">
    <text
       xml:space="preserve"
       style="font-style:normal;font-variant:normal;font-weight:normal;font-stretch:normal;font-size:45px;line-height:1.25;font-family:Lavi;-inkscape-font-specification:Lavi;text-align:center;letter-spacing:0px;word-spacing:0px;text-anchor:middle;fill:#000000;fill-opacity:1;stroke:none"
       x="589.06763"
       y="234.04738"
       id="text4246-3-2-2"><tspan
         style="font-size:45px"
         sodipodi:role="line"
         x="589.06763"
         y="234.04738"
         id="tspan868">Gua</tspan><tspan
         style="font-size:45px"
         sodipodi:role="line"
         x="589.06763"
         y="290.29736"
         id="tspan46">Danau</tspan><tspan
         style="font-size:45px"
         sodipodi:role="line"
         x="589.06763"
         y="346.54736"
         id="tspan48">Bertanduk!</tspan><tspan
         style="font-size:45px"
         sodipodi:role="line"
         x="589.06763"
         y="402.79736"
         id="tspan905" /></text>
    <text
       xml:space="preserve"
       style="font-style:normal;font-variant:normal;font-weight:normal;font-stretch:normal;font-size:45px;line-height:1.25;font-family:Lavi;-inkscape-font-specification:Lavi;text-align:center;letter-spacing:0px;word-spacing:0px;text-anchor:middle;fill:#000000;fill-opacity:1;stroke:none"
       x="312.00537"
       y="1507.3002"
       id="text4246-3-2-2-3"><tspan
         style="font-weight:bold;font-size:45px"
         sodipodi:role="line"
         x="312.00537"
         y="1507.3002"
         id="tspan916">Carrot, ini</tspan><tspan
         style="font-weight:bold;font-size:45px"
         sodipodi:role="line"
         x="312.00537"
         y="1563.5502"
         id="tspan54">kesempatan kita!</tspan></text>
    <text
       xml:space="preserve"
       style="font-style:normal;font-variant:normal;font-weight:normal;font-stretch:normal;font-size:45px;line-height:1.25;font-family:Lavi;-inkscape-font-specification:Lavi;text-align:center;letter-spacing:0px;word-spacing:0px;text-anchor:middle;fill:#000000;fill-opacity:1;stroke:none"
       x="807.18762"
       y="2241.9109"
       id="text4246-3-2-2-3-5"><tspan
         style="font-size:45px"
         sodipodi:role="line"
         x="807.18762"
         y="2241.9109"
         id="tspan958">Aku tahu</tspan><tspan
         style="font-size:45px"
         sodipodi:role="line"
         x="807.18762"
         y="2298.1609"
         id="tspan58">gua ini.</tspan></text>
    <text
       xml:space="preserve"
       style="font-style:normal;font-variant:normal;font-weight:normal;font-stretch:normal;font-size:45px;line-height:1.25;font-family:Lavi;-inkscape-font-specification:Lavi;text-align:center;letter-spacing:0px;word-spacing:0px;text-anchor:middle;fill:#ffffff;fill-opacity:1;stroke:none"
       x="201.94211"
       y="2549.3845"
       id="text4246-3-2-2-3-5-9"><tspan
         style="font-size:45px;text-align:start;text-anchor:start;fill:#ffffff"
         sodipodi:role="line"
         x="201.94211"
         y="2549.3845"
         id="tspan924">Itu adalah jalur tempuh angin panjang</tspan><tspan
         style="font-size:45px;text-align:start;text-anchor:start;fill:#ffffff"
         sodipodi:role="line"
         x="201.94211"
         y="2605.6345"
         id="tspan62">yang berakhir di ruang bebentukan gua.</tspan></text>
    <text
       xml:space="preserve"
       style="font-style:normal;font-variant:normal;font-weight:normal;font-stretch:normal;font-size:45px;line-height:1.25;font-family:Lavi;-inkscape-font-specification:Lavi;text-align:center;letter-spacing:0px;word-spacing:0px;text-anchor:middle;fill:#ffffff;fill-opacity:1;stroke:none"
       x="1335.3069"
       y="3059.7258"
       id="text4246-3-2-2-3-5-9-7"><tspan
         style="font-size:45px;text-align:end;text-anchor:end;fill:#ffffff"
         sodipodi:role="line"
         x="1335.3069"
         y="3059.7258"
         id="tspan74">Stalaktit di bagian runtuh ini menumpuk</tspan><tspan
         style="font-size:45px;text-align:end;text-anchor:end;fill:#ffffff"
         sodipodi:role="line"
         x="1335.3069"
         y="3115.9758"
         id="tspan45">menjadi sebuah tembok berduri. Itu jebakan maut!</tspan><tspan
         style="font-size:45px;text-align:end;text-anchor:end;fill:#ffffff"
         sodipodi:role="line"
         x="1335.3069"
         y="3172.2258"
         id="tspan70" /></text>
    <text
       xml:space="preserve"
       style="font-style:normal;font-variant:normal;font-weight:normal;font-stretch:normal;font-size:45px;line-height:1.25;font-family:Lavi;-inkscape-font-specification:Lavi;text-align:center;letter-spacing:0px;word-spacing:0px;text-anchor:middle;fill:#000000;fill-opacity:1;stroke:none"
       x="1482.9749"
       y="2753.425"
       id="text4246-3-2-2-3-5-9-7-3"><tspan
         style="font-size:45px;text-align:start;text-anchor:start;fill:#ffffff"
         sodipodi:role="line"
         x="1482.9749"
         y="2753.425"
         id="tspan888">Ada celah kecil yang cukup lebar</tspan><tspan
         style="font-size:45px;text-align:start;text-anchor:start;fill:#ffffff"
         sodipodi:role="line"
         x="1482.9749"
         y="2809.675"
         id="tspan100">untuk kita selipi keluar,</tspan></text>
    <text
       xml:space="preserve"
       style="font-style:normal;font-variant:normal;font-weight:normal;font-stretch:normal;font-size:45px;line-height:1.25;font-family:Lavi;-inkscape-font-specification:Lavi;text-align:center;letter-spacing:0px;word-spacing:0px;text-anchor:middle;fill:#000000;fill-opacity:1;stroke:none;stroke-width:1.25015"
       x="2301.0408"
       y="3169.4587"
       id="text4246-3-2-2-3-5-9-7-3-3"><tspan
         style="font-size:45px;text-align:end;text-anchor:end;fill:#ffffff;stroke-width:1.25015"
         sodipodi:role="line"
         x="2301.0408"
         y="3169.4587"
         id="tspan111">namun naga itu takkan sempat</tspan><tspan
         style="font-size:45px;text-align:end;text-anchor:end;fill:#ffffff;stroke-width:1.25015"
         sodipodi:role="line"
         x="2301.0408"
         y="3225.7087"
         id="tspan132">menukik dan akan menghantam</tspan><tspan
         style="font-size:45px;text-align:end;text-anchor:end;fill:#ffffff;stroke-width:1.25015"
         sodipodi:role="line"
         x="2301.0408"
         y="3281.9587"
         id="tspan144">tembok itu dengan cepat!</tspan><tspan
         style="font-size:45px;text-align:end;text-anchor:end;fill:#ffffff;stroke-width:1.25015"
         sodipodi:role="line"
         x="2301.0408"
         y="3338.2087"
         id="tspan107">Muhahaha!</tspan><tspan
         style="font-size:45px;text-align:end;text-anchor:end;fill:#ffffff;stroke-width:1.25015"
         sodipodi:role="line"
         x="2301.0408"
         y="3394.4587"
         id="tspan109" /></text>
  </g>
</svg>
