<?xml version="1.0" encoding="UTF-8" standalone="no"?>
<!-- Created with Inkscape (http://www.inkscape.org/) -->

<svg
   xmlns:dc="http://purl.org/dc/elements/1.1/"
   xmlns:cc="http://creativecommons.org/ns#"
   xmlns:rdf="http://www.w3.org/1999/02/22-rdf-syntax-ns#"
   xmlns:svg="http://www.w3.org/2000/svg"
   xmlns="http://www.w3.org/2000/svg"
   xmlns:xlink="http://www.w3.org/1999/xlink"
   xmlns:sodipodi="http://sodipodi.sourceforge.net/DTD/sodipodi-0.dtd"
   xmlns:inkscape="http://www.inkscape.org/namespaces/inkscape"
   id="svg2"
   version="1.1"
   inkscape:version="0.92.4 (5da689c313, 2019-01-14)"
   width="2481"
   height="3503"
   sodipodi:docname="E12P02.svg">
  <sodipodi:namedview
     pagecolor="#ffffff"
     bordercolor="#666666"
     inkscape:pageopacity="0"
     inkscape:pageshadow="2"
     inkscape:window-width="1920"
     inkscape:window-height="975"
     id="namedview70"
     showgrid="false"
     inkscape:zoom="0.50539133"
     inkscape:cx="1220.8381"
     inkscape:cy="228.35504"
     inkscape:current-layer="layer1"
     inkscape:window-x="0"
     inkscape:window-y="64"
     inkscape:window-maximized="1" />
  <metadata
     id="metadata8">
    <rdf:RDF>
      <cc:Work
         rdf:about="">
        <dc:format>image/svg+xml</dc:format>
        <dc:type
           rdf:resource="http://purl.org/dc/dcmitype/StillImage" />
        <dc:title />
      </cc:Work>
    </rdf:RDF>
  </metadata>
  <defs
     id="defs6">
    <filter
       style="color-interpolation-filters:sRGB"
       id="filter4375-4-1-1-1"
       inkscape:label="deevad outline effect">
      <feFlood
         id="feFlood4377-7-9-0-8"
         flood-opacity="1"
         flood-color="rgb(52,87,46)"
         result="flood" />
      <feComposite
         id="feComposite4379-3-8-8-2"
         in2="SourceGraphic"
         in="flood"
         operator="in"
         result="composite1" />
      <feMorphology
         id="feMorphology4393-1-0-49-8"
         operator="dilate"
         radius="4"
         result="result3" />
      <feComposite
         id="feComposite4385-9-5-7-0"
         in2="result3"
         in="SourceGraphic"
         operator="over"
         result="composite2" />
    </filter>
  </defs>
  <sodipodi:namedview
     pagecolor="#ffffff"
     bordercolor="#666666"
     borderopacity="1"
     objecttolerance="10"
     gridtolerance="10"
     guidetolerance="10"
     inkscape:pageopacity="0"
     inkscape:pageshadow="2"
     inkscape:window-width="1920"
     inkscape:window-height="1025"
     id="namedview4"
     showgrid="false"
     inkscape:zoom="0.69960253"
     inkscape:cx="1704.4995"
     inkscape:cy="879.13046"
     inkscape:window-x="0"
     inkscape:window-y="26"
     inkscape:window-maximized="1"
     inkscape:current-layer="layer3" />
  <g
     inkscape:groupmode="layer"
     id="layer2"
     inkscape:label="artwork"
     sodipodi:insensitive="true">
    <image
       sodipodi:absref="/felles/omsetting/pepper-carrot/webcomics/ep12_Autumn-Clearout/lang/nn/../gfx_Pepper-and-Carrot_by-David-Revoy_E12P02.png"
       xlink:href="../gfx_Pepper-and-Carrot_by-David-Revoy_E12P02.png"
       width="2481"
       height="3503"
       id="image10"
       x="0"
       y="0" />
  </g>
  <g
     inkscape:groupmode="layer"
     id="layer3"
     inkscape:label="speechbubbles">
    <path
       style="fill:#ffffff;stroke:none"
       d="m 1619.4822,493.55313 c 59.37,10.88062 130.239,-19.10803 138.4344,-93.39209 4.9656,-45.00881 2.9147,-72.57554 2.9147,-72.57554 l 37.4598,26.38481 -2.7257,51.07511 c 0,0 -38.0508,127.16014 -176.0832,88.50771 z"
       id="path3063"
       inkscape:connector-curvature="0"
       sodipodi:nodetypes="cscccc" />
    <path
       style="fill:#ffffff;stroke:none;stroke-width:0.97114217"
       d="m 1600.6326,303.64705 c 8.9474,-54.94947 39.8563,-95.59125 226.1233,-102.65621 186.2671,-7.0649 262.7262,53.20172 263.5394,94.80629 0.8135,41.60455 -54.4972,107.36615 -204.9749,108.93615 -150.478,1.56999 -279.8074,6.45773 -284.6878,-101.08623 z"
       id="path3270"
       inkscape:connector-curvature="0"
       sodipodi:nodetypes="cscsc" />
    <path
       style="fill:#ffffff;fill-rule:evenodd;stroke:none;stroke-width:1px;stroke-linecap:butt;stroke-linejoin:miter;stroke-opacity:1"
       d="m 1477.3311,1611.0508 c -3.0154,46.8723 -29.7425,76.9194 -2.3075,76.5302 29.473,-0.4181 -0.1784,-28.9502 2.3075,-76.5302 z"
       id="path4222"
       inkscape:connector-curvature="0"
       sodipodi:nodetypes="csc" />
    <path
       style="fill:#ffffff;fill-rule:evenodd;stroke:none;stroke-width:1px;stroke-linecap:butt;stroke-linejoin:miter;stroke-opacity:1"
       d="m 1982.3019,2077.7766 c -3.0154,46.8723 -29.7425,76.9194 -2.3075,76.5302 29.473,-0.4181 -0.1784,-28.9502 2.3075,-76.5302 z"
       id="path4222-9"
       inkscape:connector-curvature="0"
       sodipodi:nodetypes="csc" />
    <flowRoot
       xml:space="preserve"
       id="flowRoot2987-7-9-9-6-2"
       style="font-style:normal;font-variant:normal;font-weight:normal;font-stretch:normal;line-height:0.01%;font-family:Lavi;-inkscape-font-specification:Lavi;letter-spacing:0px;word-spacing:0px;fill:#6f8a91;fill-opacity:1;stroke:none"
       transform="matrix(0.34033125,0.19613469,-0.07244778,0.46867793,859.99043,1391.2326)"><flowRegion
         id="flowRegion2989-4-5-8-75-8"><rect
           id="rect2991-45-1-3-34-5"
           width="417.15793"
           height="141.89404"
           x="120.55251"
           y="265.53046"
           style="font-style:normal;font-variant:normal;font-weight:normal;font-stretch:normal;font-family:Lavi;-inkscape-font-specification:Lavi;fill:#6f8a91" /></flowRegion><flowPara
         id="flowPara2995-4-1-5-4-4"
         style="font-size:48px;line-height:1.25;fill:#6f8a91">Svisj!</flowPara></flowRoot>    <path
       style="color:#000000;display:inline;overflow:visible;visibility:visible;fill:#ffffff;fill-opacity:1;fill-rule:nonzero;stroke:none;stroke-width:1px;marker:none;enable-background:accumulate"
       d="m 236.22965,2601.416 c 4.80392,-10.2204 28.84048,-41.8515 32.84899,-8.3111 39.83557,-46.1553 79.59898,-32.4883 119.3664,-22.2216 9.25399,-13.7799 9.00175,-34.158 42.37647,-31.1958 -5.57863,-12.8551 4.89635,-22.4688 29.69575,-29.1907 -34.04053,-6.0954 -40.7722,-13.9277 20.73577,-26.1005 -47.34878,1.7248 -91.60104,2.3814 -38.28898,-30.6123 -17.45757,0.2225 -56.94363,27.4824 -42.98009,-46.7587 -28.23547,25.0612 -59.22149,39.7294 -102.81403,-7.1731 -10.90692,20.0506 -28.35678,34.1382 -65.6717,9.6233 -6.18176,19.6488 -48.7877,23.5669 -64.79222,20.5129 33.24706,19.7939 33.12443,33.2204 -9.75399,37.6394 74.96263,34.8548 15.57198,32.2184 4.65185,42.6863 57.6245,10.2807 33.47442,28.2721 24.58395,45.3804 65.16458,-2.9773 45.76911,24.7309 50.04183,45.7215 z"
       id="path3549-3"
       inkscape:connector-curvature="0"
       sodipodi:nodetypes="ccccccccccccccc"
       inkscape:transform-center-x="-167.18133"
       inkscape:transform-center-y="58.382842" />
    <path
       style="color:#000000;display:inline;overflow:visible;visibility:visible;fill:#ffffff;fill-opacity:1;fill-rule:nonzero;stroke:none;stroke-width:1px;marker:none;enable-background:accumulate"
       d="m 308.27858,2558.8689 c 22.23093,45.0827 43.46026,114.2405 119.66529,91.8336 28.367,25.1116 52.78253,40.8669 113.32912,19.0349 -47.52657,7.5386 -74.32369,6.2336 -113.25897,-34.0723 -40.58299,6.3014 -71.81242,-24.8983 -89.08654,-84.7355 -17.27409,-59.8372 13.4365,-43.9063 13.4365,-43.9063 l -41.14045,33.8175 z"
       id="path5074"
       inkscape:connector-curvature="0"
       sodipodi:nodetypes="ccccsccc" />
    <flowRoot
       xml:space="preserve"
       id="flowRoot2987-4-9-3-0"
       style="font-style:normal;font-variant:normal;font-weight:normal;font-stretch:normal;line-height:0.01%;font-family:Lavi;-inkscape-font-specification:Lavi;text-align:center;letter-spacing:0px;word-spacing:0px;text-anchor:middle;fill:#000000;fill-opacity:1;stroke:none"
       transform="matrix(1.186725,0,0,1.186725,-194.70066,2153.4757)"><flowRegion
         id="flowRegion2989-5-4-5-1"><rect
           id="rect2991-7-9-6-4"
           width="602.40173"
           height="310.73996"
           x="120.55251"
           y="265.53046"
           style="font-style:normal;font-variant:normal;font-weight:normal;font-stretch:normal;font-family:Lavi;-inkscape-font-specification:Lavi;text-align:center;text-anchor:middle" /></flowRegion><flowPara
         style="font-size:45px;line-height:1.25;text-align:center;letter-spacing:1.5px;text-anchor:middle;stroke:#000000;stroke-width:1.10000002;stroke-miterlimit:4;stroke-dasharray:none;stroke-opacity:1"
         id="flowPara3030-8-7">Søren!</flowPara></flowRoot>    <path
       style="color:#000000;display:inline;overflow:visible;visibility:visible;fill:#ffffff;fill-opacity:1;fill-rule:nonzero;stroke:none;stroke-width:0.97023481px;marker:none;enable-background:accumulate"
       d="m 1356.066,2471.5325 c 10.939,-48.9908 101.6913,-69.6563 131.3626,-65.3046 29.6711,4.3517 105.7,21.7632 124.0688,22.8672 18.3689,1.1039 85.5792,-3.8461 109.8665,-4.9548 24.2873,-1.1088 50.9302,46.7241 47.2981,65.7689 -3.632,19.0447 -25.7417,71.6526 -89.3299,74.2518 -63.5882,2.5994 -148.0097,-10.1797 -165.6758,-4.8203 -17.6661,5.3591 -92.7348,7.2685 -119.0411,-12.2915 -26.3064,-19.5599 -49.4882,-26.5259 -38.5492,-75.5167 z"
       id="path4554"
       inkscape:connector-curvature="0"
       sodipodi:nodetypes="zsssssssz" />
    <flowRoot
       xml:space="preserve"
       id="flowRoot2987-4-9-3-7"
       style="font-style:normal;font-variant:normal;font-weight:normal;font-stretch:normal;line-height:0.01%;font-family:Lavi;-inkscape-font-specification:Lavi;text-align:center;letter-spacing:0px;word-spacing:0px;text-anchor:middle;fill:#000000;fill-opacity:1;stroke:none"
       transform="translate(1138.0427,2196.9602)"><flowRegion
         id="flowRegion2989-5-4-5-5"><rect
           id="rect2991-7-9-6-3"
           width="602.40173"
           height="310.73996"
           x="120.55251"
           y="265.53046"
           style="font-style:normal;font-variant:normal;font-weight:normal;font-stretch:normal;font-family:Lavi;-inkscape-font-specification:Lavi;text-align:center;text-anchor:middle" /></flowRegion><flowPara
         style="font-size:45px;line-height:1.25;text-align:center;text-anchor:middle"
         id="flowPara3030-8-3">Grava det ned?!</flowPara></flowRoot>    <path
       style="color:#000000;display:inline;overflow:visible;visibility:visible;fill:#ffffff;fill-opacity:1;fill-rule:nonzero;stroke:none;stroke-width:1.11558914px;marker:none;enable-background:accumulate"
       d="m 1492.8909,2550.4207 c 66.8464,-25.8571 491.4092,-59.4129 608.0927,1.4401 97.3942,50.7931 59.394,177.2863 -27.2226,206.4216 -86.6161,29.1354 -440.2629,22.8545 -561.2991,-5.6126 -63.1286,-14.8475 -86.3279,-48.2256 -92.5531,-124.6502 -2.549,-31.291 6.136,-51.7419 72.9821,-77.5989 z"
       id="path4040-4"
       inkscape:connector-curvature="0"
       sodipodi:nodetypes="zssssz" />
    <flowRoot
       xml:space="preserve"
       id="flowRoot2987-4-9-3-7-3"
       style="font-style:normal;font-variant:normal;font-weight:normal;font-stretch:normal;line-height:0.01%;font-family:Lavi;-inkscape-font-specification:Lavi;text-align:center;letter-spacing:0px;word-spacing:0px;text-anchor:middle;fill:#000000;fill-opacity:1;stroke:none"
       transform="translate(1334.7215,2278.8121)"><flowRegion
         id="flowRegion2989-5-4-5-5-2"><rect
           id="rect2991-7-9-6-3-0"
           width="609.36108"
           height="275.104"
           x="146.2814"
           y="294.1181"
           style="font-style:normal;font-variant:normal;font-weight:normal;font-stretch:normal;font-family:Lavi;-inkscape-font-specification:Lavi;text-align:center;text-anchor:middle" /></flowRegion><flowPara
         style="font-size:45px;line-height:1.25;text-align:center;text-anchor:middle"
         id="flowPara4352">Det kjem til å ta fleire timar,</flowPara><flowPara
         style="font-size:45px;line-height:1.25;text-align:center;text-anchor:middle"
         id="flowPara54">og me får sikkert blemmer på</flowPara><flowPara
         style="font-size:45px;line-height:1.25;text-align:center;text-anchor:middle"
         id="flowPara56">nevane av alt arbeidet!</flowPara></flowRoot>    <path
       style="color:#000000;display:inline;overflow:visible;visibility:visible;fill:#ffffff;fill-opacity:1;fill-rule:nonzero;stroke:none;stroke-width:1px;marker:none;enable-background:accumulate"
       d="m 1400.4736,2533.7323 c -18.6319,22.5019 -44.8842,46.6694 -52.0048,51.8217 -6.8645,-10.1867 -15.2086,-18.7014 -21.5731,-25.4015 -11.7344,10.6559 -61.4082,63.3167 -64.096,80.5357 4.1256,-43.1549 37.0517,-85.8621 58.589,-101.807 10.249,8.0984 15.2352,13.7511 20.7482,17.9401 11.4577,-7.4488 38.6153,-39.0061 38.6153,-39.0061 z"
       id="path5066"
       inkscape:connector-curvature="0" />
    <flowRoot
       xml:space="preserve"
       id="flowRoot2987-7-9-9-7-0-3-4-1"
       style="font-style:normal;font-variant:normal;font-weight:normal;font-stretch:normal;line-height:0.01%;font-family:Lavi;-inkscape-font-specification:Lavi;letter-spacing:0px;word-spacing:0px;display:inline;fill:#000000;fill-opacity:1;stroke:#000000;stroke-width:0.99236238;stroke-miterlimit:4;stroke-dasharray:none;stroke-opacity:1;filter:url(#filter4375-4-1-1-1)"
       transform="matrix(0.99907964,-0.23828437,0.36362081,1.4376966,1595.4478,2880.2412)"><flowRegion
         id="flowRegion2989-4-5-8-7-41-7-62-2"
         style="stroke-width:5.40286207"><rect
           id="rect2991-45-1-3-3-8-0-4-6"
           width="319.66232"
           height="56.089447"
           x="120.55251"
           y="265.53046"
           style="font-style:normal;font-variant:normal;font-weight:normal;font-stretch:normal;font-family:Lavi;-inkscape-font-specification:Lavi;fill:#000000;fill-opacity:1;stroke:#000000;stroke-width:0.99236238;stroke-miterlimit:4;stroke-dasharray:none;stroke-opacity:1" /></flowRegion><flowPara
         id="flowPara2995-4-1-5-0-7-2-6-4"
         style="font-weight:normal;font-size:48px;line-height:1.25;-inkscape-font-specification:Lavi;letter-spacing:7.06853437px;fill:#ffffff;fill-opacity:1;stroke:#ffffff;stroke-width:0.99236238;stroke-linejoin:miter;stroke-miterlimit:4;stroke-dasharray:none;stroke-opacity:1">Skubb</flowPara></flowRoot>  </g>
  <g
     inkscape:groupmode="layer"
     id="layer1"
     inkscape:label="txt">
    <flowRoot
       xml:space="preserve"
       id="flowRoot2987-4-9-3"
       style="font-style:normal;font-variant:normal;font-weight:normal;font-stretch:normal;line-height:0.01%;font-family:Lavi;-inkscape-font-specification:Lavi;text-align:center;letter-spacing:0px;word-spacing:0px;text-anchor:middle;fill:#000000;fill-opacity:1;stroke:none"
       transform="translate(1415.5427,-20.039769)"><flowRegion
         id="flowRegion2989-5-4-5"><rect
           id="rect2991-7-9-6"
           width="602.40173"
           height="310.73996"
           x="120.55251"
           y="265.53046"
           style="font-style:normal;font-variant:normal;font-weight:normal;font-stretch:normal;font-family:Lavi;-inkscape-font-specification:Lavi;text-align:center;text-anchor:middle" /></flowRegion><flowPara
         style="font-size:45px;line-height:1.25;text-align:center;text-anchor:middle"
         id="flowPara4169">Rydda alt vekk?</flowPara><flowPara
         style="font-size:45px;line-height:1.25;text-align:center;text-anchor:middle"
         id="flowPara52">Superenkelt! Jippi!</flowPara></flowRoot>  </g>
</svg>
