<?xml version="1.0" encoding="UTF-8" standalone="no"?>
<!-- Created with Inkscape (http://www.inkscape.org/) -->

<svg
   xmlns:dc="http://purl.org/dc/elements/1.1/"
   xmlns:cc="http://creativecommons.org/ns#"
   xmlns:rdf="http://www.w3.org/1999/02/22-rdf-syntax-ns#"
   xmlns:svg="http://www.w3.org/2000/svg"
   xmlns="http://www.w3.org/2000/svg"
   xmlns:xlink="http://www.w3.org/1999/xlink"
   xmlns:sodipodi="http://sodipodi.sourceforge.net/DTD/sodipodi-0.dtd"
   xmlns:inkscape="http://www.inkscape.org/namespaces/inkscape"
   id="svg2"
   version="1.1"
   inkscape:version="0.92.2 (5c3e80d, 2017-08-06)"
   width="2481"
   height="3503"
   sodipodi:docname="Pepper-and-Carrot_by-David-Revoy_E14P05.svg">
  <metadata
     id="metadata8">
    <rdf:RDF>
      <cc:Work
         rdf:about="">
        <dc:format>image/svg+xml</dc:format>
        <dc:type
           rdf:resource="http://purl.org/dc/dcmitype/StillImage" />
        <dc:title />
      </cc:Work>
    </rdf:RDF>
  </metadata>
  <defs
     id="defs6">
    <linearGradient
       inkscape:collect="always"
       xlink:href="#linearGradient4232"
       id="linearGradient4238"
       x1="1956.4867"
       y1="1758.8628"
       x2="1955.2883"
       y2="1705.3795"
       gradientUnits="userSpaceOnUse" />
    <linearGradient
       inkscape:collect="always"
       id="linearGradient4232">
      <stop
         style="stop-color:#2b0000;stop-opacity:1"
         offset="0"
         id="stop4234" />
      <stop
         style="stop-color:#800000;stop-opacity:1"
         offset="1"
         id="stop4236" />
    </linearGradient>
    <filter
       style="color-interpolation-filters:sRGB"
       id="filter5561-7"
       inkscape:label="Roughen">
      <feFlood
         id="feFlood5563-4"
         flood-opacity="1"
         flood-color="rgb(135,2,0)"
         result="flood" />
      <feComposite
         id="feComposite5565-6"
         in2="SourceGraphic"
         in="flood"
         operator="in"
         result="composite1" />
      <feMorphology
         id="feMorphology5567-3"
         operator="dilate"
         radius="1.3"
         result="result3"
         scale="33.299999999999997" />
      <feComposite
         id="feComposite5569-6"
         in2="result3"
         in="SourceGraphic"
         operator="over"
         result="fbSourceGraphic"
         radius="3.3999999999999999" />
      <feColorMatrix
         result="fbSourceGraphicAlpha"
         in="fbSourceGraphic"
         values="0 0 0 -1 0 0 0 0 -1 0 0 0 0 -1 0 0 0 0 1 0"
         id="feColorMatrix4681" />
      <feTurbulence
         id="feTurbulence4683"
         type="fractalNoise"
         numOctaves="1"
         seed="311"
         baseFrequency="0.002 0.032999999999999988"
         result="turbulence" />
      <feDisplacementMap
         id="feDisplacementMap4685"
         in2="turbulence"
         in="fbSourceGraphic"
         scale="33.29283110571081"
         yChannelSelector="G"
         xChannelSelector="R" />
    </filter>
    <linearGradient
       inkscape:collect="always"
       xlink:href="#linearGradient4232"
       id="linearGradient4238-1"
       x1="1956.4867"
       y1="1758.8628"
       x2="1955.2883"
       y2="1705.3795"
       gradientUnits="userSpaceOnUse" />
    <filter
       style="color-interpolation-filters:sRGB"
       id="filter5561-7-0"
       inkscape:label="Roughen">
      <feFlood
         id="feFlood5563-4-4"
         flood-opacity="1"
         flood-color="rgb(196,140,139)"
         result="flood" />
      <feComposite
         id="feComposite5565-6-8"
         in2="SourceGraphic"
         in="flood"
         operator="in"
         result="composite1" />
      <feMorphology
         id="feMorphology5567-3-1"
         operator="dilate"
         radius="2"
         result="result3" />
      <feComposite
         id="feComposite5569-6-9"
         in2="result3"
         in="SourceGraphic"
         operator="over"
         result="fbSourceGraphic"
         radius="3.3999999999999999" />
      <feColorMatrix
         result="fbSourceGraphicAlpha"
         in="fbSourceGraphic"
         values="0 0 0 -1 0 0 0 0 -1 0 0 0 0 -1 0 0 0 0 1 0"
         id="feColorMatrix4681-7" />
      <feTurbulence
         id="feTurbulence4683-1"
         type="fractalNoise"
         numOctaves="1"
         seed="20"
         baseFrequency="0.0030000000000000001 0.044999999999999998"
         result="turbulence" />
      <feDisplacementMap
         id="feDisplacementMap4685-9"
         in2="turbulence"
         in="fbSourceGraphic"
         scale="37.8"
         yChannelSelector="G"
         xChannelSelector="R" />
    </filter>
    <linearGradient
       inkscape:collect="always"
       xlink:href="#linearGradient4232"
       id="linearGradient4328"
       x1="1956.4867"
       y1="1758.8628"
       x2="1955.2883"
       y2="1705.3795"
       gradientUnits="userSpaceOnUse" />
    <linearGradient
       inkscape:collect="always"
       xlink:href="#linearGradient4232"
       id="linearGradient4336"
       x1="1956.4867"
       y1="1758.8628"
       x2="1955.2883"
       y2="1705.3795"
       gradientUnits="userSpaceOnUse" />
    <linearGradient
       inkscape:collect="always"
       xlink:href="#linearGradient4232"
       id="linearGradient4344"
       x1="1956.4867"
       y1="1758.8628"
       x2="1955.2883"
       y2="1705.3795"
       gradientUnits="userSpaceOnUse" />
    <linearGradient
       inkscape:collect="always"
       xlink:href="#linearGradient4232"
       id="linearGradient4352"
       x1="1956.4867"
       y1="1758.8628"
       x2="1955.2883"
       y2="1705.3795"
       gradientUnits="userSpaceOnUse" />
    <filter
       inkscape:collect="always"
       style="color-interpolation-filters:sRGB"
       id="filter1019"
       x="-0.0097685447"
       width="1.0195371"
       y="-0.012074992"
       height="1.02415">
      <feGaussianBlur
         inkscape:collect="always"
         stdDeviation="0.2261859"
         id="feGaussianBlur1021" />
    </filter>
  </defs>
  <sodipodi:namedview
     pagecolor="#ffffff"
     bordercolor="#666666"
     borderopacity="1"
     objecttolerance="10"
     gridtolerance="10"
     guidetolerance="10"
     inkscape:pageopacity="0"
     inkscape:pageshadow="2"
     inkscape:window-width="1366"
     inkscape:window-height="705"
     id="namedview4"
     showgrid="false"
     inkscape:zoom="0.23000001"
     inkscape:cx="1075.1927"
     inkscape:cy="142.72896"
     inkscape:window-x="-8"
     inkscape:window-y="-8"
     inkscape:window-maximized="1"
     inkscape:current-layer="layer1" />
  <g
     inkscape:groupmode="layer"
     id="layer2"
     inkscape:label="artwork"
     sodipodi:insensitive="true">
    <image
       sodipodi:absref="E:\Users\jamesmichael\Downloads\Compressed\eps\peppercarrot_ep14_translation-master\peppercarrot_ep14_translation-master\ph\../gfx_Pepper-and-Carrot_by-David-Revoy_E14P05.png"
       xlink:href="../gfx_Pepper-and-Carrot_by-David-Revoy_E14P05.png"
       y="0"
       x="0"
       id="image10"
       height="3503"
       width="2481" />
  </g>
  <g
     inkscape:groupmode="layer"
     id="layer3"
     inkscape:label="speechbubbles">
    <path
       style="opacity:0.74299999;fill:#ffffff;fill-rule:evenodd;stroke:none;stroke-width:1.3872087px;stroke-linecap:butt;stroke-linejoin:miter;stroke-opacity:1"
       d="m 584.49311,247.41783 c 64.59611,-60.45557 179.73768,-7.73596 213.82503,54.23946 19.0282,67.42734 17.00438,121.98534 -9.70747,209.13734 -26.71184,87.152 -126.59343,93.82193 -177.89037,53.47266 C 503.5535,498.00748 519.89701,307.87341 584.49311,247.41783 Z"
       id="path4442"
       inkscape:connector-curvature="0"
       sodipodi:nodetypes="zczcz" />
    <g
       id="g899"
       style="opacity:0.72">
      <path
         inkscape:connector-curvature="0"
         id="path3533"
         d="m 2044.0627,459.42657 c 8.4702,-41.23457 26.287,-75.90909 49.6532,-89.96633 23.3661,-14.05727 66.5936,-10.30872 74.1876,-5.6229 7.594,4.68573 49.361,21.55437 58.4154,44.98312 9.0545,23.42878 21.3217,52.48044 23.9503,82.46913 2.6288,29.98882 0.2921,102.14935 -8.1781,118.08095 -8.4702,15.93155 -47.0244,50.60608 -69.5145,52.48031 -22.4899,1.87432 -74.7717,-13.12011 -89.6676,-23.42868 -14.896,-10.30869 -30.6682,-23.42878 -35.3413,-56.22896 -4.6733,-32.80033 -13.4356,-75.90921 -3.505,-122.76664 z"
         style="color:#000000;display:inline;overflow:visible;visibility:visible;opacity:1;fill:#ffffff;fill-opacity:1;fill-rule:nonzero;stroke:none;stroke-width:1.09343815px;marker:none;enable-background:accumulate" />
      <path
         sodipodi:nodetypes="csscssscc"
         inkscape:connector-curvature="0"
         id="path4460"
         d="m 2201.3143,655.57231 c 21.2479,31.0083 15.4474,35.21748 -12.3104,32.23387 -8.8357,-0.94974 -74.9845,-22.49889 -78.104,-23.3458 -3.4776,-0.94414 -8.8393,2.43342 -6.0665,8.33322 -8.5449,-10.98729 -2.8424,-12.70305 -1.5526,-13.7307 3.6615,-2.91704 68.9494,20.95825 80.5519,23.25957 5.7389,1.13827 19.7743,-8.541 18.4698,-13.24149 -1.4637,-5.27358 -13.0556,-25.2728 -13.0556,-25.2728 z"
         style="fill:#ffffff;fill-rule:evenodd;stroke:none;stroke-width:0.22071724px;stroke-linecap:butt;stroke-linejoin:miter;stroke-opacity:1" />
    </g>
    <path
       style="fill:#ffffff;fill-opacity:1;stroke:none;stroke-width:0.88362211"
       d="m 767.19623,1028.2719 c -4.70779,19.3827 -10.83496,27.4446 -15.94898,24.8039 -0.94306,7.813 -59.39513,18.9158 -71.40588,13.4054 -1.21667,-0.3088 -5.19664,-3.1091 -5.51526,-1.6242 -0.31849,1.4848 2.87151,9.6761 0.85275,11.4002 -2.01928,1.7241 -36.81023,-7.7818 -37.61299,-5.7489 -0.80249,2.0329 28.34988,42.0926 24.32447,48.8988 -4.02564,6.8064 -17.64151,5.3619 -17.87737,7.3151 -0.23589,1.9531 6.22703,18.8043 6.07404,21.2259 -0.15312,2.4215 -16.41261,9.0289 -16.56572,11.4504 -0.15297,2.4216 9.68566,12.0777 9.45004,14.0309 -0.23585,1.9533 -14.57187,3.01 -14.72472,5.4314 -0.15296,2.4216 14.13735,10.9714 13.819,12.4564 -0.31864,1.4846 -27.74923,10.6237 -29.03552,13.2047 -1.2868,2.5811 34.23644,12.944 35.05161,14.2693 0.81514,1.3253 -36.72275,15.7261 -36.95846,17.6794 -0.23598,1.9533 28.62638,7.493 28.30789,8.978 -0.3185,1.4847 -14.6171,12.6163 -15.41961,14.6492 -0.8025,2.0329 37.62508,9.1073 37.9561,10.9806 0.33104,1.8735 -12.1593,19.9509 -14.74494,21.7547 -2.5859,1.8038 15.23352,0.737 15.56452,2.6103 0.33104,1.8736 -6.06487,24.8536 -5.41536,25.2424 0.64963,0.3886 10.75716,-4.8734 11.00541,-3.4683 0.24826,1.405 -10.03259,25.4116 -7.03315,25.9499 2.99967,0.5378 -5.72931,49.7665 -2.88272,52.7262 2.84657,2.9596 42.75477,-27.615 46.56947,-25.7517 3.81471,1.8634 1.33664,10.8522 3.11981,11.0815 1.78313,0.229 8.1587,-6.428 10.67411,-5.3418 2.51547,1.0862 14.39827,15.7348 17.48046,16.7412 3.08242,1.0062 8.96148,-8.4608 10.993,-6.8266 2.03147,1.6343 17.68349,27.7529 20.60026,27.8225 2.91693,0.07 13.95487,-16.3634 18.2537,-15.0481 4.29873,1.3154 6.90943,6.2281 9.66072,5.3611 2.7513,-0.867 4.57985,-10.2445 7.4968,-10.1747 2.91668,0.07 17.91472,2.7598 20.43,3.8459 2.5157,1.0861 -0.60407,-9.9951 1.66321,-10.3141 2.26717,-0.319 36.45915,-4.2812 59.99872,9.4608 -18.78782,-27.1846 -14.33968,-40.3644 -12.53613,-56.4583 1.80376,-16.094 31.22007,-13.9921 32.50695,-16.573 1.28649,-2.5811 -13.11178,-18.3159 -9.55774,-21.216 3.55379,-2.8999 10.75691,-4.8733 10.42587,-6.7468 -0.331,-1.8733 -18.10503,-10.4132 -17.95216,-12.8347 0.15308,-2.4216 21.20339,-27.9431 21.19085,-31.3015 -0.0125,-3.3582 -12.44946,-14.5688 -13.51289,-17.2994 -1.06329,-2.7303 12.69329,-7.0656 11.14575,-9.248 -1.54717,-2.1824 -14.39803,-15.7348 -13.67827,-18.2359 0.72,-2.5014 4.9233,-5.0127 3.45863,-6.7268 -1.46453,-1.7139 -7.48858,-9.5065 -7.48858,-9.5065 0,0 2.32498,-6.5673 1.82845,-9.3774 -0.49653,-2.8103 -22.59443,-19.3818 -24.14173,-21.5642 -1.5473,-2.1823 14.65752,-29.1016 18.30671,-28.175 -15.4108,-0.8902 -27.31684,-13.993 -28.60129,-16.9375 -2.27956,-3.0393 1.08366,-13.5926 -0.78233,-14.2901 -1.86592,-0.6975 -11.43135,-2.2319 -12.49491,-4.9624 -1.06328,-2.7304 -4.48903,-8.9686 -4.48903,-8.9686 l -3.23541,1.4151 c 0,0 5.5933,-20.9471 8.58045,-23.7673 2.98703,-2.8202 -14.48887,3.4782 -18.77516,5.5214 3.04498,-9.0686 8.29472,-35.2474 10.79776,-37.5195 2.50301,-2.2723 -9.6234,4.7136 -13.09469,8.0821 1.03862,-3.9862 1.02609,-7.3445 1.02609,-7.3445 l -11.70009,12.6862 -1.71309,-3.1193 c 0,0 -4.99364,7.9027 -7.82767,8.3015 -2.83406,0.3986 -9.46243,-17.3891 -9.46243,-17.3891 0,0 -3.77699,8.2115 -6.94207,6.7367 -3.16521,-1.4749 -5.6933,-5.9194 -5.6933,-5.9194 l -7.53399,0.1 z"
       id="path5888"
       inkscape:connector-curvature="0"
       sodipodi:nodetypes="cccsccsscccccccsccscscsccsccccccsccscscssccsccscscccccccsccccccsccccc" />
    <path
       style="color:#000000;display:inline;overflow:visible;visibility:visible;fill:#ffffff;fill-opacity:1;fill-rule:nonzero;stroke:none;stroke-width:1px;marker:none;enable-background:accumulate"
       d="m 864.51045,1309.8743 c 47.80055,15.8617 103.08363,39.7789 115.83256,46.5583 -11.97127,9.6884 -16.74785,25.0151 -23.45273,33.4267 24.47589,10.7213 137.57062,67.6351 166.83772,67.0158 -71.6999,4.4311 -161.85847,-40.4422 -200.99714,-60.8715 6.48915,-12.9859 12.38827,-19.6603 15.61122,-26.6107 -19.16644,-11.0836 -86.85281,-34.4611 -86.85281,-34.4611 z"
       id="path5066"
       inkscape:connector-curvature="0"
       sodipodi:nodetypes="cccccccc" />
    <path
       style="color:#000000;display:inline;overflow:visible;visibility:visible;fill:#ffffff;fill-opacity:1;fill-rule:nonzero;stroke:none;stroke-width:1px;marker:none;enable-background:accumulate"
       d="m 635.86075,2911.9919 c -39.55156,-35.0668 -85.65988,-65.0712 -117.59331,-106.0199 l 4.0885,44.3251 c -20.1647,-9.0852 -31.88657,-27.8044 -46.47536,-43.2525 l -2.66904,27.7953 c -47.28802,-21.9682 -76.79877,-57.0987 -114.9018,-85.8672 l -0.23637,48.752 c 42.45277,24.9963 89.04879,43.4727 126.84109,75.803 l 5.77292,-26.9299 c 14.83868,9.5053 29.26651,19.5611 41.85939,32.0767 l 3.81661,-34.3598 z"
       id="path4032"
       inkscape:connector-curvature="0"
       sodipodi:nodetypes="cccccccccccc" />
    <path
       style="fill:#ffffff;fill-rule:evenodd;stroke:none;stroke-width:1px;stroke-linecap:butt;stroke-linejoin:miter;stroke-opacity:1"
       d="m 297.48061,2585.2233 c 10.80907,28.6703 23.83712,40.1434 43.31448,1.6345 15.88805,9.3062 15.78078,38.1623 67.83212,3.269 -29.87463,44.0445 -17.34353,47.6109 0,46.5835 -25.19619,57.0601 -3.70944,48.2148 5.72078,56.3906 -30.87927,34.4658 -26.83314,50.6373 -12.25882,61.2941 -10.41151,20.8792 -17.68526,41.1308 4.08627,55.5733 -17.02673,5.6974 -41.13559,3.1323 -33.50743,37.5937 -27.03627,-21.8029 -45.90514,-15.8367 -62.11133,-0.8173 -13.98253,-19.9805 -25.33708,-45.217 -64.5631,-14.7106 21.72388,-33.8017 13.12891,-50.7597 -4.08627,-62.9286 32.34197,-32.7226 7.09452,-44.1159 -17.9796,-55.5733 45.33089,-3.9346 32.4477,-40.2104 20.43136,-76.0046 21.2249,7.1893 42.525,14.905 53.12154,-52.3043 z"
       id="path4489"
       inkscape:connector-curvature="0"
       sodipodi:nodetypes="cccccccccccccc" />
    <path
       inkscape:connector-curvature="0"
       id="path895"
       d="m 241.14261,284.03611 c 7.07901,-42.42025 21.9695,-78.09183 41.49792,-92.55328 19.52834,-14.46148 55.65595,-10.60514 62.00267,-5.78458 6.34673,4.82046 41.25372,22.17415 48.82098,46.27659 7.56735,24.10246 17.81972,53.9895 20.01659,84.8405 2.19703,30.85113 0.24412,105.08662 -6.83489,121.47632 -7.07901,16.38967 -39.30089,52.06124 -58.09711,53.98937 -18.79605,1.92822 -62.49084,-13.49738 -74.94016,-24.10237 -12.44941,-10.60511 -25.63111,-24.10246 -29.53668,-57.8458 -3.90573,-33.74349 -11.22888,-78.09195 -2.92932,-126.29675 z"
       style="color:#000000;display:inline;overflow:visible;visibility:visible;opacity:0.74299999;fill:#ffffff;fill-opacity:1;fill-rule:nonzero;stroke:none;stroke-width:1.01388729px;marker:none;enable-background:accumulate" />
    <text
       xml:space="preserve"
       style="font-style:normal;font-weight:normal;font-size:40px;line-height:1.25;font-family:sans-serif;letter-spacing:0px;word-spacing:0px;opacity:0.58399999;fill:#000000;fill-opacity:1;stroke:none;filter:url(#filter1019)"
       x="1228.2994"
       y="1197.1772"
       id="text917"
       transform="rotate(-22.20373)"><tspan
         sodipodi:role="line"
         id="tspan915"
         x="1228.2994"
         y="1197.1772">♫♪</tspan></text>
  </g>
  <g
     inkscape:groupmode="layer"
     id="layer1"
     inkscape:label="txt">
    <text
       xml:space="preserve"
       style="font-style:normal;font-variant:normal;font-weight:normal;font-stretch:normal;line-height:0%;font-family:Lavi;-inkscape-font-specification:Lavi;text-align:center;letter-spacing:0px;word-spacing:0px;text-anchor:middle;fill:#000000;fill-opacity:1;stroke:none"
       x="325.86844"
       y="259.01456"
       id="text4246"><tspan
         sodipodi:role="line"
         style="font-size:53.33333206px;line-height:1.25"
         x="325.86844"
         y="259.01456"
         id="tspan885">...</tspan><tspan
         sodipodi:role="line"
         style="font-size:53.33333206px;line-height:1.25"
         x="335.24344"
         y="325.68121"
         dy="2.173913"
         id="tspan4815">Oo na </tspan><tspan
         sodipodi:role="line"
         style="font-size:53.33333206px;line-height:1.25"
         x="325.86844"
         y="392.3479"
         id="tspan887">po</tspan><tspan
         sodipodi:role="line"
         style="font-size:53.33333206px;line-height:1.25"
         x="325.86844"
         y="459.01456"
         id="tspan4817">...</tspan></text>
    <text
       xml:space="preserve"
       style="font-style:normal;font-variant:normal;font-weight:normal;font-stretch:normal;line-height:0%;font-family:Lavi;-inkscape-font-specification:Lavi;text-align:center;letter-spacing:0px;word-spacing:0px;text-anchor:middle;fill:#000000;fill-opacity:1;stroke:none"
       x="675.70361"
       y="383.22147"
       id="text4246-4"><tspan
         sodipodi:role="line"
         style="font-size:45px;line-height:1.25"
         x="683.61377"
         y="383.22147"
         id="tspan3537">Siguro nga </tspan><tspan
         sodipodi:role="line"
         style="font-size:45px;line-height:1.25"
         x="675.70361"
         y="439.47147"
         id="tspan875">mahirap...</tspan></text>
    <text
       xml:space="preserve"
       style="font-style:normal;font-variant:normal;font-weight:normal;font-stretch:normal;line-height:0%;font-family:Lavi;-inkscape-font-specification:Lavi;text-align:center;letter-spacing:0px;word-spacing:0px;text-anchor:middle;fill:#000000;fill-opacity:1;stroke:none"
       x="2139.2668"
       y="454.78922"
       id="text4246-4-9"><tspan
         sodipodi:role="line"
         style="font-size:45px;line-height:1.25"
         x="2147.177"
         y="454.78922"
         id="tspan877">... uwi </tspan><tspan
         sodipodi:role="line"
         style="font-size:45px;line-height:1.25"
         x="2147.177"
         y="511.03922"
         id="tspan883">na ba </tspan><tspan
         sodipodi:role="line"
         style="font-size:45px;line-height:1.25"
         x="2139.2668"
         y="567.28918"
         id="tspan879">tayo?</tspan></text>
    <text
       xml:space="preserve"
       style="font-style:normal;font-variant:normal;font-weight:normal;font-stretch:normal;line-height:0%;font-family:Lavi;-inkscape-font-specification:Lavi;text-align:center;letter-spacing:0px;word-spacing:0px;text-anchor:middle;fill:#000000;fill-opacity:1;stroke:none"
       x="771.69177"
       y="1211.0106"
       id="text4246-4-9-8"><tspan
         sodipodi:role="line"
         style="font-size:45px;line-height:1.25"
         x="779.60193"
         y="1211.0106"
         id="tspan3541">Hindi </tspan><tspan
         sodipodi:role="line"
         style="font-size:45px;line-height:1.25"
         x="779.60193"
         y="1267.2606"
         id="tspan903"><tspan
   style="fill:#aa0000"
   id="tspan909">QUIT</tspan>er si </tspan><tspan
         sodipodi:role="line"
         style="font-size:45px;line-height:1.25"
         x="771.69177"
         y="1323.5106"
         id="tspan905">Pepper !</tspan></text>
    <text
       xml:space="preserve"
       style="font-style:normal;font-variant:normal;font-weight:normal;font-stretch:normal;line-height:0%;font-family:Lavi;-inkscape-font-specification:Lavi;text-align:center;letter-spacing:0px;word-spacing:0px;text-anchor:middle;fill:#ff7f2a;fill-opacity:1;stroke:#ff7f2a;"
       x="1108.9032"
       y="1158.7135"
       id="text4246-5"
       transform="skewX(-16.690179)"><tspan
         sodipodi:role="line"
         style="font-size:55.44162369px;line-height:1.25;stroke:#ff7f2a;stroke-width:2.18458223;stroke-miterlimit:4;stroke-dasharray:none;stroke-opacity:1;fill:#ff7f2a;"
         x="1108.9032"
         y="1158.7135"
         id="tspan4252-1">No !</tspan></text>
    <text
       xml:space="preserve"
       style="color:#000000;font-style:normal;font-variant:normal;font-weight:normal;font-stretch:normal;line-height:0%;font-family:Arial;-inkscape-font-specification:Arial;letter-spacing:0.02734961px;word-spacing:0px;display:inline;overflow:visible;visibility:visible;opacity:0.7;fill:url(#linearGradient4238);fill-opacity:1;fill-rule:nonzero;stroke:#854611;stroke-width:0.07121496;stroke-linecap:butt;stroke-linejoin:miter;stroke-miterlimit:4;stroke-dasharray:none;stroke-dashoffset:0;stroke-opacity:1;marker:none;filter:url(#filter5561-7);enable-background:accumulate"
       x="1705.2566"
       y="1742.2045"
       id="text4251"
       transform="matrix(1.0496631,-0.00680912,-0.72183224,1.8831671,458.35965,-1294.4049)"><tspan
         sodipodi:role="line"
         id="tspan4253"
         x="1705.2566"
         y="1742.2045"
         style="font-style:normal;font-variant:normal;font-weight:normal;font-stretch:normal;font-size:160.11950684px;line-height:1.25;font-family:Lavi;-inkscape-font-specification:Lavi;fill:url(#linearGradient4238);fill-opacity:1;stroke:#854611;stroke-width:0.07121496;stroke-miterlimit:4;stroke-dasharray:none;stroke-opacity:1"><tspan
           id="tspan4365"
           style="font-size:45.57711792px;fill:url(#linearGradient4238);fill-opacity:1;stroke:#854611;stroke-width:0.07121496;stroke-miterlimit:4;stroke-dasharray:none;stroke-opacity:1">COCk-Koro-koooooo ! </tspan><tspan
           id="tspan4311"
           style="font-size:55.8440094px;fill:url(#linearGradient4238);fill-opacity:1;stroke:#854611;stroke-width:0.07121496;stroke-miterlimit:4;stroke-dasharray:none;stroke-opacity:1">! </tspan><tspan
           id="tspan4369"
           style="font-size:72.51364136px;fill:url(#linearGradient4238);fill-opacity:1;stroke:#854611;stroke-width:0.07121496;stroke-miterlimit:4;stroke-dasharray:none;stroke-opacity:1">!</tspan></tspan></text>
    <text
       xml:space="preserve"
       style="font-style:normal;font-variant:normal;font-weight:normal;font-stretch:normal;line-height:0%;font-family:Lavi;-inkscape-font-specification:Lavi;text-align:center;letter-spacing:0px;word-spacing:0px;text-anchor:middle;fill:#ffffff;fill-opacity:1;stroke:none;stroke-opacity:1;stroke-width:2.5;stroke-miterlimit:4;stroke-dasharray:none;"
       x="310.95746"
       y="1886.489"
       id="text4246-4-9-8-0"><tspan
         sodipodi:role="line"
         style="font-size:45px;line-height:1.25;stroke:none;stroke-opacity:1;stroke-width:2.5;stroke-miterlimit:4;stroke-dasharray:none;fill:#ffffff;"
         x="310.95746"
         y="1886.489"
         id="tspan4205-3">Kinabukasan...</tspan></text>
    <text
       xml:space="preserve"
       style="font-style:normal;font-variant:normal;font-weight:normal;font-stretch:normal;line-height:0%;font-family:Lavi;-inkscape-font-specification:Lavi;text-align:center;letter-spacing:0px;word-spacing:0px;text-anchor:middle;fill:#000000;fill-opacity:1;stroke:none"
       x="-376.50845"
       y="2795.0046"
       id="text4246-4-9-8-0-3"
       transform="matrix(0.9106769,-0.80340828,0.24287987,0.88381324,0,0)"><tspan
         sodipodi:role="line"
         style="font-size:141.04251099px;line-height:1.25"
         x="-376.50845"
         y="2795.0046"
         id="tspan4205-3-3"><tspan
   style="font-size:121.45326996px"
   id="tspan4438">!</tspan>!</tspan></text>
  </g>
</svg>
