<?xml version="1.0" encoding="UTF-8" standalone="no"?>
<!-- Created with Inkscape (http://www.inkscape.org/) -->

<svg
   id="svg2"
   version="1.1"
   inkscape:version="1.1 (c68e22c387, 2021-05-23)"
   width="2481"
   height="3503"
   sodipodi:docname="E36P04.svg"
   xmlns:inkscape="http://www.inkscape.org/namespaces/inkscape"
   xmlns:sodipodi="http://sodipodi.sourceforge.net/DTD/sodipodi-0.dtd"
   xmlns:xlink="http://www.w3.org/1999/xlink"
   xmlns="http://www.w3.org/2000/svg"
   xmlns:svg="http://www.w3.org/2000/svg"
   xmlns:rdf="http://www.w3.org/1999/02/22-rdf-syntax-ns#"
   xmlns:cc="http://creativecommons.org/ns#"
   xmlns:dc="http://purl.org/dc/elements/1.1/">
  <metadata
     id="metadata8">
    <rdf:RDF>
      <cc:Work
         rdf:about="">
        <dc:format>image/svg+xml</dc:format>
        <dc:type
           rdf:resource="http://purl.org/dc/dcmitype/StillImage" />
        <dc:title />
      </cc:Work>
    </rdf:RDF>
  </metadata>
  <defs
     id="defs6">
    <filter
       inkscape:collect="always"
       style="color-interpolation-filters:sRGB"
       id="filter827"
       x="-0.0065555413"
       y="-0.0039446045"
       width="1.0131111"
       height="1.0078892">
      <feGaussianBlur
         inkscape:collect="always"
         stdDeviation="5.1724067"
         id="feGaussianBlur829" />
    </filter>
    <filter
       style="color-interpolation-filters:sRGB"
       id="filter5561-1"
       inkscape:label="deevad outline effect"
       x="-0.0040729675"
       y="-0.015367663"
       width="1.0081459"
       height="1.0307353">
      <feFlood
         id="feFlood5563-9"
         flood-opacity="1"
         flood-color="rgb(0,0,0)"
         result="flood" />
      <feComposite
         id="feComposite5565-0"
         in2="SourceGraphic"
         in="flood"
         operator="in"
         result="composite1" />
      <feMorphology
         id="feMorphology5567-7"
         operator="dilate"
         radius="1.8999999999999999 6.0999999999999996"
         result="result3" />
      <feComposite
         id="feComposite5569-2"
         in2="result3"
         in="SourceGraphic"
         operator="over"
         result="composite2" />
    </filter>
  </defs>
  <sodipodi:namedview
     pagecolor="#1e1e1e"
     bordercolor="#111111"
     borderopacity="1"
     objecttolerance="10"
     gridtolerance="10"
     guidetolerance="10"
     inkscape:pageopacity="0"
     inkscape:pageshadow="2"
     inkscape:window-width="1920"
     inkscape:window-height="1057"
     id="namedview4"
     showgrid="false"
     inkscape:zoom="0.60835004"
     inkscape:cx="1428.4539"
     inkscape:cy="2155.8312"
     inkscape:window-x="1358"
     inkscape:window-y="-8"
     inkscape:window-maximized="1"
     inkscape:current-layer="layer1"
     inkscape:pagecheckerboard="0"
     inkscape:snap-global="false" />
  <g
     inkscape:groupmode="layer"
     id="layer2"
     inkscape:label="artwork"
     sodipodi:insensitive="true">
    <image
       xlink:href="../gfx_Pepper-and-Carrot_by-David-Revoy_E36P04.png"
       y="0"
       x="0"
       id="image10"
       height="3503"
       width="2481" />
  </g>
  <g
     inkscape:groupmode="layer"
     id="layer4"
     inkscape:label="speechbubbles-whisper"
     style="display:inline;opacity:0.7;mix-blend-mode:screen;filter:url(#filter827)">
    <path
       style="fill:#cdf0ff;fill-opacity:1;stroke:none;stroke-width:0.571523"
       d="m 136.33301,238.02884 c 6.40162,-61.37455 66.92602,-131.82212 208.92557,-121.68162 141.99954,10.13994 196.12232,53.90254 192.04856,137.69232 -4.07376,83.78973 -80.89318,116.34495 -200.19608,111.54172 C 217.80817,360.77805 129.34943,326.62174 136.33301,238.02884 Z"
       id="path3274"
       inkscape:connector-curvature="0" />
    <path
       style="color:#000000;display:inline;overflow:visible;visibility:visible;fill:#cdf0ff;fill-opacity:1;fill-rule:nonzero;stroke:none;stroke-width:1.2829px;marker:none;enable-background:accumulate"
       d="m 237.21621,333.3289 c -60.89615,44.87238 -75.82159,95.90727 -42.44689,136.76086 -66.94955,-55.398 -25.05599,-140.35221 2.50625,-158.22088 26.98706,-17.49572 39.94064,21.46002 39.94064,21.46002 z"
       id="path5010-4"
       inkscape:connector-curvature="0"
       sodipodi:nodetypes="ccsc" />
    <path
       style="fill:#cdf0ff;fill-opacity:1;stroke:none;stroke-width:0.828359"
       d="m 118.55309,1031.0637 c -0.60831,-49.35671 12.69411,-91.55994 152.97823,-91.59878 147.32567,-0.0405 176.73183,26.31197 183.40565,92.89738 9.41802,93.9654 -73.9573,89.5921 -160.97392,89.8308 -121.89156,0.3334 -167.61531,0.4126 -175.40996,-91.1294 z"
       id="path3280-10"
       inkscape:connector-curvature="0"
       sodipodi:nodetypes="csssc" />
    <path
       style="opacity:1;fill:#cdf0ff;fill-opacity:1;stroke:none;stroke-width:0.702417"
       d="m 435.14253,1139.5355 c -0.4763,-45.3262 9.93922,-84.083 119.77867,-84.1187 115.35284,-0.037 138.37724,24.1633 143.60269,85.3112 7.37411,86.2921 -57.90698,82.2759 -126.03912,82.4951 -95.43848,0.3061 -131.2392,0.3789 -137.34224,-83.6876 z"
       id="path3280-10-9"
       inkscape:connector-curvature="0"
       sodipodi:nodetypes="csssc" />
    <path
       style="fill:#cdf0ff;fill-opacity:1;stroke:none;stroke-width:0.9001"
       d="m 414.45801,1041.2033 c 1.8259,-28.5636 11.25884,-52.98674 91.14989,-53.00954 83.90114,-0.027 99.48767,15.22754 100.35756,53.76114 1.22784,54.3791 -46.06047,51.8485 -95.62547,51.9869 -69.4297,0.1929 -95.47205,0.2384 -95.88198,-52.7385 z"
       id="path3280-1"
       inkscape:connector-curvature="0"
       sodipodi:nodetypes="csssc" />
    <path
       inkscape:connector-curvature="0"
       id="path1082-6"
       d="m 280.58037,1007.5411 c -1.05852,1.1484 -2.23987,0.5097 -1.98486,-0.6816 0.46134,-10.2919 -2.14669,-20.41668 -9.6319,-26.29329 -10.13751,-7.29069 -22.77075,-12.21022 -29.84045,-22.59504 -5.75745,-8.74427 -5.01971,-21.18698 -1.49413,-32.91007 4.31252,-14.84587 13.38648,-30.0739 26.78068,-41.34485 6.19451,-5.09695 13.0206,-9.28731 19.6858,-13.63981 1.70647,-1.09332 3.42181,-2.16912 5.1321,-3.25498 -15.98365,14.17836 -28.18362,32.92468 -31.66564,51.29818 -0.83521,11.52515 5.1122,20.58777 12.46283,27.38858 8.74595,8.67863 19.87856,15.63077 24.72663,27.4867 2.05504,6.07335 3.77199,13.18731 -0.0119,20.5838 -3.32768,5.64168 -9.09749,9.69898 -14.15911,13.96238 z"
       style="display:inline;fill:#cdf0ff;fill-opacity:1;fill-rule:evenodd;stroke:none;stroke-width:0.863514px;stroke-linecap:butt;stroke-linejoin:miter;stroke-opacity:1" />
    <path
       style="fill:#cdf0ff;fill-opacity:1;stroke:none;stroke-width:1.16513"
       d="m 1702.8125,126.28125 c -48.5484,1.28543 -97.1189,4.30271 -145.2414,10.99758 -27.4622,5.61579 -51.6646,26.1041 -60.8746,52.69235 -4.4665,15.15936 0.2534,32.00109 10.2517,43.93386 11.7361,15.90604 29.3303,27.02469 48.3961,31.90546 14.4477,3.77427 29.4631,4.06585 44.2588,5.36433 15.0831,1.06829 30.1607,2.3013 45.1601,4.23103 35.107,3.42224 70.4227,3.02592 105.6486,3.81169 27.2802,0.51958 54.6125,0.38842 81.8088,-2.04545 33.9948,-2.71912 67.9747,-5.90612 101.7477,-10.68412 20.6982,-3.44162 41.554,-9.6195 58.6313,-22.2204 12.8297,-9.87765 19.839,-26.17143 19.5574,-42.21597 -0.1092,-17.72912 -8.4843,-35.68383 -23.3468,-45.74292 -15.6173,-10.55391 -33.8075,-16.59206 -52.1996,-20.13829 -25.9531,-4.992 -52.404,-6.69264 -78.7686,-7.77481 -36.3666,-1.24311 -72.7594,-1.36656 -109.1404,-1.91801 -13.7884,-0.10299 -27.5797,-0.47935 -41.3671,-0.29944 -1.5073,0.0344 -3.0147,0.0687 -4.522,0.10311 z"
       id="path3280-8-90"
       inkscape:connector-curvature="0"
       sodipodi:nodetypes="csssc" />
    <path
       style="color:#000000;display:inline;overflow:visible;visibility:visible;fill:#cdf0ff;fill-opacity:1;fill-rule:nonzero;stroke:none;stroke-width:1.45931px;marker:none;enable-background:accumulate"
       d="m 1894.2527,478.01503 c -46.7238,3.40887 -69.3017,-79.91577 -74.6609,-127.91878 -5.3593,-48.00301 8.584,-99.29915 8.584,-99.29915 l -48.7389,-16.48951 c 0,0 -2.5241,264.49574 114.8158,243.70744 z"
       id="path3072-5"
       inkscape:connector-curvature="0"
       inkscape:transform-center-x="-2.5695303"
       inkscape:transform-center-y="25.826442"
       sodipodi:nodetypes="czccc" />
    <path
       style="color:#000000;display:inline;overflow:visible;visibility:visible;fill:#cdf0ff;fill-opacity:1;fill-rule:nonzero;stroke:none;stroke-width:1.22256px;marker:none;enable-background:accumulate"
       d="m 1618.1099,1155.6744 c 0.9145,-55.4749 18.7278,-107.9364 176.6399,-106.1209 118.4032,1.3605 149.9346,44.1029 152.5579,100.1767 1.8488,39.5168 -62.2081,76.0945 -163.9369,74.1563 -97.2331,-1.8521 -158.1501,-25.906 -165.2609,-68.2121 z"
       id="path5026-3"
       inkscape:connector-curvature="0"
       sodipodi:nodetypes="csssc" />
    <path
       style="fill:#cdf0ff;fill-opacity:1;fill-rule:evenodd;stroke:none;stroke-width:1.78217px;stroke-linecap:butt;stroke-linejoin:miter;stroke-opacity:1"
       d="m 1876.9024,1072.4564 c 28.2335,-6.4279 93.4241,-58.729 105.0673,-115.8066 2.8219,25.56546 -15.0538,86.6026 -55.5282,133.1516 -63.168,72.6485 -68.303,-6.7555 -68.303,-6.7555 z"
       id="path4248"
       inkscape:connector-curvature="0"
       sodipodi:nodetypes="ccscc" />
    <path
       style="fill:#cdf0ff;fill-opacity:1;fill-rule:evenodd;stroke:none;stroke-width:1.18423px;stroke-linecap:butt;stroke-linejoin:miter;stroke-opacity:1"
       d="m 1099.002,1799.6189 c 51.6113,-83.383 161.6833,-75.3048 247.1455,-78.5144 124.846,-3.9315 245.4214,-25.7446 356.5701,34.0416 34.9649,18.8074 46.4723,172.9067 -37.5343,178.8734 -111.3552,15.7986 -224.6618,16.6831 -337.0364,15.71 -66.7576,-4.8814 -140.5549,-8.1169 -197.1996,-46.3633 -27.2597,-26.2994 -40.0744,-66.785 -31.9453,-103.7473 z"
       id="path4246"
       inkscape:connector-curvature="0"
       sodipodi:nodetypes="sssssss" />
    <path
       style="fill:#cdf0ff;fill-opacity:1;stroke:none;stroke-width:0.879968"
       d="m 1466.379,1979.5823 c -32.3267,0.5171 -65.2563,3.408 -95.6528,15.6285 -18.1948,7.578 -34.9559,21.0751 -43.2075,39.9168 -10.8902,24.0635 -11.3177,52.068 -4.9904,77.5054 5.2278,20.8181 17.5214,39.9147 34.9823,51.7553 21.0145,15.1097 46.7154,21.8359 72.049,22.5941 26.9963,1.2964 54.0231,0.081 81.0331,0.3918 27.0546,-0.084 54.5901,-0.4058 80.7839,-8.2501 23.0882,-7.5509 42.8821,-25.8904 51.7839,-49.3626 6.7543,-16.9058 8.1895,-35.5496 6.9648,-53.6542 -0.9691,-17.6613 -3.6276,-35.9527 -12.7079,-51.2726 -6.9616,-11.7487 -17.5999,-20.8651 -29.6806,-26.493 -22.2172,-10.9092 -46.9599,-14.0647 -71.1524,-16.5801 -23.335,-2.2026 -46.7929,-2.3212 -70.2054,-2.1793 z"
       id="path3280-10-5"
       inkscape:connector-curvature="0"
       sodipodi:nodetypes="csssc" />
    <path
       style="fill:#cdf0ff;fill-opacity:1;fill-rule:evenodd;stroke:none;stroke-width:0.982814px;stroke-linecap:butt;stroke-linejoin:miter;stroke-opacity:1"
       d="m 1452.8701,2063.1977 c 20.0222,-118.9472 -38.8836,-176.8263 -112.6674,-203.8912 -73.7839,-27.0648 -408.44801,-122.5007 -586.75006,31.3 164.14364,-172.6923 505.87416,-84.1291 578.34696,-59.2455 72.4727,24.8835 165.149,62.928 159.016,232.4228 -6.133,169.4949 -37.9455,-0.5861 -37.9455,-0.5861 z"
       id="path98507" />
    <path
       style="color:#000000;display:inline;overflow:visible;visibility:visible;fill:#cdf0ff;fill-opacity:1;fill-rule:nonzero;stroke:none;stroke-width:0.623202px;marker:none;enable-background:accumulate"
       d="m 178.21239,2845.2025 c 24.56093,-36.8211 160.75651,-31.1896 203.11889,-21.7058 46.23086,10.3497 60.46466,25.0144 62.53193,57.1557 0.63857,9.9277 -3.10093,54.9473 -25.84151,63.8101 -22.74053,8.8622 -87.8611,13.2936 -110.60169,13.2936 -22.74052,0 -95.33332,-5.6406 -113.70286,-18.6115 -17.57221,-12.407 -40.06575,-57.1216 -15.50476,-93.9421 z"
       id="path3330-0"
       inkscape:connector-curvature="0"
       sodipodi:nodetypes="zsssssz" />
    <path
       style="color:#000000;display:inline;overflow:visible;visibility:visible;fill:#cdf0ff;fill-opacity:1;fill-rule:nonzero;stroke:none;stroke-width:1.67841px;marker:none;enable-background:accumulate"
       d="m 327.95645,3036.9962 c -11.27464,-114.3446 88.10883,-183.9932 377.14457,-165.0661 149.93324,9.8182 332.29518,21.0994 320.98678,192.7716 -9.9666,151.3064 -255.35472,128.9025 -304.48999,130.688 -49.13602,1.7854 -305.00211,-6.8192 -351.73643,-60.1911 -29.25447,-33.4105 -41.55099,-66.0634 -41.90493,-98.2024 z"
       id="path4546-6-5-3"
       inkscape:connector-curvature="0"
       sodipodi:nodetypes="cssssc" />
    <path
       style="color:#000000;display:inline;overflow:visible;visibility:visible;fill:#cdf0ff;fill-opacity:1;fill-rule:nonzero;stroke:none;stroke-width:0.934404px;marker:none;enable-background:accumulate"
       d="m 1112.9629,3071.4609 c -42.3495,0.3416 -85.9566,1.6341 -125.76138,17.7102 -25.24883,10.1644 -49.29441,26.0653 -64.04583,49.431 -9.01256,14.7754 -13.77006,33.5443 -7.74161,50.3154 6.09155,15.5339 16.65962,29.0546 29.0286,40.1016 18.155,14.533 41.50106,19.9629 64.04262,23.193 37.3192,5.5969 75.0946,6.7815 112.6976,9.2854 55.7752,2.3858 111.662,-0.2084 167.2227,-5.2364 22.9894,-2.8405 46.7413,-8.281 65.4245,-22.7223 19.747,-15.7864 30.33,-41.6737 28.5448,-66.7609 -1.1175,-22.3233 -12.2187,-44.2551 -30.631,-57.2168 -23.9247,-18.219 -54.1163,-25.0055 -83.3478,-28.9408 -36.0356,-4.8843 -72.4149,-6.2658 -108.6891,-8.2836 -15.5727,-0.6271 -31.1585,-0.9397 -46.7441,-0.8758 z"
       id="path4546-1"
       inkscape:connector-curvature="0"
       sodipodi:nodetypes="cssssc" />
    <path
       style="fill:#cdf0ff;fill-opacity:1;fill-rule:evenodd;stroke:none;stroke-width:0.8628px;stroke-linecap:butt;stroke-linejoin:miter;stroke-opacity:1"
       d="m 1485.2712,3247.2085 c -50.4862,11.4936 -118.5889,-1.8333 -151.4166,-46.2885 -32.8277,-44.4549 -2.6699,31.9178 -2.6699,31.9178 0,0 59.9464,55.1538 154.0865,14.3707 z"
       id="path914"
       inkscape:connector-curvature="0"
       sodipodi:nodetypes="cscc" />
  </g>
  <g
     inkscape:groupmode="layer"
     id="layer3"
     inkscape:label="speechbubbles"
     style="display:inline">
    <path
       style="color:#000000;display:inline;overflow:visible;visibility:visible;fill:#ffffff;fill-opacity:1;fill-rule:nonzero;stroke:none;stroke-width:0.76825px;marker:none;enable-background:accumulate"
       d="m 1286.1959,1984.1813 c -18.9485,13.729 -18.2881,22.2591 7.439,23.5835 -43.1447,24.7437 -7.8873,20.9995 -0.9332,27.2737 -33.8765,8.5275 -21.3092,19.6601 -12.6885,29.704 -42.1154,-16.2682 -27.7586,6.1339 -24.8515,20.7092 -11.8143,-9.8963 -30.9848,-19.7481 -22.9114,5.932 -25.7549,-20.467 -47.9262,-38.8367 -50.3894,-3.0184 -10.377,-18.0193 -36.8482,-21.3996 -36.0516,0.092 -21.402,-25.3028 -43.4646,-26.7823 -64.7833,-9.0768 0.7313,-11.3625 25.1813,-35.0922 -26.5648,-18.3608 21.2092,-15.8217 6.0255,-18.1254 -18.9581,-17.5242 20.011,-5.0513 23.6989,-10.2617 -13.4568,-15.8687 28.2734,-0.5427 54.6383,-1.6541 21.4676,-20.7759 10.4066,-0.4632 58.4658,15.3065 10.5872,-44.3656 17.8948,14.9491 52.4898,24.5281 47.3151,-8.6629 28.6587,27.3868 41.0685,13.7711 49.6189,-5.7696 20.1907,28.718 29.8395,23.0011 50.0885,2.0703 1.5387,13.2814 24.2569,30.3795 50.3608,12.8593 -14.218,21.0674 11.1217,26.7445 34.7115,21.1989 z"
       id="path3549-3-7-3"
       inkscape:connector-curvature="0"
       sodipodi:nodetypes="ccccccccccccccccccc" />
    <path
       style="color:#000000;display:inline;overflow:visible;visibility:visible;fill:#ffffff;fill-opacity:1;fill-rule:nonzero;stroke:none;stroke-width:0.837149px;marker:none;enable-background:accumulate"
       d="m 966.36472,2000.5771 c 42.82178,-22.7004 91.81268,-11.0807 106.41908,-4.0321 46.7932,22.5812 18.1866,37.5471 18.1866,37.5471 0.4518,-0.4935 -62.6742,-53.459 -124.60568,-33.515 z"
       id="path5002-7"
       inkscape:connector-curvature="0"
       sodipodi:nodetypes="cscc" />
  </g>
  <g
     inkscape:groupmode="layer"
     id="layer1"
     inkscape:label="txt"
     style="display:inline">
    <text
       id="text4246-4-2-7"
       y="195.1812"
       x="341.45972"
       style="font-style:normal;font-variant:normal;font-weight:normal;font-stretch:normal;line-height:0%;font-family:Lavi;-inkscape-font-specification:Lavi;text-align:center;letter-spacing:0px;word-spacing:0px;text-anchor:middle;fill:#000000;fill-opacity:1;stroke:none"
       xml:space="preserve"><tspan
         y="195.1812"
         x="341.45972"
         style="font-size:45px;line-height:1.25"
         sodipodi:role="line"
         id="tspan11312">mi... mi </tspan><tspan
         y="251.4312"
         x="341.45972"
         style="font-size:45px;line-height:1.25"
         sodipodi:role="line"
         id="tspan4700">pilin ike tan </tspan><tspan
         y="307.68121"
         x="341.45972"
         style="font-size:45px;line-height:1.25"
         sodipodi:role="line"
         id="tspan4702">tenpo pini...</tspan></text>
    <text
       id="text4246-4-2-7-3"
       y="1011.4944"
       x="283.29669"
       style="font-style:normal;font-variant:normal;font-weight:normal;font-stretch:normal;line-height:0%;font-family:Lavi;-inkscape-font-specification:Lavi;text-align:center;letter-spacing:0px;word-spacing:0px;text-anchor:middle;fill:#000000;fill-opacity:1;stroke:none"
       xml:space="preserve"><tspan
         y="1011.4944"
         x="283.29669"
         style="font-size:45px;line-height:1.25"
         sodipodi:role="line"
         id="tspan20199">...a, tan </tspan><tspan
         y="1067.7444"
         x="283.29669"
         style="font-size:45px;line-height:1.25"
         sodipodi:role="line"
         id="tspan7026">utala pi mi tu.</tspan></text>
    <text
       id="text4246-4-2-7-3-1"
       y="1058.5084"
       x="530.32697"
       style="font-style:normal;font-variant:normal;font-weight:normal;font-stretch:normal;line-height:0%;font-family:Lavi;-inkscape-font-specification:Lavi;text-align:center;letter-spacing:0px;word-spacing:0px;text-anchor:middle;fill:#000000;fill-opacity:1;stroke:none"
       xml:space="preserve"><tspan
         y="1058.5084"
         x="530.32697"
         style="font-size:45px;line-height:1.25"
         sodipodi:role="line"
         id="tspan37052-0">ni...</tspan></text>
    <text
       id="text4246-4-2-7-3-5"
       y="1133.2123"
       x="572.98853"
       style="font-style:normal;font-variant:normal;font-weight:normal;font-stretch:normal;line-height:0%;font-family:Lavi;-inkscape-font-specification:Lavi;text-align:center;letter-spacing:0px;word-spacing:0px;text-anchor:middle;fill:#000000;fill-opacity:1;stroke:none"
       xml:space="preserve"><tspan
         y="1133.2123"
         x="572.98853"
         style="font-size:45px;line-height:1.25"
         sodipodi:role="line"
         id="tspan30466">ni <tspan
   style="font-style:italic"
   id="tspan1400">taso</tspan> </tspan><tspan
         y="1189.4623"
         x="572.98853"
         style="font-size:45px;line-height:1.25"
         sodipodi:role="line"
         id="tspan1402">li nasin.</tspan></text>
    <text
       id="text4246-4-2-7-9"
       y="212.69531"
       x="1759.491"
       style="font-style:normal;font-variant:normal;font-weight:normal;font-stretch:normal;line-height:0%;font-family:Lavi;-inkscape-font-specification:Lavi;text-align:center;letter-spacing:0px;word-spacing:0px;text-anchor:middle;fill:#000000;fill-opacity:1;stroke:none"
       xml:space="preserve"><tspan
         y="212.69531"
         x="1759.491"
         style="font-size:45px;line-height:1.25"
         sodipodi:role="line"
         id="tspan64873">o pilin ike ala - mi sona.</tspan></text>
    <text
       id="text4246-4-2-7-9-2"
       y="1126.0326"
       x="1785.3541"
       style="font-style:normal;font-variant:normal;font-weight:normal;font-stretch:normal;line-height:0%;font-family:Lavi;-inkscape-font-specification:Lavi;text-align:center;letter-spacing:0px;word-spacing:0px;text-anchor:middle;fill:#000000;fill-opacity:1;stroke:none"
       xml:space="preserve"><tspan
         y="1126.0326"
         x="1785.3541"
         style="font-size:45px;line-height:1.25"
         sodipodi:role="line"
         id="tspan72856">kama sina </tspan><tspan
         y="1182.2826"
         x="1785.3541"
         style="font-size:45px;line-height:1.25"
         sodipodi:role="line"
         id="tspan12052">li pona.</tspan></text>
    <text
       id="text4246-4-2-7-9-2-7"
       y="1792.3612"
       x="1416.9933"
       style="font-style:normal;font-variant:normal;font-weight:normal;font-stretch:normal;line-height:0%;font-family:Lavi;-inkscape-font-specification:Lavi;text-align:center;letter-spacing:0px;word-spacing:0px;text-anchor:middle;fill:#000000;fill-opacity:1;stroke:none"
       xml:space="preserve"><tspan
         y="1792.3612"
         x="1416.9933"
         style="font-size:45px;line-height:1.25"
         sodipodi:role="line"
         id="tspan79597">poki ni pi weka wawa li </tspan><tspan
         y="1848.6112"
         x="1416.9933"
         style="font-size:45px;line-height:1.25"
         sodipodi:role="line"
         id="tspan82763">wawa mute – jan awen li </tspan><tspan
         y="1904.8612"
         x="1416.9933"
         style="font-size:45px;line-height:1.25"
         sodipodi:role="line"
         id="tspan5066">pali mute lon sina!</tspan></text>
    <text
       xml:space="preserve"
       style="font-style:normal;font-variant:normal;font-weight:normal;font-stretch:normal;line-height:0%;font-family:Lavi;-inkscape-font-specification:Lavi;text-align:center;letter-spacing:0px;word-spacing:0px;text-anchor:middle;display:inline;fill:#000000;fill-opacity:1;stroke:none"
       x="1168.7362"
       y="2033.7449"
       id="text4246-97"><tspan
         sodipodi:role="line"
         style="font-style:normal;font-variant:normal;font-weight:bold;font-stretch:normal;font-size:45px;line-height:1.25;font-family:Lavi;-inkscape-font-specification:'Lavi Bold'"
         x="1168.7362"
         y="2033.7449"
         id="tspan4252-99">a a a!</tspan></text>
    <text
       id="text4246-4-2-7-9-2-7-0"
       y="2051.4873"
       x="1489.1412"
       style="font-style:normal;font-variant:normal;font-weight:normal;font-stretch:normal;font-size:11.0752px;line-height:0%;font-family:Lavi;-inkscape-font-specification:Lavi;text-align:center;letter-spacing:0px;word-spacing:0px;text-anchor:middle;fill:#000000;fill-opacity:1;stroke:none;stroke-width:0.922932"
       xml:space="preserve"><tspan
         y="2051.4873"
         x="1489.1412"
         style="font-size:41.5319px;line-height:1.25;stroke-width:0.922932"
         sodipodi:role="line"
         id="tspan16739">o lili e kalama. </tspan><tspan
         y="2103.4021"
         x="1489.1412"
         style="font-size:41.5319px;line-height:1.25;stroke-width:0.922932"
         sodipodi:role="line"
         id="tspan16745">ante la, ona </tspan><tspan
         y="2155.3171"
         x="1489.1412"
         style="font-size:41.5319px;line-height:1.25;stroke-width:0.922932"
         sodipodi:role="line"
         id="tspan16747">li kute.</tspan></text>
    <text
       xml:space="preserve"
       style="color:#000000;font-style:normal;font-variant:normal;font-weight:normal;font-stretch:normal;font-size:7.41214px;line-height:0.01%;font-family:Arial;-inkscape-font-specification:Arial;letter-spacing:2.51825px;word-spacing:0px;display:inline;overflow:visible;visibility:visible;opacity:0.635039;fill:#e69d76;fill-opacity:1;fill-rule:nonzero;stroke:#e99f77;stroke-width:2.70666;stroke-opacity:1;marker:none;enable-background:accumulate"
       x="599.59552"
       y="3065.2383"
       id="text4246-1711"
       transform="matrix(0.87642423,-0.49049559,0.3850957,0.92547904,0,0)"><tspan
         sodipodi:role="line"
         x="600.85468"
         y="3065.2383"
         id="tspan1709"
         style="word-spacing:0px;fill:#ffffff;fill-opacity:1;stroke:#ffffff;stroke-width:2.70666;stroke-opacity:1"><tspan
           x="599.59552"
           y="3065.2383"
           style="color:#000000;font-style:normal;font-variant:normal;font-weight:normal;font-stretch:normal;font-size:39.5314px;line-height:1.25;font-family:Lavi;-inkscape-font-specification:Lavi;text-align:center;word-spacing:0px;text-anchor:middle;display:inline;overflow:visible;visibility:visible;fill:#ffffff;fill-opacity:1;fill-rule:nonzero;stroke:#ffffff;stroke-width:2.1336;stroke-miterlimit:4;stroke-dasharray:none;stroke-opacity:1;marker:none;enable-background:accumulate"
           id="tspan1707">MOKU</tspan></tspan></text>
    <text
       xml:space="preserve"
       style="color:#000000;font-style:normal;font-variant:normal;font-weight:normal;font-stretch:normal;font-size:5.89332px;line-height:0.01%;font-family:Arial;-inkscape-font-specification:Arial;letter-spacing:2.00224px;word-spacing:0px;display:inline;overflow:visible;visibility:visible;opacity:0.635039;fill:#e69d76;fill-opacity:1;fill-rule:nonzero;stroke:#e99f77;stroke-width:2.15204;stroke-opacity:1;marker:none;enable-background:accumulate"
       x="651.1543"
       y="3086.4412"
       id="text4246-8"
       transform="matrix(0.86624931,-0.49625693,0.3806249,0.93634967,0,0)"><tspan
         sodipodi:role="line"
         x="652.1554"
         y="3086.4412"
         id="tspan1709-9"
         style="word-spacing:0px;fill:#ffffff;fill-opacity:1;stroke:#ffffff;stroke-width:2.15204;stroke-opacity:1"><tspan
           x="651.1543"
           y="3086.4412"
           style="color:#000000;font-style:normal;font-variant:normal;font-weight:normal;font-stretch:normal;font-size:31.431px;line-height:1.25;font-family:Lavi;-inkscape-font-specification:Lavi;text-align:center;word-spacing:0px;text-anchor:middle;display:inline;overflow:visible;visibility:visible;fill:#ffffff;fill-opacity:1;fill-rule:nonzero;stroke:#ffffff;stroke-width:1.69641;stroke-miterlimit:4;stroke-dasharray:none;stroke-opacity:1;marker:none;enable-background:accumulate"
           id="tspan1707-7">MOKU</tspan></tspan></text>
    <text
       xml:space="preserve"
       style="color:#000000;font-style:normal;font-variant:normal;font-weight:normal;font-stretch:normal;font-size:4.80028px;line-height:0.01%;font-family:Arial;-inkscape-font-specification:Arial;letter-spacing:1.63088px;word-spacing:0px;display:inline;overflow:visible;visibility:visible;opacity:0.635039;fill:#e69d76;fill-opacity:1;fill-rule:nonzero;stroke:#e99f77;stroke-width:1.7529;stroke-opacity:1;marker:none;enable-background:accumulate"
       x="663.8678"
       y="3119.0703"
       id="text4246-8-3"
       transform="matrix(0.86358569,-0.49778757,0.37945452,0.93923772,0,0)"><tspan
         sodipodi:role="line"
         x="664.68323"
         y="3119.0703"
         id="tspan1709-9-6"
         style="word-spacing:0px;fill:#ffffff;fill-opacity:1;stroke:#ffffff;stroke-width:1.7529;stroke-opacity:1"><tspan
           x="663.8678"
           y="3119.0703"
           style="color:#000000;font-style:normal;font-variant:normal;font-weight:normal;font-stretch:normal;font-size:25.6015px;line-height:1.25;font-family:Lavi;-inkscape-font-specification:Lavi;text-align:center;word-spacing:0px;text-anchor:middle;display:inline;overflow:visible;visibility:visible;fill:#ffffff;fill-opacity:1;fill-rule:nonzero;stroke:#ffffff;stroke-width:1.38177;stroke-miterlimit:4;stroke-dasharray:none;stroke-opacity:1;marker:none;enable-background:accumulate"
           id="tspan1707-7-1">MOKU</tspan></tspan></text>
    <text
       id="text4246-4-2-7-9-2-7-0-9"
       y="2899.5105"
       x="302.33832"
       style="font-style:normal;font-variant:normal;font-weight:normal;font-stretch:normal;line-height:0%;font-family:Lavi;-inkscape-font-specification:Lavi;text-align:center;letter-spacing:0px;word-spacing:0px;text-anchor:middle;fill:#000000;fill-opacity:1;stroke:none"
       xml:space="preserve"><tspan
         y="2899.5105"
         x="302.33832"
         style="font-size:45px;line-height:1.25"
         sodipodi:role="line"
         id="tspan96797-9">a, sama la,</tspan></text>
    <text
       id="text4246-4-2-7-9-2-7-0-9-4"
       y="2970.8228"
       x="675.96979"
       style="font-style:normal;font-variant:normal;font-weight:normal;font-stretch:normal;line-height:0%;font-family:Lavi;-inkscape-font-specification:Lavi;text-align:center;letter-spacing:0px;word-spacing:0px;text-anchor:middle;fill:#000000;fill-opacity:1;stroke:none"
       xml:space="preserve"><tspan
         y="2970.8228"
         x="675.96979"
         style="font-size:45px;line-height:1.25"
         sodipodi:role="line"
         id="tspan13829">ijo ante li kama e mi. </tspan><tspan
         y="3027.0728"
         x="675.96979"
         style="font-size:45px;line-height:1.25"
         sodipodi:role="line"
         id="tspan13833">tenpo sewi mi li kama pini la, </tspan><tspan
         y="3083.3228"
         x="675.96979"
         style="font-size:45px;line-height:1.25"
         sodipodi:role="line"
         id="tspan13835">mi kama jan kulupu sona </tspan><tspan
         y="3139.5728"
         x="675.96979"
         style="font-size:45px;line-height:1.25"
         sodipodi:role="line"
         id="tspan13837">pi jan Wasapi.</tspan></text>
    <text
       id="text4246-4-2-7-9-2-7-0-9-4-8"
       y="3155.363"
       x="1161.6588"
       style="font-style:normal;font-variant:normal;font-weight:normal;font-stretch:normal;line-height:0%;font-family:Lavi;-inkscape-font-specification:Lavi;text-align:center;letter-spacing:0px;word-spacing:0px;text-anchor:middle;fill:#000000;fill-opacity:1;stroke:none"
       xml:space="preserve"><tspan
         y="3155.363"
         x="1161.6588"
         style="font-size:45px;line-height:1.25"
         sodipodi:role="line"
         id="tspan46304">mi kama sona e </tspan><tspan
         y="3211.613"
         x="1161.6588"
         style="font-size:45px;line-height:1.25"
         sodipodi:role="line"
         id="tspan12570">wile ona...</tspan></text>
  </g>
</svg>
