<?xml version="1.0" encoding="UTF-8" standalone="no"?>
<!-- Created with Inkscape (http://www.inkscape.org/) -->

<svg
   id="svg2"
   version="1.1"
   inkscape:version="1.1.1 (3bf5ae0d25, 2021-09-20)"
   width="2481"
   height="4503"
   sodipodi:docname="E15P09.svg"
   xmlns:inkscape="http://www.inkscape.org/namespaces/inkscape"
   xmlns:sodipodi="http://sodipodi.sourceforge.net/DTD/sodipodi-0.dtd"
   xmlns:xlink="http://www.w3.org/1999/xlink"
   xmlns="http://www.w3.org/2000/svg"
   xmlns:svg="http://www.w3.org/2000/svg"
   xmlns:rdf="http://www.w3.org/1999/02/22-rdf-syntax-ns#"
   xmlns:cc="http://creativecommons.org/ns#"
   xmlns:dc="http://purl.org/dc/elements/1.1/">
  <sodipodi:namedview
     pagecolor="#ffffff"
     bordercolor="#666666"
     inkscape:pageopacity="0"
     inkscape:pageshadow="2"
     inkscape:window-width="1890"
     inkscape:window-height="1144"
     id="namedview70"
     showgrid="false"
     inkscape:zoom="0.4"
     inkscape:cx="1283.75"
     inkscape:cy="3371.25"
     inkscape:current-layer="layer2"
     borderopacity="1"
     inkscape:pagecheckerboard="0"
     inkscape:window-x="15"
     inkscape:window-y="15"
     inkscape:window-maximized="0" />
  <metadata
     id="metadata8">
    <rdf:RDF>
      <cc:Work
         rdf:about="">
        <dc:format>image/svg+xml</dc:format>
        <dc:type
           rdf:resource="http://purl.org/dc/dcmitype/StillImage" />
        <dc:title />
      </cc:Work>
    </rdf:RDF>
  </metadata>
  <defs
     id="defs6" />
  <sodipodi:namedview
     pagecolor="#ffffff"
     bordercolor="#666666"
     borderopacity="1"
     objecttolerance="10"
     gridtolerance="10"
     guidetolerance="10"
     inkscape:pageopacity="0"
     inkscape:pageshadow="2"
     inkscape:window-width="1920"
     inkscape:window-height="1025"
     id="namedview4"
     showgrid="false"
     inkscape:zoom="0.2602153"
     inkscape:cx="1332.3112"
     inkscape:cy="3882.8045"
     inkscape:window-x="0"
     inkscape:window-y="26"
     inkscape:window-maximized="1"
     inkscape:current-layer="layer2"
     inkscape:object-nodes="true"
     showguides="true"
     inkscape:guide-bbox="true">
    <sodipodi:guide
       position="3653.5365,4415.3377"
       orientation="0,1"
       id="guide4214"
       inkscape:locked="false" />
  </sodipodi:namedview>
  <g
     inkscape:groupmode="layer"
     id="layer1"
     inkscape:label="artwork"
     style="display:inline"
     transform="translate(0,1024)"
     sodipodi:insensitive="true">
    <image
       xlink:href="../gfx_Pepper-and-Carrot_by-David-Revoy_E15P09.png"
       width="2481.4438"
       height="4504.5391"
       preserveAspectRatio="none"
       style="image-rendering:optimizeQuality"
       id="image4223"
       x="0.54707891"
       y="-1023.3771" />
  </g>
  <g
     inkscape:groupmode="layer"
     id="layer3"
     inkscape:label="speechbubbles"
     style="display:inline"
     transform="translate(0,1024)">
    <path
       style="fill:#ffffff;stroke:none"
       d="m -2021.8885,646.19917 c 1.0628,-51.0158 26.5707,-103.09442 170.0526,-112.65988 143.4819,-9.56546 203.0004,48.89014 207.2517,90.34047 4.2513,41.45033 -82.9007,96.71744 -162.6129,97.78027 -79.7121,1.06282 -214.6914,-11.69112 -214.6914,-75.46086 z"
       id="path4279"
       inkscape:connector-curvature="0" />
    <path
       style="fill:#ffffff;stroke:none"
       d="m -1788.0661,898.08964 c 70.1467,-44.63882 88.2148,-124.35099 45.7016,-190.24639 -42.5132,-65.8954 -82.9007,-54.20428 -82.9007,-54.20428 l 35.0734,41.45033 c 0,0 97.7803,97.78027 2.1257,203.00034 z"
       id="path4281"
       inkscape:connector-curvature="0"
       sodipodi:nodetypes="csccc" />
  </g>
  <g
     inkscape:groupmode="layer"
     id="layer2"
     inkscape:label="text"
     style="display:inline;opacity:0.855"
     transform="translate(0,1024)">
    <text
       xml:space="preserve"
       style="font-style:normal;font-variant:normal;font-weight:normal;font-stretch:normal;line-height:0%;font-family:Arial;-inkscape-font-specification:Arial;text-align:center;letter-spacing:0px;word-spacing:0px;text-anchor:middle;white-space:pre;inline-size:1149.52;display:inline;fill:#000000;fill-opacity:1;stroke:none"
       x="1240.9395"
       y="-860.94409"
       id="text4213"><tspan
         x="1240.9395"
         y="-860.94409"
         id="tspan49755"><tspan
           style="font-size:50px;line-height:1.25;font-family:Lavi;-inkscape-font-specification:Lavi"
           id="tspan49753">Bíi dínonehóo Loyud i Ámed wa. Dínon woban</tspan><tspan
           y="-860.94409"
           id="tspan49757"> </tspan></tspan><tspan
         x="1240.9395"
         y="-798.44411"
         id="tspan49761"><tspan
           style="font-size:50px;line-height:1.25;font-family:Lavi;-inkscape-font-specification:Lavi"
           id="tspan49759">betha. Meden wéedaná i meban ben wothem</tspan><tspan
           y="-798.44411"
           id="tspan49763"> </tspan></tspan><tspan
         x="1240.9395"
         y="-735.94411"
         id="tspan49767"><tspan
           style="font-size:50px;line-height:1.25;font-family:Lavi;-inkscape-font-specification:Lavi"
           id="tspan49765">wolotheth. Áala withedim 686 hi:</tspan></tspan></text>
    <text
       xml:space="preserve"
       style="font-style:normal;font-variant:normal;font-weight:normal;font-stretch:normal;line-height:0%;font-family:Arial;-inkscape-font-specification:Arial;text-align:center;letter-spacing:0px;word-spacing:0px;text-anchor:middle;display:inline;fill:#000000;fill-opacity:1;stroke:none"
       x="1240.49"
       y="2901.1709"
       id="text4221"><tspan
         sodipodi:role="line"
         id="tspan4223"
         x="1240.49"
         y="2901.1709"
         style="font-style:normal;font-variant:normal;font-weight:normal;font-stretch:normal;font-size:41.25px;line-height:1.25;font-family:Lavi;-inkscape-font-specification:Lavi">Bíi thad naden ne Loyud i Amed beth wudewan aril nuha:</tspan></text>
    <text
       xml:space="preserve"
       style="font-style:normal;font-variant:normal;font-weight:normal;font-stretch:normal;line-height:0%;font-family:Arial;-inkscape-font-specification:Arial;text-align:center;letter-spacing:0px;word-spacing:0px;text-anchor:middle;display:inline;fill:#a72f14;fill-opacity:1;stroke:none"
       x="1240.5439"
       y="2978.8181"
       id="text4225"><tspan
         sodipodi:role="line"
         id="tspan4227"
         x="1240.5439"
         y="2978.8181"
         style="font-style:normal;font-variant:normal;font-weight:normal;font-stretch:normal;font-size:60px;line-height:1.25;font-family:Lavi;-inkscape-font-specification:Lavi">https://www.patreon.com/davidrevoy</tspan></text>
    <text
       xml:space="preserve"
       style="font-style:normal;font-variant:normal;font-weight:normal;font-stretch:normal;line-height:0%;font-family:Arial;-inkscape-font-specification:Arial;text-align:center;letter-spacing:0px;word-spacing:0px;text-anchor:middle;white-space:pre;inline-size:981.31;display:inline;fill:#000000;fill-opacity:1;stroke:none"
       x="1240.0471"
       y="3137.168"
       id="text4229"><tspan
         x="1240.0471"
         y="3137.168"
         id="tspan49771"><tspan
           style="font-size:35px;line-height:1.25;font-family:Lavi;-inkscape-font-specification:Lavi"
           id="tspan49769">Hudi: Creative Commons Attribution 4.0 
</tspan></tspan><tspan
         x="1240.0471"
         y="3180.9179"
         id="tspan49775"><tspan
           style="font-size:35px;line-height:1.25;font-family:Lavi;-inkscape-font-specification:Lavi"
           id="tspan49773">Bíi ham woban www.peppercarrot.com beha 
</tspan></tspan><tspan
         x="1240.0471"
         y="3224.6679"
         id="tspan49779"><tspan
           style="font-size:35px;line-height:1.25;font-family:Lavi;-inkscape-font-specification:Lavi"
           id="tspan49777">Bodibod: Bíi wudeth hi thodeshub wodódin wobodibodenan wa
</tspan></tspan><tspan
         x="1240.0471"
         y="3268.4179"
         id="tspan49783"><tspan
           style="font-size:35px;line-height:1.25;font-family:Lavi;-inkscape-font-specification:Lavi"
           id="tspan49781">Krita 2.9.11, Inkscape 0.91, Linux Mint 17 beha</tspan></tspan></text>
  </g>
</svg>
