<?xml version="1.0" encoding="UTF-8" standalone="no"?>
<!-- Created with Inkscape (http://www.inkscape.org/) -->

<svg
   xmlns:dc="http://purl.org/dc/elements/1.1/"
   xmlns:cc="http://creativecommons.org/ns#"
   xmlns:rdf="http://www.w3.org/1999/02/22-rdf-syntax-ns#"
   xmlns:svg="http://www.w3.org/2000/svg"
   xmlns="http://www.w3.org/2000/svg"
   xmlns:xlink="http://www.w3.org/1999/xlink"
   xmlns:sodipodi="http://sodipodi.sourceforge.net/DTD/sodipodi-0.dtd"
   xmlns:inkscape="http://www.inkscape.org/namespaces/inkscape"
   id="svg2"
   version="1.1"
   inkscape:version="0.92.3 (2405546, 2018-03-11)"
   width="2481"
   height="3503"
   sodipodi:docname="E32P05.svg">
  <metadata
     id="metadata8">
    <rdf:RDF>
      <cc:Work
         rdf:about="">
        <dc:format>image/svg+xml</dc:format>
        <dc:type
           rdf:resource="http://purl.org/dc/dcmitype/StillImage" />
        <dc:title />
      </cc:Work>
    </rdf:RDF>
  </metadata>
  <defs
     id="defs6">
    <filter
       style="color-interpolation-filters:sRGB"
       id="filter4375-4-1-1-1-9-6-9-2-1-7-1"
       inkscape:label="deevad outline effect">
      <feFlood
         id="feFlood4377-7-9-0-8-1-0-2-2-06-3-9"
         flood-opacity="1"
         flood-color="rgb(0,0,0)"
         result="flood" />
      <feComposite
         id="feComposite4379-3-8-8-2-77-6-0-8-3-6-4"
         in2="SourceGraphic"
         in="flood"
         operator="in"
         result="composite1" />
      <feMorphology
         id="feMorphology4393-1-0-49-8-9-2-2-9-2-1-7"
         operator="dilate"
         radius="4"
         result="result3" />
      <feComposite
         id="feComposite4385-9-5-7-0-8-6-3-7-0-2-8"
         in2="result3"
         in="SourceGraphic"
         operator="over"
         result="composite2" />
    </filter>
    <filter
       style="color-interpolation-filters:sRGB"
       id="filter4375-4-1-1-1-9-6-9-2-1-7-1-2"
       inkscape:label="deevad outline effect">
      <feFlood
         id="feFlood4377-7-9-0-8-1-0-2-2-06-3-9-7"
         flood-opacity="1"
         flood-color="rgb(0,0,0)"
         result="flood" />
      <feComposite
         id="feComposite4379-3-8-8-2-77-6-0-8-3-6-4-0"
         in2="SourceGraphic"
         in="flood"
         operator="in"
         result="composite1" />
      <feMorphology
         id="feMorphology4393-1-0-49-8-9-2-2-9-2-1-7-9"
         operator="dilate"
         radius="4"
         result="result3" />
      <feComposite
         id="feComposite4385-9-5-7-0-8-6-3-7-0-2-8-3"
         in2="result3"
         in="SourceGraphic"
         operator="over"
         result="composite2" />
    </filter>
    <filter
       style="color-interpolation-filters:sRGB"
       id="filter4375-4-1-1-1-9"
       inkscape:label="deevad outline effect">
      <feFlood
         id="feFlood4377-7-9-0-8-1"
         flood-opacity="1"
         flood-color="rgb(0,0,0)"
         result="flood" />
      <feComposite
         id="feComposite4379-3-8-8-2-77"
         in2="SourceGraphic"
         in="flood"
         operator="in"
         result="composite1" />
      <feMorphology
         id="feMorphology4393-1-0-49-8-9"
         operator="dilate"
         radius="4"
         result="result3" />
      <feComposite
         id="feComposite4385-9-5-7-0-8"
         in2="result3"
         in="SourceGraphic"
         operator="over"
         result="composite2" />
    </filter>
    <filter
       inkscape:collect="always"
       style="color-interpolation-filters:sRGB"
       id="filter1101"
       x="-0.12972304"
       width="1.2594461"
       y="-0.36928496"
       height="1.7385699">
      <feGaussianBlur
         inkscape:collect="always"
         stdDeviation="22.559027"
         id="feGaussianBlur1103" />
    </filter>
  </defs>
  <sodipodi:namedview
     pagecolor="#ffffff"
     bordercolor="#666666"
     borderopacity="1"
     objecttolerance="10"
     gridtolerance="10"
     guidetolerance="10"
     inkscape:pageopacity="0"
     inkscape:pageshadow="2"
     inkscape:window-width="1920"
     inkscape:window-height="1017"
     id="namedview4"
     showgrid="false"
     inkscape:zoom="0.52900001"
     inkscape:cx="1251.2769"
     inkscape:cy="437.84218"
     inkscape:window-x="-8"
     inkscape:window-y="-8"
     inkscape:window-maximized="1"
     inkscape:current-layer="layer1"
     inkscape:snap-global="false" />
  <g
     inkscape:groupmode="layer"
     id="layer2"
     inkscape:label="artwork"
     sodipodi:insensitive="true">
    <image
       sodipodi:absref="C:\Users\ruden\Desktop\lang\ru\../gfx_Pepper-and-Carrot_by-David-Revoy_E32P05.png"
       xlink:href="../gfx_Pepper-and-Carrot_by-David-Revoy_E32P05.png"
       width="2481"
       height="3503"
       id="image10"
       x="0"
       y="0" />
  </g>
  <g
     inkscape:groupmode="layer"
     id="layer3"
     inkscape:label="speechbubbles"
     style="display:inline">
    <path
       style="display:inline;fill:#ffffff;fill-rule:evenodd;stroke:none;stroke-width:0.89134812px;stroke-linecap:butt;stroke-linejoin:miter;stroke-opacity:1"
       d="m 1199.9805,1463.957 c -0.7737,10.9428 -0.2537,22.5718 -4.4316,32.5871 -5.4658,10.9342 -15.8302,16.623 -25.8363,17.0951 -9.4344,0.5421 -18.9331,-1.3381 -27.8254,-5.3189 -2.5997,1.8776 -1.9411,6.844 0.2306,8.8192 5.0774,9.2679 10.17,19.4396 10.4999,31.0363 0.5929,8.0174 -2.4313,17.061 -8.6147,20.2527 -4.6798,2.5551 -9.9012,2.0176 -14.8634,1.6848 1.3204,3.2226 4.0196,4.9871 5.7016,7.8619 3.5394,4.5439 7.0558,10.4496 6.3888,17.1846 -0.9718,9.2375 -7.1641,16.5786 -14.1439,18.8827 -2.6223,1.6961 -5.2447,3.3923 -7.8669,5.0884 12.9472,-0.8155 26.2296,-2.7152 38.915,1.7226 7.123,3.3543 9.0134,16.9548 3.237,23.1699 -4.326,6.3539 -9.7275,11.3083 -14.692,16.8125 18.5908,-3.4291 37.158,-9.3587 56.0851,-7.7721 5.1252,0.3856 10.5874,1.4594 14.5696,5.9033 3.3157,3.3093 5.9419,7.6649 7.6982,12.5017 5.9146,2.6087 12.0781,-0.3538 17.7471,-2.5664 13.0601,-5.4376 25.6081,-12.9953 39.1576,-16.4376 2.851,0.7788 5.2336,3.5474 6.2675,6.9493 6.3681,2.2412 12.6993,-1.3097 18.9044,-2.7571 4.958,-1.3461 9.9566,-2.7699 15.0544,-2.8015 2.4625,3.638 5.7575,7.4776 9.8583,6.9019 12.2583,0.835 24.9095,-0.6599 36.7305,4.3807 7.3521,4.1195 13.0828,11.8812 16.959,20.6256 12.5599,-8.9909 23.3437,-22.0493 37.2096,-28.0098 9.5317,-4.3383 21.2051,-2.6979 28.7623,6.2522 2.1309,2.5261 3.9661,5.411 5.7038,8.3669 5.5401,-5.1811 10.2895,-12.4992 17.3053,-14.5117 10.213,-3.9962 21.0593,-1.6573 31.2804,1.0176 9.0425,2.161 18.0291,4.68 26.968,7.4375 -4.8588,-5.1788 -8.9289,-12.5211 -8.9334,-20.8125 1.304,-6.7253 6.8479,-11.6557 12.3209,-10.9355 -1.5658,-4.2752 -2.2993,-10.1594 0.6331,-13.7996 4.6553,-5.6264 11.4155,-6.5322 17.5362,-7.2891 1.616,-0.2719 3.232,-0.5438 4.8481,-0.8156 -10.8429,-7.597 -13.8095,-28.2054 -5.7184,-40.0703 5.3209,-7.0826 11.9431,-12.34 18.7221,-16.9258 -9.7299,-0.6773 -19.5962,2.2892 -29.2165,-0.584 -5.3723,-4.2904 -7.6099,-12.2299 -11.6808,-18.0419 -2.2552,-5.7999 0.064,-13.0044 4.0949,-16.5283 8.6959,-11.0312 17.0151,-22.641 23.7877,-35.6784 3.9309,-7.1868 7.5491,-14.6358 11.0346,-22.1752 -11.5062,19.6818 -27.5667,35.769 -46.372,42.6724 -6.2375,2.4632 -12.6479,5.5553 -19.3047,4.5815 -3.3201,-1.9666 -6.1464,-5.992 -10.0865,-5.7344 -7.0154,3.3561 -14.031,6.7122 -21.0465,10.0683 -2.0684,-2.0256 -3.6144,-4.8843 -4.3371,-8.0566 -6.7663,0.411 -13.7813,-1.0989 -19.6143,-5.6133 -2.8888,-5.9477 -3.2884,-13.616 -1.1948,-20.0469 -9.4375,8.4929 -17.6014,18.932 -26.4204,28.3672 -8.9982,-2.193 -16.429,-10.7951 -25.8243,-10.9922 -25.3483,-2.6757 -50.8469,-5.4418 -76.2811,-3.0677 -12.2903,2.452 -24.6748,6.9416 -37.2133,4.6844 -12.2765,-1.6019 -24.8699,-4.4384 -37.0814,-0.6881 -6.1076,1.796 -13.0783,2.7429 -18.6623,-1.6373 -8.9033,-6.4628 -14.5509,-17.6313 -21.1691,-27.1508 -1.8187,-2.7756 -3.6873,-5.4987 -5.5865,-8.1873 -0.065,0.6992 -0.1293,1.3984 -0.194,2.0976 z"
       id="path4508-9"
       inkscape:connector-curvature="0"
       sodipodi:nodetypes="cccccccccccccccccccccccccccccccccccccccccccccccccccc" />
    <path
       style="display:inline;fill:#ffffff;fill-rule:evenodd;stroke:none;stroke-width:1.0322206px;stroke-linecap:butt;stroke-linejoin:miter;stroke-opacity:1"
       d="m 1237.6334,1551.652 c -0.6376,15.236 -3.4207,31.0028 -12.2119,43.9483 -15.5884,10.0749 -37.966,8.1831 -51.7747,-4.0018 -3.6933,1.0732 -2.9906,6.0653 -0.6884,8.1364 4.7813,14.0133 9.6798,28.016 13.2582,42.3769 -4.7015,4.3532 -13.459,2.9347 -16.4543,-2.6625 1.4315,8.8078 9.5298,15.3349 9.7224,24.4698 -3.3959,6.9697 -9.4796,8.6883 -21.0744,10.9589 5.5638,6.5754 12.1783,13.8479 11.7254,22.9381 -0.3802,10.5301 -9.3976,18.8978 -19.1441,22.2167 -1.281,0.425 -0.7204,1.3597 0.4405,1.0992 17.07,2.6353 35.1805,0.1301 51.3779,7.0881 11.5454,3.8982 21.4597,14.6527 20.9771,26.9913 -0.1908,2.4592 -1.2991,4.777 -1.3235,7.2526 10.4572,-3.7489 20.7606,-8.8654 32.113,-9.2793 4.5111,2.2554 5.4805,9.0785 1.6876,12.385 12.9566,-0.8913 22.0131,-12.8786 35.1988,-12.8805 4.2602,-0.2248 8.2788,3.7926 7.4391,7.9014 1.9975,2.5208 5.9845,-3.5354 8.6216,-3.7369 7.4894,-1.7392 6.3161,-2.3604 14.1351,-2.7089 2.791,1.0749 6.3295,1.9547 9.636,6.8746 5.5346,-1.6886 8.0645,-3.3535 11.599,-3.3183 11.4544,-1.9766 18.6866,-9.734 34.7529,-4.1073 10.6972,2.7367 16.1163,11.6486 22.1058,16.823 3.365,-5.0769 7.3605,-8.5225 10.8273,-11.8913 6.2411,-9.2053 17.8624,-11.9592 28.9159,-13.2461 9.4702,-2.5357 19.2626,1.1561 28.8434,4.9992 5.8575,2.8862 11.0633,6.9907 17.2898,9.1652 4.8802,-3.0454 10.1835,-7.7497 16.4532,-5.9808 6.4836,1.2848 12.1612,4.8057 18.4315,6.7159 -3.689,-5.3664 -9.4534,-10.1101 -9.8513,-16.9848 2.4092,-4.2144 7.4463,-5.8211 11.9439,-7.0101 -0.2071,-5.9398 4.7232,-10.9133 10.1991,-12.822 1.1529,-4.3677 -4.0576,-6.4626 -5.7362,-9.845 -4.1303,-6.2929 -2.3761,-16.6163 5.4266,-19.3169 4.4934,-1.7155 9.5783,-1.2108 13.9677,-3.2579 -0.1886,-3.6762 -4.837,-3.6207 -7.5337,-4.5324 -7.8284,-2.3933 -16.62,-5.9683 -20,-13.8361 -1.3515,-4.651 2.5922,-8.7468 2.7004,-13.2001 -1.9842,-3.215 -6.8253,-5.6144 -5.6498,-9.9859 2.8912,-12.8687 13.1288,-22.2255 20.3375,-32.8695 10.7813,-14.4093 21.5626,-28.8186 32.3438,-43.2279 -17.6474,17.0676 -35.2276,34.4732 -55.7963,48.276 -4.9439,-0.2795 -7.741,-6.9976 -4.3876,-10.537 -7.401,1.867 -12.4663,7.9009 -19.0829,11.2324 -2.6291,-3.3188 -2.2783,-8.33 0.4479,-11.4927 -3.4411,-2.932 -8.138,2.7032 -11.4018,-0.7133 -4.318,-4.5614 -2.2457,-11.1502 -1.2778,-16.5438 1.1202,-5.2433 2.7728,-10.3624 3.9289,-15.5979 -11.4981,13.0669 -19.5616,29.2547 -34.0946,39.6041 -2.4605,1.8646 -6.153,2.8357 -8.7129,0.5784 -2.4281,-1.5646 -4.1449,-4.208 -4.3566,-7.0514 -8.8192,0.8187 -16.611,7.3658 -25.7494,5.6014 -9.6333,-4.5735 -21.0609,-2.6361 -30.452,1.5479 -9.0594,-0.014 -15.8821,-8.3704 -25.1356,-7.263 -5.7706,-0.9561 -9.468,-5.9588 -12.631,-10.1461 -5.6993,-0.6117 -8.6991,5.2811 -13.499,7.1017 -11.7291,5.9301 -26.4998,2.6795 -36.4915,-5.0624 -2.3219,-2.1797 -5.7228,-4.9316 -9.0321,-2.8438 -3.7588,1.7787 -5.2267,6.7404 -9.507,7.5336 -6.9652,0.7853 -12.9195,-5.3151 -13.785,-11.6842 -7.5487,-15.37 -13.4179,-31.4363 -19.9485,-47.2223 -0.021,1.0147 -0.042,2.0294 -0.064,3.0441 z"
       id="path4508-9-6"
       inkscape:connector-curvature="0"
       sodipodi:nodetypes="cccccccccccccccccccccccccccccccccccccccccccccccccccccccccccccccc" />
    <path
       style="color:#000000;display:inline;overflow:visible;visibility:visible;fill:#ffffff;fill-opacity:1;fill-rule:nonzero;stroke:none;stroke-width:0.99999994px;marker:none;enable-background:accumulate"
       d="m 1322.5586,1728.1016 c -11.0094,9.9702 -17.1146,23.8053 -25.197,35.9928 -5.7365,9.1028 -17.9114,24.8135 -26.046,32.2016 7.6812,0.2097 5.7344,0.8326 10.9478,2.0534 3.3706,1.3513 7.7807,2.3941 9.3038,6.0235 -1.4478,7.677 -8.2527,12.4101 -13.2117,17.8317 -21.2393,19.7738 -50.3466,30.4414 -79.2715,30.188 30.5673,5.5836 63.676,0.269 89.5548,-17.4158 15.5847,-11.4657 31.0045,-29.6098 44.4036,-43.4287 -3.8521,-0.6581 -8.7325,-0.5391 -12.6274,-0.7071 -7.2015,-0.9549 -9.1708,-6.0664 -6.2213,-10.4154 3.8653,-10.2383 12.9809,-16.9751 20.7567,-24.1405 4.6114,-3.9349 9.2499,-7.8384 13.8074,-11.8359 -7.5773,-6.8137 -16.4342,-11.9448 -25.0566,-17.289 -0.3809,0.3138 -0.7617,0.6276 -1.1426,0.9414 z"
       id="path5066-6"
       inkscape:connector-curvature="0"
       sodipodi:nodetypes="ccccccccccccccc" />
    <path
       style="color:#000000;display:inline;overflow:visible;visibility:visible;fill:#ffffff;fill-opacity:1;fill-rule:nonzero;stroke:none;stroke-width:1px;marker:none;enable-background:accumulate"
       d="m 1441.916,355.47571 c -40.3573,1.56885 -81.1182,9.04093 -116.8749,26.42932 -14.4117,7.72462 -26.8741,19.97094 -30.2978,35.07399 -1.2873,14.86684 6.4208,29.5407 18.0844,39.81667 11.7862,9.68135 27.6074,13.94957 43.0315,16.32272 54.0434,11.04226 109.5989,15.05977 164.9401,15.05427 33.0806,1.1268 66.5295,1.52522 99.1582,-4.25109 22.2589,-2.77574 44.6384,-7.29498 64.5469,-16.97571 15.8318,-7.2199 29.2772,-19.95299 33.7795,-35.62661 2.9606,-11.99215 0.4612,-24.79439 -5.6218,-35.6868 -5.6156,-9.0593 -15.5482,-15.62515 -26.6152,-18.38008 -19.8261,-6.23528 -40.7899,-8.50314 -61.3589,-11.8868 -60.4514,-8.17039 -121.7367,-9.72031 -182.772,-9.88988 z"
       id="path3365-74"
       inkscape:connector-curvature="0"
       sodipodi:nodetypes="csssssc" />
    <path
       style="display:inline;fill:#ffffff;fill-rule:evenodd;stroke:none;stroke-width:1.0766561px;stroke-linecap:butt;stroke-linejoin:miter;stroke-opacity:1"
       d="m 1471.4694,124.9505 c -33.7243,0.38599 -68.0525,-1.22989 -101.004,6.98826 -21.995,5.52943 -42.52,19.43318 -52.1806,39.54702 -6.7866,15.81305 -1.1762,34.66567 10.9865,46.63739 6.7362,6.76206 14.2158,13.60859 23.7517,16.42522 8.8069,2.54143 18.0623,0.99986 27.0884,1.29424 16.561,-0.14066 33.1191,0.44407 49.6387,1.51249 65.4463,2.41748 130.9626,1.62733 196.4296,0.57368 21.5957,-0.7183 43.8484,-1.89015 63.9332,-10.24833 12.8393,-5.74789 23.6821,-16.63156 26.7373,-30.14875 4.1245,-14.82251 1.1008,-32.22842 -10.7671,-43.13396 -11.0985,-10.48285 -25.7592,-16.54769 -40.2809,-21.35899 -19.1841,-5.79725 -39.5123,-6.40673 -59.4644,-6.02763 -26.2922,-0.37607 -52.5812,-0.89413 -78.8655,-1.61992 -18.6645,-0.44807 -37.3338,-0.48431 -56.0029,-0.44072 z"
       id="path1297"
       inkscape:connector-curvature="0" />
    <path
       style="display:inline;fill:#ffffff;fill-rule:evenodd;stroke:none;stroke-width:1.10639596px;stroke-linecap:butt;stroke-linejoin:miter;stroke-opacity:1"
       d="m 1614.4911,208.38604 c -63.1865,2.36382 -126.3934,4.31977 -189.5487,7.3593 -16.2095,0.93053 -32.5084,1.35654 -48.5209,4.11747 -18.3696,3.01229 -36.6579,7.62554 -53.3356,15.60331 -14.7824,8.42151 -24.6977,22.23959 -33.9676,35.57617 -4.6416,6.6825 -7.8077,14.37755 -7.9449,22.43246 -0.6806,13.87734 3.6182,27.43167 8.2267,40.45484 4.2416,11.01406 11.4129,21.14699 21.3983,28.26521 11.8084,8.98912 25.1533,16.62526 39.8716,20.4878 10.1075,2.67817 20.6743,2.98826 31.1024,2.68808 25.5006,-0.0612 51.0005,0.0476 76.5005,0.12782 70.8355,-0.009 141.7998,0.0867 212.4275,-5.67886 14.944,-1.26073 29.8489,-4.26979 43.6947,-9.79302 11.3801,-4.42698 20.9894,-11.97797 29.4994,-20.20679 7.9068,-7.83016 13.9992,-17.65192 15.3598,-28.51841 2.5828,-15.53143 1.0014,-31.30416 1.8126,-46.93465 -0.7315,-12.50531 -8.4747,-23.83333 -18.7562,-31.44112 -15.2957,-13.0573 -33.8032,-23.27715 -54.2279,-27.05856 -16.0251,-3.31752 -32.3616,-5.09184 -48.6598,-6.72014 -8.2913,-0.63527 -16.6146,-0.87333 -24.9319,-0.76091 z"
       id="path1299"
       inkscape:connector-curvature="0" />
    <path
       style="display:inline;fill:#ffffff;fill-rule:evenodd;stroke:none;stroke-width:1px;stroke-linecap:butt;stroke-linejoin:miter;stroke-opacity:1"
       d="m 1516.8322,467.18878 c -6.6131,0.47706 -14.4131,0.53134 -19.0606,6.05273 -9.2681,15.84095 -16.7496,33.90699 -15.1611,52.61768 2.1917,20.11622 13.9704,37.89228 28.3815,51.53834 8.5346,8.09616 15.6793,18.09456 18.3938,29.69937 4.3317,16.40289 0.7816,35.11834 -10.8279,47.78415 -2.1207,2.52133 -4.4197,4.88481 -6.7453,7.21593 17.3235,-9.37091 31.4532,-26.25408 34.2349,-46.13162 1.2634,-15.92483 -6.122,-31.08454 -15.4694,-43.50249 -9.5013,-13.2266 -21.135,-25.79068 -25.2403,-41.97989 -3.1205,-17.66298 3.3092,-35.58183 12.9847,-50.18689 1.9316,-3.08666 4.9581,-6.76026 3.4836,-10.5888 -1.0225,-1.66362 -3.0088,-2.74768 -4.9739,-2.51851 z"
       id="path1303"
       inkscape:connector-curvature="0"
       sodipodi:nodetypes="cccccccc" />
    <path
       style="color:#000000;display:inline;overflow:visible;visibility:visible;fill:#ffffff;fill-opacity:1;fill-rule:nonzero;stroke:none;stroke-width:1px;marker:none;filter:url(#filter1101);enable-background:accumulate"
       d="m 2064.5541,245.38398 c -39.6392,1.7245 -79.6747,9.93788 -114.7951,29.05136 -14.1553,8.49097 -26.3959,21.95224 -29.7587,38.55366 -1.2644,16.34177 6.3065,32.47141 17.7626,43.76686 11.5765,10.64183 27.1161,15.33349 42.2658,17.94208 53.0817,12.13776 107.6486,16.55384 162.005,16.5478 32.4919,1.23859 65.3456,1.67653 97.3937,-4.67284 21.8628,-3.05112 43.8441,-8.01871 63.3983,-18.65986 15.5501,-7.93618 28.7562,-21.93251 33.1784,-39.16111 2.9079,-13.18188 0.453,-27.25422 -5.5218,-39.22726 -5.5156,-9.95807 -15.2715,-17.17531 -26.1416,-20.20356 -19.4733,-6.85388 -40.064,-9.34673 -60.267,-13.06608 -59.3757,-8.98097 -119.5704,-10.68466 -179.5196,-10.87105 z"
       id="path3365-74-3"
       inkscape:connector-curvature="0"
       sodipodi:nodetypes="csssssc" />
  </g>
  <g
     inkscape:groupmode="layer"
     id="layer1"
     inkscape:label="txt"
     style="display:inline">
    <text
       xml:space="preserve"
       style="font-style:normal;font-variant:normal;font-weight:normal;font-stretch:normal;line-height:0%;font-family:Lavi;-inkscape-font-specification:Lavi;text-align:center;letter-spacing:0px;word-spacing:0px;text-anchor:middle;fill:#000000;fill-opacity:1;stroke:none"
       x="1526.1094"
       y="167.45567"
       id="text4246-86"><tspan
         sodipodi:role="line"
         style="font-size:45px;line-height:1.20000005"
         x="1526.1094"
         y="167.45567"
         id="tspan1167">Серьезно,</tspan><tspan
         sodipodi:role="line"
         style="font-size:45px;line-height:1.20000005"
         x="1526.1094"
         y="221.45567"
         id="tspan873">Морковик?</tspan></text>
    <text
       xml:space="preserve"
       style="font-style:normal;font-variant:normal;font-weight:normal;font-stretch:normal;line-height:0%;font-family:Lavi;-inkscape-font-specification:Lavi;text-align:center;letter-spacing:0px;word-spacing:0px;text-anchor:middle;fill:#000000;fill-opacity:1;stroke:none"
       x="1525.542"
       y="285.38477"
       id="text4246-86-3"><tspan
         sodipodi:role="line"
         style="font-size:45px;line-height:1.20000005"
         x="1525.542"
         y="285.38477"
         id="tspan855">Надеюсь,</tspan><tspan
         sodipodi:role="line"
         style="font-size:45px;line-height:1.20000005"
         x="1525.542"
         y="339.38477"
         id="tspan875">эта еда стоила того.</tspan></text>
    <text
       xml:space="preserve"
       style="font-style:normal;font-variant:normal;font-weight:normal;font-stretch:normal;line-height:0%;font-family:Lavi;-inkscape-font-specification:Lavi;text-align:center;letter-spacing:0px;word-spacing:0px;text-anchor:middle;fill:#000000;fill-opacity:1;stroke:none"
       x="1517.332"
       y="404.93765"
       id="text4246-86-3-7"><tspan
         sodipodi:role="line"
         style="font-size:45px;line-height:1.20000005"
         x="1517.332"
         y="404.93765"
         id="tspan855-5"> Выглядишь</tspan><tspan
         sodipodi:role="line"
         style="font-size:45px;line-height:1.20000005"
         x="1517.332"
         y="458.93765"
         id="tspan877">омерзительно.</tspan></text>
    <text
       xml:space="preserve"
       style="font-style:normal;font-variant:normal;font-weight:normal;font-stretch:normal;line-height:0%;font-family:Lavi;-inkscape-font-specification:Lavi;letter-spacing:0px;word-spacing:0px;display:inline;fill:#ffffff;fill-opacity:1;stroke:#ffffff;stroke-width:1.14998245;stroke-miterlimit:4;stroke-dasharray:none;stroke-opacity:1;filter:url(#filter4375-4-1-1-1-9-6-9-2-1-7-1)"
       x="787.65729"
       y="1584.5073"
       id="text4580-1-7-3-6-9-4"
       transform="matrix(0.8084187,0.00200213,-0.18183537,0.93491494,1593.3651,-1147.577)"><tspan
         sodipodi:role="line"
         id="tspan4582-8-5-6-1-3-5"
         x="787.65729"
         y="1584.5073"
         style="font-size:70px;line-height:1.25;letter-spacing:3.44994736px;fill:#ffffff;fill-opacity:1;stroke:#ffffff;stroke-width:1.14998245;stroke-miterlimit:4;stroke-dasharray:none;stroke-opacity:1">...Выглядишь...</tspan></text>
    <text
       xml:space="preserve"
       style="font-style:normal;font-variant:normal;font-weight:normal;font-stretch:normal;font-size:13.85896969px;line-height:0%;font-family:Lavi;-inkscape-font-specification:Lavi;text-align:center;letter-spacing:0px;word-spacing:0px;text-anchor:middle;display:inline;fill:#000000;fill-opacity:1;stroke:none;stroke-width:3.5999999;stroke-miterlimit:4;stroke-dasharray:none"
       x="1758.0511"
       y="1406.5507"
       id="text4246-2-3-1-3-9-0-5-3-3-6-9-3-7-3-9-4"
       transform="matrix(0.87552817,0,-0.14342897,1.1421677,0,0)"><tspan
         sodipodi:role="line"
         style="font-style:normal;font-variant:normal;font-weight:bold;font-stretch:normal;font-size:64.97789001px;line-height:1.25;font-family:Lavi;-inkscape-font-specification:'Lavi Bold';stroke:none;stroke-width:3.5999999;stroke-miterlimit:4;stroke-dasharray:none;stroke-opacity:1"
         x="1758.0511"
         y="1406.5507"
         id="tspan4579-4">Внешность!</tspan><tspan
         sodipodi:role="line"
         style="font-style:normal;font-variant:normal;font-weight:bold;font-stretch:normal;font-size:64.97789001px;line-height:1.25;font-family:Lavi;-inkscape-font-specification:'Lavi Bold';stroke:none;stroke-width:3.5999999;stroke-miterlimit:4;stroke-dasharray:none;stroke-opacity:1"
         x="1758.0511"
         y="1432.2629"
         id="tspan869" /></text>
    <text
       xml:space="preserve"
       style="font-style:normal;font-variant:normal;font-weight:normal;font-stretch:normal;font-size:12.51824951px;line-height:0%;font-family:Lavi;-inkscape-font-specification:Lavi;text-align:center;letter-spacing:0px;word-spacing:0px;text-anchor:middle;display:inline;fill:#000000;fill-opacity:1;stroke:none;stroke-width:3.5999999;stroke-miterlimit:4;stroke-dasharray:none"
       x="1623.7407"
       y="1586.0486"
       id="text4246-2-3-1-3-9-0-5-3-3-6-9-3-7-3-9-4-6"
       transform="matrix(0.92759422,0,-0.09976132,1.0780576,0,0)"><tspan
         sodipodi:role="line"
         style="font-style:normal;font-variant:normal;font-weight:bold;font-stretch:normal;font-size:58.69190979px;line-height:1.25;font-family:Lavi;-inkscape-font-specification:'Lavi Bold';stroke:none;stroke-width:3.5999999;stroke-miterlimit:4;stroke-dasharray:none;stroke-opacity:1"
         x="1623.7407"
         y="1586.0486"
         id="tspan4579-4-2">Конечно же!</tspan><tspan
         sodipodi:role="line"
         style="font-style:normal;font-variant:normal;font-weight:bold;font-stretch:normal;font-size:58.69190979px;line-height:1.25;font-family:Lavi;-inkscape-font-specification:'Lavi Bold';stroke:none;stroke-width:3.5999999;stroke-miterlimit:4;stroke-dasharray:none;stroke-opacity:1"
         x="1623.7407"
         y="1609.2734"
         id="tspan871" /></text>
    <text
       xml:space="preserve"
       style="font-style:normal;font-variant:normal;font-weight:normal;font-stretch:normal;line-height:0%;font-family:Lavi;-inkscape-font-specification:Lavi;letter-spacing:0px;word-spacing:0px;fill:#000000;fill-opacity:1;stroke:#000000;stroke-width:1.19005191;stroke-miterlimit:4;stroke-dasharray:none;stroke-opacity:1;filter:url(#filter4375-4-1-1-1-9)"
       x="787.65729"
       y="1584.5073"
       id="text4580"
       transform="matrix(0.81821305,-0.33688634,-0.15105419,1.1716012,481.86174,1568.9719)"><tspan
         sodipodi:role="line"
         id="tspan4582"
         x="787.65729"
         y="1584.5073"
         style="font-size:70px;line-height:1.25;fill:#ffffff;stroke-width:1.19005191"><tspan
           style="font-size:80.40014648px;stroke-width:1.19005191"
           id="tspan4617">Хрусь!</tspan></tspan></text>
    <text
       xml:space="preserve"
       style="font-style:normal;font-weight:normal;font-size:40px;line-height:1.25;font-family:sans-serif;letter-spacing:0px;word-spacing:0px;fill:#000000;fill-opacity:1;stroke:none"
       x="2013.2325"
       y="312.07379"
       id="text867"><tspan
         sodipodi:role="line"
         id="tspan865"
         x="2013.2325"
         y="347.46442" /></text>
  </g>
</svg>
