<?xml version="1.0" encoding="UTF-8" standalone="no"?>
<!-- Created with Inkscape (http://www.inkscape.org/) -->

<svg
   xmlns:dc="http://purl.org/dc/elements/1.1/"
   xmlns:cc="http://creativecommons.org/ns#"
   xmlns:rdf="http://www.w3.org/1999/02/22-rdf-syntax-ns#"
   xmlns:svg="http://www.w3.org/2000/svg"
   xmlns="http://www.w3.org/2000/svg"
   xmlns:xlink="http://www.w3.org/1999/xlink"
   xmlns:sodipodi="http://sodipodi.sourceforge.net/DTD/sodipodi-0.dtd"
   xmlns:inkscape="http://www.inkscape.org/namespaces/inkscape"
   id="svg2"
   version="1.1"
   inkscape:version="0.92.4 (5da689c313, 2019-01-14)"
   width="2481"
   height="3503"
   sodipodi:docname="E09P05.svg">
  <sodipodi:namedview
     pagecolor="#ffffff"
     bordercolor="#666666"
     inkscape:pageopacity="0"
     inkscape:pageshadow="2"
     inkscape:window-width="1813"
     inkscape:window-height="955"
     id="namedview70"
     showgrid="false"
     inkscape:zoom="0.4"
     inkscape:cx="868.1731"
     inkscape:cy="618.6204"
     inkscape:current-layer="layer1"
     inkscape:window-x="0"
     inkscape:window-y="0"
     inkscape:window-maximized="0" />
  <metadata
     id="metadata8">
    <rdf:RDF>
      <cc:Work
         rdf:about="">
        <dc:format>image/svg+xml</dc:format>
        <dc:type
           rdf:resource="http://purl.org/dc/dcmitype/StillImage" />
        <dc:title />
      </cc:Work>
    </rdf:RDF>
  </metadata>
  <defs
     id="defs6">
    <filter
       style="color-interpolation-filters:sRGB"
       id="filter4375-4-1-1-1"
       inkscape:label="deevad outline effect">
      <feFlood
         id="feFlood4377-7-9-0-8"
         flood-opacity="1"
         flood-color="rgb(0,0,0)"
         result="flood" />
      <feComposite
         id="feComposite4379-3-8-8-2"
         in2="SourceGraphic"
         in="flood"
         operator="in"
         result="composite1" />
      <feMorphology
         id="feMorphology4393-1-0-49-8"
         operator="dilate"
         radius="4"
         result="result3" />
      <feComposite
         id="feComposite4385-9-5-7-0"
         in2="result3"
         in="SourceGraphic"
         operator="over"
         result="composite2" />
    </filter>
    <filter
       style="color-interpolation-filters:sRGB"
       id="filter4375-4-1-1-1-3"
       inkscape:label="deevad outline effect">
      <feFlood
         id="feFlood4377-7-9-0-8-3"
         flood-opacity="1"
         flood-color="rgb(0,0,0)"
         result="flood" />
      <feComposite
         id="feComposite4379-3-8-8-2-7"
         in2="SourceGraphic"
         in="flood"
         operator="in"
         result="composite1" />
      <feMorphology
         id="feMorphology4393-1-0-49-8-2"
         operator="dilate"
         radius="4"
         result="result3" />
      <feComposite
         id="feComposite4385-9-5-7-0-5"
         in2="result3"
         in="SourceGraphic"
         operator="over"
         result="composite2" />
    </filter>
    <filter
       style="color-interpolation-filters:sRGB"
       id="filter4375-4-1-1-1-8"
       inkscape:label="deevad outline effect">
      <feFlood
         id="feFlood4377-7-9-0-8-1"
         flood-opacity="1"
         flood-color="rgb(0,0,0)"
         result="flood" />
      <feComposite
         id="feComposite4379-3-8-8-2-1"
         in2="SourceGraphic"
         in="flood"
         operator="in"
         result="composite1" />
      <feMorphology
         id="feMorphology4393-1-0-49-8-4"
         operator="dilate"
         radius="4"
         result="result3" />
      <feComposite
         id="feComposite4385-9-5-7-0-6"
         in2="result3"
         in="SourceGraphic"
         operator="over"
         result="composite2" />
    </filter>
    <filter
       style="color-interpolation-filters:sRGB"
       id="filter4375-4-1-1-1-9"
       inkscape:label="deevad outline effect">
      <feFlood
         id="feFlood4377-7-9-0-8-5"
         flood-opacity="1"
         flood-color="rgb(0,0,0)"
         result="flood" />
      <feComposite
         id="feComposite4379-3-8-8-2-74"
         in2="SourceGraphic"
         in="flood"
         operator="in"
         result="composite1" />
      <feMorphology
         id="feMorphology4393-1-0-49-8-3"
         operator="dilate"
         radius="4"
         result="result3" />
      <feComposite
         id="feComposite4385-9-5-7-0-8"
         in2="result3"
         in="SourceGraphic"
         operator="over"
         result="composite2" />
    </filter>
  </defs>
  <sodipodi:namedview
     pagecolor="#ffffff"
     bordercolor="#666666"
     borderopacity="1"
     objecttolerance="10"
     gridtolerance="10"
     guidetolerance="10"
     inkscape:pageopacity="0"
     inkscape:pageshadow="2"
     inkscape:window-width="1920"
     inkscape:window-height="1025"
     id="namedview4"
     showgrid="false"
     inkscape:zoom="0.6956522"
     inkscape:cx="956.75173"
     inkscape:cy="786.33455"
     inkscape:window-x="0"
     inkscape:window-y="26"
     inkscape:window-maximized="1"
     inkscape:current-layer="layer1" />
  <g
     inkscape:groupmode="layer"
     id="layer2"
     inkscape:label="artwork"
     sodipodi:insensitive="true">
    <image
       sodipodi:absref="C:\Users\stero\Documents\Kernewek\Pepper and Carrot\ep09_The-Remedy\lang\kw\../gfx_Pepper-and-Carrot_by-David-Revoy_E09P05.png"
       xlink:href="../gfx_Pepper-and-Carrot_by-David-Revoy_E09P05.png"
       width="2481"
       height="3503"
       id="image10"
       x="0"
       y="0" />
  </g>
  <g
     inkscape:groupmode="layer"
     id="layer3"
     inkscape:label="speechbubbles" />
  <g
     inkscape:groupmode="layer"
     id="layer1"
     inkscape:label="txt">
    <path
       style="color:#000000;display:inline;overflow:visible;visibility:visible;fill:#ffffff;fill-opacity:1;fill-rule:nonzero;stroke:none;stroke-width:1.06292355px;marker:none;enable-background:accumulate"
       d="m 1316.134,2668.4656 c 50.7514,17.9366 102.5076,35.6747 12.2559,81.4808 85.7,-11.8136 33.2684,13.5287 12.2559,30.4195 134.4908,-3.8326 -23.7275,71.4844 -61.2884,104.1917 34.1045,-13.0351 157.1708,-84.2802 145.9657,-49.871 10.843,-2.3383 23.6016,-9.0348 28.9685,1.0864 13.8157,-6.9891 17.7448,-9.7183 23.7478,-5.2801 13.5784,-12.719 30.2709,-17.9369 24.3953,-3.5746 23.3955,-18.889 21.0139,-4.5355 24.2783,0.1634 22.0319,-22.4959 30.2603,-16.1498 38.9961,-10.8641 12.4741,-13.5068 27.0721,-10.4476 43.4528,6.5184 16.7603,-22.9716 34.7702,-21.574 53.4805,-6.5184 5.4952,-5.659 31.7229,-16.0711 39.9868,4.9231 9.2746,-8.7424 33.3225,-27.9269 57.3703,-0.8075 19.3033,-20.747 65.5018,-22.5977 92.0525,3.4892 7.5404,-14.6166 35.2163,-28.4869 70.193,-15.2096 3.2696,-13.5579 22.0237,-19.0629 54.5945,-17.3827 -33.4073,-16.3621 -35.1259,-25.677 42.3387,-17.3826 -53.9932,-13.3991 -103.7506,-26.7981 -20.0552,-40.1972 -19.6025,-5.3195 -83.6743,7.1942 -13.3701,-56.4934 -49.9229,14.0563 -95.2433,17.7084 -109.1892,-39.1108 -26.9324,14.9425 -56.7525,22.3447 -80.2204,-11.9506 -21.375,16.0691 -51.2825,12.2112 -66.8505,4.3456 -4.2121,17.5989 -36.0204,44.5895 -79.1064,-4.3456 9.4533,27.8138 2.2981,72.1151 -47.9096,-1.0864 -0.9956,12.7338 19.6796,81.9829 -120.3307,-1.0865 17.4651,55.7329 -29.0216,23.3035 -65.7365,4.3456 18.2065,34.9432 -9.1934,37.6454 -69.0787,17.3826 46.1973,33.179 -1.3042,24.0185 -31.1969,22.8148 z"
       id="path3549"
       inkscape:connector-curvature="0"
       sodipodi:nodetypes="ccccccccccccccccccccccccccccc" />
    <flowRoot
       xml:space="preserve"
       id="flowRoot3063-8"
       style="color:#000000;font-style:normal;font-variant:normal;font-weight:normal;font-stretch:normal;line-height:0.01%;font-family:Arial;-inkscape-font-specification:Arial;letter-spacing:0px;word-spacing:0px;display:inline;overflow:visible;visibility:visible;fill:#ffd42a;fill-opacity:1;fill-rule:nonzero;stroke:#ffd42a;stroke-width:4.3819828;stroke-opacity:1;marker:none;enable-background:accumulate"
       transform="matrix(0.94497198,-0.30283318,0.33037145,1.0309034,866.21843,878.47873)"><flowRegion
         id="flowRegion3065-8"
         style="stroke-width:4.3819828"><rect
           id="rect3067-6"
           width="248.66193"
           height="90.046997"
           x="92.642677"
           y="425.30325"
           style="color:#000000;font-size:72px;display:inline;overflow:visible;visibility:visible;fill:#ffd42a;fill-opacity:1;fill-rule:nonzero;stroke:#ffd42a;stroke-width:4.3819828;stroke-opacity:1;marker:none;enable-background:accumulate" /></flowRegion><flowPara
         style="color:#000000;font-style:normal;font-variant:normal;font-weight:normal;font-stretch:normal;font-size:64px;line-height:1.25;font-family:Lavi;-inkscape-font-specification:Lavi;text-align:center;text-anchor:middle;display:inline;overflow:visible;visibility:visible;fill:#ffd42a;fill-opacity:1;fill-rule:nonzero;stroke:#ffd42a;stroke-width:3.45422935;stroke-miterlimit:4;stroke-dasharray:none;stroke-opacity:1;marker:none;enable-background:accumulate"
         id="flowPara3188">Woo</flowPara></flowRoot>    <flowRoot
       xml:space="preserve"
       id="flowRoot3063-8-0"
       style="color:#000000;font-style:normal;font-variant:normal;font-weight:normal;font-stretch:normal;line-height:0.01%;font-family:Arial;-inkscape-font-specification:Arial;letter-spacing:0px;word-spacing:0px;display:inline;overflow:visible;visibility:visible;fill:#ffd42a;fill-opacity:1;fill-rule:nonzero;stroke:#ffd42a;stroke-width:4.3819828;stroke-opacity:1;marker:none;enable-background:accumulate"
       transform="matrix(0.7449843,-0.21593102,0.2604538,0.73507145,1009.8852,1048.4176)"><flowRegion
         id="flowRegion3065-8-3"
         style="stroke-width:4.3819828"><rect
           id="rect3067-6-9"
           width="248.66193"
           height="90.046997"
           x="92.642677"
           y="425.30325"
           style="color:#000000;font-size:72px;display:inline;overflow:visible;visibility:visible;fill:#ffd42a;fill-opacity:1;fill-rule:nonzero;stroke:#ffd42a;stroke-width:4.3819828;stroke-opacity:1;marker:none;enable-background:accumulate" /></flowRegion><flowPara
         style="color:#000000;font-style:normal;font-variant:normal;font-weight:normal;font-stretch:normal;font-size:64px;line-height:1.25;font-family:Lavi;-inkscape-font-specification:Lavi;text-align:center;text-anchor:middle;display:inline;overflow:visible;visibility:visible;fill:#ffd42a;fill-opacity:1;fill-rule:nonzero;stroke:#ffd42a;stroke-width:3.45422935;stroke-miterlimit:4;stroke-dasharray:none;stroke-opacity:1;marker:none;enable-background:accumulate"
         id="flowPara3188-4">Oof</flowPara></flowRoot>    <flowRoot
       xml:space="preserve"
       id="flowRoot3063-8-03"
       style="color:#000000;font-style:normal;font-variant:normal;font-weight:normal;font-stretch:normal;line-height:0.01%;font-family:Arial;-inkscape-font-specification:Arial;letter-spacing:0px;word-spacing:0px;display:inline;overflow:visible;visibility:visible;fill:#ffc022;fill-opacity:1;fill-rule:nonzero;stroke:#ffc022;stroke-width:4.3819828;stroke-opacity:1;marker:none;enable-background:accumulate"
       transform="matrix(0.69985809,-0.7034761,0.76744698,0.76349997,-251.97938,298.69889)"><flowRegion
         id="flowRegion3065-8-1"
         style="stroke-width:4.3819828"><rect
           id="rect3067-6-8"
           width="423.32761"
           height="143.73161"
           x="92.642677"
           y="425.30325"
           style="color:#000000;font-size:72px;display:inline;overflow:visible;visibility:visible;fill:#ffc022;fill-opacity:1;fill-rule:nonzero;stroke:#ffc022;stroke-width:4.3819828;stroke-opacity:1;marker:none;enable-background:accumulate" /></flowRegion><flowPara
         style="color:#000000;font-style:normal;font-variant:normal;font-weight:normal;font-stretch:normal;font-size:64px;line-height:1.25;font-family:Lavi;-inkscape-font-specification:Lavi;text-align:center;text-anchor:middle;display:inline;overflow:visible;visibility:visible;fill:#ffc022;fill-opacity:1;fill-rule:nonzero;stroke:#ffc022;stroke-width:3.45422935;stroke-miterlimit:4;stroke-dasharray:none;stroke-opacity:1;marker:none;enable-background:accumulate"
         id="flowPara3188-8">Mee-Ow-Ow</flowPara></flowRoot>    <flowRoot
       xml:space="preserve"
       id="flowRoot3063-8-03-1"
       style="color:#000000;font-style:normal;font-variant:normal;font-weight:normal;font-stretch:normal;line-height:0.01%;font-family:Arial;-inkscape-font-specification:Arial;letter-spacing:0px;word-spacing:0px;display:inline;overflow:visible;visibility:visible;fill:#ffccaa;fill-opacity:1;fill-rule:nonzero;stroke:#ffccaa;stroke-width:4.3819828;stroke-opacity:1;marker:none;enable-background:accumulate"
       transform="matrix(0.90934859,-0.39719657,0.43331581,0.99204057,323.39674,1108.6169)"><flowRegion
         id="flowRegion3065-8-1-9"
         style="stroke-width:4.3819828"><rect
           id="rect3067-6-8-6"
           width="352.97433"
           height="120.68928"
           x="92.642677"
           y="425.30325"
           style="color:#000000;font-size:72px;display:inline;overflow:visible;visibility:visible;fill:#ffccaa;fill-opacity:1;fill-rule:nonzero;stroke:#ffccaa;stroke-width:4.3819828;stroke-opacity:1;marker:none;enable-background:accumulate" /></flowRegion><flowPara
         style="color:#000000;font-style:normal;font-variant:normal;font-weight:normal;font-stretch:normal;font-size:64px;line-height:1.25;font-family:Lavi;-inkscape-font-specification:Lavi;text-align:center;text-anchor:middle;display:inline;overflow:visible;visibility:visible;fill:#ffccaa;fill-opacity:1;fill-rule:nonzero;stroke:#ffccaa;stroke-width:3.45422935;stroke-miterlimit:4;stroke-dasharray:none;stroke-opacity:1;marker:none;enable-background:accumulate"
         id="flowPara3188-8-3">Meeoh</flowPara></flowRoot>    <flowRoot
       xml:space="preserve"
       id="flowRoot3063-8-03-1-0"
       style="color:#000000;font-style:normal;font-variant:normal;font-weight:normal;font-stretch:normal;line-height:0.01%;font-family:Arial;-inkscape-font-specification:Arial;letter-spacing:0px;word-spacing:0px;display:inline;overflow:visible;visibility:visible;fill:#ffccaa;fill-opacity:1;fill-rule:nonzero;stroke:#ffccaa;stroke-width:4.3819828;stroke-opacity:1;marker:none;enable-background:accumulate"
       transform="matrix(0.77642497,-0.31599775,0.33354997,0.75284562,462.6793,1234.6959)"><flowRegion
         id="flowRegion3065-8-1-9-3"
         style="stroke-width:4.3819828"><rect
           id="rect3067-6-8-6-1"
           width="352.97433"
           height="120.68928"
           x="92.642677"
           y="425.30325"
           style="color:#000000;font-size:72px;display:inline;overflow:visible;visibility:visible;fill:#ffccaa;fill-opacity:1;fill-rule:nonzero;stroke:#ffccaa;stroke-width:4.3819828;stroke-opacity:1;marker:none;enable-background:accumulate" /></flowRegion><flowPara
         style="color:#000000;font-style:normal;font-variant:normal;font-weight:normal;font-stretch:normal;font-size:64px;line-height:1.25;font-family:Lavi;-inkscape-font-specification:Lavi;text-align:center;text-anchor:middle;display:inline;overflow:visible;visibility:visible;fill:#ffccaa;fill-opacity:1;fill-rule:nonzero;stroke:#ffccaa;stroke-width:3.45422935;stroke-miterlimit:4;stroke-dasharray:none;stroke-opacity:1;marker:none;enable-background:accumulate"
         id="flowPara3188-8-3-5">Meeoh</flowPara></flowRoot>    <flowRoot
       xml:space="preserve"
       id="flowRoot3063-8-9"
       style="color:#000000;font-style:normal;font-variant:normal;font-weight:normal;font-stretch:normal;line-height:0.01%;font-family:Arial;-inkscape-font-specification:Arial;letter-spacing:0px;word-spacing:0px;display:inline;overflow:visible;visibility:visible;fill:#6c6753;fill-opacity:1;fill-rule:nonzero;stroke:#6c6753;stroke-width:4.3819828;stroke-opacity:1;marker:none;enable-background:accumulate"
       transform="matrix(0.94497198,-0.30283318,0.33037145,1.0309034,1001.1473,1741.5055)"><flowRegion
         id="flowRegion3065-8-34"
         style="stroke-width:4.3819828"><rect
           id="rect3067-6-0"
           width="248.66193"
           height="90.046997"
           x="92.642677"
           y="425.30325"
           style="color:#000000;font-size:72px;display:inline;overflow:visible;visibility:visible;fill:#6c6753;fill-opacity:1;fill-rule:nonzero;stroke:#6c6753;stroke-width:4.3819828;stroke-opacity:1;marker:none;enable-background:accumulate" /></flowRegion><flowPara
         style="color:#000000;font-style:normal;font-variant:normal;font-weight:normal;font-stretch:normal;font-size:64px;line-height:1.25;font-family:Lavi;-inkscape-font-specification:Lavi;text-align:center;text-anchor:middle;display:inline;overflow:visible;visibility:visible;fill:#6c6753;fill-opacity:1;fill-rule:nonzero;stroke:#6c6753;stroke-width:3.45422935;stroke-miterlimit:4;stroke-dasharray:none;stroke-opacity:1;marker:none;enable-background:accumulate"
         id="flowPara3188-0">Kluck</flowPara></flowRoot>    <flowRoot
       xml:space="preserve"
       id="flowRoot3063-8-9-1"
       style="color:#000000;font-style:normal;font-variant:normal;font-weight:normal;font-stretch:normal;line-height:0.01%;font-family:Arial;-inkscape-font-specification:Arial;letter-spacing:0px;word-spacing:0px;display:inline;overflow:visible;visibility:visible;fill:#6c6753;fill-opacity:1;fill-rule:nonzero;stroke:#6c6753;stroke-width:4.3819828;stroke-opacity:1;marker:none;enable-background:accumulate"
       transform="matrix(0.78901976,-0.0275263,0.03366822,0.76773924,1211.2058,1869.8971)"><flowRegion
         id="flowRegion3065-8-34-7"
         style="stroke-width:4.3819828"><rect
           id="rect3067-6-0-3"
           width="248.66193"
           height="90.046997"
           x="92.642677"
           y="425.30325"
           style="color:#000000;font-size:72px;display:inline;overflow:visible;visibility:visible;fill:#6c6753;fill-opacity:1;fill-rule:nonzero;stroke:#6c6753;stroke-width:4.3819828;stroke-opacity:1;marker:none;enable-background:accumulate" /></flowRegion><flowPara
         style="color:#000000;font-style:normal;font-variant:normal;font-weight:normal;font-stretch:normal;font-size:64px;line-height:1.25;font-family:Lavi;-inkscape-font-specification:Lavi;text-align:center;text-anchor:middle;display:inline;overflow:visible;visibility:visible;fill:#6c6753;fill-opacity:1;fill-rule:nonzero;stroke:#6c6753;stroke-width:3.45422935;stroke-miterlimit:4;stroke-dasharray:none;stroke-opacity:1;marker:none;enable-background:accumulate"
         id="flowPara3188-0-2">Kluck</flowPara></flowRoot>    <flowRoot
       xml:space="preserve"
       id="flowRoot2987-4-9-3"
       style="font-style:normal;font-variant:normal;font-weight:normal;font-stretch:normal;line-height:0.01%;font-family:Lavi;-inkscape-font-specification:Lavi;text-align:center;letter-spacing:0px;word-spacing:0px;text-anchor:middle;fill:#000000;fill-opacity:1;stroke:none"
       transform="translate(1139.106,2405.6741)"><flowRegion
         id="flowRegion2989-5-4-5"><rect
           id="rect2991-7-9-6"
           width="807.40167"
           height="138.23993"
           x="120.55251"
           y="265.53046"
           style="font-style:normal;font-variant:normal;font-weight:normal;font-stretch:normal;font-family:Lavi;-inkscape-font-specification:Lavi;text-align:center;text-anchor:middle" /></flowRegion><flowPara
         style="font-size:48px;line-height:1.25;text-align:center;text-anchor:middle"
         id="flowPara3487">Dhe'n arbrovji!</flowPara><flowPara
         style="font-size:48px;line-height:1.25;text-align:center;text-anchor:middle"
         id="flowPara112">Hemma a yll bos marwel!</flowPara></flowRoot>    <path
       style="color:#000000;display:inline;overflow:visible;visibility:visible;fill:#ffffff;fill-opacity:1;fill-rule:nonzero;stroke:none;stroke-width:1.40460229px;marker:none;enable-background:accumulate"
       d="m 856.92283,2848.2429 c 5.65987,-14.401 45.64307,-79.1758 248.86567,9.6387 -153.41066,-88.9784 -121.69785,-91.5724 -67.5272,-90.1023 -23.6306,-10.2271 -31.0095,-35.0817 16.1274,-45.218 -23.3384,-9.7431 -21.7315,-22.681 2.1332,-38.4698 -51.9218,7.4939 -70.47841,2.8436 -5.661,-32.1531 -59.45942,19.8653 -116.22521,37.5475 -88.11589,-13.5538 -22.43978,6.9417 -39.7286,47.4025 -114.41537,-26.685 -5.39819,34.0852 -27.37479,59.6144 -142.76723,33.0327 10.88488,22.7622 5.79716,42.5313 -73.42428,34.2441 16.53154,20.5674 -34.0124,40.6323 -58.65953,43.9815 68.02302,5.4882 84.6568,17.9599 34.38483,38.5935 141.14644,3.3292 60.56204,23.8053 59.44405,37.7052 87.84731,-12.7208 78.92315,13.246 88.75202,32.5075 81.07695,-27.8984 69.04871,-1.2965 100.86333,16.4788 z"
       id="path3549-3"
       inkscape:connector-curvature="0"
       sodipodi:nodetypes="ccccccccccccccc" />
    <flowRoot
       xml:space="preserve"
       id="flowRoot2987-4-9-3-0"
       style="font-style:normal;font-variant:normal;font-weight:normal;font-stretch:normal;line-height:0.01%;font-family:Lavi;-inkscape-font-specification:Lavi;text-align:center;letter-spacing:0px;word-spacing:0px;text-anchor:middle;fill:#000000;fill-opacity:1;stroke:none"
       transform="matrix(1.2398641,0,0,1.2398641,317.33314,2365.9303)"><flowRegion
         id="flowRegion2989-5-4-5-1"><rect
           id="rect2991-7-9-6-4"
           width="602.40173"
           height="310.73996"
           x="120.55251"
           y="265.53046"
           style="font-style:normal;font-variant:normal;font-weight:normal;font-stretch:normal;font-family:Lavi;-inkscape-font-specification:Lavi;text-align:center;text-anchor:middle" /></flowRegion><flowPara
         style="font-size:48px;line-height:1.25;text-align:center;letter-spacing:1.5px;text-anchor:middle;stroke:#000000;stroke-width:1.10000002;stroke-miterlimit:4;stroke-dasharray:none;stroke-opacity:1"
         id="flowPara3030-8-7">Fistenewgh!</flowPara></flowRoot>    <flowRoot
       xml:space="preserve"
       id="flowRoot3063-8-4"
       style="color:#000000;font-style:normal;font-variant:normal;font-weight:normal;font-stretch:normal;line-height:0.01%;font-family:Arial;-inkscape-font-specification:Arial;letter-spacing:0px;word-spacing:0px;display:inline;overflow:visible;visibility:visible;fill:#ffd42a;fill-opacity:1;fill-rule:nonzero;stroke:#ffd42a;stroke-width:4.3819828;stroke-opacity:1;marker:none;enable-background:accumulate"
       transform="matrix(0.7887004,-0.76050837,0.82966552,0.86042118,-238.14966,365.78067)"><flowRegion
         id="flowRegion3065-8-5"
         style="stroke-width:4.3819828"><rect
           id="rect3067-6-3"
           width="248.66193"
           height="90.046997"
           x="92.642677"
           y="425.30325"
           style="color:#000000;font-size:72px;display:inline;overflow:visible;visibility:visible;fill:#ffd42a;fill-opacity:1;fill-rule:nonzero;stroke:#ffd42a;stroke-width:4.3819828;stroke-opacity:1;marker:none;enable-background:accumulate" /></flowRegion><flowPara
         style="color:#000000;font-style:normal;font-variant:normal;font-weight:normal;font-stretch:normal;font-size:64px;line-height:1.25;font-family:Lavi;-inkscape-font-specification:Lavi;text-align:center;text-anchor:middle;display:inline;overflow:visible;visibility:visible;fill:#ffd42a;fill-opacity:1;fill-rule:nonzero;stroke:#ffd42a;stroke-width:3.45422935;stroke-miterlimit:4;stroke-dasharray:none;stroke-opacity:1;marker:none;enable-background:accumulate"
         id="flowPara3188-9">Wooh</flowPara></flowRoot>    <flowRoot
       xml:space="preserve"
       id="flowRoot3063-8-0-2"
       style="color:#000000;font-style:normal;font-variant:normal;font-weight:normal;font-stretch:normal;line-height:0.01%;font-family:Arial;-inkscape-font-specification:Arial;letter-spacing:0px;word-spacing:0px;display:inline;overflow:visible;visibility:visible;fill:#ffd42a;fill-opacity:1;fill-rule:nonzero;stroke:#ffd42a;stroke-width:4.3819828;stroke-opacity:1;marker:none;enable-background:accumulate"
       transform="matrix(0.59099277,-0.50234983,0.53889606,0.56369962,52.383887,352.37512)"><flowRegion
         id="flowRegion3065-8-3-4"
         style="stroke-width:4.3819828"><rect
           id="rect3067-6-9-9"
           width="248.66193"
           height="90.046997"
           x="92.642677"
           y="425.30325"
           style="color:#000000;font-size:72px;display:inline;overflow:visible;visibility:visible;fill:#ffd42a;fill-opacity:1;fill-rule:nonzero;stroke:#ffd42a;stroke-width:4.3819828;stroke-opacity:1;marker:none;enable-background:accumulate" /></flowRegion><flowPara
         style="color:#000000;font-style:normal;font-variant:normal;font-weight:normal;font-stretch:normal;font-size:64px;line-height:1.25;font-family:Lavi;-inkscape-font-specification:Lavi;text-align:center;text-anchor:middle;display:inline;overflow:visible;visibility:visible;fill:#ffd42a;fill-opacity:1;fill-rule:nonzero;stroke:#ffd42a;stroke-width:3.45422935;stroke-miterlimit:4;stroke-dasharray:none;stroke-opacity:1;marker:none;enable-background:accumulate"
         id="flowPara3188-4-0">OOf</flowPara></flowRoot>    <flowRoot
       xml:space="preserve"
       id="flowRoot3063-8-03-4"
       style="color:#000000;font-style:normal;font-variant:normal;font-weight:normal;font-stretch:normal;line-height:0.01%;font-family:Arial;-inkscape-font-specification:Arial;letter-spacing:0px;word-spacing:0px;display:inline;overflow:visible;visibility:visible;fill:#ffc022;fill-opacity:1;fill-rule:nonzero;stroke:#ffc022;stroke-width:4.3819828;stroke-opacity:1;marker:none;enable-background:accumulate"
       transform="matrix(0.98240648,-0.13984811,0.15256526,1.071742,1583.9812,1224.0391)"><flowRegion
         id="flowRegion3065-8-1-0"
         style="stroke-width:4.3819828"><rect
           id="rect3067-6-8-8"
           width="352.97433"
           height="120.68928"
           x="92.642677"
           y="425.30325"
           style="color:#000000;font-size:72px;display:inline;overflow:visible;visibility:visible;fill:#ffc022;fill-opacity:1;fill-rule:nonzero;stroke:#ffc022;stroke-width:4.3819828;stroke-opacity:1;marker:none;enable-background:accumulate" /></flowRegion><flowPara
         style="color:#000000;font-style:normal;font-variant:normal;font-weight:normal;font-stretch:normal;font-size:64px;line-height:1.25;font-family:Lavi;-inkscape-font-specification:Lavi;text-align:center;text-anchor:middle;display:inline;overflow:visible;visibility:visible;fill:#ffc022;fill-opacity:1;fill-rule:nonzero;stroke:#ffc022;stroke-width:3.45422935;stroke-miterlimit:4;stroke-dasharray:none;stroke-opacity:1;marker:none;enable-background:accumulate"
         id="flowPara3188-8-31">MeeOwow</flowPara></flowRoot>    <flowRoot
       xml:space="preserve"
       id="flowRoot3063-8-03-1-0-2"
       style="color:#000000;font-style:normal;font-variant:normal;font-weight:normal;font-stretch:normal;line-height:0.01%;font-family:Arial;-inkscape-font-specification:Arial;letter-spacing:0px;word-spacing:0px;display:inline;overflow:visible;visibility:visible;fill:#ffccaa;fill-opacity:1;fill-rule:nonzero;stroke:#ffccaa;stroke-width:4.3819828;stroke-opacity:1;marker:none;enable-background:accumulate"
       transform="matrix(1.0286168,-0.76308527,0.78008336,0.98704604,-252.8807,428.79751)"><flowRegion
         id="flowRegion3065-8-1-9-3-6"
         style="stroke-width:4.3819828"><rect
           id="rect3067-6-8-6-1-9"
           width="352.97433"
           height="120.68928"
           x="92.642677"
           y="425.30325"
           style="color:#000000;font-size:72px;display:inline;overflow:visible;visibility:visible;fill:#ffccaa;fill-opacity:1;fill-rule:nonzero;stroke:#ffccaa;stroke-width:4.3819828;stroke-opacity:1;marker:none;enable-background:accumulate" /></flowRegion><flowPara
         style="color:#000000;font-style:normal;font-variant:normal;font-weight:normal;font-stretch:normal;font-size:64px;line-height:1.25;font-family:Lavi;-inkscape-font-specification:Lavi;text-align:center;text-anchor:middle;display:inline;overflow:visible;visibility:visible;fill:#ffccaa;fill-opacity:1;fill-rule:nonzero;stroke:#ffccaa;stroke-width:3.45422935;stroke-miterlimit:4;stroke-dasharray:none;stroke-opacity:1;marker:none;enable-background:accumulate"
         id="flowPara3188-8-3-5-4">MeeOh</flowPara></flowRoot>    <flowRoot
       xml:space="preserve"
       id="flowRoot3063-8-03-1-05"
       style="color:#000000;font-style:normal;font-variant:normal;font-weight:normal;font-stretch:normal;line-height:0.01%;font-family:Arial;-inkscape-font-specification:Arial;letter-spacing:0px;word-spacing:0px;display:inline;overflow:visible;visibility:visible;fill:#ffccaa;fill-opacity:1;fill-rule:nonzero;stroke:#ffccaa;stroke-width:4.3819828;stroke-opacity:1;marker:none;enable-background:accumulate"
       transform="matrix(0.77195084,-0.62351574,0.6802154,0.8421485,-34.960884,383.55763)"><flowRegion
         id="flowRegion3065-8-1-9-9"
         style="stroke-width:4.3819828"><rect
           id="rect3067-6-8-6-15"
           width="352.97433"
           height="120.68928"
           x="92.642677"
           y="425.30325"
           style="color:#000000;font-size:72px;display:inline;overflow:visible;visibility:visible;fill:#ffccaa;fill-opacity:1;fill-rule:nonzero;stroke:#ffccaa;stroke-width:4.3819828;stroke-opacity:1;marker:none;enable-background:accumulate" /></flowRegion><flowPara
         style="color:#000000;font-style:normal;font-variant:normal;font-weight:normal;font-stretch:normal;font-size:64px;line-height:1.25;font-family:Lavi;-inkscape-font-specification:Lavi;text-align:center;text-anchor:middle;display:inline;overflow:visible;visibility:visible;fill:#ffccaa;fill-opacity:1;fill-rule:nonzero;stroke:#ffccaa;stroke-width:3.45422935;stroke-miterlimit:4;stroke-dasharray:none;stroke-opacity:1;marker:none;enable-background:accumulate"
         id="flowPara3188-8-3-0"> </flowPara></flowRoot>    <flowRoot
       xml:space="preserve"
       id="flowRoot3063-8-9-4"
       style="color:#000000;font-style:normal;font-variant:normal;font-weight:normal;font-stretch:normal;line-height:0.01%;font-family:Arial;-inkscape-font-specification:Arial;letter-spacing:0px;word-spacing:0px;display:inline;overflow:visible;visibility:visible;fill:#483e37;fill-opacity:1;fill-rule:nonzero;stroke:#483e37;stroke-width:4.3819828;stroke-opacity:1;marker:none;enable-background:accumulate"
       transform="matrix(0.94974412,-0.62604982,0.68297993,1.0361095,-86.856923,433.45781)"><flowRegion
         id="flowRegion3065-8-34-1"
         style="stroke-width:4.3819828"><rect
           id="rect3067-6-0-6"
           width="248.66193"
           height="90.046997"
           x="92.642677"
           y="425.30325"
           style="color:#000000;font-size:72px;display:inline;overflow:visible;visibility:visible;fill:#483e37;fill-opacity:1;fill-rule:nonzero;stroke:#483e37;stroke-width:4.3819828;stroke-opacity:1;marker:none;enable-background:accumulate" /></flowRegion><flowPara
         style="color:#000000;font-style:normal;font-variant:normal;font-weight:normal;font-stretch:normal;font-size:64px;line-height:1.25;font-family:Lavi;-inkscape-font-specification:Lavi;text-align:center;text-anchor:middle;display:inline;overflow:visible;visibility:visible;fill:#483e37;fill-opacity:1;fill-rule:nonzero;stroke:#483e37;stroke-width:3.45422935;stroke-miterlimit:4;stroke-dasharray:none;stroke-opacity:1;marker:none;enable-background:accumulate"
         id="flowPara3188-0-3">Kluck</flowPara></flowRoot>    <flowRoot
       xml:space="preserve"
       id="flowRoot3063-8-9-4-4"
       style="color:#000000;font-style:normal;font-variant:normal;font-weight:normal;font-stretch:normal;line-height:0.01%;font-family:Arial;-inkscape-font-specification:Arial;letter-spacing:0px;word-spacing:0px;display:inline;overflow:visible;visibility:visible;fill:#483e37;fill-opacity:1;fill-rule:nonzero;stroke:#483e37;stroke-width:4.3819828;stroke-opacity:1;marker:none;enable-background:accumulate"
       transform="matrix(0.68487433,-0.4571937,0.49486606,0.76023252,159.33923,467.03243)"
       inkscape:transform-center-x="-43.097021"
       inkscape:transform-center-y="50.987355"><flowRegion
         id="flowRegion3065-8-34-1-4"
         style="stroke-width:4.3819828"><rect
           id="rect3067-6-0-6-9"
           width="353.99356"
           height="72.084663"
           x="92.642677"
           y="425.30325"
           style="color:#000000;font-size:72px;display:inline;overflow:visible;visibility:visible;fill:#483e37;fill-opacity:1;fill-rule:nonzero;stroke:#483e37;stroke-width:4.3819828;stroke-opacity:1;marker:none;enable-background:accumulate" /></flowRegion><flowPara
         style="color:#000000;font-style:normal;font-variant:normal;font-weight:normal;font-stretch:normal;font-size:64px;line-height:1.25;font-family:Lavi;-inkscape-font-specification:Lavi;text-align:center;text-anchor:middle;display:inline;overflow:visible;visibility:visible;fill:#483e37;fill-opacity:1;fill-rule:nonzero;stroke:#483e37;stroke-width:3.45422935;stroke-miterlimit:4;stroke-dasharray:none;stroke-opacity:1;marker:none;enable-background:accumulate"
         id="flowPara3188-0-3-3">Kluck</flowPara></flowRoot>    <flowRoot
       xml:space="preserve"
       id="flowRoot3063-8-03-1-05-8"
       style="color:#000000;font-style:normal;font-variant:normal;font-weight:normal;font-stretch:normal;line-height:0.01%;font-family:Arial;-inkscape-font-specification:Arial;letter-spacing:0px;word-spacing:0px;display:inline;overflow:visible;visibility:visible;fill:#ffccaa;fill-opacity:1;fill-rule:nonzero;stroke:#ffccaa;stroke-width:4.3819828;stroke-opacity:1;marker:none;enable-background:accumulate"
       transform="matrix(0.56474589,-0.45615334,0.49763383,0.61610128,194.20975,381.8921)"><flowRegion
         id="flowRegion3065-8-1-9-9-6"
         style="stroke-width:4.3819828"><rect
           id="rect3067-6-8-6-15-7"
           width="262.5029"
           height="154.03389"
           x="176.77422"
           y="422.26297"
           style="color:#000000;font-size:72px;display:inline;overflow:visible;visibility:visible;fill:#ffccaa;fill-opacity:1;fill-rule:nonzero;stroke:#ffccaa;stroke-width:4.3819828;stroke-opacity:1;marker:none;enable-background:accumulate" /></flowRegion><flowPara
         style="color:#000000;font-style:normal;font-variant:normal;font-weight:normal;font-stretch:normal;font-size:64px;line-height:1.25;font-family:Lavi;-inkscape-font-specification:Lavi;text-align:center;text-anchor:middle;display:inline;overflow:visible;visibility:visible;fill:#ffccaa;fill-opacity:1;fill-rule:nonzero;stroke:#ffccaa;stroke-width:3.45422935;stroke-miterlimit:4;stroke-dasharray:none;stroke-opacity:1;marker:none;enable-background:accumulate"
         id="flowPara3188-8-3-0-9">MeeOh  !</flowPara></flowRoot>    <flowRoot
       xml:space="preserve"
       id="flowRoot3063-8-9-4-4-9"
       style="color:#000000;font-style:normal;font-variant:normal;font-weight:normal;font-stretch:normal;line-height:0.01%;font-family:Arial;-inkscape-font-specification:Arial;letter-spacing:0px;word-spacing:0px;display:inline;overflow:visible;visibility:visible;fill:#483e37;fill-opacity:1;fill-rule:nonzero;stroke:#483e37;stroke-width:4.3819828;stroke-opacity:1;marker:none;enable-background:accumulate"
       transform="matrix(0.56307455,-0.37588521,0.40685782,0.62503084,323.95837,455.54213)"
       inkscape:transform-center-x="-35.428547"
       inkscape:transform-center-y="41.91695"><flowRegion
         id="flowRegion3065-8-34-1-4-1"
         style="stroke-width:4.3819828"><rect
           id="rect3067-6-0-6-9-0"
           width="468.10974"
           height="72.527359"
           x="92.642677"
           y="425.30325"
           style="color:#000000;font-size:72px;display:inline;overflow:visible;visibility:visible;fill:#483e37;fill-opacity:1;fill-rule:nonzero;stroke:#483e37;stroke-width:4.3819828;stroke-opacity:1;marker:none;enable-background:accumulate" /></flowRegion><flowPara
         style="color:#000000;font-style:normal;font-variant:normal;font-weight:normal;font-stretch:normal;font-size:64px;line-height:1.25;font-family:Lavi;-inkscape-font-specification:Lavi;text-align:center;text-anchor:middle;display:inline;overflow:visible;visibility:visible;fill:#483e37;fill-opacity:1;fill-rule:nonzero;stroke:#483e37;stroke-width:3.45422935;stroke-miterlimit:4;stroke-dasharray:none;stroke-opacity:1;marker:none;enable-background:accumulate"
         id="flowPara3188-0-3-3-1">Kluck !</flowPara></flowRoot>    <flowRoot
       xml:space="preserve"
       id="flowRoot3063-8-0-2-7"
       style="color:#000000;font-style:normal;font-variant:normal;font-weight:normal;font-stretch:normal;line-height:0.01%;font-family:Arial;-inkscape-font-specification:Arial;letter-spacing:0px;word-spacing:0px;display:inline;overflow:visible;visibility:visible;fill:#ffd42a;fill-opacity:1;fill-rule:nonzero;stroke:#ffd42a;stroke-width:4.3819828;stroke-opacity:1;marker:none;enable-background:accumulate"
       transform="matrix(0.5016147,-0.42637756,0.45739677,0.4784492,212.14382,296.1275)"><flowRegion
         id="flowRegion3065-8-3-4-2"
         style="stroke-width:4.3819828"><rect
           id="rect3067-6-9-9-9"
           width="248.66193"
           height="90.046997"
           x="92.642677"
           y="425.30325"
           style="color:#000000;font-size:72px;display:inline;overflow:visible;visibility:visible;fill:#ffd42a;fill-opacity:1;fill-rule:nonzero;stroke:#ffd42a;stroke-width:4.3819828;stroke-opacity:1;marker:none;enable-background:accumulate" /></flowRegion><flowPara
         style="color:#000000;font-style:normal;font-variant:normal;font-weight:normal;font-stretch:normal;font-size:64px;line-height:1.25;font-family:Lavi;-inkscape-font-specification:Lavi;text-align:center;text-anchor:middle;display:inline;overflow:visible;visibility:visible;fill:#ffd42a;fill-opacity:1;fill-rule:nonzero;stroke:#ffd42a;stroke-width:3.45422935;stroke-miterlimit:4;stroke-dasharray:none;stroke-opacity:1;marker:none;enable-background:accumulate"
         id="flowPara3188-4-0-3">Woof !</flowPara></flowRoot>  </g>
</svg>
