<?xml version="1.0" encoding="UTF-8" standalone="no"?>
<svg
   xmlns:dc="http://purl.org/dc/elements/1.1/"
   xmlns:cc="http://creativecommons.org/ns#"
   xmlns:rdf="http://www.w3.org/1999/02/22-rdf-syntax-ns#"
   xmlns:svg="http://www.w3.org/2000/svg"
   xmlns="http://www.w3.org/2000/svg"
   xmlns:xlink="http://www.w3.org/1999/xlink"
   xmlns:sodipodi="http://sodipodi.sourceforge.net/DTD/sodipodi-0.dtd"
   xmlns:inkscape="http://www.inkscape.org/namespaces/inkscape"
   id="svg2"
   version="1.1"
   inkscape:version="1.0.2 (e86c8708, 2021-01-15)"
   width="2481"
   height="3503"
   sodipodi:docname="E35P02.svg">
  <metadata
     id="metadata8">
    <rdf:RDF>
      <cc:Work
         rdf:about="">
        <dc:format>image/svg+xml</dc:format>
        <dc:type
           rdf:resource="http://purl.org/dc/dcmitype/StillImage" />
        <dc:title />
      </cc:Work>
    </rdf:RDF>
  </metadata>
  <defs
     id="defs6" />
  <sodipodi:namedview
     pagecolor="#ffffff"
     bordercolor="#666666"
     borderopacity="1"
     objecttolerance="10"
     gridtolerance="10"
     guidetolerance="10"
     inkscape:pageopacity="0"
     inkscape:pageshadow="2"
     inkscape:window-width="1429"
     inkscape:window-height="943"
     id="namedview4"
     showgrid="false"
     inkscape:window-x="0"
     inkscape:window-y="25"
     inkscape:window-maximized="0"
     inkscape:document-rotation="0"
     inkscape:snap-global="false"
     inkscape:pagecheckerboard="0"
     inkscape:zoom="0.63097835"
     inkscape:cx="907.41311"
     inkscape:cy="2559.7296"
     inkscape:current-layer="layer3" />
  <g
     inkscape:groupmode="layer"
     id="layer2"
     inkscape:label="artwork"
     sodipodi:insensitive="true">
    <image
       sodipodi:absref="/Users/gand/Documents/Pepper&amp;Carrot/ep35_The-Reflection/lang/gfx_Pepper-and-Carrot_by-David-Revoy_E35P02.png"
       xlink:href="../gfx_Pepper-and-Carrot_by-David-Revoy_E35P02.png"
       width="2481"
       height="3503"
       id="image10"
       x="0"
       y="0" />
  </g>
  <g
     inkscape:groupmode="layer"
     id="layer3"
     inkscape:label="speechbubbles">
    <path
       style="color:#000000;display:inline;overflow:visible;visibility:visible;fill:#ffffff;fill-opacity:1;fill-rule:nonzero;stroke:none;stroke-width:1.04438px;marker:none;enable-background:accumulate"
       d="m 304.05483,2060.6861 c -6.79342,17.214 -45.10939,18.658 -59.21454,15.159 28.43271,19.257 27.44145,31.222 -11.16214,33.079 64.739,34.707 11.83512,29.455 1.40028,38.255 50.83203,11.961 33.98368,30.089 1.35601,38.422 58.42648,0.509 44.28227,12.725 22.16208,30.304 25.86883,-11.509 65.7741,-19.785 67.18998,10.306 37.48188,-26.287 56.82071,-25.775 70.37483,3.95 11.32193,-25.632 49.87371,-30.565 64.61509,-2.922 12.69876,-37.411 58.00938,-32.144 84.98117,-14.013 -15.1407,-12.796 -4.81614,-33.866 46.8039,-29.605 -4.15493,-11.73 2.37911,-26.535 28.44667,-24.58 -30.0266,-7.085 -35.56033,-14.394 20.19222,-22.259 -42.42443,-0.76 -81.98553,-2.319 -32.21243,-29.141 -15.61517,-0.649 -52.66388,21.732 -35.39036,-43.765 -45.7335,19.313 -93.79048,29.186 -91.4261,-11.382 -17.00247,21.943 -46.49287,32.801 -59.32274,5.393 -10.59102,25.603 -42.76005,14.882 -59.47129,-2.593 -11.04194,17.342 -27.55958,29.055 -59.32263,5.392 z"
       id="path3549-3-7-8"
       inkscape:connector-curvature="0"
       sodipodi:nodetypes="ccccccccccccccccccc" />
    <path
       style="fill:#ffffff;stroke:none;stroke-width:1.11747"
       d="m 402.95155,2014.2181 c 26.97915,-1.1151 157.35896,-6.3967 155.33108,101.0997 -2.54084,134.6965 -3.821,196.2482 -143.43924,194.1791 -149.95773,-2.2225 -119.77638,-83.4609 -120.95054,-185.257 -1.03953,-90.1215 36.66343,-106.7644 109.0587,-110.0218 z"
       id="path3280-8-6"
       inkscape:connector-curvature="0"
       sodipodi:nodetypes="csssc" />
    <path
       style="color:#000000;display:inline;overflow:visible;visibility:visible;fill:#ffffff;fill-opacity:1;fill-rule:nonzero;stroke:none;stroke-width:1px;marker:none;enable-background:accumulate"
       d="m 596.40058,2341.6788 c -54.36956,-1.3158 -66.37353,-18.0831 -76.5499,-29.227 3.41593,-3.9672 8.07344,-11.8668 8.07344,-11.8668 0,0 -22.49109,-20.0802 -27.87182,-30.4304 -5.38071,-10.3501 9.28192,-17.9731 9.28192,-17.9731 0,0 44.94813,37.9871 57.64264,43.4391 -9.83295,10.5902 -13.21387,16.7305 -18.38931,19.4211 3.1733,8.211 28.66645,25.6349 47.81303,26.6371 z"
       id="path4456-3"
       inkscape:connector-curvature="0" />
    <path
       style="color:#000000;display:inline;overflow:visible;visibility:visible;fill:#ffffff;fill-opacity:1;fill-rule:nonzero;stroke:none;stroke-width:0.803733px;marker:none;enable-background:accumulate"
       d="m 1983.6307,2169.1943 c -4.3305,-56.497 5.9266,-125.335 143.5229,-109.0086 131.1888,15.5659 122.995,36.9633 124.3842,108.6937 1.4636,75.5745 -52.0802,112.1707 -146.0786,104.9253 -55.0849,-4.2457 -109.9759,-8.2642 -121.8285,-104.6104 z"
       id="path5026-4"
       inkscape:connector-curvature="0"
       sodipodi:nodetypes="csssc" />
    <path
       style="color:#000000;display:inline;overflow:visible;visibility:visible;fill:#ffffff;fill-opacity:1;fill-rule:nonzero;stroke:none;stroke-width:1.63768px;marker:none;enable-background:accumulate"
       d="m 2065.086,2229.8886 c -4.2272,-2.5286 -41.7209,44.7549 -41.7209,44.7549 l -35.4466,3.459 1.2502,26.926 -53.4012,-4.5662 35.1739,-8.2914 -1.9242,-26.5703 33.0101,-11.5413 29.8178,-33.9388 z"
       id="path4448"
       inkscape:connector-curvature="0"
       sodipodi:nodetypes="cccccccccc" />
    <path
       style="color:#000000;display:inline;overflow:visible;visibility:visible;fill:#ffffff;fill-opacity:1;fill-rule:nonzero;stroke:none;stroke-width:1.026px;marker:none;enable-background:accumulate"
       d="m 148.48197,2684.0009 c -5.46661,-32.9854 9.111,-121.7205 121.17689,-118.765 112.06578,2.9554 130.28795,43.7493 133.02121,56.0926 2.73334,12.3432 26.42205,81.9729 -61.04395,104.0062 -87.46608,22.0331 -165.82099,5.334 -193.15415,-41.3338 z"
       id="path3525"
       inkscape:connector-curvature="0" />
    <path
       style="color:#000000;display:inline;overflow:visible;visibility:visible;fill:#ffffff;fill-opacity:1;fill-rule:nonzero;stroke:none;stroke-width:0.8273px;marker:none;enable-background:accumulate"
       d="m 1199.0011,2492.4237 c -18.073,0.8182 -36.4351,1.788 -53.7422,6.9827 -23.1207,7.5173 -41.4321,26.7389 -45.336,48.8922 -1.8974,13.8942 5.745,28.0441 17.9675,36.2747 14.0237,9.8699 31.1232,15.2118 48.16,19.0219 25.6015,5.4774 52.1565,5.2221 78.2486,3.7345 20.7598,-1.3088 41.6527,-4.9224 60.4769,-13.2573 8.3672,-3.5602 16.6877,-8.4478 21.0883,-16.0968 5.8373,-9.7255 6.2569,-21.3487 4.2218,-32.0561 -2.5188,-13.2028 -10.1184,-25.8753 -22.2073,-33.7852 -13.3465,-9.089 -29.8268,-13.2462 -46.0584,-15.6624 -15.1524,-2.2129 -30.4753,-3.2505 -45.7716,-4.2311 -5.6869,-0.2852 -11.3671,-0.132 -17.0476,0.1829 z"
       id="path3525-3"
       inkscape:connector-curvature="0" />
    <path
       style="color:#000000;display:inline;overflow:visible;visibility:visible;fill:#ffffff;fill-opacity:1;fill-rule:nonzero;stroke:none;stroke-width:0.850812px;marker:none;enable-background:accumulate"
       d="m 378.31396,2800.4734 c -21.81603,-6.0365 -24.7236,-21.3438 -23.81085,-34.7307 0.91307,-13.3879 3.43731,-21.6544 -10.14803,-38.2382 -13.58559,-16.5829 -43.44749,-17.8668 -26.36893,-33.9071 2.07754,-10.3968 3.18888,-19.4098 8.63924,-29.73 6.0118,-11.3839 -30.60834,-11.6128 -30.60834,-11.6128 0,0 -9.2601,36.4069 -8.60393,58.2554 0.65624,21.8486 37.98578,15.4181 49.29264,29.8458 10.55851,13.4728 3.54145,36.8172 10.69223,46.6028 7.15061,9.7866 19.89022,13.3481 30.91597,13.5148 z"
       id="path4538-8"
       inkscape:connector-curvature="0"
       sodipodi:nodetypes="csscscsssc" />
    <path
       style="fill:#ffffff;fill-rule:evenodd;stroke:none;stroke-width:1.00018px;stroke-linecap:butt;stroke-linejoin:miter;stroke-opacity:1"
       d="m 683.3565,2839.4097 c 22.47948,-7.6888 8.18259,-27.2917 13.56572,-36.5201 5.55722,-9.5269 47.07364,3.0903 52.88651,-5.37 5.81286,-8.4604 -12.6074,-31.2018 -3.16551,-44.2198 9.44226,-13.0187 37.29048,-1.0958 25.77916,13.6924 -11.51166,14.7889 6.85876,28.7751 -4.63767,39.1332 -19.17293,17.274 -46.18634,1.6002 -58.07288,2.8253 -7.86988,0.8115 -1.86593,15.6117 -9.63373,23.71 -7.76824,8.099 -16.7216,6.749 -16.7216,6.749 z"
       id="path4272-2"
       inkscape:connector-curvature="0"
       sodipodi:nodetypes="csssssssc" />
    <path
       style="fill:#ffffff;stroke:none;stroke-width:1.03835"
       d="m 1757.6864,2734.7823 c -1.258,-33.7766 21.2997,-118.3324 131.3348,-111.9727 110.0352,6.3597 144.4743,43.5131 147.699,103.5506 5.101,94.9786 -52.7885,120.3608 -135.9123,127.3953 -85.6919,7.2524 -144.4514,-57.9436 -143.1215,-118.9732 z"
       id="path3280-8-90"
       inkscape:connector-curvature="0"
       sodipodi:nodetypes="csssc" />
    <path
       style="color:#000000;display:inline;overflow:visible;visibility:visible;fill:#ffffff;fill-opacity:1;fill-rule:nonzero;stroke:none;stroke-width:1px;marker:none;enable-background:accumulate"
       d="m 1981.8954,2716.5742 c 21.7602,57.3157 81.8906,99.8161 102.9782,111.0989 -62.8332,-18.8149 -116.4083,-51.6111 -129.2847,-90.9766 -12.8765,-39.3656 26.3065,-20.1223 26.3065,-20.1223 z"
       id="path4480"
       inkscape:connector-curvature="0" />
    <path
       style="fill:#ffffff;fill-rule:evenodd;stroke:none;stroke-width:0.797092px;stroke-linecap:butt;stroke-linejoin:miter;stroke-opacity:1"
       d="m 1142.7461,1150.3102 c -26.7361,0.1573 -53.5793,2.1059 -79.5812,7.3362 -9.7626,2.038 -19.4644,4.4115 -28.7196,7.6803 -12.1154,4.6508 -21.2853,13.1454 -28.1464,22.3148 -7.79046,10.5208 -12.73978,22.3339 -15.18047,34.4308 -1.95151,9.4526 -2.91349,19.0285 -3.41983,28.5984 -0.50494,13.1853 1.30421,26.5287 6.64198,39.032 6.26862,15.54 16.72952,30.3135 32.12932,41.0288 14.7779,9.8651 32.9966,15.4807 51.2214,19.5998 30.0315,6.4973 61.3217,7.4831 92.2386,7.4709 23.2877,-0.2009 46.4076,-3.3128 68.9315,-7.9997 17.3369,-3.3854 34.6299,-7.2486 51.0251,-13.0164 12.2284,-4.6062 23.5186,-11.62 30.2552,-21.2772 8.9823,-12.1137 12.9126,-26.1033 16.1916,-39.8421 3.5558,-15.7531 5.329,-32.1336 1.1198,-47.9257 -4.0738,-14.9663 -14.0175,-28.3386 -25.2013,-40.4746 -14.3367,-14.5636 -34.839,-24.481 -56.5869,-29.9215 -23.423,-5.8862 -48.1475,-6.7597 -72.4906,-7.0029 -13.4756,-0.075 -26.9524,-0.07 -40.4282,-0.032 z"
       id="path1353"
       inkscape:connector-curvature="0"
       sodipodi:nodetypes="cssscscssccc" />
    <path
       style="color:#000000;display:inline;overflow:visible;visibility:visible;fill:#ffffff;fill-opacity:1;fill-rule:nonzero;stroke:none;stroke-width:1.32704px;marker:none;enable-background:accumulate"
       d="m 1567.2167,1263.2749 c -23.3951,-13.5874 -47.4345,-27.8488 -80.2438,-37.3029 -9.419,-2.6108 -19.456,-5.052 -29.7275,-6.2777 -10.8699,-0.2589 -18.5833,3.1803 -21.2691,7.3616 -4.9062,5.8321 -4.0751,13.3543 -14.8239,17.5815 -8.0334,2.9766 -20.4058,1.2285 -30.8948,0.151 -55.5613,-5.5966 -116.4529,-16.3815 -168.9125,-7.1839 -10.3316,2.0201 -20.2049,4.8402 -25.0559,9.4641 -13.7945,11.5007 -11.0257,28.0336 10.0671,40.719 14.9737,7.6682 42.5542,10.484 56.687,4.5569 7.5899,-3.0688 8.1735,-8.3583 5.5139,-13.1861 -1.2458,-8.9607 7.6217,0.022 24.0822,-3.6677 37.2334,-5.6014 77.5291,-14.6477 110.5037,-9.7254 10.0809,1.4739 25.6582,0.1256 35.3315,-0.599 12.5832,-2.5592 14.9137,-9.3886 15.3033,-15.3984 0.7726,-6.1637 0.047,-13.4883 11.1891,-17.2514 6.7172,-3.1499 17.8965,0.5337 26.5328,1.8753 27.2211,5.8451 51.5565,15.088 70.9679,25.6439 1.7031,1.0526 3.2274,2.1441 4.749,3.2392 z"
       id="path4496-9"
       inkscape:connector-curvature="0"
       inkscape:transform-center-x="43.812193"
       inkscape:transform-center-y="17.777857"
       sodipodi:nodetypes="ccccccccccccccccccc" />
    <path
       style="fill:#ffffff;stroke:none;stroke-width:0.86966"
       d="m 870.21516,506.07458 c 4.03551,-79.95564 23.59527,-109.60227 260.85484,-112.65143 328.367,-4.2206 351.3414,63.76808 345.1033,157.5583 -6.7305,101.19365 -200.3957,101.47753 -358.706,98.35148 -273.19102,-5.39418 -244.789,-61.2111 -247.25214,-143.25835 z"
       id="path3280-8-0"
       inkscape:connector-curvature="0"
       sodipodi:nodetypes="csssc" />
    <path
       style="display:inline;fill:#ffffff;stroke:none;stroke-width:0.760991"
       d="m 846.25597,318.63754 c 2.51728,-62.9498 16.90873,-145.15068 149.80284,-146.44194 132.89389,-1.29222 177.61179,38.50078 185.01359,107.2676 14.1784,131.72583 -53.3341,121.41139 -152.8999,135.97035 -102.64159,15.00816 -185.80637,-4.53008 -181.91653,-96.79601 z"
       id="path3280-8-2"
       inkscape:connector-curvature="0"
       sodipodi:nodetypes="csssc" />
    <path
       style="color:#000000;display:inline;overflow:visible;visibility:visible;fill:#ffffff;fill-opacity:1;fill-rule:nonzero;stroke:none;stroke-width:1.16579px;marker:none;enable-background:accumulate"
       d="m 1042.4011,654.26102 c 27.9515,-30.95776 372.7577,-53.00464 452.4119,17.01045 55.511,48.79294 34.0965,142.36388 -13.4833,166.72126 -47.5802,24.35859 -277.2933,31.21923 -342.5816,18.81389 -58.7106,-11.15418 -120.3366,-35.16455 -123.5856,-99.06921 -1.3259,-26.0814 -0.713,-72.51986 27.2386,-103.47639 z"
       id="path4040-5"
       inkscape:connector-curvature="0"
       sodipodi:nodetypes="zssssz" />
    <path
       style="color:#000000;display:inline;overflow:visible;visibility:visible;fill:#ffffff;fill-opacity:1;fill-rule:nonzero;stroke:none;stroke-width:1px;marker:none;enable-background:accumulate"
       d="m 880.35523,328.5815 c -13.93862,-43.79995 -75.39205,-33.32608 -131.42892,10.54697 35.43843,-36.41055 76.35778,-76.93843 143.98747,-47.05147 49.32789,21.79901 14.57754,15.53221 14.57754,15.53221 z"
       id="path4035-4"
       inkscape:connector-curvature="0"
       sodipodi:nodetypes="ccscc" />
    <path
       style="display:inline;fill:#ffffff;fill-rule:evenodd;stroke:none;stroke-width:1.36367px;stroke-linecap:butt;stroke-linejoin:miter;stroke-opacity:1"
       d="m 1548.4515,71.619933 c 27.4722,5.793404 26.8348,18.959491 13.9667,17.639048 8.2488,22.947809 33.5108,75.029379 11.5687,81.465079 0.3537,63.9758 14.7503,96.99152 -1.7235,133.3805 60.7101,-16.22272 63.0738,11.34478 58.5096,37.36138 22.3956,-34.64111 39.5209,-12.07585 32.8059,19.78535 23.0136,-34.83705 49.6841,-50.69323 45.4104,-13.35757 26.0057,-26.97855 27.336,-39.45512 49.1812,-27.78038 39.7113,-32.36707 56.274,12.81962 80.3185,32.93992 8.9659,-36.73832 25.6362,-29.5983 54.8262,-10.87598 9.9871,-15.46913 -13.2516,-42.91267 14.025,-9.1895 -10.9835,-38.67303 44.734,-20.02028 56.1026,-14.32381 -13.9238,-17.39684 10.0121,-22.00167 77.4965,-11.89519 -26.1337,-9.30819 -37.3505,-40.04329 15.0817,-61.82426 -68.7606,8.83659 -43.1369,-9.45622 -22.0315,-29.45507 -44.9693,-30.71396 -0.2351,-59.34641 22.1161,-88.49783 -45.4158,13.50432 -61.9471,-44.502353 -70.3225,-58.334579 -68.9329,10.543316 -58.708,4.67716 -52.0923,-0.440896 -42.708,12.824672 -40.3145,1.446479 -51.3517,-2.724502 -117.3603,15.616521 -113.2044,-0.688504 -137.4763,-9.525581 -9.6157,18.669199 -34.3395,11.414952 -59.1259,4.053771 0.9291,15.799861 -14.0404,11.180214 -28.6776,6.987641 -1.8751,6.812619 -16.4123,8.77544 -48.0215,4.198974 22.5736,5.623526 8.6332,6.563777 -60.5863,0.413485 z"
       id="path4289-9-2"
       inkscape:connector-curvature="0"
       sodipodi:nodetypes="cccccccccccccccccccccccc" />
    <path
       style="fill:#ffffff;fill-opacity:1;fill-rule:evenodd;stroke:none;stroke-width:0.979061px;stroke-linecap:butt;stroke-linejoin:miter;stroke-opacity:1"
       d="m 2392.5249,828.31665 c -1.2192,6.34195 -56.3523,55.67385 -21.9235,12.27055 l -32.213,12.12489 c -62.4398,-26.31741 -266.7205,-10.24548 -335.0513,4.27336 l -18.7446,-26.10175 3.7388,21.91163 -21.7325,-32.45316 12.1794,43.70313 -11.4715,-14.83665 4.818,16.38217 -11.1428,-7.96597 1.8848,14.02227 c -25.907,13.02061 -40.6372,38.6939 -46.4729,65.18156 l -20.9217,-2.39962 19.4351,10.35709 c -0.2473,1.60795 -0.4702,3.2159 -0.6541,4.81912 -0.011,0.10971 -0.025,0.22227 -0.035,0.33199 l -21.9906,-3.78341 21.1159,14.1055 c -0.046,0.75385 -0.092,1.5058 -0.1318,2.26627 l -42.0743,-8.83427 41.7186,24.00669 c -0.01,26.96436 3.018,54.63526 4.5854,66.73086 1.0868,8.3859 2.2549,23.9368 8.6041,27.2702 l -39.1869,10.0692 51.9277,-5.4935 c 1.1029,0.1226 2.2289,0.2449 3.3597,0.3675 l -13.4152,3.4243 23.3544,-2.3849 c 2.3898,0.2411 4.8319,0.4809 7.321,0.7194 l -24.1854,7.6712 36.075,-6.5785 c 86.8324,7.6565 272.4573,15.2779 401.9513,-3.2458 l 19.1392,3.9931 -7.3543,-5.7621 c 2.5283,-0.398 5.7736,-0.805 5.9077,-1.2225 l 0.4542,0.1682 -0.3009,-1.2778 c 0.028,-0.2112 0.057,-0.4228 0.086,-0.6363 l 1.5475,2.8101 -1.1631,-14.9918 c 0.7331,-17.4103 0.9216,-37.1654 0.8309,-57.172 l 1.4035,-12.03792 c -2.4259,6.22845 -1.5594,-7.47602 -0.034,-14.52451 l -1.3703,0.97517 c 0.1327,-16.19678 -0.3577,-45.90319 -1,-61.40761 l 0.064,-11.756 c -1.1244,1.12651 -0.4003,-8.98845 -0.014,-17.79623 -1.2346,7.9253 -1.0831,4.5959 -0.5975,-10.81204 -2.0791,4.39065 1.1132,-36.29143 1.6783,-46.48111 z"
       id="path4212-3"
       inkscape:connector-curvature="0"
       sodipodi:nodetypes="ccccccccccccccccccccccsccccccccccccccccccccccccccc" />
    <path
       style="display:inline;fill:#ffffff;fill-rule:evenodd;stroke:none;stroke-width:1.44912px;stroke-linecap:butt;stroke-linejoin:miter;stroke-opacity:1"
       d="m 2102.6149,751.43806 c 0.6806,41.31231 13.5699,99.33289 8.1415,118.1885 4.1542,65.56524 102.9122,-3.97588 46.8489,-17.72263 -23.7511,-36.29813 -38.7836,-65.39219 -54.9904,-100.46587 z"
       id="path4667-2"
       inkscape:connector-curvature="0"
       sodipodi:nodetypes="cccc" />
    <path
       style="color:#000000;display:inline;overflow:visible;visibility:visible;fill:#ffffff;fill-opacity:1;fill-rule:nonzero;stroke:none;stroke-width:0.891997px;marker:none;enable-background:accumulate"
       d="m 733.40911,2654.7496 c -27.56406,-0.098 -56.09893,5.1296 -78.89518,19.5074 -15.71474,9.8584 -27.22154,26.2721 -26.5013,43.7335 0.5462,14.2429 10.67174,27.0138 23.82523,34.6216 14.99922,8.6903 32.87844,12.1176 50.28903,14.7287 30.09288,4.0973 60.63079,3.3432 90.94509,4.9003 19.15466,0.6389 38.82433,0.9884 57.32549,-4.1125 16.58778,-6.0439 26.85665,-21.5133 28.51318,-36.9608 1.71378,-15.5734 -0.66261,-32.4583 -11.62804,-45.2137 -10.31828,-11.5412 -26.31477,-17.3952 -41.83511,-21.357 -29.86665,-7.3926 -61.09068,-10.2257 -92.03839,-9.8475 z"
       id="path3525-3-5"
       inkscape:connector-curvature="0" />
    <path
       style="fill:#ffffff;fill-rule:evenodd;stroke:none;stroke-width:1.00018px;stroke-linecap:butt;stroke-linejoin:miter;stroke-opacity:1"
       d="m 1223.463,2688.0374 c 17.4992,-16.0693 -3.4666,-28.2803 -2.2428,-38.8936 1.2634,-10.9567 44.3518,-16.0746 46.2777,-26.1572 1.9258,-10.0826 -24.0767,-23.5119 -20.6577,-39.2259 3.4191,-15.7147 33.7111,-15.9794 29.1078,2.1868 -4.6033,18.167 17.8374,23.5982 11.4686,37.7013 -10.6216,23.5196 -41.6554,20.0139 -52.0494,25.9095 -6.8814,3.9037 4.5609,15.0468 0.6993,25.5829 -3.8618,10.5369 -12.6035,12.8962 -12.6035,12.8962 z"
       id="path4272-2-3"
       inkscape:connector-curvature="0"
       sodipodi:nodetypes="csssssssc" />
    <path
       style="color:#000000;display:inline;overflow:visible;visibility:visible;fill:#ffffff;fill-opacity:1;fill-rule:nonzero;stroke:none;stroke-width:1.00989px;marker:none;enable-background:accumulate"
       d="m 1555.8755,2522.3224 c -7.2641,19.7338 -49.9991,21.9845 -65.8052,18.2182 32.0867,21.5056 31.201,35.1623 -11.8474,37.8903 72.8902,38.545 13.7513,33.3934 2.268,43.5918 56.9502,12.8342 31.8432,30.1632 22.0165,47.2005 65.2147,-0.3425 44.314,27.0397 47.411,48.5677 5.3642,-10.1977 31.1272,-41.3812 33.2621,-7.0964 0.014,-6.488 42.0303,-60.8477 106.6414,-9.4692 -1.9757,-26.8993 19.7511,-32.7435 41.0685,4.1555 -7.5742,-40.161 66.0961,-29.5513 105.2215,-17.4684 -20.0617,-24.1109 10.8603,-34.3802 44.011,-29.9904 -4.8532,-13.3079 6.1646,-22.6579 31.294,-28.4736 -33.641,-7.6032 -39.9516,-15.8481 22.125,-25.6962 -47.361,-0.1964 -91.541,-1.3483 -36.4875,-32.7151 -17.4388,-0.492 -58.3734,25.6094 -40.3033,-49.338 -29.5802,24.3307 -61.3385,37.9775 -102.2437,-11.5311 -18.5708,25.285 -51.2826,38.132 -66.1064,7.0859 -4.9308,13.3936 -26.189,18.707 -44.2948,19.5706 -7.0909,-5.1921 -14.4322,-12.2772 -22.1244,-21.587 -12.0033,19.9474 -30.2215,33.5613 -66.1063,7.0849 z"
       id="path3549-3-7-9-6"
       inkscape:connector-curvature="0"
       sodipodi:nodetypes="cccccccccccccccccccc" />
    <path
       style="color:#000000;display:inline;overflow:visible;visibility:visible;fill:#ffffff;fill-opacity:1;fill-rule:nonzero;stroke:none;stroke-width:1.22149px;marker:none;enable-background:accumulate"
       d="m 1834.6942,302.71538 c 13.3969,25.86728 33.5213,54.90113 39.2123,61.39746 7.9957,-8.63868 17.0744,-15.33555 24.0331,-20.64544 9.0197,12.83333 45.9509,74.58787 45.5696,92.05922 3.355,-43.2627 -19.8328,-91.86712 -36.9856,-111.86967 -10.7606,5.90497 -16.2791,10.46235 -22.0396,13.47435 -9.2965,-9.62452 -29.0289,-46.10687 -29.0289,-46.10687 z"
       id="path5066-8"
       inkscape:connector-curvature="0" />
  </g>
  <g
     inkscape:groupmode="layer"
     id="layer1"
     inkscape:label="txt">
    <text
       xml:space="preserve"
       style="font-style:normal;font-variant:normal;font-weight:normal;font-stretch:normal;font-size:45px;line-height:1.25;font-family:Lavi;-inkscape-font-specification:Lavi;text-align:center;letter-spacing:0px;word-spacing:0px;text-anchor:middle;fill:#000000;fill-opacity:1;stroke:none"
       x="1018.2072"
       y="250.12212"
       id="text4246-3-2-2"><tspan
         style="font-size:45px"
         sodipodi:role="line"
         x="1018.2072"
         y="250.12212"
         id="tspan949">Sto per </tspan><tspan
         style="font-size:45px"
         sodipodi:role="line"
         x="1018.2072"
         y="306.37213"
         id="tspan909">perdere la mia </tspan><tspan
         style="font-size:45px"
         sodipodi:role="line"
         x="1018.2072"
         y="362.62213"
         id="tspan911">ipervelocità,</tspan></text>
    <text
       xml:space="preserve"
       style="font-style:normal;font-variant:normal;font-weight:normal;font-stretch:normal;font-size:45px;line-height:1.25;font-family:Lavi;-inkscape-font-specification:Lavi;text-align:center;letter-spacing:0px;word-spacing:0px;text-anchor:middle;fill:#000000;fill-opacity:1;stroke:none"
       x="1167.5723"
       y="475.56839"
       id="text4246-3-2-2-3"><tspan
         style="font-size:45px"
         sodipodi:role="line"
         x="1167.5723"
         y="475.56839"
         id="tspan924">e quel pilota ed il suo</tspan><tspan
         style="font-size:45px"
         sodipodi:role="line"
         x="1167.5723"
         y="531.81836"
         id="tspan2034">darago ci sono rimasti</tspan><tspan
         style="font-size:45px"
         sodipodi:role="line"
         x="1167.5723"
         y="588.06842"
         id="tspan928">incollati per ore.</tspan></text>
    <text
       xml:space="preserve"
       style="font-style:normal;font-variant:normal;font-weight:normal;font-stretch:normal;font-size:45px;line-height:1.25;font-family:Lavi;-inkscape-font-specification:Lavi;text-align:center;letter-spacing:0px;word-spacing:0px;text-anchor:middle;fill:#000000;fill-opacity:1;stroke:none"
       x="1263.569"
       y="697.07538"
       id="text4246-3-2-2-3-6"><tspan
         style="font-size:45px"
         sodipodi:role="line"
         x="1263.569"
         y="697.07538"
         id="tspan935">Non faranno fatica</tspan><tspan
         style="font-size:45px"
         sodipodi:role="line"
         x="1263.569"
         y="753.32538"
         id="tspan954"> a prenderci non</tspan><tspan
         style="font-size:45px"
         sodipodi:role="line"
         x="1263.569"
         y="809.57538"
         id="tspan956"> appena rallenteremo.</tspan></text>
    <text
       xml:space="preserve"
       style="font-style:normal;font-variant:normal;font-weight:normal;font-stretch:normal;font-size:59.5686px;line-height:1.25;font-family:Lavi;-inkscape-font-specification:Lavi;text-align:center;letter-spacing:0px;word-spacing:0px;text-anchor:middle;fill:#000000;fill-opacity:1;stroke:none;stroke-width:1.32375"
       x="1790.1418"
       y="189.64172"
       id="text4246-3-2-2-3-6-3"><tspan
         style="font-size:59.5686px;stroke-width:1.32375"
         sodipodi:role="line"
         x="1790.1418"
         y="189.64172"
         id="tspan1031-6">Che idiota</tspan><tspan
         style="font-size:59.5686px;stroke-width:1.32375"
         sodipodi:role="line"
         x="1800.6129"
         y="264.10248"
         id="tspan1079">che sono stata! </tspan></text>
    <text
       xml:space="preserve"
       style="font-style:normal;font-variant:normal;font-weight:normal;font-stretch:normal;font-size:45px;line-height:1.25;font-family:Lavi;-inkscape-font-specification:Lavi;text-align:center;letter-spacing:0px;word-spacing:0px;text-anchor:middle;fill:#000000;fill-opacity:1;stroke:none"
       x="2153.592"
       y="917.40289"
       id="text4246-3-2-2-3-6-2"><tspan
         style="font-size:45px"
         sodipodi:role="line"
         x="2153.592"
         y="917.40289"
         id="tspan966">Ero certa</tspan><tspan
         style="font-size:45px"
         sodipodi:role="line"
         x="2153.592"
         y="973.65289"
         id="tspan2049">che avrebbero</tspan><tspan
         style="font-size:45px"
         sodipodi:role="line"
         x="2153.592"
         y="1029.9028"
         id="tspan2051">rinunciato ore fa!</tspan></text>
    <text
       xml:space="preserve"
       style="font-style:normal;font-variant:normal;font-weight:normal;font-stretch:normal;font-size:45px;line-height:1.25;font-family:Lavi;-inkscape-font-specification:Lavi;text-align:center;letter-spacing:0px;word-spacing:0px;text-anchor:middle;fill:#000000;fill-opacity:1;stroke:none"
       x="1160.7565"
       y="1246.7683"
       id="text4246-3-2-2-3-6-2-7"><tspan
         style="font-size:45px"
         sodipodi:role="line"
         x="1160.7565"
         y="1246.7683"
         id="tspan977">Se solo riuscissi</tspan><tspan
         style="font-size:45px"
         sodipodi:role="line"
         x="1160.7565"
         y="1303.0183"
         id="tspan979">a seminarli.</tspan></text>
    <text
       xml:space="preserve"
       style="font-style:normal;font-variant:normal;font-weight:normal;font-stretch:normal;font-size:45px;line-height:1.25;font-family:Lavi;-inkscape-font-specification:Lavi;text-align:center;letter-spacing:0px;word-spacing:0px;text-anchor:middle;fill:#000000;fill-opacity:1;stroke:none"
       x="416.16843"
       y="2096.4697"
       id="text4246-3-2-2-3-6-2-7-2"><tspan
         style="font-size:45px"
         sodipodi:role="line"
         x="416.16843"
         y="2096.4697"
         id="tspan1171-9"><tspan
   style="font-style:normal;font-variant:normal;font-weight:bold;font-stretch:normal;font-family:Lavi;-inkscape-font-specification:'Lavi Bold'"
   id="tspan889">NO.</tspan> </tspan><tspan
         style="font-size:45px"
         sodipodi:role="line"
         x="416.16843"
         y="2153.2463"
         id="tspan1220"><tspan
           style="font-style:normal;font-variant:normal;font-weight:bold;font-stretch:normal;font-family:Lavi;-inkscape-font-specification:'Lavi Bold'"
           id="tspan887">Devo</tspan></tspan><tspan
         style="font-size:45px"
         sodipodi:role="line"
         x="416.16843"
         y="2210.0229"
         id="tspan1222"> liberarmi</tspan><tspan
         style="font-size:45px"
         sodipodi:role="line"
         x="416.16843"
         y="2266.2729"
         id="tspan885"> di loro!</tspan></text>
    <text
       xml:space="preserve"
       style="font-style:normal;font-variant:normal;font-weight:normal;font-stretch:normal;font-size:45px;line-height:1.25;font-family:Lavi;-inkscape-font-specification:Lavi;text-align:center;letter-spacing:0px;word-spacing:0px;text-anchor:middle;fill:#000000;fill-opacity:1;stroke:none"
       x="2124.3728"
       y="2121.624"
       id="text4246-3-2-2-3-6-2-7-2-2"><tspan
         style="font-size:45px"
         sodipodi:role="line"
         x="2124.3728"
         y="2121.624"
         id="tspan1269">Prima</tspan><tspan
         style="font-size:45px"
         sodipodi:role="line"
         x="2124.3728"
         y="2177.874"
         id="tspan2059">che ci </tspan><tspan
         style="font-size:45px"
         sodipodi:role="line"
         x="2124.3728"
         y="2234.124"
         id="tspan1271">prendano!</tspan></text>
    <text
       xml:space="preserve"
       style="font-style:normal;font-variant:normal;font-weight:normal;font-stretch:normal;font-size:45px;line-height:1.25;font-family:Lavi;-inkscape-font-specification:Lavi;text-align:center;letter-spacing:0px;word-spacing:0px;text-anchor:middle;fill:#000000;fill-opacity:1;stroke:none"
       x="273.79352"
       y="2629.6626"
       id="text4246-3-2-2-3-6-2-7-2-3"><tspan
         style="font-size:45px"
         sodipodi:role="line"
         x="273.79352"
         y="2629.6626"
         id="tspan1222-9">Ma sono </tspan><tspan
         style="font-size:45px"
         sodipodi:role="line"
         x="273.79352"
         y="2685.9126"
         id="tspan903">anche...</tspan></text>
    <text
       xml:space="preserve"
       style="font-style:normal;font-variant:normal;font-weight:normal;font-stretch:normal;font-size:45px;line-height:1.25;font-family:Lavi;-inkscape-font-specification:Lavi;text-align:center;letter-spacing:0px;word-spacing:0px;text-anchor:middle;fill:#000000;fill-opacity:1;stroke:none"
       x="762.94037"
       y="2724.3162"
       id="text4246-3-2-2-3-6-2-7-2-3-3-3"><tspan
         style="font-size:45px"
         x="762.94037"
         y="2724.3162"
         id="tspan1318-9-6"
         sodipodi:role="line">...molto...</tspan><tspan
         style="font-size:45px"
         x="762.94037"
         y="2780.5662"
         id="tspan1356-7"
         sodipodi:role="line" /></text>
    <text
       xml:space="preserve"
       style="font-style:normal;font-variant:normal;font-weight:normal;font-stretch:normal;font-size:45px;line-height:1.25;font-family:Lavi;-inkscape-font-specification:Lavi;text-align:center;letter-spacing:0px;word-spacing:0px;text-anchor:middle;fill:#000000;fill-opacity:1;stroke:none"
       x="1218.5862"
       y="2507.2249"
       id="text4246-3-2-2-3-6-2-7-2-3-3"><tspan
         style="font-size:45px"
         sodipodi:role="line"
         x="1218.5862"
         y="2507.2249"
         id="tspan1318-9" /><tspan
         style="font-size:45px"
         sodipodi:role="line"
         x="1226.4963"
         y="2563.4749"
         id="tspan1356">...stanca... </tspan></text>
    <text
       xml:space="preserve"
       style="font-style:normal;font-variant:normal;font-weight:normal;font-stretch:normal;font-size:64.434px;line-height:1.25;font-family:Lavi;-inkscape-font-specification:Lavi;text-align:center;letter-spacing:0px;word-spacing:0px;text-anchor:middle;fill:#000000;fill-opacity:1;stroke:none;stroke-width:1.43187"
       x="1696.2407"
       y="2630.5286"
       id="text4246-3-2-2-3-6-2-7-2-3-3-4"><tspan
         style="font-style:normal;font-variant:normal;font-weight:bold;font-stretch:normal;font-size:64.434px;font-family:Lavi;-inkscape-font-specification:'Lavi Bold';stroke-width:1.43187"
         sodipodi:role="line"
         x="1696.2407"
         y="2630.5286"
         id="tspan1356-4">WHOOPS!</tspan></text>
    <text
       xml:space="preserve"
       style="font-style:normal;font-variant:normal;font-weight:normal;font-stretch:normal;font-size:45px;line-height:1.25;font-family:Lavi;-inkscape-font-specification:Lavi;text-align:center;letter-spacing:0px;word-spacing:0px;text-anchor:middle;fill:#000000;fill-opacity:1;stroke:none"
       x="1905.2314"
       y="2697.1885"
       id="text4246-3-2-2-3-6-2-7-2-3-5"><tspan
         style="font-size:45px"
         sodipodi:role="line"
         x="1905.2314"
         y="2697.1885"
         id="tspan1068">Tieni </tspan><tspan
         style="font-size:45px"
         sodipodi:role="line"
         x="1905.2314"
         y="2753.4385"
         id="tspan1072">duro, </tspan><tspan
         style="font-size:45px"
         sodipodi:role="line"
         x="1905.2314"
         y="2809.6885"
         id="tspan1074">Pepper!</tspan></text>
  </g>
</svg>
