<?xml version="1.0" encoding="UTF-8" standalone="no"?>
<svg
   id="svg2"
   version="1.1"
   inkscape:version="1.1.2 (1:1.1+202202050950+0a00cf5339)"
   width="2481"
   height="6200"
   sodipodi:docname="E34P11.svg"
   inkscape:export-filename="credit.png"
   inkscape:export-xdpi="90"
   inkscape:export-ydpi="90"
   xmlns:inkscape="http://www.inkscape.org/namespaces/inkscape"
   xmlns:sodipodi="http://sodipodi.sourceforge.net/DTD/sodipodi-0.dtd"
   xmlns:xlink="http://www.w3.org/1999/xlink"
   xmlns="http://www.w3.org/2000/svg"
   xmlns:svg="http://www.w3.org/2000/svg"
   xmlns:rdf="http://www.w3.org/1999/02/22-rdf-syntax-ns#"
   xmlns:cc="http://creativecommons.org/ns#"
   xmlns:dc="http://purl.org/dc/elements/1.1/">
  <metadata
     id="metadata8">
    <rdf:RDF>
      <cc:Work
         rdf:about="">
        <dc:format>image/svg+xml</dc:format>
        <dc:type
           rdf:resource="http://purl.org/dc/dcmitype/StillImage" />
        <dc:title />
      </cc:Work>
    </rdf:RDF>
  </metadata>
  <defs
     id="defs6">
    <filter
       inkscape:label="Drop Shadow"
       id="filter5546"
       style="color-interpolation-filters:sRGB">
      <feFlood
         flood-opacity="1"
         flood-color="rgb(0,0,0)"
         result="flood"
         id="feFlood5548" />
      <feComposite
         in="flood"
         in2="SourceGraphic"
         operator="in"
         result="composite1"
         id="feComposite5550" />
      <feGaussianBlur
         in="composite1"
         stdDeviation="1"
         result="blur"
         id="feGaussianBlur5552" />
      <feOffset
         dx="2.5"
         dy="2.5"
         result="offset"
         id="feOffset5554" />
      <feComposite
         in="SourceGraphic"
         in2="offset"
         operator="over"
         result="composite2"
         id="feComposite5556" />
    </filter>
  </defs>
  <sodipodi:namedview
     pagecolor="#ffffff"
     bordercolor="#666666"
     borderopacity="1"
     objecttolerance="10"
     gridtolerance="10"
     guidetolerance="10"
     inkscape:pageopacity="0"
     inkscape:pageshadow="2"
     inkscape:window-width="1216"
     inkscape:window-height="704"
     id="namedview4"
     showgrid="false"
     inkscape:zoom="0.1606737"
     inkscape:cx="1207.416"
     inkscape:cy="977.13565"
     inkscape:window-x="0"
     inkscape:window-y="0"
     inkscape:window-maximized="0"
     inkscape:current-layer="layer2"
     inkscape:object-nodes="true"
     showguides="true"
     inkscape:guide-bbox="true"
     inkscape:snap-global="false"
     inkscape:document-rotation="0"
     inkscape:pagecheckerboard="0">
    <sodipodi:guide
       position="1570,6115"
       orientation="0,1"
       id="guide171"
       inkscape:locked="false" />
  </sodipodi:namedview>
  <g
     inkscape:groupmode="layer"
     id="layer1"
     inkscape:label="artwork"
     style="display:inline"
     transform="translate(0,2224)"
     sodipodi:insensitive="true">
    <image
       xlink:href="../gfx_Pepper-and-Carrot_by-David-Revoy_E34P11.png"
       width="2481"
       height="6200"
       preserveAspectRatio="none"
       style="image-rendering:optimizeQuality"
       id="image4223"
       x="0"
       y="-2224.0303" />
  </g>
  <g
     inkscape:groupmode="layer"
     id="layer3"
     inkscape:label="speechbubbles"
     style="display:inline"
     transform="translate(0,2224)">
    <path
       style="color:#000000;display:inline;overflow:visible;visibility:visible;opacity:1;fill:#ffffff;fill-opacity:1;fill-rule:nonzero;stroke:none;stroke-width:0.99999994px;marker:none;enable-background:accumulate"
       d="m 1182.6069,-865.19683 c 8.1611,-101.70673 37.3079,-118.04753 294.2661,-120.75813 140.7465,-1.4847 326.0103,-7.5259 325.7375,154.45746 -0.2881,171.15897 -208.6846,134.08212 -328.9214,132.95914 -139.8923,-1.30655 -235.4751,-5.45605 -265.7128,-37.7503 -27.6701,-29.55202 -26.1663,-97.40666 -25.3694,-128.90817 z"
       id="path4546-6"
       inkscape:connector-curvature="0"
       sodipodi:nodetypes="cssssc" />
    <path
       style="color:#000000;display:inline;overflow:visible;visibility:visible;fill:#ffffff;fill-opacity:1;fill-rule:nonzero;stroke:none;stroke-width:1px;marker:none;enable-background:accumulate"
       d="m 1739.2866,-744.28229 c -9.1014,-64.22524 -28.7122,-150.29135 242.3256,-140.37165 208.6649,7.63693 255.0768,35.32977 254.6593,146.40598 -1.7033,40.22833 -9.0877,83.93829 -83.4507,112.63954 -48.6526,18.75772 -132.5538,8.09223 -213.2131,14.9621 -86.7469,0.89668 -197.1475,-39.4061 -200.3211,-133.63597 z"
       id="path3365"
       inkscape:connector-curvature="0"
       sodipodi:nodetypes="cscccc" />
    <path
       style="fill:#ffffff;stroke:none;stroke-width:1"
       d="m 872.55605,-963.13496 c 50.81358,-32.3879 129.46405,-43.64824 168.21135,0.1997 23.4771,26.56752 33.1071,45.02242 33.1071,45.02242 l 23.8879,-32.88042 -23.9282,-31.3954 c 0,0 -88.73129,-64.76174 -201.27815,19.0537 z"
       id="path3063"
       inkscape:connector-curvature="0"
       sodipodi:nodetypes="cscccc" />
    <path
       style="color:#000000;display:inline;overflow:visible;visibility:visible;fill:#ffffff;fill-opacity:1;fill-rule:nonzero;stroke:none;stroke-width:0.99999982px;marker:none;enable-background:accumulate"
       d="m 371.62292,3324.2052 c 37.34584,-42.0543 326.43902,-81.1855 419.36286,9.9336 92.92382,91.1192 26.60389,243.1661 -33.7136,275.4453 -60.31741,32.2795 -269.40644,44.5104 -344.25036,13.5248 -74.84403,-30.9858 -97.95322,-102.9689 -94.54269,-191.7133 1.39197,-36.22 15.7978,-65.1359 53.14379,-107.1904 z"
       id="path4040"
       inkscape:connector-curvature="0"
       sodipodi:nodetypes="zssssz" />
    <path
       style="color:#000000;display:inline;overflow:visible;visibility:visible;fill:#ffffff;fill-opacity:1;fill-rule:nonzero;stroke:none;stroke-width:0.99999994px;marker:none;enable-background:accumulate"
       d="m 794.81027,3503.9749 c -3.17177,-84.7363 16.84208,-125.2915 90.24998,-161.5948 69.94832,-26.4599 256.50535,-16.7025 286.17335,19.3703 29.6681,36.0727 53.2608,72.8665 49.8374,105.1423 -3.4232,32.2756 2.4981,66.7726 -55.5273,107.7854 -40.0376,28.299 -160.4481,23.9605 -221.84431,20.5478 -53.02307,-3.4124 -153.45348,-17.2068 -148.88912,-91.251 z"
       id="path3517"
       inkscape:connector-curvature="0"
       sodipodi:nodetypes="cccsscc" />
    <path
       style="color:#000000;display:inline;overflow:visible;visibility:visible;fill:#ffffff;fill-opacity:1;fill-rule:nonzero;stroke:none;stroke-width:0.99999988px;marker:none;enable-background:accumulate"
       d="m 1162.1295,3514.1886 c -6.7822,-81.1939 144.2051,-93.8241 254.052,-93.001 109.8471,0.8229 252.899,28.8095 258.8884,88.4464 10.8528,101.1661 -165.6552,114.8727 -262.694,115.9951 -45.4388,0.069 -263.4797,-8.9755 -250.2464,-111.4405 z"
       id="path4974"
       inkscape:connector-curvature="0"
       sodipodi:nodetypes="csccc" />
    <path
       style="fill:#ffffff;fill-opacity:1;stroke:none;stroke-width:0.94239348"
       d="m 2095.1618,3703.7812 c -2.4947,-24.9075 14.0519,-37.2977 29.1177,-43.1671 19.0937,-7.4386 143.8638,-5.1704 166.97,11.8391 20.3954,15.0141 32.6685,47.784 -13.0403,65.2222 -45.7087,17.4382 -121.9934,7.8865 -134.9788,4.716 -12.9855,-3.1707 -45.4716,-11.6604 -48.0686,-38.6102 z"
       id="path3659-8"
       inkscape:connector-curvature="0"
       sodipodi:nodetypes="cssssc" />
    <path
       style="color:#000000;display:inline;overflow:visible;visibility:visible;fill:#ffffff;fill-opacity:1;fill-rule:nonzero;stroke:none;stroke-width:1px;marker:none;enable-background:accumulate"
       d="m 1815.9787,3458.3614 c -145.0577,-17.8084 -151.3521,38.1867 -173.8389,41.2954 -47.8722,6.6181 -34.2474,16.1578 -34.2474,16.1578 l 14.6011,-30.4558 c 0,0 76.6292,-84.3387 193.4852,-26.9974 z"
       id="path3072"
       inkscape:connector-curvature="0"
       sodipodi:nodetypes="csccc" />
    <path
       style="color:#000000;display:inline;overflow:visible;visibility:visible;fill:#ffffff;fill-opacity:1;fill-rule:nonzero;stroke:none;stroke-width:1px;marker:none;enable-background:accumulate"
       d="m 2144.8841,3684.561 c -34.7278,-9.2362 -63.5331,-24.713 -62.0215,-60.0508 -13.1987,53.9008 44.5176,88.9089 63.4118,97.7471 18.8944,8.8383 -1.3903,-37.6963 -1.3903,-37.6963 z"
       id="path5010"
       inkscape:connector-curvature="0" />
    <path
       style="color:#000000;display:inline;overflow:visible;visibility:visible;opacity:1;fill:#ffffff;fill-opacity:1;fill-rule:nonzero;stroke:none;stroke-width:1px;marker:none;enable-background:accumulate"
       d="m 1252.7013,-916.55194 c -4.15,56.05753 -15.9257,64.82543 -118.5005,64.11844 -56.1844,-0.38727 -130.1754,1.35842 -128.6445,-88.03084 1.6175,-94.45276 84.4622,-72.20506 132.4383,-70.55456 55.8189,1.9203 93.9292,5.0296 105.7136,23.11064 10.7836,16.5457 9.5877,53.97882 8.9931,71.35632 z"
       id="path4546-6-4"
       inkscape:connector-curvature="0"
       sodipodi:nodetypes="cssssc" />
  </g>
  <g
     inkscape:groupmode="layer"
     id="layer2"
     inkscape:label="text"
     style="display:inline;opacity:0.85500004"
     transform="translate(0,2224)">
    <text
       id="text4151"
       y="-2093.0767"
       x="1247.2169"
       style="color:#000000;font-style:normal;font-variant:normal;font-weight:normal;font-stretch:normal;font-size:11.8693px;line-height:0%;font-family:Lavi;-inkscape-font-specification:Lavi;text-indent:0;text-align:center;text-decoration:none;text-decoration-line:none;letter-spacing:0px;word-spacing:0px;text-transform:none;writing-mode:lr-tb;direction:ltr;baseline-shift:baseline;text-anchor:middle;display:inline;overflow:visible;visibility:visible;opacity:0.855;fill:#060404;fill-opacity:1;fill-rule:nonzero;stroke:none;stroke-width:1.03334;enable-background:accumulate"
       xml:space="preserve"
       transform="scale(0.99514974,1.0048739)"><tspan
         y="-2093.0767"
         x="1247.2169"
         style="color:#000000;font-style:normal;font-variant:normal;font-weight:bold;font-stretch:normal;font-size:34.6553px;line-height:125%;font-family:Lavi;-inkscape-font-specification:Lavi;text-indent:0;text-align:center;text-decoration:none;text-decoration-line:none;letter-spacing:0px;word-spacing:0px;text-transform:none;writing-mode:lr-tb;direction:ltr;baseline-shift:baseline;text-anchor:middle;display:inline;overflow:visible;visibility:visible;fill:#060404;fill-opacity:1;fill-rule:nonzero;stroke:none;stroke-width:1.03334;enable-background:accumulate"
         sodipodi:role="line"
         id="tspan4170">31a de Marto, 2021</tspan><tspan
         y="-2045.2822"
         x="1247.2169"
         style="color:#000000;font-style:normal;font-variant:normal;font-weight:normal;font-stretch:normal;font-size:39.6062px;line-height:125%;font-family:Lavi;-inkscape-font-specification:Lavi;text-indent:0;text-align:center;text-decoration:none;text-decoration-line:none;letter-spacing:0px;word-spacing:0px;text-transform:none;writing-mode:lr-tb;direction:ltr;baseline-shift:baseline;text-anchor:middle;display:inline;overflow:visible;visibility:visible;fill:#060404;fill-opacity:1;fill-rule:nonzero;stroke:none;stroke-width:1.03334;enable-background:accumulate"
         sodipodi:role="line"
         id="tspan4150"> </tspan><tspan
         y="-1995.7744"
         x="1247.2169"
         style="color:#000000;font-style:normal;font-variant:normal;font-weight:normal;font-stretch:normal;font-size:39.6062px;line-height:125%;font-family:Lavi;-inkscape-font-specification:Lavi;text-indent:0;text-align:center;text-decoration:none;text-decoration-line:none;letter-spacing:0px;word-spacing:0px;text-transform:none;writing-mode:lr-tb;direction:ltr;baseline-shift:baseline;text-anchor:middle;display:inline;overflow:visible;visibility:visible;fill:#060404;fill-opacity:1;fill-rule:nonzero;stroke:none;stroke-width:1.03334;enable-background:accumulate"
         sodipodi:role="line"
         id="tspan986"><tspan
   style="font-style:normal;font-variant:normal;font-weight:bold;font-stretch:normal;font-size:39.6062px;font-family:Lavi;-inkscape-font-specification:'Lavi Bold';fill:#060404;fill-opacity:1;stroke-width:1.03334"
   id="tspan1103">Arto kaj scenaro : </tspan>David Revoy.</tspan><tspan
         y="-1978.7577"
         x="1247.2169"
         sodipodi:role="line"
         id="tspan943"
         style="stroke-width:1.03334" /><tspan
         y="-1946.2667"
         x="1247.2169"
         style="color:#000000;font-style:normal;font-variant:normal;font-weight:normal;font-stretch:normal;font-size:39.6062px;line-height:125%;font-family:Lavi;-inkscape-font-specification:Lavi;text-indent:0;text-align:center;text-decoration:none;text-decoration-line:none;letter-spacing:0px;word-spacing:0px;text-transform:none;writing-mode:lr-tb;direction:ltr;baseline-shift:baseline;text-anchor:middle;display:inline;overflow:visible;visibility:visible;fill:#060404;fill-opacity:1;fill-rule:nonzero;stroke:none;stroke-width:1.03334;enable-background:accumulate"
         sodipodi:role="line"
         id="tspan183"><tspan
   style="font-weight:bold;font-size:39.6062px;stroke-width:1.03334"
   id="tspan292">Beta-legado :</tspan> Arlo James Barnes, Carotte, Craig Maloney, Efrat b, GunChleoc,</tspan><tspan
         y="-1896.7589"
         x="1247.2169"
         style="color:#000000;font-style:normal;font-variant:normal;font-weight:normal;font-stretch:normal;font-size:39.6062px;line-height:125%;font-family:Lavi;-inkscape-font-specification:Lavi;text-indent:0;text-align:center;text-decoration:none;text-decoration-line:none;letter-spacing:0px;word-spacing:0px;text-transform:none;writing-mode:lr-tb;direction:ltr;baseline-shift:baseline;text-anchor:middle;display:inline;overflow:visible;visibility:visible;fill:#060404;fill-opacity:1;fill-rule:nonzero;stroke:none;stroke-width:1.03334;enable-background:accumulate"
         sodipodi:role="line"
         id="tspan1004">Karl Ove Hufthammer, Martin Disch, Nicolas Artance, Parnikkapore, Valvin.</tspan><tspan
         y="-1847.2512"
         x="1247.2169"
         style="color:#000000;font-style:normal;font-variant:normal;font-weight:normal;font-stretch:normal;font-size:39.6062px;line-height:125%;font-family:Lavi;-inkscape-font-specification:Lavi;text-indent:0;text-align:center;text-decoration:none;text-decoration-line:none;letter-spacing:0px;word-spacing:0px;text-transform:none;writing-mode:lr-tb;direction:ltr;baseline-shift:baseline;text-anchor:middle;display:inline;overflow:visible;visibility:visible;fill:#060404;fill-opacity:1;fill-rule:nonzero;stroke:none;stroke-width:1.03334;enable-background:accumulate"
         sodipodi:role="line"
         id="tspan285"> </tspan><tspan
         y="-1797.7434"
         x="1247.2169"
         style="color:#000000;font-style:normal;font-variant:normal;font-weight:bold;font-stretch:normal;font-size:39.6062px;line-height:125%;font-family:Lavi;-inkscape-font-specification:Lavi;text-indent:0;text-align:center;text-decoration:none;text-decoration-line:none;letter-spacing:0px;word-spacing:0px;text-transform:none;writing-mode:lr-tb;direction:ltr;baseline-shift:baseline;text-anchor:middle;display:inline;overflow:visible;visibility:visible;fill:#060404;fill-opacity:1;fill-rule:nonzero;stroke:none;stroke-width:1.03334;enable-background:accumulate"
         sodipodi:role="line"
         id="tspan275">Esperanta versio</tspan><tspan
         y="-1748.2357"
         x="1247.2169"
         style="color:#000000;font-style:normal;font-variant:normal;font-weight:normal;font-stretch:normal;font-size:39.6062px;line-height:125%;font-family:Lavi;-inkscape-font-specification:Lavi;text-indent:0;text-align:center;text-decoration:none;text-decoration-line:none;letter-spacing:0px;word-spacing:0px;text-transform:none;writing-mode:lr-tb;direction:ltr;baseline-shift:baseline;text-anchor:middle;display:inline;overflow:visible;visibility:visible;fill:#060404;fill-opacity:1;fill-rule:nonzero;stroke:none;stroke-width:1.03334;enable-background:accumulate"
         sodipodi:role="line"
         id="tspan988"><tspan
   id="tspan984"
   style="color:#000000;font-style:normal;font-variant:normal;font-weight:bold;font-stretch:normal;font-size:39.6062px;line-height:125%;font-family:Lavi;-inkscape-font-specification:'Lavi Bold';text-indent:0;text-align:center;text-decoration:none;text-decoration-line:none;letter-spacing:0px;word-spacing:0px;text-transform:none;writing-mode:lr-tb;direction:ltr;baseline-shift:baseline;text-anchor:middle;display:inline;overflow:visible;visibility:visible;fill:#060404;fill-opacity:1;fill-rule:nonzero;stroke:none;stroke-width:1.03334;enable-background:accumulate">Traduko :</tspan> Tirifto.</tspan><tspan
         y="-1698.7279"
         x="1247.2169"
         style="color:#000000;font-style:normal;font-variant:normal;font-weight:normal;font-stretch:normal;font-size:39.6062px;line-height:125%;font-family:Lavi;-inkscape-font-specification:Lavi;text-indent:0;text-align:center;text-decoration:none;text-decoration-line:none;letter-spacing:0px;word-spacing:0px;text-transform:none;writing-mode:lr-tb;direction:ltr;baseline-shift:baseline;text-anchor:middle;display:inline;overflow:visible;visibility:visible;fill:#060404;fill-opacity:1;fill-rule:nonzero;stroke:none;stroke-width:1.03334;enable-background:accumulate"
         sodipodi:role="line"
         id="tspan997"><tspan
   style="font-style:normal;font-variant:normal;font-weight:bold;font-stretch:normal;font-family:Lavi;-inkscape-font-specification:'Lavi Bold'"
   id="tspan992">Korekto :</tspan> tuxayo.</tspan><tspan
         y="-1649.2202"
         x="1247.2169"
         style="color:#000000;font-style:normal;font-variant:normal;font-weight:normal;font-stretch:normal;font-size:39.6062px;line-height:125%;font-family:Lavi;-inkscape-font-specification:Lavi;text-indent:0;text-align:center;text-decoration:none;text-decoration-line:none;letter-spacing:0px;word-spacing:0px;text-transform:none;writing-mode:lr-tb;direction:ltr;baseline-shift:baseline;text-anchor:middle;display:inline;overflow:visible;visibility:visible;fill:#060404;fill-opacity:1;fill-rule:nonzero;stroke:none;stroke-width:1.03334;enable-background:accumulate"
         sodipodi:role="line"
         id="tspan3369"><tspan
   style="font-style:normal;font-variant:normal;font-weight:bold;font-stretch:normal;font-family:Lavi;-inkscape-font-specification:'Lavi Bold'"
   id="tspan5063">Fasono :</tspan> Navi, Tirifto.</tspan><tspan
         y="-1599.7124"
         x="1247.2169"
         style="color:#000000;font-style:normal;font-variant:normal;font-weight:bold;font-stretch:normal;font-size:39.6062px;line-height:125%;font-family:Lavi;-inkscape-font-specification:'Lavi Bold';text-indent:0;text-align:center;text-decoration:none;text-decoration-line:none;letter-spacing:0px;word-spacing:0px;text-transform:none;writing-mode:lr-tb;direction:ltr;baseline-shift:baseline;text-anchor:middle;display:inline;overflow:visible;visibility:visible;fill:#060404;fill-opacity:1;fill-rule:nonzero;stroke:none;stroke-width:1.03334;enable-background:accumulate"
         sodipodi:role="line"
         id="tspan1026"> </tspan><tspan
         y="-1559.1552"
         x="1247.2169"
         style="color:#000000;font-style:normal;font-variant:normal;font-weight:bold;font-stretch:normal;font-size:29.7046px;line-height:125%;font-family:Lavi;-inkscape-font-specification:'Lavi Bold';text-indent:0;text-align:center;text-decoration:none;text-decoration-line:none;letter-spacing:0px;word-spacing:0px;text-transform:none;writing-mode:lr-tb;direction:ltr;baseline-shift:baseline;text-anchor:middle;display:inline;overflow:visible;visibility:visible;fill:#060404;fill-opacity:1;fill-rule:nonzero;stroke:none;stroke-width:1.03334;enable-background:accumulate"
         sodipodi:role="line"
         id="tspan1000">Speciala danko : <tspan
   style="font-style:normal;font-variant:normal;font-weight:normal;font-stretch:normal;font-family:Lavi;-inkscape-font-specification:Lavi"
   id="tspan996">al Nartance ĉar li esploris la personaĵon de Vasabio per siaj fervorulaj noveloj. </tspan></tspan><tspan
         y="-1522.0244"
         x="1247.2169"
         style="color:#000000;font-style:normal;font-variant:normal;font-weight:normal;font-stretch:normal;font-size:29.7046px;line-height:125%;font-family:Lavi;-inkscape-font-specification:Lavi;text-indent:0;text-align:center;text-decoration:none;text-decoration-line:none;letter-spacing:0px;word-spacing:0px;text-transform:none;writing-mode:lr-tb;direction:ltr;baseline-shift:baseline;text-anchor:middle;display:inline;overflow:visible;visibility:visible;fill:#060404;fill-opacity:1;fill-rule:nonzero;stroke:none;stroke-width:1.03334;enable-background:accumulate"
         sodipodi:role="line"
         id="tspan998">La maniero, kiel li ŝin imagis, multe influis la manieron, kiel mi ŝin bildigis ĉi-epizode.</tspan><tspan
         y="-1484.8937"
         x="1247.2169"
         style="color:#000000;font-style:normal;font-variant:normal;font-weight:normal;font-stretch:normal;font-size:29.7046px;line-height:125%;font-family:Lavi;-inkscape-font-specification:'Lavi Bold';text-indent:0;text-align:center;text-decoration:none;text-decoration-line:none;letter-spacing:0px;word-spacing:0px;text-transform:none;writing-mode:lr-tb;direction:ltr;baseline-shift:baseline;text-anchor:middle;display:inline;overflow:visible;visibility:visible;fill:#060404;fill-opacity:1;fill-rule:nonzero;stroke:none;stroke-width:1.03334;enable-background:accumulate"
         sodipodi:role="line"
         id="tspan1006" /><tspan
         y="-1447.7629"
         x="1247.2169"
         style="color:#000000;font-style:normal;font-variant:normal;font-weight:bold;font-stretch:normal;font-size:29.7046px;line-height:125%;font-family:Lavi;-inkscape-font-specification:'Lavi Bold';text-indent:0;text-align:center;text-decoration:none;text-decoration-line:none;letter-spacing:0px;word-spacing:0px;text-transform:none;writing-mode:lr-tb;direction:ltr;baseline-shift:baseline;text-anchor:middle;display:inline;overflow:visible;visibility:visible;fill:#060404;fill-opacity:1;fill-rule:nonzero;stroke:none;stroke-width:1.03334;enable-background:accumulate"
         sodipodi:role="line"
         id="tspan994">Bazita sur la universo Hereva</tspan><tspan
         y="-1410.6322"
         x="1247.2169"
         style="color:#000000;font-style:normal;font-variant:normal;font-weight:normal;font-stretch:normal;font-size:29.7046px;line-height:125%;font-family:Lavi;-inkscape-font-specification:Lavi;text-indent:0;text-align:center;text-decoration:none;text-decoration-line:none;letter-spacing:0px;word-spacing:0px;text-transform:none;writing-mode:lr-tb;direction:ltr;baseline-shift:baseline;text-anchor:middle;display:inline;overflow:visible;visibility:visible;fill:#060404;fill-opacity:1;fill-rule:nonzero;stroke:none;stroke-width:1.03334;enable-background:accumulate"
         sodipodi:role="line"
         id="tspan979"><tspan
   style="font-weight:bold;font-size:29.7046px;line-height:125%;stroke-width:1.03334"
   id="tspan987">Estigo :</tspan> David Revoy.</tspan><tspan
         y="-1373.5015"
         x="1247.2169"
         style="color:#000000;font-style:normal;font-variant:normal;font-weight:normal;font-stretch:normal;font-size:29.7046px;line-height:125%;font-family:Lavi;-inkscape-font-specification:Lavi;text-indent:0;text-align:center;text-decoration:none;text-decoration-line:none;letter-spacing:0px;word-spacing:0px;text-transform:none;writing-mode:lr-tb;direction:ltr;baseline-shift:baseline;text-anchor:middle;display:inline;overflow:visible;visibility:visible;fill:#060404;fill-opacity:1;fill-rule:nonzero;stroke:none;stroke-width:1.03334;enable-background:accumulate"
         sodipodi:role="line"
         id="tspan981"><tspan
   style="font-weight:bold;font-size:29.7046px;line-height:125%;stroke-width:1.03334"
   id="tspan989">Ĉefa daŭriganto :</tspan> Craig Maloney.</tspan><tspan
         y="-1336.3707"
         x="1247.2169"
         style="color:#000000;font-style:normal;font-variant:normal;font-weight:normal;font-stretch:normal;font-size:29.7046px;line-height:125%;font-family:Lavi;-inkscape-font-specification:Lavi;text-indent:0;text-align:center;text-decoration:none;text-decoration-line:none;letter-spacing:0px;word-spacing:0px;text-transform:none;writing-mode:lr-tb;direction:ltr;baseline-shift:baseline;text-anchor:middle;display:inline;overflow:visible;visibility:visible;fill:#060404;fill-opacity:1;fill-rule:nonzero;stroke:none;stroke-width:1.03334;enable-background:accumulate"
         sodipodi:role="line"
         id="tspan983"><tspan
   style="font-weight:bold;font-size:29.7046px;line-height:125%;stroke-width:1.03334"
   id="tspan991">Redakto :</tspan> Craig Maloney, Nartance, Scribblemaniac, Valvin.</tspan><tspan
         y="-1299.0967"
         x="1247.2169"
         style="color:#000000;font-style:normal;font-variant:normal;font-weight:normal;font-stretch:normal;font-size:34.6553px;line-height:100%;font-family:Lavi;-inkscape-font-specification:Lavi;text-indent:0;text-align:center;text-decoration:none;text-decoration-line:none;letter-spacing:0px;word-spacing:0px;text-transform:none;writing-mode:lr-tb;direction:ltr;baseline-shift:baseline;text-anchor:middle;display:inline;overflow:visible;visibility:visible;fill:#060404;fill-opacity:1;fill-rule:nonzero;stroke:none;stroke-width:1.03334;enable-background:accumulate"
         sodipodi:role="line"
         id="tspan985"><tspan
   style="font-weight:bold;font-size:29.7046px;line-height:100%;stroke-width:1.03334"
   id="tspan993">Korekto :</tspan><tspan
   style="font-size:29.7046px;line-height:100%;stroke-width:1.03334"
   id="tspan363"> Willem Sonke, Moini, Hali, CGand, Alex Gryson</tspan>.</tspan><tspan
         y="-1255.6342"
         x="1247.2169"
         style="color:#000000;font-style:normal;font-variant:normal;font-weight:normal;font-stretch:normal;font-size:39.6062px;line-height:125%;font-family:Lavi;-inkscape-font-specification:Lavi;text-indent:0;text-align:center;text-decoration:none;text-decoration-line:none;letter-spacing:0px;word-spacing:0px;text-transform:none;writing-mode:lr-tb;direction:ltr;baseline-shift:baseline;text-anchor:middle;display:inline;overflow:visible;visibility:visible;fill:#060404;fill-opacity:1;fill-rule:nonzero;stroke:none;stroke-width:1.03334;enable-background:accumulate"
         sodipodi:role="line"
         id="tspan1052"> </tspan><tspan
         y="-1238.6174"
         x="1247.2169"
         sodipodi:role="line"
         id="tspan995"
         style="stroke-width:1.03334" /><tspan
         y="-1210.6017"
         x="1247.2169"
         style="color:#000000;font-style:normal;font-variant:normal;font-weight:bold;font-stretch:normal;font-size:34.6553px;line-height:125%;font-family:Lavi;-inkscape-font-specification:'Lavi Bold';text-indent:0;text-align:center;text-decoration:none;text-decoration-line:none;letter-spacing:0px;word-spacing:0px;text-transform:none;writing-mode:lr-tb;direction:ltr;baseline-shift:baseline;text-anchor:middle;display:inline;overflow:visible;visibility:visible;fill:#060404;fill-opacity:1;fill-rule:nonzero;stroke:none;stroke-width:1.03334;enable-background:accumulate"
         sodipodi:role="line"
         id="tspan4134">Programaro : <tspan
   style="font-style:normal;font-variant:normal;font-weight:normal;font-stretch:normal;font-family:Lavi;-inkscape-font-specification:Lavi;stroke-width:1.03334"
   id="tspan4155">Krita 4.4.1, Inkscape 1.0.2 sur Kubuntu Linux 20.04.</tspan></tspan><tspan
         y="-1167.2826"
         x="1247.2169"
         style="color:#000000;font-style:normal;font-variant:normal;font-weight:bold;font-stretch:normal;font-size:34.6553px;line-height:125%;font-family:Lavi;-inkscape-font-specification:'Lavi Bold';text-indent:0;text-align:center;text-decoration:none;text-decoration-line:none;letter-spacing:0px;word-spacing:0px;text-transform:none;writing-mode:lr-tb;direction:ltr;baseline-shift:baseline;text-anchor:middle;display:inline;overflow:visible;visibility:visible;fill:#060404;fill-opacity:1;fill-rule:nonzero;stroke:none;stroke-width:1.03334;enable-background:accumulate"
         sodipodi:role="line"
         id="tspan4152">Permesilo : <tspan
   style="font-style:normal;font-variant:normal;font-weight:normal;font-stretch:normal;font-family:Lavi;-inkscape-font-specification:Lavi;stroke-width:1.03334"
   id="tspan4136">Krea Komunaĵo Atribuite 4.0.</tspan></tspan><tspan
         y="-1123.9635"
         x="1247.2169"
         style="color:#000000;font-style:normal;font-variant:normal;font-weight:bold;font-stretch:normal;font-size:34.6553px;line-height:125%;font-family:Lavi;-inkscape-font-specification:'Lavi Bold';text-indent:0;text-align:center;text-decoration:none;text-decoration-line:none;letter-spacing:0px;word-spacing:0px;text-transform:none;writing-mode:lr-tb;direction:ltr;baseline-shift:baseline;text-anchor:middle;display:inline;overflow:visible;visibility:visible;fill:#060404;fill-opacity:1;fill-rule:nonzero;stroke:none;stroke-width:1.03334;enable-background:accumulate"
         sodipodi:role="line"
         id="tspan1008" /><tspan
         y="-1080.6444"
         x="1247.2169"
         style="color:#000000;font-style:normal;font-variant:normal;font-weight:bold;font-stretch:normal;font-size:34.6553px;line-height:125%;font-family:Lavi;-inkscape-font-specification:'Lavi Bold';text-indent:0;text-align:center;text-decoration:none;text-decoration-line:none;letter-spacing:0px;word-spacing:0px;text-transform:none;writing-mode:lr-tb;direction:ltr;baseline-shift:baseline;text-anchor:middle;display:inline;overflow:visible;visibility:visible;fill:#060404;fill-opacity:1;fill-rule:nonzero;stroke:none;stroke-width:1.03334;enable-background:accumulate"
         sodipodi:role="line"
         id="tspan1010" /><tspan
         y="-1032.8499"
         x="1247.2169"
         style="color:#000000;font-style:normal;font-variant:normal;font-weight:normal;font-stretch:normal;font-size:39.6062px;line-height:125%;font-family:Lavi;-inkscape-font-specification:Lavi;text-indent:0;text-align:center;text-decoration:none;text-decoration-line:none;letter-spacing:0px;word-spacing:0px;text-transform:none;writing-mode:lr-tb;direction:ltr;baseline-shift:baseline;text-anchor:middle;display:inline;overflow:visible;visibility:visible;fill:#060404;fill-opacity:1;fill-rule:nonzero;stroke:none;stroke-width:1.03334;enable-background:accumulate"
         sodipodi:role="line"
         id="tspan842">www.peppercarrot.com</tspan></text>
    <g
       id="layer1-8"
       inkscape:label="Layer 1"
       transform="matrix(2.2032985,0,0,2.2032985,1111.8363,-1163.216)"
       style="opacity:0.607;stroke-width:0.453865">
      <g
         inkscape:export-ydpi="300.23013"
         inkscape:export-xdpi="300.23013"
         inkscape:export-filename="/mnt/hgfs/Bov/Documents/Work/2007/cc/identity/srr buttons/big/by.png"
         id="g260"
         transform="matrix(0.9937728,0,0,0.9936696,-177.69267,6.25128e-7)"
         style="stroke-width:0.453865">
        <path
           style="fill:#aab2ab;stroke-width:0.453865"
           d="m 181.96579,0.51074 114.06396,0.20264 c 1.59375,0 3.01758,-0.23633 3.01758,3.18066 l -0.13965,37.56689 H 179.08737 V 3.75439 c 0,-1.68505 0.16309,-3.24365 2.87842,-3.24365 z"
           nodetypes="ccccccc"
           id="path3817_1_"
           inkscape:connector-curvature="0" />
        <path
           id="path263"
           d="m 297.29636,0 h -116.229 c -1.24658,0 -2.26123,1.01416 -2.26123,2.26074 v 39.49658 c 0,0.28174 0.229,0.51025 0.51074,0.51025 h 119.73047 c 0.28174,0 0.51074,-0.22852 0.51074,-0.51025 V 2.26074 C 299.55807,1.01416 298.54343,0 297.29636,0 Z M 181.06735,1.02148 h 116.229 c 0.68408,0 1.24023,0.55566 1.24023,1.23926 0,0 0,15.94824 0,27.44971 h -83.34424 c -3.04492,5.50586 -8.91113,9.24414 -15.64355,9.24414 -6.73535,0 -12.6001,-3.73486 -15.64355,-9.24414 h -4.07764 c 0,-11.50146 0,-27.44971 0,-27.44971 1e-5,-0.68359 0.55616,-1.23926 1.23975,-1.23926 z"
           inkscape:connector-curvature="0"
           style="stroke-width:0.453865" />
        <g
           id="g265"
           enable-background="new    "
           style="stroke-width:0.453865">
          <path
             style="fill:#ffffff;stroke-width:0.453865"
             id="path267"
             d="m 253.07761,32.95605 c 0.31738,0 0.60742,0.02832 0.87012,0.08398 0.26172,0.05566 0.48535,0.14746 0.67285,0.27539 0.18652,0.12695 0.33203,0.29688 0.43457,0.50781 0.10254,0.21191 0.1543,0.47266 0.1543,0.78418 0,0.33594 -0.0762,0.61523 -0.22949,0.83887 -0.15234,0.22461 -0.37891,0.40723 -0.67773,0.55078 0.41211,0.11816 0.71973,0.3252 0.92285,0.62109 0.20312,0.29589 0.30469,0.65234 0.30469,1.06934 0,0.33594 -0.0654,0.62695 -0.19629,0.87305 -0.13086,0.24512 -0.30762,0.44629 -0.52832,0.60156 -0.22168,0.15625 -0.47461,0.27148 -0.75781,0.3457 -0.28418,0.0752 -0.5752,0.1123 -0.875,0.1123 H 249.936 v -6.66406 h 3.14161 z m -0.1875,2.69532 c 0.26172,0 0.47656,-0.0625 0.64551,-0.18652 0.16797,-0.12402 0.25195,-0.3252 0.25195,-0.60449 0,-0.15527 -0.0283,-0.2832 -0.084,-0.38184 -0.0566,-0.09961 -0.13086,-0.17676 -0.22461,-0.2334 -0.0937,-0.05566 -0.20117,-0.09473 -0.32227,-0.11621 -0.1211,-0.02148 -0.24805,-0.03223 -0.37793,-0.03223 h -1.37402 v 1.55469 z m 0.0859,2.82812 c 0.14355,0 0.28027,-0.01367 0.41113,-0.04199 0.13086,-0.02832 0.24609,-0.0752 0.34668,-0.13965 0.0996,-0.06543 0.17871,-0.1543 0.23828,-0.2666 0.0596,-0.11133 0.0889,-0.25488 0.0889,-0.42871 0,-0.3418 -0.0967,-0.58594 -0.29004,-0.73242 -0.19336,-0.14551 -0.44922,-0.21875 -0.7666,-0.21875 h -1.59961 v 1.82812 z"
             inkscape:connector-curvature="0" />
          <path
             style="fill:#ffffff;stroke-width:0.453865"
             id="path269"
             d="m 255.78854,32.95605 h 1.64355 l 1.56055,2.63184 1.55078,-2.63184 h 1.63379 l -2.47363,4.10645 v 2.55762 h -1.46875 v -2.59473 z"
             inkscape:connector-curvature="0" />
        </g>
        <g
           transform="matrix(0.872921,0,0,0.872921,50.12536,143.2144)"
           id="g5908_1_"
           style="stroke-width:0.453865">
          <path
             style="fill:#ffffff;stroke-width:0.453865"
             d="m 186.90065,-141.46002 c 0.006,8.68079 -7.02786,15.7215 -15.70808,15.72711 -8.68022,0.006 -15.72206,-7.02734 -15.7271,-15.70807 0,-0.006 0,-0.0123 0,-0.019 -0.005,-8.68079 7.02786,-15.7215 15.70808,-15.72656 8.68135,-0.006 15.72206,7.02734 15.7271,15.70813 0,0.006 0,0.0123 0,0.0184 z"
             rx="22.939548"
             type="arc"
             cy="264.3577"
             ry="22.939548"
             cx="296.35416"
             id="path5906_1_"
             inkscape:connector-curvature="0" />
          <g
             transform="translate(-289.6157,99.0653)"
             id="g5706_1_"
             style="stroke-width:0.453865">
            <path
               d="m 473.57574,-253.32751 c 3.48541,3.48541 5.22839,7.75391 5.22839,12.80219 0,5.04938 -1.71277,9.27203 -5.13831,12.66791 -3.63531,3.5766 -7.93182,5.36432 -12.88947,5.36432 -4.89777,0 -9.11987,-1.77319 -12.66513,-5.31952 -3.54581,-3.54584 -5.31845,-7.78302 -5.31845,-12.71271 0,-4.92859 1.77264,-9.19598 5.31845,-12.80219 3.4552,-3.48651 7.67728,-5.22949 12.66513,-5.22949 5.0483,-10e-6 9.31404,1.74297 12.79939,5.22949 z m -23.11798,2.34484 c -2.94672,2.97638 -4.41953,6.46289 -4.41953,10.46234 0,3.99835 1.45828,7.45526 4.37424,10.37067 2.9165,2.9165 6.38849,4.37421 10.41705,4.37421 4.02856,0 7.53015,-1.47223 10.50653,-4.4184 2.82593,-2.73645 4.23944,-6.17706 4.23944,-10.32648 0,-4.11804 -1.43646,-7.61346 -4.30768,-10.48468 -2.87067,-2.87067 -6.34991,-4.30658 -10.43829,-4.30658 -4.0884,1e-5 -7.54638,1.44318 -10.37176,4.32892 z m 7.75449,8.70319 c -0.45029,-0.98169 -1.1243,-1.47284 -2.02322,-1.47284 -1.58917,0 -2.38345,1.07007 -2.38345,3.20911 0,2.13953 0.79428,3.2085 2.38345,3.2085 1.04938,0 1.79892,-0.52075 2.24866,-1.56451 l 2.20276,1.17297 c -1.04993,1.86548 -2.62509,2.79846 -4.72549,2.79846 -1.6199,0 -2.91763,-0.4967 -3.89206,-1.48901 -0.9761,-0.99341 -1.46274,-2.36273 -1.46274,-4.10852 0,-1.71503 0.50229,-3.07654 1.50748,-4.08502 1.00519,-1.00854 2.25702,-1.51257 3.75781,-1.51257 2.22012,0 3.80981,0.87488 4.77081,2.62286 z m 10.36337,0 c -0.45087,-0.98169 -1.11145,-1.47284 -1.98242,-1.47284 -1.62103,0 -2.43213,1.07007 -2.43213,3.20911 0,2.13953 0.8111,3.2085 2.43213,3.2085 1.05109,0 1.78717,-0.52075 2.20728,-1.56451 l 2.25201,1.17297 c -1.04828,1.86548 -2.62122,2.79846 -4.71771,2.79846 -1.61768,0 -2.9126,-0.4967 -3.88647,-1.48901 -0.97217,-0.99341 -1.45935,-2.36273 -1.45935,-4.10852 0,-1.71503 0.49445,-3.07654 1.48285,-4.08502 0.98785,-1.00854 2.2453,-1.51257 3.7735,-1.51257 2.21619,0 3.80365,0.87488 4.76129,2.62286 z"
               id="path5708_1_"
               inkscape:connector-curvature="0"
               style="stroke-width:0.453865" />
          </g>
        </g>
        <g
           id="g275"
           style="stroke-width:0.453865">
          <circle
             style="fill:#ffffff;stroke-width:0.453865"
             id="circle277"
             r="10.80664"
             cy="15.31348"
             cx="255.55124" />
          <g
             id="g279"
             style="stroke-width:0.453865">
            <path
               id="path281"
               d="m 258.67819,12.18701 c 0,-0.4165 -0.33789,-0.75391 -0.75293,-0.75391 h -4.77344 c -0.41504,0 -0.75293,0.3374 -0.75293,0.75391 v 4.77295 h 1.33105 v 5.65186 h 3.61719 v -5.65186 h 1.33105 v -4.77295 z"
               inkscape:connector-curvature="0"
               style="stroke-width:0.453865" />
            <circle
               id="circle283"
               r="1.63281"
               cy="9.1723604"
               cx="255.53854"
               style="stroke-width:0.453865" />
          </g>
          <path
             style="clip-rule:evenodd;fill-rule:evenodd;stroke-width:0.453865"
             id="path285"
             d="m 255.5239,3.40723 c -3.23242,0 -5.96875,1.12793 -8.20801,3.38379 -2.29785,2.3335 -3.44629,5.0957 -3.44629,8.28467 0,3.18897 1.14844,5.93164 3.44629,8.22656 2.29785,2.29443 5.03418,3.44189 8.20801,3.44189 3.21289,0 5.99805,-1.15625 8.35352,-3.47119 2.21973,-2.19727 3.33008,-4.92969 3.33008,-8.19727 0,-3.26758 -1.12988,-6.02881 -3.3877,-8.28467 -2.25977,-2.25585 -5.02442,-3.38378 -8.2959,-3.38378 z m 0.0293,2.09961 c 2.64844,0 4.89746,0.93408 6.74707,2.80127 1.86914,1.84717 2.80371,4.10303 2.80371,6.76758 0,2.68359 -0.91504,4.91064 -2.74512,6.68018 -1.92871,1.90625 -4.19629,2.85889 -6.80566,2.85889 -2.61035,0 -4.85938,-0.94287 -6.74707,-2.82959 -1.88965,-1.88672 -2.83301,-4.12305 -2.83301,-6.70947 0,-2.58691 0.9541,-4.84229 2.8623,-6.76758 1.83009,-1.8672 4.06934,-2.80128 6.71778,-2.80128 z"
             inkscape:connector-curvature="0" />
        </g>
      </g>
    </g>
    <text
       xml:space="preserve"
       style="font-style:normal;font-variant:normal;font-weight:normal;font-stretch:normal;font-size:17.1362px;line-height:0%;font-family:Arial;-inkscape-font-specification:Arial;text-align:center;letter-spacing:0px;word-spacing:0px;text-anchor:middle;display:inline;opacity:0.855;fill:#000000;fill-opacity:1;stroke:none;stroke-width:1;filter:url(#filter4155)"
       x="1170.2362"
       y="-908.4812"
       id="text4162-7-8"
       transform="scale(0.96265764,1.0387909)"><tspan
         sodipodi:role="line"
         x="1170.2362"
         y="-908.4812"
         style="font-style:normal;font-variant:normal;font-weight:normal;font-stretch:normal;font-size:46.1462px;line-height:1.25;font-family:Lavi;-inkscape-font-specification:Lavi;fill:#000000;fill-opacity:1;stroke-width:1"
         id="tspan416">Ĉu vi</tspan><tspan
         sodipodi:role="line"
         x="1170.2362"
         y="-850.79846"
         style="font-style:normal;font-variant:normal;font-weight:normal;font-stretch:normal;font-size:46.1462px;line-height:1.25;font-family:Lavi;-inkscape-font-specification:Lavi;fill:#000000;fill-opacity:1;stroke-width:1"
         id="tspan1001">sciis ?</tspan></text>
    <text
       xml:space="preserve"
       style="font-style:normal;font-variant:normal;font-weight:normal;font-stretch:normal;font-size:15.039px;line-height:0%;font-family:Arial;-inkscape-font-specification:Arial;text-align:center;letter-spacing:0px;word-spacing:0px;text-anchor:middle;display:inline;opacity:0.855;fill:#000000;fill-opacity:1;stroke:none;stroke-width:1.01246;filter:url(#filter4155)"
       x="1530.1412"
       y="-880.44263"
       id="text4162-7"
       transform="scale(0.9746522,1.026007)"><tspan
         sodipodi:role="line"
         x="1530.1412"
         y="-880.44263"
         style="font-style:normal;font-variant:normal;font-weight:normal;font-stretch:normal;font-size:40.4984px;line-height:1.25;font-family:Lavi;-inkscape-font-specification:Lavi;fill:#000000;fill-opacity:1;stroke-width:1.01246"
         id="tspan4166-5">Pepper&amp;Carrot estas</tspan><tspan
         sodipodi:role="line"
         x="1530.1412"
         y="-829.81964"
         style="font-style:normal;font-variant:normal;font-weight:normal;font-stretch:normal;font-size:40.4984px;line-height:1.25;font-family:Lavi;-inkscape-font-specification:Lavi;fill:#000000;fill-opacity:1;stroke-width:1.01246"
         id="tspan1630">tute libera, senpaga,</tspan><tspan
         sodipodi:role="line"
         x="1530.1412"
         y="-779.19659"
         style="font-style:normal;font-variant:normal;font-weight:normal;font-stretch:normal;font-size:40.4984px;line-height:1.25;font-family:Lavi;-inkscape-font-specification:Lavi;fill:#000000;fill-opacity:1;stroke-width:1.01246"
         id="tspan1003">malfermitkoda, kaj subtenata</tspan><tspan
         sodipodi:role="line"
         x="1530.1412"
         y="-728.57361"
         style="font-style:normal;font-variant:normal;font-weight:normal;font-stretch:normal;font-size:40.4984px;line-height:1.25;font-family:Lavi;-inkscape-font-specification:Lavi;fill:#000000;fill-opacity:1;stroke-width:1.01246"
         id="tspan862">de siaj mecenataj legantoj.</tspan></text>
    <text
       xml:space="preserve"
       style="font-style:normal;font-variant:normal;font-weight:normal;font-stretch:normal;font-size:18.4113px;line-height:0%;font-family:Arial;-inkscape-font-specification:Arial;text-align:center;letter-spacing:0px;word-spacing:0px;text-anchor:middle;display:inline;opacity:0.855;fill:#000000;fill-opacity:1;stroke:none;stroke-width:1;filter:url(#filter4155)"
       x="2022.3665"
       y="-780.14758"
       id="text4162-7-3"
       transform="scale(0.97948259,1.0209472)"><tspan
         sodipodi:role="line"
         x="2022.3665"
         y="-780.14758"
         style="font-style:normal;font-variant:normal;font-weight:normal;font-stretch:normal;font-size:49.5799px;line-height:1.25;font-family:Lavi;-inkscape-font-specification:Lavi;fill:#000000;fill-opacity:1;stroke-width:1"
         id="tspan1668">Ĉi tiu ĉapitro</tspan><tspan
         sodipodi:role="line"
         x="2022.3665"
         y="-718.17273"
         style="font-style:normal;font-variant:normal;font-weight:normal;font-stretch:normal;font-size:49.5799px;line-height:1.25;font-family:Lavi;-inkscape-font-specification:Lavi;fill:#000000;fill-opacity:1;stroke-width:1"
         id="tspan1013">ricevis subtenon de</tspan><tspan
         sodipodi:role="line"
         x="2022.3665"
         y="-656.19781"
         style="font-style:normal;font-variant:normal;font-weight:normal;font-stretch:normal;font-size:49.5799px;line-height:1.25;font-family:Lavi;-inkscape-font-specification:Lavi;fill:#000000;fill-opacity:1;stroke-width:1"
         id="tspan1670">1096 mecenatoj !</tspan></text>
    <text
       xml:space="preserve"
       style="font-style:normal;font-variant:normal;font-weight:normal;font-stretch:normal;font-size:17.1021px;line-height:0%;font-family:Arial;-inkscape-font-specification:Arial;text-align:center;letter-spacing:0px;word-spacing:0px;text-anchor:middle;display:inline;opacity:0.855;fill:#000000;fill-opacity:1;stroke:none;stroke-width:1;filter:url(#filter4155)"
       x="580.71674"
       y="3348.5134"
       id="text4221-3"
       transform="scale(0.99748275,1.0025236)"><tspan
         sodipodi:role="line"
         x="580.71674"
         y="3348.5134"
         style="font-style:normal;font-variant:normal;font-weight:normal;font-stretch:normal;font-size:48px;line-height:1.25;font-family:Lavi;-inkscape-font-specification:Lavi;fill:#000000;fill-opacity:1;stroke-width:1"
         id="tspan1759">Vi ankaŭ povas</tspan><tspan
         sodipodi:role="line"
         x="580.71674"
         y="3408.5134"
         style="font-style:normal;font-variant:normal;font-weight:normal;font-stretch:normal;font-size:48px;line-height:1.25;font-family:Lavi;-inkscape-font-specification:Lavi;fill:#000000;fill-opacity:1;stroke-width:1"
         id="tspan1017">iĝi mecenato de</tspan><tspan
         sodipodi:role="line"
         x="580.71674"
         y="3468.5134"
         style="font-style:normal;font-variant:normal;font-weight:normal;font-stretch:normal;font-size:48px;line-height:1.25;font-family:Lavi;-inkscape-font-specification:Lavi;fill:#000000;fill-opacity:1;stroke-width:1"
         id="tspan1763">Pepper&amp;Carrot</tspan><tspan
         sodipodi:role="line"
         x="580.71674"
         y="3528.5134"
         style="font-style:normal;font-variant:normal;font-weight:normal;font-stretch:normal;font-size:48px;line-height:1.25;font-family:Lavi;-inkscape-font-specification:Lavi;fill:#000000;fill-opacity:1;stroke-width:1"
         id="tspan418">kaj <tspan
   style="font-style:normal;font-variant:normal;font-weight:bold;font-stretch:normal;font-family:Lavi;-inkscape-font-specification:'Lavi Bold';fill:#000000;fill-opacity:1"
   id="tspan4132">havi vian nomon</tspan></tspan><tspan
         sodipodi:role="line"
         x="580.71674"
         y="3588.5134"
         style="font-style:normal;font-variant:normal;font-weight:bold;font-stretch:normal;font-size:48px;line-height:1.25;font-family:Lavi;-inkscape-font-specification:'Lavi Bold';fill:#000000;fill-opacity:1;stroke-width:1"
         id="tspan1761">skribita tie !</tspan></text>
    <text
       xml:space="preserve"
       style="font-style:normal;font-variant:normal;font-weight:normal;font-stretch:normal;font-size:13.9604px;line-height:0%;font-family:Arial;-inkscape-font-specification:Arial;text-align:center;letter-spacing:0px;word-spacing:0px;text-anchor:middle;display:inline;opacity:0.855;fill:#181412;fill-opacity:1;stroke:none;stroke-width:1;filter:url(#filter4155)"
       x="1011.5229"
       y="3400.583"
       id="text4221-3-4"><tspan
         sodipodi:role="line"
         x="1011.5229"
         y="3400.583"
         style="font-style:normal;font-variant:normal;font-weight:normal;font-stretch:normal;font-size:37.3333px;line-height:1.25;font-family:Lavi;-inkscape-font-specification:Lavi;fill:#181412;fill-opacity:1;stroke-width:1"
         id="tspan1763-5">Ni estas en</tspan><tspan
         sodipodi:role="line"
         x="1011.5229"
         y="3447.2498"
         style="font-style:normal;font-variant:normal;font-weight:normal;font-stretch:normal;font-size:37.3333px;line-height:1.25;font-family:Lavi;-inkscape-font-specification:Lavi;fill:#181412;fill-opacity:1;stroke-width:1"
         id="tspan1872">Patreon, Tipeee,</tspan><tspan
         sodipodi:role="line"
         x="1011.5229"
         y="3493.9163"
         style="font-style:normal;font-variant:normal;font-weight:normal;font-stretch:normal;font-size:37.3333px;line-height:1.25;font-family:Lavi;-inkscape-font-specification:Lavi;fill:#181412;fill-opacity:1;stroke-width:1"
         id="tspan1874">PayPal, Liberapay</tspan><tspan
         sodipodi:role="line"
         x="1011.5229"
         y="3540.583"
         style="font-style:normal;font-variant:normal;font-weight:normal;font-stretch:normal;font-size:37.3333px;line-height:1.25;font-family:Lavi;-inkscape-font-specification:Lavi;fill:#181412;fill-opacity:1;stroke-width:1"
         id="tspan1761-7">... kaj aliaj !</tspan></text>
    <text
       xml:space="preserve"
       style="font-style:normal;font-variant:normal;font-weight:normal;font-stretch:normal;line-height:0%;font-family:Arial;-inkscape-font-specification:Arial;text-align:center;letter-spacing:0px;word-spacing:0px;text-anchor:middle;display:inline;opacity:0.855;fill:#100e0c;fill-opacity:1;stroke:none;filter:url(#filter4155)"
       x="1411.3262"
       y="3486.6992"
       id="text4221-3-9"><tspan
         sodipodi:role="line"
         x="1411.3262"
         y="3486.6992"
         style="font-style:normal;font-variant:normal;font-weight:normal;font-stretch:normal;font-size:37.3333px;line-height:1;font-family:Lavi;-inkscape-font-specification:Lavi;fill:#100e0c;fill-opacity:1"
         id="tspan1763-3">Venu al</tspan><tspan
         sodipodi:role="line"
         x="1411.3262"
         y="3528.6992"
         style="font-style:normal;font-variant:normal;font-weight:normal;font-stretch:normal;font-size:37.3333px;line-height:1.25;font-family:Lavi;-inkscape-font-specification:Lavi;fill:#100e0c;fill-opacity:1"
         id="tspan1807">www.peppercarrot.com</tspan><tspan
         sodipodi:role="line"
         x="1411.3262"
         y="3575.3657"
         style="font-style:normal;font-variant:normal;font-weight:normal;font-stretch:normal;font-size:37.3333px;line-height:1.25;font-family:Lavi;-inkscape-font-specification:Lavi;fill:#100e0c;fill-opacity:1"
         id="tspan1761-2">por pli da informoj !</tspan></text>
    <text
       xml:space="preserve"
       style="font-style:normal;font-variant:normal;font-weight:normal;font-stretch:normal;font-size:10.3367px;line-height:0%;font-family:Arial;-inkscape-font-specification:Arial;text-align:center;letter-spacing:0px;word-spacing:0px;text-anchor:middle;display:inline;opacity:0.855;fill:#000000;fill-opacity:1;stroke:none;stroke-width:1;filter:url(#filter4155)"
       x="2199.4309"
       y="3710.0959"
       id="text4221-3-9-3"><tspan
         sodipodi:role="line"
         x="2199.4309"
         y="3710.0959"
         style="font-style:normal;font-variant:normal;font-weight:normal;font-stretch:normal;font-size:32px;line-height:1.25;font-family:Lavi;-inkscape-font-specification:Lavi;fill:#000000;fill-opacity:1;stroke-width:1"
         id="tspan1838-7">Dankon !</tspan><tspan
         sodipodi:role="line"
         x="2199.4309"
         y="3723.6199"
         id="tspan1761-2-2" /></text>
    <text
       xml:space="preserve"
       style="font-style:normal;font-variant:normal;font-weight:normal;font-stretch:normal;line-height:0%;font-family:Lavi;-inkscape-font-specification:Lavi;text-align:center;letter-spacing:0px;word-spacing:0px;text-anchor:middle;fill:#000000;fill-opacity:1;stroke:none"
       x="1258.3041"
       y="-504.4682"
       id="text4246-42" />
    <text
       xml:space="preserve"
       style="color:#000000;font-style:normal;font-variant:normal;font-weight:normal;font-stretch:normal;line-height:0%;font-family:Lavi;-inkscape-font-specification:Lavi;text-indent:0;text-align:center;text-decoration:none;text-decoration-line:none;letter-spacing:0px;word-spacing:0px;text-transform:none;writing-mode:lr-tb;direction:ltr;baseline-shift:baseline;text-anchor:middle;display:inline;overflow:visible;visibility:visible;opacity:0.855;fill:#020101;fill-opacity:1;fill-rule:nonzero;stroke:none;enable-background:accumulate"
       x="1991.2159"
       y="-910.79004"
       id="text4246-42-4" />
    <text
       xml:space="preserve"
       style="font-style:normal;font-variant:normal;font-weight:normal;font-stretch:normal;line-height:0%;font-family:Arial;-inkscape-font-specification:Arial;text-align:center;letter-spacing:0px;word-spacing:0px;text-anchor:middle;display:inline;opacity:0.855;fill:#000000;fill-opacity:1;stroke:none"
       x="1261.562"
       y="-551.26312"
       id="text4229" />
    <text
       id="text4179"
       y="-1150.819"
       x="1280.0332"
       style="font-style:normal;font-variant:normal;font-weight:normal;font-stretch:normal;line-height:0%;font-family:Arial;-inkscape-font-specification:Arial;text-align:center;letter-spacing:0px;word-spacing:0px;text-anchor:middle;display:inline;opacity:0.855;fill:#241c1c;fill-opacity:1;stroke:none"
       xml:space="preserve" />
    <text
       id="text4151-0"
       y="-1312.6042"
       x="524.67108"
       style="color:#000000;font-style:normal;font-variant:normal;font-weight:normal;font-stretch:normal;font-size:18.3026px;line-height:0%;font-family:Lavi;-inkscape-font-specification:Lavi;text-indent:0;text-align:center;text-decoration:none;text-decoration-line:none;letter-spacing:0px;word-spacing:0px;text-transform:none;writing-mode:lr-tb;direction:ltr;baseline-shift:baseline;text-anchor:middle;display:inline;overflow:visible;visibility:visible;opacity:0.855;fill:#060404;fill-opacity:1;fill-rule:nonzero;stroke:none;stroke-width:1.11319;enable-background:accumulate"
       xml:space="preserve"
       transform="scale(1.0032295,0.9967809)" />
  </g>
  <g
     inkscape:groupmode="layer"
     id="layer4"
     inkscape:label="notes"
     style="opacity:0.557"
     transform="translate(0,850)">
    <path
       style="color:#000000;clip-rule:nonzero;display:inline;overflow:visible;visibility:visible;opacity:1;isolation:auto;mix-blend-mode:normal;color-interpolation:sRGB;color-interpolation-filters:linearRGB;solid-color:#000000;solid-opacity:1;fill:#fff3c0;fill-opacity:1;fill-rule:nonzero;stroke:#565656;stroke-width:1.31302;stroke-linecap:butt;stroke-linejoin:miter;stroke-miterlimit:4;stroke-dasharray:none;stroke-dashoffset:0;stroke-opacity:1;marker:none;color-rendering:auto;image-rendering:auto;shape-rendering:auto;text-rendering:auto;enable-background:accumulate"
       d="m -574.62969,-488.90204 v 348.52795 h 504.872027 v -295.00919 l 17.165383,-15.34704 -17.165383,-11.92212 v -26.2496 z"
       id="rect4191-6"
       inkscape:connector-curvature="0"
       sodipodi:nodetypes="cccccccc" />
    <path
       sodipodi:nodetypes="ccccc"
       inkscape:connector-curvature="0"
       id="path1126"
       d="m -574.6862,-896.69633 v 112.14884 h 504.985045 v -112.14884 z"
       style="color:#000000;clip-rule:nonzero;display:inline;overflow:visible;visibility:visible;opacity:1;isolation:auto;mix-blend-mode:normal;color-interpolation:sRGB;color-interpolation-filters:linearRGB;solid-color:#000000;solid-opacity:1;fill:#fff3c0;fill-opacity:1;fill-rule:nonzero;stroke:#565656;stroke-width:1.2;stroke-linecap:butt;stroke-linejoin:miter;stroke-miterlimit:4;stroke-dasharray:none;stroke-dashoffset:0;stroke-opacity:1;marker:none;color-rendering:auto;image-rendering:auto;shape-rendering:auto;text-rendering:auto;enable-background:accumulate" />
    <flowRoot
       transform="matrix(1.1072392,0,0,1.1072392,-152.13883,-2058.9618)"
       style="font-style:normal;font-variant:normal;font-weight:normal;font-stretch:normal;font-size:32.5133px;line-height:0.01%;font-family:Lavi;-inkscape-font-specification:'Lavi, Normal';font-variant-ligatures:normal;font-variant-caps:normal;font-variant-numeric:normal;font-feature-settings:normal;text-align:start;letter-spacing:0px;word-spacing:0px;writing-mode:lr-tb;text-anchor:start;display:inline;opacity:0.86;fill:#000000;fill-opacity:1;stroke:none;stroke-width:0.903147px;stroke-linecap:butt;stroke-linejoin:miter;stroke-opacity:1"
       id="flowRoot1089"
       xml:space="preserve"><flowRegion
         style="font-style:normal;font-variant:normal;font-weight:normal;font-stretch:normal;font-size:32.5133px;font-family:Lavi;-inkscape-font-specification:'Lavi, Normal';font-variant-ligatures:normal;font-variant-caps:normal;font-variant-numeric:normal;font-feature-settings:normal;text-align:start;writing-mode:lr-tb;text-anchor:start;stroke-width:0.903147px"
         id="flowRegion1067"><rect
           style="font-style:normal;font-variant:normal;font-weight:normal;font-stretch:normal;font-size:32.51329803px;font-family:Lavi;-inkscape-font-specification:'Lavi, Normal';font-variant-ligatures:normal;font-variant-caps:normal;font-variant-numeric:normal;font-feature-settings:normal;text-align:start;writing-mode:lr-tb;text-anchor:start;stroke-width:0.90314716px"
           y="1061.6674"
           x="-275.14545"
           height="150.45786"
           width="328.94995"
           id="rect1065" /></flowRegion><flowPara
         id="flowPara1087"
         style="font-style:normal;font-variant:normal;font-weight:normal;font-stretch:normal;font-size:32.5133px;line-height:1.25;font-family:Lavi;-inkscape-font-specification:'Lavi, Normal';font-variant-ligatures:normal;font-variant-caps:normal;font-variant-numeric:normal;font-feature-settings:normal;text-align:start;writing-mode:lr-tb;text-anchor:start;stroke-width:0.903147px">You can also translate</flowPara><flowPara
         style="font-style:normal;font-variant:normal;font-weight:normal;font-stretch:normal;font-size:32.5133px;line-height:1.25;font-family:Lavi;-inkscape-font-specification:'Lavi, Normal';font-variant-ligatures:normal;font-variant-caps:normal;font-variant-numeric:normal;font-feature-settings:normal;text-align:start;writing-mode:lr-tb;text-anchor:start;stroke-width:0.903147px"
         id="flowPara1115">this page if you want.</flowPara></flowRoot>
    <rect
       ry="6.828125"
       rx="6.828125"
       y="-872.45648"
       x="-550.34448"
       height="40.609375"
       width="40.609375"
       id="rect1119"
       style="opacity:1;vector-effect:none;fill:#ffffff;fill-opacity:1;fill-rule:nonzero;stroke:#565656;stroke-width:2;stroke-linecap:butt;stroke-linejoin:miter;stroke-miterlimit:4;stroke-dasharray:none;stroke-dashoffset:0;stroke-opacity:1;paint-order:fill markers stroke" />
    <flowRoot
       xml:space="preserve"
       id="flowRoot4212-7"
       style="font-style:normal;font-variant:normal;font-weight:normal;font-stretch:normal;font-size:32.5133px;line-height:0.01%;font-family:Lavi;-inkscape-font-specification:'Lavi, Normal';font-variant-ligatures:normal;font-variant-caps:normal;font-variant-numeric:normal;font-feature-settings:normal;text-align:center;letter-spacing:0px;word-spacing:0px;writing-mode:lr-tb;text-anchor:middle;display:inline;opacity:0.86;fill:#000000;fill-opacity:1;stroke:none;stroke-width:0.903147px;stroke-linecap:butt;stroke-linejoin:miter;stroke-opacity:1"
       transform="matrix(1.1072392,0,0,1.1072392,-254.26383,-1642.0391)"><flowRegion
         id="flowRegion4214-5"
         style="font-style:normal;font-variant:normal;font-weight:normal;font-stretch:normal;font-size:32.5133px;font-family:Lavi;-inkscape-font-specification:'Lavi, Normal';font-variant-ligatures:normal;font-variant-caps:normal;font-variant-numeric:normal;font-feature-settings:normal;text-align:center;writing-mode:lr-tb;text-anchor:middle;stroke-width:0.903147px"><rect
           id="rect4216-3"
           width="426.3205"
           height="405.5687"
           x="-275.14545"
           y="1061.6674"
           style="font-style:normal;font-variant:normal;font-weight:normal;font-stretch:normal;font-size:32.51329803px;font-family:Lavi;-inkscape-font-specification:'Lavi, Normal';font-variant-ligatures:normal;font-variant-caps:normal;font-variant-numeric:normal;font-feature-settings:normal;text-align:center;writing-mode:lr-tb;text-anchor:middle;stroke-width:0.90314716px" /></flowRegion><flowPara
         style="font-style:normal;font-variant:normal;font-weight:bold;font-stretch:normal;font-size:24.0839px;line-height:1.25;font-family:Lavi;-inkscape-font-specification:'Lavi, Normal';font-variant-ligatures:normal;font-variant-caps:normal;font-variant-numeric:normal;font-feature-settings:normal;text-align:center;writing-mode:lr-tb;text-anchor:middle;stroke-width:0.903147px"
         id="flowPara885">NOTE FOR TRANSLATORS</flowPara><flowPara
         style="font-style:normal;font-variant:normal;font-weight:normal;font-stretch:normal;font-size:12.042px;line-height:1.25;font-family:Lavi;-inkscape-font-specification:'Lavi, Normal';font-variant-ligatures:normal;font-variant-caps:normal;font-variant-numeric:normal;font-feature-settings:normal;text-align:center;writing-mode:lr-tb;text-anchor:middle;stroke-width:0.903147px"
         id="flowPara145"> </flowPara><flowPara
         style="font-style:normal;font-variant:normal;font-weight:normal;font-stretch:normal;font-size:32.5133px;line-height:1.25;font-family:Lavi;-inkscape-font-specification:'Lavi, Normal';font-variant-ligatures:normal;font-variant-caps:normal;font-variant-numeric:normal;font-feature-settings:normal;text-align:center;writing-mode:lr-tb;text-anchor:middle;stroke-width:0.903147px"
         id="flowPara877" /><flowPara
         style="font-style:normal;font-variant:normal;font-weight:normal;font-stretch:normal;font-size:32.5133px;line-height:1.25;font-family:Lavi;-inkscape-font-specification:'Lavi, Normal';font-variant-ligatures:normal;font-variant-caps:normal;font-variant-numeric:normal;font-feature-settings:normal;text-align:center;writing-mode:lr-tb;text-anchor:middle;stroke-width:0.903147px"
         id="flowPara542">Replace this section, e.g.:</flowPara><flowPara
         style="font-style:normal;font-variant:normal;font-weight:normal;font-stretch:normal;font-size:12.042px;line-height:1.25;font-family:Lavi;-inkscape-font-specification:'Lavi, Normal';font-variant-ligatures:normal;font-variant-caps:normal;font-variant-numeric:normal;font-feature-settings:normal;text-align:center;writing-mode:lr-tb;text-anchor:middle;stroke-width:0.903147px"
         id="flowPara552"> </flowPara><flowPara
         style="font-style:normal;font-variant:normal;font-weight:bold;font-stretch:normal;font-size:32.5133px;line-height:1.25;font-family:Lavi;-inkscape-font-specification:'Lavi, Normal';font-variant-ligatures:normal;font-variant-caps:normal;font-variant-numeric:normal;font-feature-settings:normal;text-align:center;writing-mode:lr-tb;text-anchor:middle;stroke-width:0.903147px"
         id="flowPara544">French version</flowPara><flowPara
         style="font-style:normal;font-variant:normal;font-weight:normal;font-stretch:normal;font-size:32.5133px;line-height:1.25;font-family:Lavi;-inkscape-font-specification:'Lavi, Normal';font-variant-ligatures:normal;font-variant-caps:normal;font-variant-numeric:normal;font-feature-settings:normal;text-align:center;writing-mode:lr-tb;text-anchor:middle;stroke-width:0.903147px"
         id="flowPara554"><flowSpan
   style="font-weight:bold"
   id="flowSpan155">Translation:</flowSpan> My Name.</flowPara><flowPara
         style="font-style:normal;font-variant:normal;font-weight:normal;font-stretch:normal;font-size:32.5133px;line-height:1.25;font-family:Lavi;-inkscape-font-specification:'Lavi, Normal';font-variant-ligatures:normal;font-variant-caps:normal;font-variant-numeric:normal;font-feature-settings:normal;text-align:center;writing-mode:lr-tb;text-anchor:middle;stroke-width:0.903147px"
         id="flowPara1038"><flowSpan
   style="font-weight:bold"
   id="flowSpan157">Proofreading:</flowSpan> Other Name.</flowPara></flowRoot>
    <flowRoot
       xml:space="preserve"
       id="flowRoot147"
       style="font-style:normal;font-variant:normal;font-weight:normal;font-stretch:normal;font-size:13.3333px;line-height:140%;font-family:sans-serif;-inkscape-font-specification:'sans-serif, Normal';font-variant-ligatures:normal;font-variant-caps:normal;font-variant-numeric:normal;font-feature-settings:normal;text-align:center;letter-spacing:0px;word-spacing:0px;writing-mode:lr-tb;text-anchor:middle;fill:#000000;fill-opacity:1;stroke:none;stroke-width:1px;stroke-linecap:butt;stroke-linejoin:miter;stroke-opacity:1"
       transform="translate(0,-850)"><flowRegion
         id="flowRegion149"><rect
           id="rect151"
           width="127.9375"
           height="74.75"
           x="-209.875"
           y="445.68756" /></flowRegion><flowPara
         id="flowPara153" /></flowRoot>
    <rect
       style="opacity:1;vector-effect:none;fill:#ffffff;fill-opacity:1;fill-rule:nonzero;stroke:#565656;stroke-width:2;stroke-linecap:butt;stroke-linejoin:miter;stroke-miterlimit:4;stroke-dasharray:none;stroke-dashoffset:0;stroke-opacity:1;paint-order:fill markers stroke"
       id="rect1053"
       width="40.609375"
       height="40.609375"
       x="-516.38354"
       y="-847.47992"
       rx="6.828125"
       ry="6.828125" />
    <g
       aria-label="文"
       style="font-style:normal;font-variant:normal;font-weight:500;font-stretch:normal;font-size:53.3333px;line-height:140%;font-family:Beteckna;-inkscape-font-specification:'Beteckna, Medium';font-variant-ligatures:normal;font-variant-caps:normal;font-variant-numeric:normal;font-feature-settings:normal;text-align:center;letter-spacing:0px;word-spacing:0px;writing-mode:lr-tb;text-anchor:middle;fill:#000000;fill-opacity:1;stroke:#000000;stroke-width:1px;stroke-linecap:butt;stroke-linejoin:miter;stroke-opacity:1"
       id="text1042"
       transform="matrix(0.59407669,0,0,0.59407669,-163.26261,-722.43198)">
      <path
         d="m -579.73479,-186.8389 q -1.06667,0 -1.81333,-0.74666 -0.74667,-0.74667 -0.74667,-1.81334 0,-1.01333 0.74667,-1.76 0.74666,-0.74666 1.81333,-0.74666 h 17.49333 q 0.48,0 0.48,-0.48 v -4.21334 q 0,-1.22666 0.85334,-2.08 0.90666,-0.85333 2.08,-0.85333 1.17333,0 2.02666,0.85333 0.90667,0.85334 0.90667,2.08 v 4.21334 q 0,0.48 0.48,0.48 h 17.54666 q 1.01334,0 1.76,0.74666 0.74667,0.69334 0.74667,1.76 0,1.06667 -0.74667,1.81334 -0.74666,0.74666 -1.76,0.74666 h -4.26666 q -0.42667,0 -0.58667,0.42667 -4.58667,13.92 -11.57333,21.12 -0.32,0.32 0.0533,0.58667 6.02667,4.16 16.48,7.46666 1.01333,0.32 1.49333,1.28 0.48,0.96 0.16,1.97334 -0.37333,1.06666 -1.33333,1.54666 -0.96,0.48 -1.97333,0.16 -11.89334,-3.68 -19.04,-8.8 -0.37333,-0.26666 -0.74667,0 -7.14666,5.17334 -19.04,8.8 -1.01333,0.32 -1.97333,-0.16 -0.96,-0.48 -1.33333,-1.54666 -0.32,-1.01334 0.16,-1.97334 0.48,-0.96 1.49333,-1.28 10.50667,-3.36 16.48,-7.52 0.37333,-0.21333 0.0533,-0.53333 -5.81333,-5.97333 -9.76,-15.68 -0.42666,-1.01333 0.10667,-2.02667 0.53333,-1.06666 1.65333,-1.33333 1.17334,-0.32 2.18667,0.26667 1.06667,0.53333 1.49333,1.65333 3.36,8.42667 8.48,13.6 0.26667,0.26667 0.58667,-0.0533 5.76,-6.08 9.70666,-17.54667 0.10667,-0.42667 -0.32,-0.42667 z"
         id="path1044"
         inkscape:connector-curvature="0"
         style="stroke:#000000;stroke-opacity:1" />
    </g>
    <path
       style="color:#000000;clip-rule:nonzero;display:inline;overflow:visible;visibility:visible;opacity:1;isolation:auto;mix-blend-mode:normal;color-interpolation:sRGB;color-interpolation-filters:linearRGB;solid-color:#000000;solid-opacity:1;fill:#fff3c0;fill-opacity:1;fill-rule:nonzero;stroke:#565656;stroke-width:1.62268;stroke-linecap:butt;stroke-linejoin:miter;stroke-miterlimit:4;stroke-dasharray:none;stroke-dashoffset:0;stroke-opacity:1;marker:none;color-rendering:auto;image-rendering:auto;shape-rendering:auto;text-rendering:auto;enable-background:accumulate"
       d="m -577.56053,-728.84284 v 205.24103 h 504.562364 v -49.61042 L -57.53181,-591.22 -72.998166,-607.0447 v -121.79814 z"
       id="path158"
       inkscape:connector-curvature="0"
       sodipodi:nodetypes="cccccccc" />
    <flowRoot
       xml:space="preserve"
       id="flowRoot180"
       style="font-style:normal;font-variant:normal;font-weight:normal;font-stretch:normal;font-size:32.5133px;line-height:0.01%;font-family:Lavi;-inkscape-font-specification:'Lavi, Normal';font-variant-ligatures:normal;font-variant-caps:normal;font-variant-numeric:normal;font-feature-settings:normal;text-align:start;letter-spacing:0px;word-spacing:0px;writing-mode:lr-tb;text-anchor:start;display:inline;opacity:0.86;fill:#000000;fill-opacity:1;stroke:none;stroke-width:0.903147px;stroke-linecap:butt;stroke-linejoin:miter;stroke-opacity:1"
       transform="matrix(1.1072392,0,0,1.1072392,-170.47149,-1891.3196)"><flowRegion
         id="flowRegion174"
         style="font-style:normal;font-variant:normal;font-weight:normal;font-stretch:normal;font-size:32.5133px;font-family:Lavi;-inkscape-font-specification:'Lavi, Normal';font-variant-ligatures:normal;font-variant-caps:normal;font-variant-numeric:normal;font-feature-settings:normal;text-align:start;writing-mode:lr-tb;text-anchor:start;stroke-width:0.903147px"><rect
           id="rect172"
           width="353.73645"
           height="212.88319"
           x="-275.14545"
           y="1061.6674"
           style="font-style:normal;font-variant:normal;font-weight:normal;font-stretch:normal;font-size:32.51329803px;font-family:Lavi;-inkscape-font-specification:'Lavi, Normal';font-variant-ligatures:normal;font-variant-caps:normal;font-variant-numeric:normal;font-feature-settings:normal;text-align:start;writing-mode:lr-tb;text-anchor:start;stroke-width:0.90314716px" /></flowRegion><flowPara
         id="flowPara178"
         style="font-style:normal;font-variant:normal;font-weight:normal;font-stretch:normal;font-size:32.5133px;line-height:1.25;font-family:Lavi;-inkscape-font-specification:'Lavi, Normal';font-variant-ligatures:normal;font-variant-caps:normal;font-variant-numeric:normal;font-feature-settings:normal;text-align:start;writing-mode:lr-tb;text-anchor:start;stroke-width:0.903147px"><flowSpan
   style="font-weight:bold"
   id="flowSpan1014">Beta readers</flowSpan> help with the story, <flowSpan
   style="font-weight:bold"
   id="flowSpan1016">proofreaders</flowSpan> give feedback about the text.</flowPara></flowRoot>
    <g
       id="g1043"
       transform="translate(-11.217397,57.722266)">
      <path
         inkscape:connector-curvature="0"
         id="rect192"
         d="m -518.53699,-666.84645 c -0.61422,0 -1.11032,0.44692 -1.11032,1.00248 v 12.91861 c 0,0.55556 0.4961,1.00249 1.11032,1.00249 h 1.73686 v 0.60907 c 0,0.76558 0.61574,1.38132 1.38132,1.38132 h 6.37043 c 0.76558,0 1.38133,-0.61574 1.38133,-1.38132 v -0.60907 h 1.73685 c 0.61423,0 1.11031,-0.44693 1.11031,-1.00249 v -12.91861 c 0,-0.55556 -0.49608,-1.00248 -1.11031,-1.00248 z"
         style="opacity:1;vector-effect:none;fill:#cccccc;fill-opacity:1;fill-rule:nonzero;stroke:#787878;stroke-width:2;stroke-linecap:butt;stroke-linejoin:miter;stroke-miterlimit:4;stroke-dasharray:none;stroke-dashoffset:0;stroke-opacity:1;paint-order:fill markers stroke" />
      <path
         sodipodi:nodetypes="ssscsscsss"
         inkscape:connector-curvature="0"
         id="path184"
         d="m -512.23359,-731.76886 c -20.17859,0 -27.20983,14.91405 -27.20983,25.74398 0,18.52719 18.63045,25.28436 18.63045,37.26089 v 2.29638 c 0,0.73518 0.59075,1.32595 1.32595,1.32595 h 14.50685 c 0.7352,0 1.32597,-0.59077 1.32597,-1.32595 v -2.29638 c 0,-11.97653 18.63043,-18.7337 18.63043,-37.26089 0,-10.82993 -7.03125,-25.74398 -27.20982,-25.74398 z"
         style="opacity:1;vector-effect:none;fill:#ffff98;fill-opacity:1;fill-rule:nonzero;stroke:#787878;stroke-width:2;stroke-linecap:butt;stroke-linejoin:miter;stroke-miterlimit:4;stroke-dasharray:none;stroke-dashoffset:0;stroke-opacity:1;paint-order:fill markers stroke" />
      <path
         sodipodi:nodetypes="ccccccc"
         inkscape:connector-curvature="0"
         d="m -507.44236,-664.67965 c -2.02309,-12.0089 -0.93024,-25.69888 3.20539,-31.87898 l 2e-5,-1.4e-4 c -0.69465,2.89489 -6.40555,2.16513 -6.6718,-0.75503 -1.0292,0.75759 -2.788,0.37964 -3.26183,0.2394 -0.0566,5.19286 -5.00817,-2.69192 -6.34424,0.51563 3.22578,4.01626 4.8117,19.84006 3.01482,31.87912"
         style="fill:none;fill-rule:evenodd;stroke:#787878;stroke-width:1px;stroke-linecap:butt;stroke-linejoin:miter;stroke-opacity:1"
         id="path1016" />
    </g>
  </g>
</svg>
