<?xml version="1.0" encoding="UTF-8" standalone="no"?>
<!-- Created with Inkscape (http://www.inkscape.org/) -->

<svg
   id="svg2"
   version="1.1"
   inkscape:version="1.1.1 (3bf5ae0d25, 2021-09-20)"
   width="2481"
   height="3503"
   sodipodi:docname="E01P02.svg"
   enable-background="new"
   xmlns:inkscape="http://www.inkscape.org/namespaces/inkscape"
   xmlns:sodipodi="http://sodipodi.sourceforge.net/DTD/sodipodi-0.dtd"
   xmlns:xlink="http://www.w3.org/1999/xlink"
   xmlns="http://www.w3.org/2000/svg"
   xmlns:svg="http://www.w3.org/2000/svg"
   xmlns:rdf="http://www.w3.org/1999/02/22-rdf-syntax-ns#"
   xmlns:cc="http://creativecommons.org/ns#"
   xmlns:dc="http://purl.org/dc/elements/1.1/">
  <sodipodi:namedview
     pagecolor="#ffffff"
     bordercolor="#666666"
     inkscape:pageopacity="0"
     inkscape:pageshadow="2"
     inkscape:window-width="1336"
     inkscape:window-height="725"
     id="namedview70"
     showgrid="false"
     inkscape:zoom="0.68789958"
     inkscape:cx="1343.9462"
     inkscape:cy="2901.5863"
     inkscape:current-layer="layer3"
     borderopacity="1"
     inkscape:pagecheckerboard="0"
     inkscape:window-x="15"
     inkscape:window-y="15"
     inkscape:window-maximized="0" />
  <metadata
     id="metadata8">
    <rdf:RDF>
      <cc:Work
         rdf:about="">
        <dc:format>image/svg+xml</dc:format>
        <dc:type
           rdf:resource="http://purl.org/dc/dcmitype/StillImage" />
        <dc:title />
      </cc:Work>
    </rdf:RDF>
  </metadata>
  <defs
     id="defs6" />
  <sodipodi:namedview
     pagecolor="#ffffff"
     bordercolor="#666666"
     borderopacity="1"
     objecttolerance="10"
     gridtolerance="10"
     guidetolerance="10"
     inkscape:pageopacity="0"
     inkscape:pageshadow="2"
     inkscape:window-width="1920"
     inkscape:window-height="1025"
     id="namedview4"
     showgrid="false"
     inkscape:zoom="0.37856796"
     inkscape:cx="1249.4438"
     inkscape:cy="2325.7348"
     inkscape:window-x="0"
     inkscape:window-y="26"
     inkscape:window-maximized="1"
     inkscape:current-layer="layer3"
     inkscape:snap-global="false">
    <inkscape:grid
       type="xygrid"
       id="grid4282" />
  </sodipodi:namedview>
  <flowRoot
     xml:space="preserve"
     id="flowRoot2987"
     style="font-style:normal;font-variant:normal;font-weight:normal;font-stretch:normal;line-height:0.01%;font-family:Lavi;-inkscape-font-specification:Lavi;letter-spacing:0px;word-spacing:0px;fill:#000000;fill-opacity:1;stroke:none;stroke-width:1px;stroke-linecap:butt;stroke-linejoin:miter;stroke-opacity:1"
     transform="matrix(0.71,0,0,0.71,265.11702,-3656.7311)"><flowRegion
       id="flowRegion2989"><rect
         id="rect2991"
         width="1016.5607"
         height="77.684769"
         x="838.99548"
         y="443.73529"
         style="font-style:normal;font-variant:normal;font-weight:normal;font-stretch:normal;font-family:Lavi;-inkscape-font-specification:Lavi" /></flowRegion><flowPara
       id="flowPara2993"
       style="font-size:12px;line-height:1.25"> </flowPara></flowRoot>
  <g
     inkscape:groupmode="layer"
     id="layer1"
     inkscape:label="artwork"
     style="display:inline"
     sodipodi:insensitive="true">
    <image
       xlink:href="../gfx_Pepper-and-Carrot_by-David-Revoy_E01P02.png"
       y="0"
       x="0"
       id="image3084"
       height="3503"
       width="2481" />
  </g>
  <g
     inkscape:groupmode="layer"
     id="layer2"
     inkscape:label="speechbubble"
     style="opacity:0.70232556;display:inline">
    <path
       style="color:#000000;display:inline;overflow:visible;visibility:visible;fill:#dfffd4;fill-opacity:1;fill-rule:nonzero;stroke:none;stroke-width:1.06332px;marker:none;enable-background:accumulate"
       d="m 1721.43,364.42024 c 6.5101,-43.04955 81.3766,-83.48992 135.0851,-79.57635 53.7086,3.91357 139.9677,37.83139 128.5751,101.75328 -11.3928,63.92198 -115.5548,52.18118 -154.6155,48.26761 -39.0608,-3.91367 -107.4172,-22.17702 -109.0447,-70.44454 z"
       id="path3113"
       inkscape:connector-curvature="0"
       sodipodi:nodetypes="csssc" />
    <path
       style="color:#000000;display:inline;overflow:visible;visibility:visible;fill:#dfffd4;fill-opacity:1;fill-rule:nonzero;stroke:none;stroke-width:1px;marker:none;enable-background:accumulate"
       d="m 1814.9715,412.82124 c -5.4814,30.1475 0.6684,46.6253 0.6684,56.2177 0,9.5924 -11.6194,43.0645 -54.5857,49.8532 -27.4068,5.4813 -48.8582,25.1813 -51.5989,34.7737 24.6661,-23.2958 41.4444,-25.3008 63.3698,-25.3008 21.9255,0 57.2202,-15.8094 58.5905,-67.8823 1.3703,-52.073 1.3703,-80.8501 1.3703,-80.8501 z"
       id="path3121"
       inkscape:connector-curvature="0"
       sodipodi:nodetypes="csccsscc" />
    <path
       style="color:#000000;display:inline;overflow:visible;visibility:visible;fill:#dfffd4;fill-opacity:1;fill-rule:nonzero;stroke:none;stroke-width:0.83556px;marker:none;enable-background:accumulate"
       d="m 1228.437,1407.7439 c 7.0169,-40.7699 99.6413,-86.4817 182.4419,-72.8917 82.8006,13.59 152.9706,40.77 158.5842,71.6563 5.6136,30.8863 -29.4714,102.5426 -172.6182,90.188 -143.1468,-12.3544 -175.425,-72.8917 -168.4079,-88.9526 z"
       id="path3129"
       inkscape:connector-curvature="0"
       sodipodi:nodetypes="csssc" />
    <path
       style="color:#000000;display:inline;overflow:visible;visibility:visible;fill:#dfffd4;fill-opacity:1;fill-rule:nonzero;stroke:none;stroke-width:1px;marker:none;enable-background:accumulate"
       d="m 1352.4818,1447.4535 c 4.7277,66.1874 -96.1293,94.5535 -96.1293,124.4954 0,29.9419 9.4553,28.3661 9.4553,28.3661 0,0 -9.4553,-11.0313 1.5759,-29.942 11.0312,-18.9106 54.8248,-30.2397 86.6739,-61.4597 39.8201,-39.0336 53.5804,-72.491 53.5804,-72.491 z"
       id="path3137"
       inkscape:connector-curvature="0"
       sodipodi:nodetypes="cscsscc" />
  </g>
  <g
     inkscape:groupmode="layer"
     id="layer3"
     inkscape:label="txt"
     style="display:inline">
    <text
       xml:space="preserve"
       style="color:#000000;font-style:normal;font-variant:normal;font-weight:normal;font-stretch:normal;font-size:7.68088px;line-height:0.01%;font-family:lavi;-inkscape-font-specification:lavi;letter-spacing:0px;word-spacing:0px;white-space:pre;inline-size:233.025;display:inline;overflow:visible;visibility:visible;fill:#3c4036;fill-opacity:1;fill-rule:nonzero;stroke:none;stroke-width:0.640074;marker:none;enable-background:accumulate"
       x="1853.6626"
       y="335.55203"
       id="text136002"
       transform="matrix(0.97768223,0,0,1.0228272,-70,2)"><tspan
         x="1853.6626"
         y="335.55203"
         id="tspan167650"><tspan
           style="font-size:40.9647px;line-height:1.25;text-align:center;text-anchor:middle;display:inline;overflow:visible;enable-background:accumulate"
           id="tspan167648">aá...
</tspan></tspan><tspan
         x="1853.6626"
         y="386.7579"
         id="tspan167654"><tspan
           style="font-size:40.9647px;line-height:1.25;text-align:center;text-anchor:middle;display:inline;overflow:visible;enable-background:accumulate"
           id="tspan167652">shad be wa</tspan></tspan></text>
    <text
       xml:space="preserve"
       style="color:#000000;font-style:normal;font-variant:normal;font-weight:normal;font-stretch:normal;font-size:7.68088px;line-height:0.01%;font-family:lavi;-inkscape-font-specification:lavi;letter-spacing:0px;word-spacing:0px;white-space:pre;inline-size:397.605;display:inline;overflow:visible;visibility:visible;fill:#3c4036;fill-opacity:1;fill-rule:nonzero;stroke:none;stroke-width:0.640074;marker:none;enable-background:accumulate"
       x="1362.5502"
       y="1321.7823"
       id="text135988"
       transform="matrix(0.97768225,0,0,1.0228272,-124,42)"><tspan
         x="1362.5502"
         y="1321.7823"
         id="tspan167658"><tspan
   style="font-size:40.9647px;line-height:1.25;text-align:center;text-anchor:middle;display:inline;overflow:visible;enable-background:accumulate"
   id="tspan167656">RA!</tspan>
</tspan><tspan
         x="1362.5502"
         y="1338.1012"
         id="tspan167660">
</tspan><tspan
         x="1362.5502"
         y="1372.9889"
         id="tspan167664"><tspan
           style="font-size:40.9647px;line-height:1.25;text-align:center;text-anchor:middle;display:inline;overflow:visible;enable-background:accumulate"
           id="tspan167662">Bó ne lith beth</tspan></tspan></text>
    <text
       xml:space="preserve"
       style="font-style:normal;font-variant:normal;font-weight:normal;font-stretch:normal;font-size:51.5239px;line-height:0.01%;font-family:lavi;-inkscape-font-specification:lavi;letter-spacing:0.00880066px;word-spacing:0px;display:inline;fill:#d9a73d;fill-opacity:1;stroke:#d9a83d;stroke-width:3.72031;stroke-opacity:1"
       x="2089.165"
       y="2205.5574"
       id="text135966"
       transform="matrix(0.71242886,-0.0475097,-0.03157717,1.4057547,0,0)"><tspan
         sodipodi:role="line"
         x="2231.2954"
         y="2205.5574"
         id="tspan135964"
         style="font-style:normal;font-variant:normal;font-weight:normal;font-stretch:normal;font-family:lavi;-inkscape-font-specification:lavi;stroke-width:3.72031"><tspan
           x="2089.165"
           y="2205.5574"
           style="font-style:normal;font-variant:normal;font-weight:normal;font-stretch:normal;font-size:33.57px;font-family:lavi;-inkscape-font-specification:lavi;stroke-width:3.976"
           id="tspan135954">A</tspan><tspan
           x="2110.647"
           y="2205.5574"
           style="font-style:normal;font-variant:normal;font-weight:normal;font-stretch:normal;font-size:42.5469px;font-family:lavi;-inkscape-font-specification:lavi;stroke-width:3.976"
           id="tspan135956">ÁL</tspan><tspan
           x="2161.6252"
           y="2205.5574"
           style="font-style:normal;font-variant:normal;font-weight:normal;font-stretch:normal;font-size:51.5239px;line-height:125%;font-family:lavi;-inkscape-font-specification:lavi;word-spacing:0.00880066px;stroke-width:3.976"
           id="tspan135958">Á</tspan><tspan
           x="2193.7358"
           y="2205.5574"
           style="font-style:normal;font-variant:normal;font-weight:normal;font-stretch:normal;font-size:58.7054px;font-family:lavi;-inkscape-font-specification:lavi;stroke-width:3.976"
           id="tspan135960">A</tspan><tspan
           x="2231.2954"
           y="2205.5574"
           style="font-style:normal;font-variant:normal;font-weight:normal;font-stretch:normal;font-size:76.6593px;font-family:lavi;-inkscape-font-specification:lavi;stroke-width:3.976"
           id="tspan135962">N</tspan></tspan></text>
  </g>
</svg>
