<?xml version="1.0" encoding="UTF-8" standalone="no"?>
<!-- Created with Inkscape (http://www.inkscape.org/) -->

<svg
   xmlns:dc="http://purl.org/dc/elements/1.1/"
   xmlns:cc="http://creativecommons.org/ns#"
   xmlns:rdf="http://www.w3.org/1999/02/22-rdf-syntax-ns#"
   xmlns:svg="http://www.w3.org/2000/svg"
   xmlns="http://www.w3.org/2000/svg"
   xmlns:xlink="http://www.w3.org/1999/xlink"
   xmlns:sodipodi="http://sodipodi.sourceforge.net/DTD/sodipodi-0.dtd"
   xmlns:inkscape="http://www.inkscape.org/namespaces/inkscape"
   id="svg2"
   version="1.1"
   inkscape:version="0.92.3 (2405546, 2018-03-11)"
   width="2481"
   height="3503"
   sodipodi:docname="E26P03.svg.2020_07_06_11_59_02.0.svg">
  <metadata
     id="metadata8">
    <rdf:RDF>
      <cc:Work
         rdf:about="">
        <dc:format>image/svg+xml</dc:format>
        <dc:type
           rdf:resource="http://purl.org/dc/dcmitype/StillImage" />
        <dc:title />
      </cc:Work>
    </rdf:RDF>
  </metadata>
  <defs
     id="defs6" />
  <sodipodi:namedview
     pagecolor="#ffffff"
     bordercolor="#666666"
     borderopacity="1"
     objecttolerance="10"
     gridtolerance="10"
     guidetolerance="10"
     inkscape:pageopacity="0"
     inkscape:pageshadow="2"
     inkscape:window-width="1920"
     inkscape:window-height="1033"
     id="namedview4"
     showgrid="false"
     inkscape:zoom="0.40200776"
     inkscape:cx="1477.0139"
     inkscape:cy="1045.1762"
     inkscape:window-x="64"
     inkscape:window-y="47"
     inkscape:window-maximized="0"
     inkscape:current-layer="layer3" />
  <g
     inkscape:groupmode="layer"
     id="layer2"
     inkscape:label="artwork"
     sodipodi:insensitive="true">
    <image
       sodipodi:absref="/home/fici/Desktop/P&amp;C/all/sl/../gfx_Pepper-and-Carrot_by-David-Revoy_E26P03.png"
       xlink:href="../gfx_Pepper-and-Carrot_by-David-Revoy_E26P03.png"
       width="2481"
       height="3503"
       id="image10"
       x="0"
       y="0" />
  </g>
  <g
     inkscape:groupmode="layer"
     id="layer3"
     inkscape:label="speechbubbles"
     style="opacity:1">
    <path
       style="color:#000000;display:inline;overflow:visible;visibility:visible;fill:#ffffff;fill-opacity:1;fill-rule:nonzero;stroke:none;stroke-width:0.90581423px;marker:none;enable-background:accumulate"
       d="m 262.51382,623.49642 c 19.35711,-26.98761 258.14456,-46.20731 313.30712,14.82975 38.44278,42.5367 23.61275,124.10935 -9.33769,145.34442 -32.95037,21.23515 -192.03268,27.21564 -237.24662,16.40149 -40.65882,-9.7247 -83.33619,-30.6561 -85.5862,-86.36645 -0.91831,-22.73759 -0.49379,-63.22153 18.86339,-90.20921 z"
       id="path4040"
       inkscape:connector-curvature="0"
       sodipodi:nodetypes="zssssz" />
    <path
       style="fill:#ffffff;stroke:none;stroke-width:0.99999994"
       d="m 628.34471,847.51507 c -38.61917,12.80883 -55.09288,-0.0828 -66.95346,-14.05699 -11.86058,-13.97408 -28.36174,-20.89656 -39.29055,-22.32443 -10.92881,-1.42786 -28.67404,2.49427 -37.73175,7.41599 -9.05781,4.92182 -23.30007,-9.35873 -32.51481,-17.85685 -12.1752,-11.22835 -10.17368,-21.3089 -10.17368,-21.3089 0,0 -63.56569,-10.64656 -52.32882,1.21103 11.23688,11.85757 53.851,43.51663 59.4257,47.15218 5.57479,3.63555 23.61454,12.58563 34.54483,10.2648 10.93033,-2.32073 19.07986,-12.5098 32.07626,-12.9737 13.38845,-0.4779 22.37583,3.75223 33.30162,12.67727 10.92577,8.92503 37.52895,25.44728 54.48293,19.70573 16.95397,-5.74156 25.16173,-9.90613 25.16173,-9.90613 z"
       id="path3023"
       inkscape:connector-curvature="0"
       sodipodi:nodetypes="csssscssssssc" />
    <path
       style="color:#000000;display:inline;overflow:visible;visibility:visible;fill:#ffffff;fill-opacity:1;fill-rule:nonzero;stroke:none;stroke-width:1px;marker:none;enable-background:accumulate"
       d="m 232.67034,1785.6735 c -2.68476,-15.6414 20.91072,-100.9773 120.5528,-98.2199 99.64209,2.7575 123.14345,61.1522 123.74969,82.2405 0.60623,21.0882 -21.52489,55.5835 -35.7674,61.9839 -14.2424,6.4003 -51.50581,22.0026 -76.11721,19.7048 -24.61125,-2.2981 -57.55035,8.9837 -95.49777,-15.6682 -30.1609,-19.5937 -35.01483,-45.9633 -36.92011,-50.0411 z"
       id="path3365"
       inkscape:connector-curvature="0"
       sodipodi:nodetypes="cssccsc" />
    <path
       style="color:#000000;display:inline;overflow:visible;visibility:visible;fill:#ffffff;fill-opacity:1;fill-rule:nonzero;stroke:none;stroke-width:1.00914943px;marker:none;enable-background:accumulate"
       d="m 1102.2198,2238.3052 c -4.418,-22.1849 -13.1391,-149.6664 182.4138,-141.2009 171.4874,7.4239 196.775,110.4476 197.5419,140.3152 0.7668,29.8679 -12.6649,60.2079 -43.1168,77.7478 -32.6411,16.8163 -90.2679,26.4305 -132.6238,22.8289 -42.3556,-3.6018 -99.1414,-0.5615 -142.766,-17.7756 -30.0078,-11.8408 -56.6223,-50.8963 -61.4491,-81.9154 z"
       id="path3365-5"
       inkscape:connector-curvature="0"
       sodipodi:nodetypes="cssccsc" />
    <path
       style="color:#000000;display:inline;overflow:visible;visibility:visible;fill:#ffffff;fill-opacity:1;fill-rule:nonzero;stroke:none;stroke-width:1px;marker:none;enable-background:accumulate"
       d="m 377.75121,1797.7955 c 0.14136,37.7496 7.44343,98.937 94.82871,86.7057 -14.99489,10.61 -114.59779,34.3786 -127.13109,-74.0559 -3.63685,-31.4647 8.70865,-21.0527 15.81183,-23.0996 7.10319,-2.047 16.49055,10.4498 16.49055,10.4498 z"
       id="path4064"
       inkscape:connector-curvature="0"
       sodipodi:nodetypes="ccszc" />
    <path
       style="color:#000000;display:inline;overflow:visible;visibility:visible;fill:#ffffff;fill-opacity:1;fill-rule:nonzero;stroke:none;stroke-width:1px;marker:none;enable-background:accumulate"
       d="m 1237.4731,2165.1562 c 16.4769,-33.9641 36.832,-92.1267 -47.0265,-119.5779 18.1333,-2.9332 118.0386,19.5304 81.6003,122.4254 -10.5733,29.8573 -17.0809,15.0765 -24.3604,13.7904 -7.2795,-1.2859 -10.2134,-16.6379 -10.2134,-16.6379 z"
       id="path4064-3"
       inkscape:connector-curvature="0"
       sodipodi:nodetypes="ccszc" />
    <path
       style="fill:#ffffff;stroke:none;stroke-width:0.94944113"
       d="m 49.092632,2687.5078 c -28.87132,-188.4087 61.535988,-167.1013 293.971508,-168.2948 296.19165,-1.5211 298.06125,41.227 295.60021,121.8569 -5.32363,174.4156 -65.51166,224.7981 -371.92949,213.4265 C -2.1556709,2844.5175 20.73982,2792.1886 49.092632,2687.5078 Z"
       id="path3280-8"
       inkscape:connector-curvature="0"
       sodipodi:nodetypes="csssc" />
    <path
       style="color:#000000;display:inline;overflow:visible;visibility:visible;fill:#ffffff;fill-opacity:1;fill-rule:nonzero;stroke:none;stroke-width:1.09098148px;marker:none;enable-background:accumulate"
       d="m 525.83596,2797.8858 c 14.75467,36.3891 56.10784,84.8029 132.56738,64.1383 -52.93998,24.1174 -112.04254,21.8254 -162.9129,-49.9788 -68.01242,-96.0004 -45.71056,-118.3536 -45.71056,-118.3536 z"
       id="path4064-6"
       inkscape:connector-curvature="0"
       sodipodi:nodetypes="ccscc" />
    <path
       style="color:#000000;display:inline;overflow:visible;visibility:visible;fill:#ffffff;fill-opacity:1;fill-rule:nonzero;stroke:none;stroke-width:0.98498011px;marker:none;enable-background:accumulate"
       d="m 1866.8691,2967.1271 c -2.2435,-17.8749 32.4697,-97.3439 169.3281,-85.4272 136.8583,11.9166 156.3236,54.5174 157.6876,94.0272 -2.3647,40.7155 -29.8036,70.4216 -49.9958,76.3799 -20.1922,5.9583 -50.5433,14.2286 -106.5701,15.4915 -64.7271,0.057 -102.8837,-2.4468 -143.8699,-34.9007 -39.0958,-28.7858 -24.3363,-60.8041 -26.5799,-65.5707 z"
       id="path3365-7"
       inkscape:connector-curvature="0"
       sodipodi:nodetypes="cscsccc" />
    <path
       style="color:#000000;display:inline;overflow:visible;visibility:visible;fill:#ffffff;fill-opacity:1;fill-rule:nonzero;stroke:none;stroke-width:1px;marker:none;enable-background:accumulate"
       d="m 1963.5548,2926.8144 c -22.0372,-41.7339 -131.901,-116.3258 -202.9973,-80.3598 84.8906,-21.0574 174.3494,70.9697 177.3562,85.6217 3.0068,14.6521 25.6411,-5.2619 25.6411,-5.2619 z"
       id="path3978"
       inkscape:connector-curvature="0"
       sodipodi:nodetypes="cccc" />
    <path
       style="color:#000000;display:inline;overflow:visible;visibility:visible;fill:#ffffff;fill-opacity:1;fill-rule:nonzero;stroke:none;stroke-width:0.59877253px;marker:none;enable-background:accumulate"
       d="m 229.89685,526.58536 c 15.94221,-14.31867 191.51523,-24.51596 236.94618,7.86814 31.66081,22.56846 29.99114,63.39355 2.85374,74.66012 -27.13738,11.26661 -158.15483,14.43965 -195.39224,8.70205 -33.48591,-5.15958 -68.63426,-16.26504 -70.48732,-45.82297 -0.75631,-12.06376 10.1374,-31.08864 26.07964,-45.40734 z"
       id="path4040-3"
       inkscape:connector-curvature="0"
       sodipodi:nodetypes="zssssz" />
  </g>
  <g
     inkscape:groupmode="layer"
     id="layer1"
     inkscape:label="txt">
    <text
       xml:space="preserve"
       style="font-style:normal;font-variant:normal;font-weight:normal;font-stretch:normal;font-size:10.5905962px;line-height:0%;font-family:Lavi;-inkscape-font-specification:Lavi;text-align:center;letter-spacing:0px;word-spacing:0px;text-anchor:middle;fill:#000000;fill-opacity:1;stroke:none;stroke-width:0.8825497"
       x="421.06427"
       y="635.82751"
       id="text4246-5"><tspan
         sodipodi:role="line"
         style="font-size:39.71473694px;line-height:1.25;stroke-width:0.8825497"
         x="421.06427"
         y="638.91418"
         id="tspan491" /><tspan
         sodipodi:role="line"
         style="font-size:39.71473694px;line-height:1.25;stroke-width:0.8825497"
         x="421.06427"
         y="672.22424"
         id="tspan439">Saj vem kako</tspan><tspan
         sodipodi:role="line"
         style="font-size:39.71473694px;line-height:1.25;stroke-width:0.8825497"
         x="421.06427"
         y="721.86768"
         id="tspan49">neradi se mački</tspan><tspan
         sodipodi:role="line"
         style="font-size:39.71473694px;line-height:1.25;stroke-width:0.8825497"
         x="421.06427"
         y="771.51111"
         id="tspan51">zmočite.</tspan></text>
    <text
       xml:space="preserve"
       style="font-style:normal;font-variant:normal;font-weight:normal;font-stretch:normal;line-height:0%;font-family:Lavi;-inkscape-font-specification:Lavi;text-align:center;letter-spacing:0px;word-spacing:0px;text-anchor:middle;fill:#000000;fill-opacity:1;stroke:none"
       x="353.20108"
       y="1752.6909"
       id="text4246-1"><tspan
         sodipodi:role="line"
         style="font-style:normal;font-variant:normal;font-weight:bold;font-stretch:normal;font-size:45px;line-height:1.25;font-family:Lavi;-inkscape-font-specification:'Lavi Bold'"
         x="353.20108"
         y="1752.6909"
         id="tspan1013">Ne</tspan><tspan
         sodipodi:role="line"
         style="font-style:normal;font-variant:normal;font-weight:bold;font-stretch:normal;font-size:45px;line-height:1.25;font-family:Lavi;-inkscape-font-specification:'Lavi Bold'"
         x="353.20108"
         y="1808.9409"
         id="tspan887">skrbi!</tspan></text>
    <text
       xml:space="preserve"
       style="font-style:normal;font-variant:normal;font-weight:normal;font-stretch:normal;font-size:13.49506664px;line-height:0%;font-family:Lavi;-inkscape-font-specification:Lavi;text-align:center;letter-spacing:0px;word-spacing:0px;text-anchor:middle;fill:#000000;fill-opacity:1;stroke:none;stroke-width:0.99999994"
       x="1293.6903"
       y="2165.231"
       id="text4246-1-3"
       transform="scale(0.99789912,1.0021053)"><tspan
         sodipodi:role="line"
         style="font-style:normal;font-variant:normal;font-weight:bold;font-stretch:normal;font-size:50.60649872px;line-height:1.25;font-family:Lavi;-inkscape-font-specification:'Lavi Bold';stroke-width:0.99999994"
         x="1293.6903"
         y="2165.231"
         id="tspan914">Knjige so</tspan><tspan
         sodipodi:role="line"
         style="font-style:normal;font-variant:normal;font-weight:bold;font-stretch:normal;font-size:50.60649872px;line-height:1.25;font-family:Lavi;-inkscape-font-specification:'Lavi Bold';stroke-width:0.99999994"
         x="1293.6903"
         y="2228.489"
         id="tspan58">tudi za to</tspan><tspan
         sodipodi:role="line"
         style="font-style:normal;font-variant:normal;font-weight:bold;font-stretch:normal;font-size:50.60649872px;line-height:1.25;font-family:Lavi;-inkscape-font-specification:'Lavi Bold';stroke-width:0.99999994"
         x="1293.6903"
         y="2291.7473"
         id="tspan60">uporabne!</tspan></text>
    <text
       xml:space="preserve"
       style="font-style:normal;font-variant:normal;font-weight:normal;font-stretch:normal;font-size:11.40636063px;line-height:0%;font-family:Lavi;-inkscape-font-specification:Lavi;text-align:center;letter-spacing:0px;word-spacing:0px;text-anchor:middle;fill:#000000;fill-opacity:1;stroke:none;stroke-width:0.95053005"
       x="121.25092"
       y="2605.1072"
       id="text4246-5-5"><tspan
         sodipodi:role="line"
         style="font-size:42.7738533px;line-height:1.25;text-align:start;text-anchor:start;stroke-width:0.95053005"
         x="121.25092"
         y="2605.1072"
         id="tspan968">In v manj kot desetih</tspan><tspan
         sodipodi:role="line"
         style="font-size:42.7738533px;line-height:1.25;text-align:start;text-anchor:start;stroke-width:0.95053005"
         x="121.25092"
         y="2658.5745"
         id="tspan1014">minutah po vstopu v ječo,</tspan><tspan
         sodipodi:role="line"
         style="font-size:42.7738533px;line-height:1.25;text-align:start;text-anchor:start;stroke-width:0.95053005"
         x="121.25092"
         y="2712.0417"
         id="tspan1018">sedim v zakladnici in</tspan><tspan
         sodipodi:role="line"
         style="font-size:42.7738533px;line-height:1.25;text-align:start;text-anchor:start;stroke-width:0.95053005"
         x="121.25092"
         y="2765.509"
         id="tspan91">obiram listje iz redkega </tspan><tspan
         sodipodi:role="line"
         style="font-size:42.7738533px;line-height:1.25;text-align:start;text-anchor:start;stroke-width:0.95053005"
         x="121.25092"
         y="2818.9766"
         id="tspan851">vodnega drevesa.</tspan></text>
    <text
       xml:space="preserve"
       style="font-style:normal;font-variant:normal;font-weight:normal;font-stretch:normal;font-size:13.49506664px;line-height:0%;font-family:Lavi;-inkscape-font-specification:Lavi;text-align:center;letter-spacing:0px;word-spacing:0px;text-anchor:middle;fill:#000000;fill-opacity:1;stroke:none;stroke-width:0.99999994"
       x="2037.9746"
       y="2955.3962"
       id="text4246-1-3-2"
       transform="scale(0.99789912,1.0021053)"><tspan
         sodipodi:role="line"
         style="font-style:normal;font-variant:normal;font-weight:bold;font-stretch:normal;font-size:50.60649872px;line-height:1.25;font-family:Lavi;-inkscape-font-specification:'Lavi Bold';stroke-width:0.99999994"
         x="2037.9746"
         y="2955.3962"
         id="tspan914-2">Knjige so</tspan><tspan
         sodipodi:role="line"
         style="font-style:normal;font-variant:normal;font-weight:bold;font-stretch:normal;font-size:50.60649872px;line-height:1.25;font-family:Lavi;-inkscape-font-specification:'Lavi Bold';stroke-width:0.99999994"
         x="2037.9746"
         y="3018.6543"
         id="tspan64">čarobne!</tspan></text>
    <text
       xml:space="preserve"
       style="font-style:normal;font-variant:normal;font-weight:normal;font-stretch:normal;font-size:10.5905962px;line-height:0%;font-family:Lavi;-inkscape-font-specification:Lavi;text-align:center;letter-spacing:0px;word-spacing:0px;text-anchor:middle;fill:#000000;fill-opacity:1;stroke:none;stroke-width:0.8825497"
       x="343.39139"
       y="579.64038"
       id="text4246-5-6"><tspan
         sodipodi:role="line"
         style="font-size:39.71473694px;line-height:1.25;stroke-width:0.8825497"
         x="343.39139"
         y="579.64038"
         id="tspan439-5">Oh, Korenček;</tspan></text>
  </g>
</svg>
